<?xml version="1.0" encoding="utf-8" standalone="no"?>
<!DOCTYPE svg PUBLIC "-//W3C//DTD SVG 1.1//EN"
  "http://www.w3.org/Graphics/SVG/1.1/DTD/svg11.dtd">
<!-- Created with matplotlib (https://matplotlib.org/) -->
<svg height="368.590625pt" version="1.1" viewBox="0 0 1074.866146 368.590625" width="1074.866146pt" xmlns="http://www.w3.org/2000/svg" xmlns:xlink="http://www.w3.org/1999/xlink">
 <metadata>
  <rdf:RDF xmlns:cc="http://creativecommons.org/ns#" xmlns:dc="http://purl.org/dc/elements/1.1/" xmlns:rdf="http://www.w3.org/1999/02/22-rdf-syntax-ns#">
   <cc:Work>
    <dc:type rdf:resource="http://purl.org/dc/dcmitype/StillImage"/>
    <dc:date>2021-04-12T12:47:45.485070</dc:date>
    <dc:format>image/svg+xml</dc:format>
    <dc:creator>
     <cc:Agent>
      <dc:title>Matplotlib v3.3.4, https://matplotlib.org/</dc:title>
     </cc:Agent>
    </dc:creator>
   </cc:Work>
  </rdf:RDF>
 </metadata>
 <defs>
  <style type="text/css">*{stroke-linecap:butt;stroke-linejoin:round;}</style>
 </defs>
 <g id="figure_1">
  <g id="patch_1">
   <path d="M 0 368.590625 
L 1074.866146 368.590625 
L 1074.866146 0 
L 0 0 
z
" style="fill:none;"/>
  </g>
  <g id="axes_1">
   <g id="patch_2">
    <path d="M 74.207813 302 
L 533.999479 302 
L 533.999479 36 
L 74.207813 36 
z
" style="fill:none;"/>
   </g>
   <g id="matplotlib.axis_1">
    <g id="xtick_1">
     <g id="line2d_1">
      <path clip-path="url(#pe64ceb011f)" d="M 95.107434 302 
L 95.107434 36 
" style="fill:none;stroke:#cccccc;stroke-linecap:round;stroke-width:0.8;"/>
     </g>
     <g id="text_1">
      <!-- 0 -->
      <g style="fill:#262626;" transform="translate(87.154309 327.996094)scale(0.25 -0.25)">
       <defs>
        <path d="M 31.78125 66.40625 
Q 24.171875 66.40625 20.328125 58.90625 
Q 16.5 51.421875 16.5 36.375 
Q 16.5 21.390625 20.328125 13.890625 
Q 24.171875 6.390625 31.78125 6.390625 
Q 39.453125 6.390625 43.28125 13.890625 
Q 47.125 21.390625 47.125 36.375 
Q 47.125 51.421875 43.28125 58.90625 
Q 39.453125 66.40625 31.78125 66.40625 
z
M 31.78125 74.21875 
Q 44.046875 74.21875 50.515625 64.515625 
Q 56.984375 54.828125 56.984375 36.375 
Q 56.984375 17.96875 50.515625 8.265625 
Q 44.046875 -1.421875 31.78125 -1.421875 
Q 19.53125 -1.421875 13.0625 8.265625 
Q 6.59375 17.96875 6.59375 36.375 
Q 6.59375 54.828125 13.0625 64.515625 
Q 19.53125 74.21875 31.78125 74.21875 
z
" id="DejaVuSans-48"/>
       </defs>
       <use xlink:href="#DejaVuSans-48"/>
      </g>
     </g>
    </g>
    <g id="xtick_2">
     <g id="line2d_2">
      <path clip-path="url(#pe64ceb011f)" d="M 461.353554 302 
L 461.353554 36 
" style="fill:none;stroke:#cccccc;stroke-linecap:round;stroke-width:0.8;"/>
     </g>
     <g id="text_2">
      <!-- 6 -->
      <g style="fill:#262626;" transform="translate(453.400429 327.996094)scale(0.25 -0.25)">
       <defs>
        <path d="M 33.015625 40.375 
Q 26.375 40.375 22.484375 35.828125 
Q 18.609375 31.296875 18.609375 23.390625 
Q 18.609375 15.53125 22.484375 10.953125 
Q 26.375 6.390625 33.015625 6.390625 
Q 39.65625 6.390625 43.53125 10.953125 
Q 47.40625 15.53125 47.40625 23.390625 
Q 47.40625 31.296875 43.53125 35.828125 
Q 39.65625 40.375 33.015625 40.375 
z
M 52.59375 71.296875 
L 52.59375 62.3125 
Q 48.875 64.0625 45.09375 64.984375 
Q 41.3125 65.921875 37.59375 65.921875 
Q 27.828125 65.921875 22.671875 59.328125 
Q 17.53125 52.734375 16.796875 39.40625 
Q 19.671875 43.65625 24.015625 45.921875 
Q 28.375 48.1875 33.59375 48.1875 
Q 44.578125 48.1875 50.953125 41.515625 
Q 57.328125 34.859375 57.328125 23.390625 
Q 57.328125 12.15625 50.6875 5.359375 
Q 44.046875 -1.421875 33.015625 -1.421875 
Q 20.359375 -1.421875 13.671875 8.265625 
Q 6.984375 17.96875 6.984375 36.375 
Q 6.984375 53.65625 15.1875 63.9375 
Q 23.390625 74.21875 37.203125 74.21875 
Q 40.921875 74.21875 44.703125 73.484375 
Q 48.484375 72.75 52.59375 71.296875 
z
" id="DejaVuSans-54"/>
       </defs>
       <use xlink:href="#DejaVuSans-54"/>
      </g>
     </g>
    </g>
    <g id="text_3">
     <!-- Time (h) -->
     <g style="fill:#262626;" transform="translate(251.871224 356.191406)scale(0.25 -0.25)">
      <defs>
       <path d="M -0.296875 72.90625 
L 61.375 72.90625 
L 61.375 64.59375 
L 35.5 64.59375 
L 35.5 0 
L 25.59375 0 
L 25.59375 64.59375 
L -0.296875 64.59375 
z
" id="DejaVuSans-84"/>
       <path d="M 9.421875 54.6875 
L 18.40625 54.6875 
L 18.40625 0 
L 9.421875 0 
z
M 9.421875 75.984375 
L 18.40625 75.984375 
L 18.40625 64.59375 
L 9.421875 64.59375 
z
" id="DejaVuSans-105"/>
       <path d="M 52 44.1875 
Q 55.375 50.25 60.0625 53.125 
Q 64.75 56 71.09375 56 
Q 79.640625 56 84.28125 50.015625 
Q 88.921875 44.046875 88.921875 33.015625 
L 88.921875 0 
L 79.890625 0 
L 79.890625 32.71875 
Q 79.890625 40.578125 77.09375 44.375 
Q 74.3125 48.1875 68.609375 48.1875 
Q 61.625 48.1875 57.5625 43.546875 
Q 53.515625 38.921875 53.515625 30.90625 
L 53.515625 0 
L 44.484375 0 
L 44.484375 32.71875 
Q 44.484375 40.625 41.703125 44.40625 
Q 38.921875 48.1875 33.109375 48.1875 
Q 26.21875 48.1875 22.15625 43.53125 
Q 18.109375 38.875 18.109375 30.90625 
L 18.109375 0 
L 9.078125 0 
L 9.078125 54.6875 
L 18.109375 54.6875 
L 18.109375 46.1875 
Q 21.1875 51.21875 25.484375 53.609375 
Q 29.78125 56 35.6875 56 
Q 41.65625 56 45.828125 52.96875 
Q 50 49.953125 52 44.1875 
z
" id="DejaVuSans-109"/>
       <path d="M 56.203125 29.59375 
L 56.203125 25.203125 
L 14.890625 25.203125 
Q 15.484375 15.921875 20.484375 11.0625 
Q 25.484375 6.203125 34.421875 6.203125 
Q 39.59375 6.203125 44.453125 7.46875 
Q 49.3125 8.734375 54.109375 11.28125 
L 54.109375 2.78125 
Q 49.265625 0.734375 44.1875 -0.34375 
Q 39.109375 -1.421875 33.890625 -1.421875 
Q 20.796875 -1.421875 13.15625 6.1875 
Q 5.515625 13.8125 5.515625 26.8125 
Q 5.515625 40.234375 12.765625 48.109375 
Q 20.015625 56 32.328125 56 
Q 43.359375 56 49.78125 48.890625 
Q 56.203125 41.796875 56.203125 29.59375 
z
M 47.21875 32.234375 
Q 47.125 39.59375 43.09375 43.984375 
Q 39.0625 48.390625 32.421875 48.390625 
Q 24.90625 48.390625 20.390625 44.140625 
Q 15.875 39.890625 15.1875 32.171875 
z
" id="DejaVuSans-101"/>
       <path id="DejaVuSans-32"/>
       <path d="M 31 75.875 
Q 24.46875 64.65625 21.28125 53.65625 
Q 18.109375 42.671875 18.109375 31.390625 
Q 18.109375 20.125 21.3125 9.0625 
Q 24.515625 -2 31 -13.1875 
L 23.1875 -13.1875 
Q 15.875 -1.703125 12.234375 9.375 
Q 8.59375 20.453125 8.59375 31.390625 
Q 8.59375 42.28125 12.203125 53.3125 
Q 15.828125 64.359375 23.1875 75.875 
z
" id="DejaVuSans-40"/>
       <path d="M 54.890625 33.015625 
L 54.890625 0 
L 45.90625 0 
L 45.90625 32.71875 
Q 45.90625 40.484375 42.875 44.328125 
Q 39.84375 48.1875 33.796875 48.1875 
Q 26.515625 48.1875 22.3125 43.546875 
Q 18.109375 38.921875 18.109375 30.90625 
L 18.109375 0 
L 9.078125 0 
L 9.078125 75.984375 
L 18.109375 75.984375 
L 18.109375 46.1875 
Q 21.34375 51.125 25.703125 53.5625 
Q 30.078125 56 35.796875 56 
Q 45.21875 56 50.046875 50.171875 
Q 54.890625 44.34375 54.890625 33.015625 
z
" id="DejaVuSans-104"/>
       <path d="M 8.015625 75.875 
L 15.828125 75.875 
Q 23.140625 64.359375 26.78125 53.3125 
Q 30.421875 42.28125 30.421875 31.390625 
Q 30.421875 20.453125 26.78125 9.375 
Q 23.140625 -1.703125 15.828125 -13.1875 
L 8.015625 -13.1875 
Q 14.5 -2 17.703125 9.0625 
Q 20.90625 20.125 20.90625 31.390625 
Q 20.90625 42.671875 17.703125 53.65625 
Q 14.5 64.65625 8.015625 75.875 
z
" id="DejaVuSans-41"/>
      </defs>
      <use xlink:href="#DejaVuSans-84"/>
      <use x="57.958984" xlink:href="#DejaVuSans-105"/>
      <use x="85.742188" xlink:href="#DejaVuSans-109"/>
      <use x="183.154297" xlink:href="#DejaVuSans-101"/>
      <use x="244.677734" xlink:href="#DejaVuSans-32"/>
      <use x="276.464844" xlink:href="#DejaVuSans-40"/>
      <use x="315.478516" xlink:href="#DejaVuSans-104"/>
      <use x="378.857422" xlink:href="#DejaVuSans-41"/>
     </g>
    </g>
   </g>
   <g id="matplotlib.axis_2">
    <g id="ytick_1">
     <g id="line2d_3">
      <path clip-path="url(#pe64ceb011f)" d="M 74.207813 289.918331 
L 533.999479 289.918331 
" style="fill:none;stroke:#cccccc;stroke-linecap:round;stroke-width:0.8;"/>
     </g>
     <g id="text_4">
      <!-- 0 -->
      <g style="fill:#262626;" transform="translate(51.301563 299.416378)scale(0.25 -0.25)">
       <use xlink:href="#DejaVuSans-48"/>
      </g>
     </g>
    </g>
    <g id="ytick_2">
     <g id="line2d_4">
      <path clip-path="url(#pe64ceb011f)" d="M 74.207813 197.518688 
L 533.999479 197.518688 
" style="fill:none;stroke:#cccccc;stroke-linecap:round;stroke-width:0.8;"/>
     </g>
     <g id="text_5">
      <!-- 10 -->
      <g style="fill:#262626;" transform="translate(35.395313 207.016735)scale(0.25 -0.25)">
       <defs>
        <path d="M 12.40625 8.296875 
L 28.515625 8.296875 
L 28.515625 63.921875 
L 10.984375 60.40625 
L 10.984375 69.390625 
L 28.421875 72.90625 
L 38.28125 72.90625 
L 38.28125 8.296875 
L 54.390625 8.296875 
L 54.390625 0 
L 12.40625 0 
z
" id="DejaVuSans-49"/>
       </defs>
       <use xlink:href="#DejaVuSans-49"/>
       <use x="63.623047" xlink:href="#DejaVuSans-48"/>
      </g>
     </g>
    </g>
    <g id="ytick_3">
     <g id="line2d_5">
      <path clip-path="url(#pe64ceb011f)" d="M 74.207813 105.119045 
L 533.999479 105.119045 
" style="fill:none;stroke:#cccccc;stroke-linecap:round;stroke-width:0.8;"/>
     </g>
     <g id="text_6">
      <!-- 20 -->
      <g style="fill:#262626;" transform="translate(35.395313 114.617092)scale(0.25 -0.25)">
       <defs>
        <path d="M 19.1875 8.296875 
L 53.609375 8.296875 
L 53.609375 0 
L 7.328125 0 
L 7.328125 8.296875 
Q 12.9375 14.109375 22.625 23.890625 
Q 32.328125 33.6875 34.8125 36.53125 
Q 39.546875 41.84375 41.421875 45.53125 
Q 43.3125 49.21875 43.3125 52.78125 
Q 43.3125 58.59375 39.234375 62.25 
Q 35.15625 65.921875 28.609375 65.921875 
Q 23.96875 65.921875 18.8125 64.3125 
Q 13.671875 62.703125 7.8125 59.421875 
L 7.8125 69.390625 
Q 13.765625 71.78125 18.9375 73 
Q 24.125 74.21875 28.421875 74.21875 
Q 39.75 74.21875 46.484375 68.546875 
Q 53.21875 62.890625 53.21875 53.421875 
Q 53.21875 48.921875 51.53125 44.890625 
Q 49.859375 40.875 45.40625 35.40625 
Q 44.1875 33.984375 37.640625 27.21875 
Q 31.109375 20.453125 19.1875 8.296875 
z
" id="DejaVuSans-50"/>
       </defs>
       <use xlink:href="#DejaVuSans-50"/>
       <use x="63.623047" xlink:href="#DejaVuSans-48"/>
      </g>
     </g>
    </g>
    <g id="text_7">
     <!-- OD -->
     <g style="fill:#262626;" transform="translate(26.196094 188.464844)rotate(-90)scale(0.25 -0.25)">
      <defs>
       <path d="M 39.40625 66.21875 
Q 28.65625 66.21875 22.328125 58.203125 
Q 16.015625 50.203125 16.015625 36.375 
Q 16.015625 22.609375 22.328125 14.59375 
Q 28.65625 6.59375 39.40625 6.59375 
Q 50.140625 6.59375 56.421875 14.59375 
Q 62.703125 22.609375 62.703125 36.375 
Q 62.703125 50.203125 56.421875 58.203125 
Q 50.140625 66.21875 39.40625 66.21875 
z
M 39.40625 74.21875 
Q 54.734375 74.21875 63.90625 63.9375 
Q 73.09375 53.65625 73.09375 36.375 
Q 73.09375 19.140625 63.90625 8.859375 
Q 54.734375 -1.421875 39.40625 -1.421875 
Q 24.03125 -1.421875 14.8125 8.828125 
Q 5.609375 19.09375 5.609375 36.375 
Q 5.609375 53.65625 14.8125 63.9375 
Q 24.03125 74.21875 39.40625 74.21875 
z
" id="DejaVuSans-79"/>
       <path d="M 19.671875 64.796875 
L 19.671875 8.109375 
L 31.59375 8.109375 
Q 46.6875 8.109375 53.6875 14.9375 
Q 60.6875 21.78125 60.6875 36.53125 
Q 60.6875 51.171875 53.6875 57.984375 
Q 46.6875 64.796875 31.59375 64.796875 
z
M 9.8125 72.90625 
L 30.078125 72.90625 
Q 51.265625 72.90625 61.171875 64.09375 
Q 71.09375 55.28125 71.09375 36.53125 
Q 71.09375 17.671875 61.125 8.828125 
Q 51.171875 0 30.078125 0 
L 9.8125 0 
z
" id="DejaVuSans-68"/>
      </defs>
      <use xlink:href="#DejaVuSans-79"/>
      <use x="78.710938" xlink:href="#DejaVuSans-68"/>
     </g>
    </g>
   </g>
   <g id="line2d_6">
    <path clip-path="url(#pe64ceb011f)" d="M 95.107434 289.909091 
L 98.037403 289.905659 
L 99.502387 289.903492 
L 102.306551 289.898255 
L 105.23652 289.890799 
L 107.450233 289.883379 
L 110.380202 289.870399 
L 111.845187 289.862199 
L 113.310171 289.852597 
L 115.803331 289.832331 
L 117.695358 289.812876 
L 119.252942 289.793599 
L 121.18721 289.764683 
L 122.766951 289.736161 
L 124.627787 289.695701 
L 126.189521 289.654887 
L 127.711579 289.60792 
L 129.255795 289.551704 
L 130.779684 289.48626 
L 132.258525 289.411598 
L 133.824715 289.318415 
L 135.313444 289.214004 
L 136.782763 289.09315 
L 138.319226 288.94454 
L 139.788301 288.777491 
L 141.3128 288.573787 
L 142.788345 288.342048 
L 144.295386 288.064101 
L 145.790586 287.739954 
L 147.28133 287.360376 
L 148.758462 286.919112 
L 150.23773 286.400935 
L 151.702836 285.799608 
L 153.18363 285.087391 
L 154.659663 284.255064 
L 156.129165 283.284138 
L 157.60184 282.144555 
L 159.070487 280.81327 
L 160.541576 279.250977 
L 162.013885 277.421094 
L 163.480701 275.285923 
L 164.453695 273.672626 
L 165.922952 270.89463 
L 167.389158 267.650664 
L 168.856584 263.852299 
L 170.322789 259.416377 
L 171.788994 254.232018 
L 173.254589 248.179195 
L 174.719574 241.119123 
L 176.185779 232.885575 
L 177.591554 223.727015 
L 178.696396 215.547429 
L 179.604076 208.123025 
L 181.069671 194.678323 
L 182.465069 180.183591 
L 183.930053 163.791894 
L 185.395648 152.555174 
L 186.883218 152.262267 
L 188.365904 152.262267 
L 189.84798 152.262267 
L 191.327004 152.262267 
L 192.816405 152.262267 
L 194.309468 152.262267 
L 195.775674 152.262267 
L 197.276062 152.262267 
L 198.780113 152.262267 
L 200.254864 152.262267 
L 201.73816 152.262267 
L 203.21108 152.262267 
L 204.687662 152.262267 
L 206.167907 152.262267 
L 207.650594 152.262267 
L 209.137553 152.262267 
L 210.604979 152.262267 
L 212.099263 152.262267 
L 213.59782 152.262267 
L 215.10004 152.262267 
L 216.605311 152.262267 
L 218.071517 152.262267 
L 219.541384 152.262267 
L 221.014915 152.262267 
L 222.491497 152.262267 
L 223.318603 152.262267 
" style="fill:none;stroke:#1b9e77;stroke-linecap:round;stroke-width:4;"/>
   </g>
   <g id="line2d_7">
    <path clip-path="url(#pe64ceb011f)" d="M 95.107434 289.909091 
L 97.548141 289.90631 
L 99.989946 289.902691 
L 101.46687 289.899992 
L 103.95008 289.894364 
L 106.880049 289.885463 
L 108.47908 289.87928 
L 111.409049 289.864777 
L 112.874033 289.855616 
L 115.420542 289.835808 
L 117.388016 289.816312 
L 118.995837 289.797008 
L 120.967279 289.768283 
L 122.58279 289.739743 
L 124.29963 289.703439 
L 125.933576 289.662055 
L 127.495372 289.615069 
L 129.073587 289.558835 
L 130.564758 289.496154 
L 132.075829 289.421478 
L 133.670892 289.328279 
L 135.15547 289.225896 
L 136.648228 289.105031 
L 138.168333 288.960257 
L 139.659748 288.79319 
L 141.141275 288.598411 
L 142.642335 288.366664 
L 144.140525 288.094796 
L 145.618817 287.779907 
L 147.088929 287.412868 
L 148.57485 286.977851 
L 150.056621 286.468914 
L 151.52716 285.876817 
L 152.997883 285.183089 
L 154.470497 284.369243 
L 155.941586 283.416796 
L 157.416276 282.298021 
L 158.883702 280.994466 
L 160.349907 279.469132 
L 161.814892 277.68508 
L 163.281097 275.596109 
L 164.749744 273.146779 
L 166.21778 270.281744 
L 167.683375 266.936137 
L 167.735871 266.806501 
L 169.202076 262.869537 
L 170.668281 258.267388 
L 172.135097 252.888989 
L 172.252296 252.420153 
L 173.719111 246.058253 
L 175.185317 238.637823 
L 176.650301 229.997717 
L 176.954896 228.033485 
L 178.420491 217.665598 
L 179.885475 205.662146 
L 181.35107 191.866602 
L 182.816665 176.305578 
L 184.28226 160.025685 
L 184.364055 159.18762 
L 184.948828 154.168471 
L 186.418085 151.231087 
L 187.885511 149.205686 
L 189.352937 145.761952 
L 190.818532 140.839823 
L 192.284738 134.348748 
L 192.931162 130.966921 
L 194.396757 121.664125 
L 195.862352 109.850831 
L 197.327947 95.522418 
L 198.792931 78.774983 
L 200.258526 60.208198 
L 201.7522 48.095529 
L 203.228782 48.090909 
L 204.715741 48.090909 
L 206.181947 48.090909 
L 207.651204 48.090909 
L 209.124734 48.090909 
L 210.601317 48.090909 
L 212.082172 48.090909 
L 213.566079 48.090909 
L 215.053649 48.090909 
L 216.521075 48.090909 
L 217.994605 48.090909 
L 219.468746 48.090909 
L 220.946549 48.090909 
L 222.428014 48.090909 
L 223.913142 48.090909 
L 225.401933 48.090909 
L 226.882177 48.090909 
L 228.364253 48.090909 
L 229.839004 48.090909 
L 231.311314 48.090909 
L 232.79339 48.090909 
L 232.86786 48.090909 
" style="fill:none;stroke:#d95f02;stroke-linecap:round;stroke-width:4;"/>
   </g>
   <g id="line2d_8">
    <path clip-path="url(#pe64ceb011f)" d="M 95.107434 289.909091 
L 118.893044 289.798344 
L 128.985322 289.562238 
L 135.165054 289.225181 
L 139.736538 288.783839 
L 144.171839 288.088633 
L 147.123905 287.403397 
L 150.07768 286.461069 
L 153.020407 285.171576 
L 154.489786 284.35772 
L 155.958006 283.405274 
L 157.430315 282.286508 
L 158.8953 280.982953 
L 160.367609 279.449267 
L 161.838087 277.654958 
L 163.306734 275.556747 
L 164.771719 273.107417 
L 166.240976 270.233049 
L 167.706571 266.878203 
L 169.174607 262.950479 
L 170.639592 258.36681 
L 172.105797 253.006891 
L 174.027979 244.596953 
L 175.492963 236.944137 
L 176.958558 228.026832 
L 178.424764 217.658946 
L 180.26454 202.312289 
L 182.078679 184.391471 
L 184.354288 159.292032 
L 185.868716 152.115351 
L 221.583206 152.110731 
L 513.099858 152.110731 
L 513.099858 152.110731 
" style="fill:none;stroke:#7570b3;stroke-linecap:round;stroke-width:4;"/>
   </g>
   <g id="line2d_9"/>
   <g id="line2d_10"/>
   <g id="line2d_11"/>
   <g id="patch_3">
    <path d="M 74.207813 302 
L 74.207813 36 
" style="fill:none;stroke:#cccccc;stroke-linecap:square;stroke-linejoin:miter;stroke-width:0.8;"/>
   </g>
   <g id="patch_4">
    <path d="M 74.207813 302 
L 533.999479 302 
" style="fill:none;stroke:#cccccc;stroke-linecap:square;stroke-linejoin:miter;stroke-width:0.8;"/>
   </g>
   <g id="text_8">
    <!-- media = EU_avg -->
    <g style="fill:#262626;" transform="translate(200.457161 30)scale(0.25 -0.25)">
     <defs>
      <path d="M 45.40625 46.390625 
L 45.40625 75.984375 
L 54.390625 75.984375 
L 54.390625 0 
L 45.40625 0 
L 45.40625 8.203125 
Q 42.578125 3.328125 38.25 0.953125 
Q 33.9375 -1.421875 27.875 -1.421875 
Q 17.96875 -1.421875 11.734375 6.484375 
Q 5.515625 14.40625 5.515625 27.296875 
Q 5.515625 40.1875 11.734375 48.09375 
Q 17.96875 56 27.875 56 
Q 33.9375 56 38.25 53.625 
Q 42.578125 51.265625 45.40625 46.390625 
z
M 14.796875 27.296875 
Q 14.796875 17.390625 18.875 11.75 
Q 22.953125 6.109375 30.078125 6.109375 
Q 37.203125 6.109375 41.296875 11.75 
Q 45.40625 17.390625 45.40625 27.296875 
Q 45.40625 37.203125 41.296875 42.84375 
Q 37.203125 48.484375 30.078125 48.484375 
Q 22.953125 48.484375 18.875 42.84375 
Q 14.796875 37.203125 14.796875 27.296875 
z
" id="DejaVuSans-100"/>
      <path d="M 34.28125 27.484375 
Q 23.390625 27.484375 19.1875 25 
Q 14.984375 22.515625 14.984375 16.5 
Q 14.984375 11.71875 18.140625 8.90625 
Q 21.296875 6.109375 26.703125 6.109375 
Q 34.1875 6.109375 38.703125 11.40625 
Q 43.21875 16.703125 43.21875 25.484375 
L 43.21875 27.484375 
z
M 52.203125 31.203125 
L 52.203125 0 
L 43.21875 0 
L 43.21875 8.296875 
Q 40.140625 3.328125 35.546875 0.953125 
Q 30.953125 -1.421875 24.3125 -1.421875 
Q 15.921875 -1.421875 10.953125 3.296875 
Q 6 8.015625 6 15.921875 
Q 6 25.140625 12.171875 29.828125 
Q 18.359375 34.515625 30.609375 34.515625 
L 43.21875 34.515625 
L 43.21875 35.40625 
Q 43.21875 41.609375 39.140625 45 
Q 35.0625 48.390625 27.6875 48.390625 
Q 23 48.390625 18.546875 47.265625 
Q 14.109375 46.140625 10.015625 43.890625 
L 10.015625 52.203125 
Q 14.9375 54.109375 19.578125 55.046875 
Q 24.21875 56 28.609375 56 
Q 40.484375 56 46.34375 49.84375 
Q 52.203125 43.703125 52.203125 31.203125 
z
" id="DejaVuSans-97"/>
      <path d="M 10.59375 45.40625 
L 73.1875 45.40625 
L 73.1875 37.203125 
L 10.59375 37.203125 
z
M 10.59375 25.484375 
L 73.1875 25.484375 
L 73.1875 17.1875 
L 10.59375 17.1875 
z
" id="DejaVuSans-61"/>
      <path d="M 9.8125 72.90625 
L 55.90625 72.90625 
L 55.90625 64.59375 
L 19.671875 64.59375 
L 19.671875 43.015625 
L 54.390625 43.015625 
L 54.390625 34.71875 
L 19.671875 34.71875 
L 19.671875 8.296875 
L 56.78125 8.296875 
L 56.78125 0 
L 9.8125 0 
z
" id="DejaVuSans-69"/>
      <path d="M 8.6875 72.90625 
L 18.609375 72.90625 
L 18.609375 28.609375 
Q 18.609375 16.890625 22.84375 11.734375 
Q 27.09375 6.59375 36.625 6.59375 
Q 46.09375 6.59375 50.34375 11.734375 
Q 54.59375 16.890625 54.59375 28.609375 
L 54.59375 72.90625 
L 64.5 72.90625 
L 64.5 27.390625 
Q 64.5 13.140625 57.4375 5.859375 
Q 50.390625 -1.421875 36.625 -1.421875 
Q 22.796875 -1.421875 15.734375 5.859375 
Q 8.6875 13.140625 8.6875 27.390625 
z
" id="DejaVuSans-85"/>
      <path d="M 50.984375 -16.609375 
L 50.984375 -23.578125 
L -0.984375 -23.578125 
L -0.984375 -16.609375 
z
" id="DejaVuSans-95"/>
      <path d="M 2.984375 54.6875 
L 12.5 54.6875 
L 29.59375 8.796875 
L 46.6875 54.6875 
L 56.203125 54.6875 
L 35.6875 0 
L 23.484375 0 
z
" id="DejaVuSans-118"/>
      <path d="M 45.40625 27.984375 
Q 45.40625 37.75 41.375 43.109375 
Q 37.359375 48.484375 30.078125 48.484375 
Q 22.859375 48.484375 18.828125 43.109375 
Q 14.796875 37.75 14.796875 27.984375 
Q 14.796875 18.265625 18.828125 12.890625 
Q 22.859375 7.515625 30.078125 7.515625 
Q 37.359375 7.515625 41.375 12.890625 
Q 45.40625 18.265625 45.40625 27.984375 
z
M 54.390625 6.78125 
Q 54.390625 -7.171875 48.1875 -13.984375 
Q 42 -20.796875 29.203125 -20.796875 
Q 24.46875 -20.796875 20.265625 -20.09375 
Q 16.0625 -19.390625 12.109375 -17.921875 
L 12.109375 -9.1875 
Q 16.0625 -11.328125 19.921875 -12.34375 
Q 23.78125 -13.375 27.78125 -13.375 
Q 36.625 -13.375 41.015625 -8.765625 
Q 45.40625 -4.15625 45.40625 5.171875 
L 45.40625 9.625 
Q 42.625 4.78125 38.28125 2.390625 
Q 33.9375 0 27.875 0 
Q 17.828125 0 11.671875 7.65625 
Q 5.515625 15.328125 5.515625 27.984375 
Q 5.515625 40.671875 11.671875 48.328125 
Q 17.828125 56 27.875 56 
Q 33.9375 56 38.28125 53.609375 
Q 42.625 51.21875 45.40625 46.390625 
L 45.40625 54.6875 
L 54.390625 54.6875 
z
" id="DejaVuSans-103"/>
     </defs>
     <use xlink:href="#DejaVuSans-109"/>
     <use x="97.412109" xlink:href="#DejaVuSans-101"/>
     <use x="158.935547" xlink:href="#DejaVuSans-100"/>
     <use x="222.412109" xlink:href="#DejaVuSans-105"/>
     <use x="250.195312" xlink:href="#DejaVuSans-97"/>
     <use x="311.474609" xlink:href="#DejaVuSans-32"/>
     <use x="343.261719" xlink:href="#DejaVuSans-61"/>
     <use x="427.050781" xlink:href="#DejaVuSans-32"/>
     <use x="458.837891" xlink:href="#DejaVuSans-69"/>
     <use x="522.021484" xlink:href="#DejaVuSans-85"/>
     <use x="595.214844" xlink:href="#DejaVuSans-95"/>
     <use x="645.214844" xlink:href="#DejaVuSans-97"/>
     <use x="706.494141" xlink:href="#DejaVuSans-118"/>
     <use x="765.673828" xlink:href="#DejaVuSans-103"/>
    </g>
   </g>
   <g id="legend_1">
    <g id="patch_5">
     <path d="M 643.457813 202.78125 
L 780.332813 202.78125 
Q 785.332813 202.78125 785.332813 197.78125 
L 785.332813 53.5 
Q 785.332813 48.5 780.332813 48.5 
L 643.457813 48.5 
Q 638.457813 48.5 638.457813 53.5 
L 638.457813 197.78125 
Q 638.457813 202.78125 643.457813 202.78125 
z
" style="fill:#ffffff;opacity:0.8;stroke:#cccccc;stroke-linejoin:miter;"/>
    </g>
    <g id="text_9">
     <!-- Replicate -->
     <g style="fill:#262626;" transform="translate(654.075 77.496094)scale(0.25 -0.25)">
      <defs>
       <path d="M 44.390625 34.1875 
Q 47.5625 33.109375 50.5625 29.59375 
Q 53.5625 26.078125 56.59375 19.921875 
L 66.609375 0 
L 56 0 
L 46.6875 18.703125 
Q 43.0625 26.03125 39.671875 28.421875 
Q 36.28125 30.8125 30.421875 30.8125 
L 19.671875 30.8125 
L 19.671875 0 
L 9.8125 0 
L 9.8125 72.90625 
L 32.078125 72.90625 
Q 44.578125 72.90625 50.734375 67.671875 
Q 56.890625 62.453125 56.890625 51.90625 
Q 56.890625 45.015625 53.6875 40.46875 
Q 50.484375 35.9375 44.390625 34.1875 
z
M 19.671875 64.796875 
L 19.671875 38.921875 
L 32.078125 38.921875 
Q 39.203125 38.921875 42.84375 42.21875 
Q 46.484375 45.515625 46.484375 51.90625 
Q 46.484375 58.296875 42.84375 61.546875 
Q 39.203125 64.796875 32.078125 64.796875 
z
" id="DejaVuSans-82"/>
       <path d="M 18.109375 8.203125 
L 18.109375 -20.796875 
L 9.078125 -20.796875 
L 9.078125 54.6875 
L 18.109375 54.6875 
L 18.109375 46.390625 
Q 20.953125 51.265625 25.265625 53.625 
Q 29.59375 56 35.59375 56 
Q 45.5625 56 51.78125 48.09375 
Q 58.015625 40.1875 58.015625 27.296875 
Q 58.015625 14.40625 51.78125 6.484375 
Q 45.5625 -1.421875 35.59375 -1.421875 
Q 29.59375 -1.421875 25.265625 0.953125 
Q 20.953125 3.328125 18.109375 8.203125 
z
M 48.6875 27.296875 
Q 48.6875 37.203125 44.609375 42.84375 
Q 40.53125 48.484375 33.40625 48.484375 
Q 26.265625 48.484375 22.1875 42.84375 
Q 18.109375 37.203125 18.109375 27.296875 
Q 18.109375 17.390625 22.1875 11.75 
Q 26.265625 6.109375 33.40625 6.109375 
Q 40.53125 6.109375 44.609375 11.75 
Q 48.6875 17.390625 48.6875 27.296875 
z
" id="DejaVuSans-112"/>
       <path d="M 9.421875 75.984375 
L 18.40625 75.984375 
L 18.40625 0 
L 9.421875 0 
z
" id="DejaVuSans-108"/>
       <path d="M 48.78125 52.59375 
L 48.78125 44.1875 
Q 44.96875 46.296875 41.140625 47.34375 
Q 37.3125 48.390625 33.40625 48.390625 
Q 24.65625 48.390625 19.8125 42.84375 
Q 14.984375 37.3125 14.984375 27.296875 
Q 14.984375 17.28125 19.8125 11.734375 
Q 24.65625 6.203125 33.40625 6.203125 
Q 37.3125 6.203125 41.140625 7.25 
Q 44.96875 8.296875 48.78125 10.40625 
L 48.78125 2.09375 
Q 45.015625 0.34375 40.984375 -0.53125 
Q 36.96875 -1.421875 32.421875 -1.421875 
Q 20.0625 -1.421875 12.78125 6.34375 
Q 5.515625 14.109375 5.515625 27.296875 
Q 5.515625 40.671875 12.859375 48.328125 
Q 20.21875 56 33.015625 56 
Q 37.15625 56 41.109375 55.140625 
Q 45.0625 54.296875 48.78125 52.59375 
z
" id="DejaVuSans-99"/>
       <path d="M 18.3125 70.21875 
L 18.3125 54.6875 
L 36.8125 54.6875 
L 36.8125 47.703125 
L 18.3125 47.703125 
L 18.3125 18.015625 
Q 18.3125 11.328125 20.140625 9.421875 
Q 21.96875 7.515625 27.59375 7.515625 
L 36.8125 7.515625 
L 36.8125 0 
L 27.59375 0 
Q 17.1875 0 13.234375 3.875 
Q 9.28125 7.765625 9.28125 18.015625 
L 9.28125 47.703125 
L 2.6875 47.703125 
L 2.6875 54.6875 
L 9.28125 54.6875 
L 9.28125 70.21875 
z
" id="DejaVuSans-116"/>
      </defs>
      <use xlink:href="#DejaVuSans-82"/>
      <use x="64.982422" xlink:href="#DejaVuSans-101"/>
      <use x="126.505859" xlink:href="#DejaVuSans-112"/>
      <use x="189.982422" xlink:href="#DejaVuSans-108"/>
      <use x="217.765625" xlink:href="#DejaVuSans-105"/>
      <use x="245.548828" xlink:href="#DejaVuSans-99"/>
      <use x="300.529297" xlink:href="#DejaVuSans-97"/>
      <use x="361.808594" xlink:href="#DejaVuSans-116"/>
      <use x="401.017578" xlink:href="#DejaVuSans-101"/>
     </g>
    </g>
    <g id="line2d_12">
     <path d="M 648.457813 105.441406 
L 698.457813 105.441406 
" style="fill:none;stroke:#1b9e77;stroke-linecap:round;stroke-width:5;"/>
    </g>
    <g id="line2d_13"/>
    <g id="text_10">
     <!-- rep1 -->
     <g style="fill:#262626;" transform="translate(718.457813 114.191406)scale(0.25 -0.25)">
      <defs>
       <path d="M 41.109375 46.296875 
Q 39.59375 47.171875 37.8125 47.578125 
Q 36.03125 48 33.890625 48 
Q 26.265625 48 22.1875 43.046875 
Q 18.109375 38.09375 18.109375 28.8125 
L 18.109375 0 
L 9.078125 0 
L 9.078125 54.6875 
L 18.109375 54.6875 
L 18.109375 46.1875 
Q 20.953125 51.171875 25.484375 53.578125 
Q 30.03125 56 36.53125 56 
Q 37.453125 56 38.578125 55.875 
Q 39.703125 55.765625 41.0625 55.515625 
z
" id="DejaVuSans-114"/>
      </defs>
      <use xlink:href="#DejaVuSans-114"/>
      <use x="38.863281" xlink:href="#DejaVuSans-101"/>
      <use x="100.386719" xlink:href="#DejaVuSans-112"/>
      <use x="163.863281" xlink:href="#DejaVuSans-49"/>
     </g>
    </g>
    <g id="line2d_14">
     <path d="M 648.457813 142.136719 
L 698.457813 142.136719 
" style="fill:none;stroke:#d95f02;stroke-linecap:round;stroke-width:5;"/>
    </g>
    <g id="line2d_15"/>
    <g id="text_11">
     <!-- rep2 -->
     <g style="fill:#262626;" transform="translate(718.457813 150.886719)scale(0.25 -0.25)">
      <use xlink:href="#DejaVuSans-114"/>
      <use x="38.863281" xlink:href="#DejaVuSans-101"/>
      <use x="100.386719" xlink:href="#DejaVuSans-112"/>
      <use x="163.863281" xlink:href="#DejaVuSans-50"/>
     </g>
    </g>
    <g id="line2d_16">
     <path d="M 648.457813 178.832031 
L 698.457813 178.832031 
" style="fill:none;stroke:#7570b3;stroke-linecap:round;stroke-width:5;"/>
    </g>
    <g id="line2d_17"/>
    <g id="text_12">
     <!-- rep3 -->
     <g style="fill:#262626;" transform="translate(718.457813 187.582031)scale(0.25 -0.25)">
      <defs>
       <path d="M 40.578125 39.3125 
Q 47.65625 37.796875 51.625 33 
Q 55.609375 28.21875 55.609375 21.1875 
Q 55.609375 10.40625 48.1875 4.484375 
Q 40.765625 -1.421875 27.09375 -1.421875 
Q 22.515625 -1.421875 17.65625 -0.515625 
Q 12.796875 0.390625 7.625 2.203125 
L 7.625 11.71875 
Q 11.71875 9.328125 16.59375 8.109375 
Q 21.484375 6.890625 26.8125 6.890625 
Q 36.078125 6.890625 40.9375 10.546875 
Q 45.796875 14.203125 45.796875 21.1875 
Q 45.796875 27.640625 41.28125 31.265625 
Q 36.765625 34.90625 28.71875 34.90625 
L 20.21875 34.90625 
L 20.21875 43.015625 
L 29.109375 43.015625 
Q 36.375 43.015625 40.234375 45.921875 
Q 44.09375 48.828125 44.09375 54.296875 
Q 44.09375 59.90625 40.109375 62.90625 
Q 36.140625 65.921875 28.71875 65.921875 
Q 24.65625 65.921875 20.015625 65.03125 
Q 15.375 64.15625 9.8125 62.3125 
L 9.8125 71.09375 
Q 15.4375 72.65625 20.34375 73.4375 
Q 25.25 74.21875 29.59375 74.21875 
Q 40.828125 74.21875 47.359375 69.109375 
Q 53.90625 64.015625 53.90625 55.328125 
Q 53.90625 49.265625 50.4375 45.09375 
Q 46.96875 40.921875 40.578125 39.3125 
z
" id="DejaVuSans-51"/>
      </defs>
      <use xlink:href="#DejaVuSans-114"/>
      <use x="38.863281" xlink:href="#DejaVuSans-101"/>
      <use x="100.386719" xlink:href="#DejaVuSans-112"/>
      <use x="163.863281" xlink:href="#DejaVuSans-51"/>
     </g>
    </g>
   </g>
  </g>
  <g id="axes_2">
   <g id="patch_6">
    <path d="M 607.874479 302 
L 1067.666146 302 
L 1067.666146 36 
L 607.874479 36 
z
" style="fill:none;"/>
   </g>
   <g id="matplotlib.axis_3">
    <g id="xtick_3">
     <g id="line2d_18">
      <path clip-path="url(#pf91f09b946)" d="M 628.7741 302 
L 628.7741 36 
" style="fill:none;stroke:#cccccc;stroke-linecap:round;stroke-width:0.8;"/>
     </g>
     <g id="text_13">
      <!-- 0 -->
      <g style="fill:#262626;" transform="translate(620.820975 327.996094)scale(0.25 -0.25)">
       <use xlink:href="#DejaVuSans-48"/>
      </g>
     </g>
    </g>
    <g id="xtick_4">
     <g id="line2d_19">
      <path clip-path="url(#pf91f09b946)" d="M 995.020221 302 
L 995.020221 36 
" style="fill:none;stroke:#cccccc;stroke-linecap:round;stroke-width:0.8;"/>
     </g>
     <g id="text_14">
      <!-- 6 -->
      <g style="fill:#262626;" transform="translate(987.067096 327.996094)scale(0.25 -0.25)">
       <use xlink:href="#DejaVuSans-54"/>
      </g>
     </g>
    </g>
    <g id="text_15">
     <!-- Time (h) -->
     <g style="fill:#262626;" transform="translate(785.537891 356.191406)scale(0.25 -0.25)">
      <use xlink:href="#DejaVuSans-84"/>
      <use x="57.958984" xlink:href="#DejaVuSans-105"/>
      <use x="85.742188" xlink:href="#DejaVuSans-109"/>
      <use x="183.154297" xlink:href="#DejaVuSans-101"/>
      <use x="244.677734" xlink:href="#DejaVuSans-32"/>
      <use x="276.464844" xlink:href="#DejaVuSans-40"/>
      <use x="315.478516" xlink:href="#DejaVuSans-104"/>
      <use x="378.857422" xlink:href="#DejaVuSans-41"/>
     </g>
    </g>
   </g>
   <g id="matplotlib.axis_4">
    <g id="ytick_4">
     <g id="line2d_20">
      <path clip-path="url(#pf91f09b946)" d="M 607.874479 290.032643 
L 1067.666146 290.032643 
" style="fill:none;stroke:#cccccc;stroke-linecap:round;stroke-width:0.8;"/>
     </g>
     <g id="text_16">
      <!-- 0.0 -->
      <g style="fill:#262626;" transform="translate(561.116667 299.53069)scale(0.25 -0.25)">
       <defs>
        <path d="M 10.6875 12.40625 
L 21 12.40625 
L 21 0 
L 10.6875 0 
z
" id="DejaVuSans-46"/>
       </defs>
       <use xlink:href="#DejaVuSans-48"/>
       <use x="63.623047" xlink:href="#DejaVuSans-46"/>
       <use x="95.410156" xlink:href="#DejaVuSans-48"/>
      </g>
     </g>
    </g>
    <g id="ytick_5">
     <g id="line2d_21">
      <path clip-path="url(#pf91f09b946)" d="M 607.874479 228.256395 
L 1067.666146 228.256395 
" style="fill:none;stroke:#cccccc;stroke-linecap:round;stroke-width:0.8;"/>
     </g>
     <g id="text_17">
      <!-- 0.5 -->
      <g style="fill:#262626;" transform="translate(561.116667 237.754442)scale(0.25 -0.25)">
       <defs>
        <path d="M 10.796875 72.90625 
L 49.515625 72.90625 
L 49.515625 64.59375 
L 19.828125 64.59375 
L 19.828125 46.734375 
Q 21.96875 47.46875 24.109375 47.828125 
Q 26.265625 48.1875 28.421875 48.1875 
Q 40.625 48.1875 47.75 41.5 
Q 54.890625 34.8125 54.890625 23.390625 
Q 54.890625 11.625 47.5625 5.09375 
Q 40.234375 -1.421875 26.90625 -1.421875 
Q 22.3125 -1.421875 17.546875 -0.640625 
Q 12.796875 0.140625 7.71875 1.703125 
L 7.71875 11.625 
Q 12.109375 9.234375 16.796875 8.0625 
Q 21.484375 6.890625 26.703125 6.890625 
Q 35.15625 6.890625 40.078125 11.328125 
Q 45.015625 15.765625 45.015625 23.390625 
Q 45.015625 31 40.078125 35.4375 
Q 35.15625 39.890625 26.703125 39.890625 
Q 22.75 39.890625 18.8125 39.015625 
Q 14.890625 38.140625 10.796875 36.28125 
z
" id="DejaVuSans-53"/>
       </defs>
       <use xlink:href="#DejaVuSans-48"/>
       <use x="63.623047" xlink:href="#DejaVuSans-46"/>
       <use x="95.410156" xlink:href="#DejaVuSans-53"/>
      </g>
     </g>
    </g>
    <g id="ytick_6">
     <g id="line2d_22">
      <path clip-path="url(#pf91f09b946)" d="M 607.874479 166.480147 
L 1067.666146 166.480147 
" style="fill:none;stroke:#cccccc;stroke-linecap:round;stroke-width:0.8;"/>
     </g>
     <g id="text_18">
      <!-- 1.0 -->
      <g style="fill:#262626;" transform="translate(561.116667 175.978194)scale(0.25 -0.25)">
       <use xlink:href="#DejaVuSans-49"/>
       <use x="63.623047" xlink:href="#DejaVuSans-46"/>
       <use x="95.410156" xlink:href="#DejaVuSans-48"/>
      </g>
     </g>
    </g>
    <g id="ytick_7">
     <g id="line2d_23">
      <path clip-path="url(#pf91f09b946)" d="M 607.874479 104.703899 
L 1067.666146 104.703899 
" style="fill:none;stroke:#cccccc;stroke-linecap:round;stroke-width:0.8;"/>
     </g>
     <g id="text_19">
      <!-- 1.5 -->
      <g style="fill:#262626;" transform="translate(561.116667 114.201945)scale(0.25 -0.25)">
       <use xlink:href="#DejaVuSans-49"/>
       <use x="63.623047" xlink:href="#DejaVuSans-46"/>
       <use x="95.410156" xlink:href="#DejaVuSans-53"/>
      </g>
     </g>
    </g>
    <g id="ytick_8">
     <g id="line2d_24">
      <path clip-path="url(#pf91f09b946)" d="M 607.874479 42.92765 
L 1067.666146 42.92765 
" style="fill:none;stroke:#cccccc;stroke-linecap:round;stroke-width:0.8;"/>
     </g>
     <g id="text_20">
      <!-- 2.0 -->
      <g style="fill:#262626;" transform="translate(561.116667 52.425697)scale(0.25 -0.25)">
       <use xlink:href="#DejaVuSans-50"/>
       <use x="63.623047" xlink:href="#DejaVuSans-46"/>
       <use x="95.410156" xlink:href="#DejaVuSans-48"/>
      </g>
     </g>
    </g>
   </g>
   <g id="line2d_25">
    <path clip-path="url(#pf91f09b946)" d="M 628.7741 289.909091 
L 631.704069 289.8726 
L 634.579858 289.826321 
L 636.677509 289.784329 
L 639.515183 289.713605 
L 641.170372 289.663392 
L 644.100341 289.554354 
L 645.565325 289.488302 
L 647.691323 289.375898 
L 649.156307 289.285213 
L 650.621292 289.182012 
L 652.086276 289.064571 
L 654.627475 288.82114 
L 656.826417 288.561652 
L 658.708861 288.295854 
L 660.266078 288.040075 
L 662.252963 287.658397 
L 663.936353 287.278436 
L 665.845044 286.773699 
L 667.474168 286.270532 
L 669.224825 285.643169 
L 669.601692 285.495017 
L 671.068874 284.869236 
L 672.609244 284.119507 
L 674.103284 283.28895 
L 675.671489 282.292005 
L 677.209967 281.171681 
L 678.70596 279.928063 
L 678.725554 279.91063 
L 680.236869 278.475876 
L 681.728955 276.8617 
L 683.239354 275.000258 
L 684.741086 272.891835 
L 686.216569 270.53643 
L 687.719155 267.810368 
L 689.220154 264.713648 
L 690.262551 262.318459 
L 691.761108 258.480425 
L 693.252951 254.148427 
L 694.720987 249.322219 
L 696.187803 243.878496 
L 697.665606 237.693458 
L 697.726037 237.423373 
L 699.212996 230.373591 
L 700.039491 226.079524 
L 701.517294 217.670911 
L 702.529965 211.337116 
L 704.005937 201.199016 
L 704.783599 195.404157 
L 705.047907 193.36344 
L 706.523879 181.249118 
L 708.001072 167.899765 
L 709.470329 153.439181 
L 710.942028 137.86786 
L 712.416169 121.432907 
L 713.890309 104.629767 
L 714.076484 102.520726 
L 715.54391 86.339055 
L 717.014389 71.894533 
L 718.496465 60.548707 
L 719.976709 53.29494 
L 720.45344 51.7876 
L 721.968478 49.005198 
L 723.645885 48.121797 
L 725.306201 48.090909 
L 727.083715 48.090909 
L 728.833151 48.090909 
L 730.478206 48.090909 
L 732.089079 48.090909 
L 733.686522 48.090909 
L 735.278472 48.090909 
L 736.869812 48.090909 
L 738.462982 48.090909 
L 740.057984 48.090909 
L 741.656648 48.090909 
L 743.258975 48.090909 
L 744.982774 48.090909 
L 746.593036 48.090909 
L 748.253351 48.090909 
L 749.872159 48.090909 
L 751.49524 48.090909 
L 752.999291 48.090909 
L 754.626034 48.090909 
L 756.261933 48.090909 
L 757.944224 48.090909 
L 759.589279 48.090909 
L 761.238608 48.090909 
L 762.892209 48.090909 
L 764.48599 48.090909 
L 766.280596 48.090909 
L 767.948237 48.090909 
L 769.62015 48.090909 
L 771.296947 48.090909 
L 772.978627 48.090909 
L 774.66458 48.090909 
L 776.354806 48.090909 
L 778.049915 48.090909 
L 779.750518 48.090909 
L 781.454783 48.090909 
L 781.627529 48.090909 
" style="fill:none;stroke:#1b9e77;stroke-linecap:round;stroke-width:4;"/>
   </g>
   <g id="line2d_26">
    <path clip-path="url(#pf91f09b946)" d="M 628.7741 289.909091 
L 631.704069 289.8726 
L 633.169054 289.850492 
L 635.094898 289.816719 
L 637.435089 289.767146 
L 639.480878 289.714571 
L 641.957007 289.636827 
L 644.116639 289.553665 
L 645.581623 289.487517 
L 647.557582 289.383606 
L 649.022567 289.293985 
L 650.487551 289.191995 
L 651.952535 289.075932 
L 654.701274 288.813221 
L 656.886664 288.553819 
L 658.600635 288.31236 
L 660.172258 288.056495 
L 662.174709 287.67473 
L 663.869147 287.294695 
L 665.470008 286.879683 
L 667.150834 286.376218 
L 668.948797 285.748596 
L 670.498018 285.122358 
L 670.763791 285.006108 
L 672.343593 284.256156 
L 673.944394 283.382566 
L 675.572785 282.358884 
L 677.161988 281.208957 
L 678.663903 279.965302 
L 680.238639 278.474171 
L 680.82152 277.868319 
L 682.315316 276.168076 
L 683.845003 274.182958 
L 685.353327 271.950983 
L 686.826674 269.472149 
L 688.059275 267.143308 
L 689.574497 263.922912 
L 691.061578 260.332106 
L 692.55281 256.24709 
L 694.029392 251.667987 
L 695.510858 246.471245 
L 696.226259 243.723562 
L 697.699179 237.538524 
L 699.18919 230.488618 
L 700.675539 222.574092 
L 702.146017 213.794946 
L 703.628093 203.903951 
L 704.958787 194.07535 
L 706.431707 182.08458 
L 707.908289 168.858903 
L 709.376326 154.521501 
L 710.847414 139.073732 
L 712.319113 122.762331 
L 713.786539 106.082744 
L 713.929986 104.451851 
L 715.401685 88.146628 
L 716.871553 73.453766 
L 718.345693 61.736047 
L 718.619767 59.986543 
L 720.103064 52.979881 
L 721.184101 50.185124 
L 722.7907 48.407203 
L 724.400352 48.097087 
L 726.000848 48.097087 
L 727.573264 48.097087 
L 729.283023 48.097087 
L 730.920143 48.097087 
L 732.395505 48.097087 
L 733.996 48.097087 
L 735.524467 48.097087 
L 737.118859 48.097087 
L 738.713861 48.097087 
L 740.311304 48.097087 
L 741.9118 48.097087 
L 743.515347 48.097087 
L 745.122557 48.097087 
L 746.73343 48.097087 
L 748.348575 48.097087 
L 749.999735 48.097087 
L 751.589243 48.097087 
L 753.068267 48.097087 
L 754.737739 48.097087 
L 756.374249 48.097087 
L 758.015031 48.097087 
L 759.660087 48.097087 
L 761.309415 48.097087 
L 762.77501 48.097087 
L 764.432884 48.097087 
L 766.022392 48.097087 
L 767.689423 48.097087 
L 769.360726 48.097087 
L 771.044237 48.097087 
L 772.725307 48.097087 
L 774.314815 48.097087 
L 776.00443 48.097087 
L 777.583562 48.097087 
L 779.282333 48.097087 
L 780.985378 48.097087 
L 782.693916 48.097087 
L 784.406727 48.097087 
L 786.124421 48.097087 
L 787.846999 48.097087 
L 789.096508 48.097087 
" style="fill:none;stroke:#d95f02;stroke-linecap:round;stroke-width:4;"/>
   </g>
   <g id="line2d_27">
    <path clip-path="url(#pf91f09b946)" d="M 628.7741 289.909091 
L 631.499814 289.875461 
L 632.964798 289.853748 
L 635.251773 289.813706 
L 637.030387 289.776468 
L 639.960356 289.700815 
L 642.890325 289.602824 
L 645.820294 289.475908 
L 647.285278 289.399027 
L 648.750263 289.311534 
L 650.215247 289.211966 
L 653.073432 288.976426 
L 655.134299 288.765724 
L 657.241557 288.50677 
L 659.234729 288.21337 
L 660.723764 287.957987 
L 662.715105 287.559629 
L 664.562267 287.122167 
L 666.374636 286.617974 
L 667.93338 286.115201 
L 669.618783 285.488197 
L 671.08389 284.862416 
L 672.622429 284.112712 
L 674.186788 283.239319 
L 675.744372 282.242436 
L 677.273816 281.122173 
L 678.762179 279.878593 
L 680.324524 278.387524 
L 681.806355 276.77336 
L 683.30772 274.912042 
L 683.941815 274.050263 
L 685.438846 271.818411 
L 686.971036 269.215654 
L 687.98096 267.302938 
L 689.451011 264.206341 
L 690.952925 260.615535 
L 692.457586 256.530396 
L 693.945156 251.951293 
L 695.436388 246.754428 
L 696.913581 240.939924 
L 698.390163 234.384352 
L 699.874681 226.963912 
L 700.505234 223.541014 
L 701.975102 214.885297 
L 703.440087 205.24153 
L 704.908123 194.485915 
L 706.385316 182.495145 
L 707.853352 169.39302 
L 709.326882 155.056483 
L 710.802854 139.607479 
L 711.783173 128.841114 
L 712.236708 123.7594 
L 713.705965 107.078578 
L 715.175833 90.648567 
L 716.648142 75.583811 
L 717.50821 67.993981 
L 718.952441 58.086306 
L 720.436959 51.948218 
L 721.978244 49.043499 
L 722.044169 48.974309 
L 723.894322 48.108206 
L 725.542429 48.097087 
L 727.363894 48.097087 
L 729.089523 48.097087 
L 730.732137 48.097087 
L 732.345451 48.097087 
L 733.880633 48.097087 
L 735.476245 48.097087 
L 737.070637 48.097087 
L 738.666249 48.097087 
L 740.263082 48.097087 
L 741.863577 48.097087 
L 743.365797 48.097087 
L 744.842379 48.097087 
L 746.463018 48.097087 
L 748.077553 48.097087 
L 749.673166 48.097087 
L 751.296246 48.097087 
L 752.922989 48.097087 
L 754.554616 48.097087 
L 756.210659 48.097087 
L 757.850831 48.097087 
L 759.364038 48.097087 
L 761.012756 48.097087 
L 762.665747 48.097087 
L 764.388324 48.097087 
L 766.050471 48.097087 
L 767.717501 48.097087 
L 769.359505 48.097087 
L 771.035081 48.097087 
L 772.769256 48.097087 
L 774.475963 48.097087 
L 776.166189 48.097087 
L 777.727008 48.097087 
L 779.42578 48.097087 
L 781.130045 48.097087 
L 782.838583 48.097087 
L 784.552004 48.097087 
L 786.306934 48.097087 
L 788.030122 48.097087 
L 789.065988 48.097087 
" style="fill:none;stroke:#7570b3;stroke-linecap:round;stroke-width:4;"/>
   </g>
   <g id="line2d_28"/>
   <g id="line2d_29"/>
   <g id="line2d_30"/>
   <g id="patch_7">
    <path d="M 607.874479 302 
L 607.874479 36 
" style="fill:none;stroke:#cccccc;stroke-linecap:square;stroke-linejoin:miter;stroke-width:0.8;"/>
   </g>
   <g id="patch_8">
    <path d="M 607.874479 302 
L 1067.666146 302 
" style="fill:none;stroke:#cccccc;stroke-linecap:square;stroke-linejoin:miter;stroke-width:0.8;"/>
   </g>
   <g id="text_21">
    <!-- media = high_fat -->
    <g style="fill:#262626;" transform="translate(729.951953 30)scale(0.25 -0.25)">
     <defs>
      <path d="M 37.109375 75.984375 
L 37.109375 68.5 
L 28.515625 68.5 
Q 23.6875 68.5 21.796875 66.546875 
Q 19.921875 64.59375 19.921875 59.515625 
L 19.921875 54.6875 
L 34.71875 54.6875 
L 34.71875 47.703125 
L 19.921875 47.703125 
L 19.921875 0 
L 10.890625 0 
L 10.890625 47.703125 
L 2.296875 47.703125 
L 2.296875 54.6875 
L 10.890625 54.6875 
L 10.890625 58.5 
Q 10.890625 67.625 15.140625 71.796875 
Q 19.390625 75.984375 28.609375 75.984375 
z
" id="DejaVuSans-102"/>
     </defs>
     <use xlink:href="#DejaVuSans-109"/>
     <use x="97.412109" xlink:href="#DejaVuSans-101"/>
     <use x="158.935547" xlink:href="#DejaVuSans-100"/>
     <use x="222.412109" xlink:href="#DejaVuSans-105"/>
     <use x="250.195312" xlink:href="#DejaVuSans-97"/>
     <use x="311.474609" xlink:href="#DejaVuSans-32"/>
     <use x="343.261719" xlink:href="#DejaVuSans-61"/>
     <use x="427.050781" xlink:href="#DejaVuSans-32"/>
     <use x="458.837891" xlink:href="#DejaVuSans-104"/>
     <use x="522.216797" xlink:href="#DejaVuSans-105"/>
     <use x="550" xlink:href="#DejaVuSans-103"/>
     <use x="613.476562" xlink:href="#DejaVuSans-104"/>
     <use x="676.855469" xlink:href="#DejaVuSans-95"/>
     <use x="726.855469" xlink:href="#DejaVuSans-102"/>
     <use x="762.060547" xlink:href="#DejaVuSans-97"/>
     <use x="823.339844" xlink:href="#DejaVuSans-116"/>
    </g>
   </g>
  </g>
  <g id="text_22">
   <!-- setA_19_plastic | batch -->
   <g style="fill:#262626;" transform="translate(645.132031 30.126562)scale(0.3 -0.3)">
    <defs>
     <path d="M 44.28125 53.078125 
L 44.28125 44.578125 
Q 40.484375 46.53125 36.375 47.5 
Q 32.28125 48.484375 27.875 48.484375 
Q 21.1875 48.484375 17.84375 46.4375 
Q 14.5 44.390625 14.5 40.28125 
Q 14.5 37.15625 16.890625 35.375 
Q 19.28125 33.59375 26.515625 31.984375 
L 29.59375 31.296875 
Q 39.15625 29.25 43.1875 25.515625 
Q 47.21875 21.78125 47.21875 15.09375 
Q 47.21875 7.46875 41.1875 3.015625 
Q 35.15625 -1.421875 24.609375 -1.421875 
Q 20.21875 -1.421875 15.453125 -0.5625 
Q 10.6875 0.296875 5.421875 2 
L 5.421875 11.28125 
Q 10.40625 8.6875 15.234375 7.390625 
Q 20.0625 6.109375 24.8125 6.109375 
Q 31.15625 6.109375 34.5625 8.28125 
Q 37.984375 10.453125 37.984375 14.40625 
Q 37.984375 18.0625 35.515625 20.015625 
Q 33.0625 21.96875 24.703125 23.78125 
L 21.578125 24.515625 
Q 13.234375 26.265625 9.515625 29.90625 
Q 5.8125 33.546875 5.8125 39.890625 
Q 5.8125 47.609375 11.28125 51.796875 
Q 16.75 56 26.8125 56 
Q 31.78125 56 36.171875 55.265625 
Q 40.578125 54.546875 44.28125 53.078125 
z
" id="DejaVuSans-115"/>
     <path d="M 34.1875 63.1875 
L 20.796875 26.90625 
L 47.609375 26.90625 
z
M 28.609375 72.90625 
L 39.796875 72.90625 
L 67.578125 0 
L 57.328125 0 
L 50.6875 18.703125 
L 17.828125 18.703125 
L 11.1875 0 
L 0.78125 0 
z
" id="DejaVuSans-65"/>
     <path d="M 10.984375 1.515625 
L 10.984375 10.5 
Q 14.703125 8.734375 18.5 7.8125 
Q 22.3125 6.890625 25.984375 6.890625 
Q 35.75 6.890625 40.890625 13.453125 
Q 46.046875 20.015625 46.78125 33.40625 
Q 43.953125 29.203125 39.59375 26.953125 
Q 35.25 24.703125 29.984375 24.703125 
Q 19.046875 24.703125 12.671875 31.3125 
Q 6.296875 37.9375 6.296875 49.421875 
Q 6.296875 60.640625 12.9375 67.421875 
Q 19.578125 74.21875 30.609375 74.21875 
Q 43.265625 74.21875 49.921875 64.515625 
Q 56.59375 54.828125 56.59375 36.375 
Q 56.59375 19.140625 48.40625 8.859375 
Q 40.234375 -1.421875 26.421875 -1.421875 
Q 22.703125 -1.421875 18.890625 -0.6875 
Q 15.09375 0.046875 10.984375 1.515625 
z
M 30.609375 32.421875 
Q 37.25 32.421875 41.125 36.953125 
Q 45.015625 41.5 45.015625 49.421875 
Q 45.015625 57.28125 41.125 61.84375 
Q 37.25 66.40625 30.609375 66.40625 
Q 23.96875 66.40625 20.09375 61.84375 
Q 16.21875 57.28125 16.21875 49.421875 
Q 16.21875 41.5 20.09375 36.953125 
Q 23.96875 32.421875 30.609375 32.421875 
z
" id="DejaVuSans-57"/>
     <path d="M 21 76.421875 
L 21 -23.578125 
L 12.703125 -23.578125 
L 12.703125 76.421875 
z
" id="DejaVuSans-124"/>
     <path d="M 48.6875 27.296875 
Q 48.6875 37.203125 44.609375 42.84375 
Q 40.53125 48.484375 33.40625 48.484375 
Q 26.265625 48.484375 22.1875 42.84375 
Q 18.109375 37.203125 18.109375 27.296875 
Q 18.109375 17.390625 22.1875 11.75 
Q 26.265625 6.109375 33.40625 6.109375 
Q 40.53125 6.109375 44.609375 11.75 
Q 48.6875 17.390625 48.6875 27.296875 
z
M 18.109375 46.390625 
Q 20.953125 51.265625 25.265625 53.625 
Q 29.59375 56 35.59375 56 
Q 45.5625 56 51.78125 48.09375 
Q 58.015625 40.1875 58.015625 27.296875 
Q 58.015625 14.40625 51.78125 6.484375 
Q 45.5625 -1.421875 35.59375 -1.421875 
Q 29.59375 -1.421875 25.265625 0.953125 
Q 20.953125 3.328125 18.109375 8.203125 
L 18.109375 0 
L 9.078125 0 
L 9.078125 75.984375 
L 18.109375 75.984375 
z
" id="DejaVuSans-98"/>
    </defs>
    <use xlink:href="#DejaVuSans-115"/>
    <use x="52.099609" xlink:href="#DejaVuSans-101"/>
    <use x="113.623047" xlink:href="#DejaVuSans-116"/>
    <use x="152.832031" xlink:href="#DejaVuSans-65"/>
    <use x="221.240234" xlink:href="#DejaVuSans-95"/>
    <use x="271.240234" xlink:href="#DejaVuSans-49"/>
    <use x="334.863281" xlink:href="#DejaVuSans-57"/>
    <use x="398.486328" xlink:href="#DejaVuSans-95"/>
    <use x="448.486328" xlink:href="#DejaVuSans-112"/>
    <use x="511.962891" xlink:href="#DejaVuSans-108"/>
    <use x="539.746094" xlink:href="#DejaVuSans-97"/>
    <use x="601.025391" xlink:href="#DejaVuSans-115"/>
    <use x="653.125" xlink:href="#DejaVuSans-116"/>
    <use x="692.333984" xlink:href="#DejaVuSans-105"/>
    <use x="720.117188" xlink:href="#DejaVuSans-99"/>
    <use x="775.097656" xlink:href="#DejaVuSans-32"/>
    <use x="806.884766" xlink:href="#DejaVuSans-124"/>
    <use x="840.576172" xlink:href="#DejaVuSans-32"/>
    <use x="872.363281" xlink:href="#DejaVuSans-98"/>
    <use x="935.839844" xlink:href="#DejaVuSans-97"/>
    <use x="997.119141" xlink:href="#DejaVuSans-116"/>
    <use x="1036.328125" xlink:href="#DejaVuSans-99"/>
    <use x="1091.308594" xlink:href="#DejaVuSans-104"/>
   </g>
  </g>
 </g>
 <defs>
  <clipPath id="pe64ceb011f">
   <rect height="266" width="459.791667" x="74.207813" y="36"/>
  </clipPath>
  <clipPath id="pf91f09b946">
   <rect height="266" width="459.791667" x="607.874479" y="36"/>
  </clipPath>
 </defs>
</svg>
