<?xml version="1.0" encoding="utf-8" standalone="no"?>
<!DOCTYPE svg PUBLIC "-//W3C//DTD SVG 1.1//EN"
  "http://www.w3.org/Graphics/SVG/1.1/DTD/svg11.dtd">
<!-- Created with matplotlib (https://matplotlib.org/) -->
<svg height="647.521094pt" version="1.1" viewBox="0 0 1460.221094 647.521094" width="1460.221094pt" xmlns="http://www.w3.org/2000/svg" xmlns:xlink="http://www.w3.org/1999/xlink">
 <metadata>
  <rdf:RDF xmlns:cc="http://creativecommons.org/ns#" xmlns:dc="http://purl.org/dc/elements/1.1/" xmlns:rdf="http://www.w3.org/1999/02/22-rdf-syntax-ns#">
   <cc:Work>
    <dc:type rdf:resource="http://purl.org/dc/dcmitype/StillImage"/>
    <dc:date>2021-07-06T15:37:04.744275</dc:date>
    <dc:format>image/svg+xml</dc:format>
    <dc:creator>
     <cc:Agent>
      <dc:title>Matplotlib v3.3.4, https://matplotlib.org/</dc:title>
     </cc:Agent>
    </dc:creator>
   </cc:Work>
  </rdf:RDF>
 </metadata>
 <defs>
  <style type="text/css">*{stroke-linecap:butt;stroke-linejoin:round;}</style>
 </defs>
 <g id="figure_1">
  <g id="patch_1">
   <path d="M 0 647.521094 
L 1460.221094 647.521094 
L 1460.221094 0 
L 0 0 
z
" style="fill:none;"/>
  </g>
  <g id="axes_1">
   <g id="patch_2">
    <path d="M 113.821094 533.7 
L 140.776555 533.7 
L 140.776555 126 
L 113.821094 126 
z
" style="fill:none;"/>
   </g>
   <g id="matplotlib.axis_1">
    <g id="xtick_1">
     <g id="text_1">
      <!-- $\it{P}_{mono}$ -->
      <g style="fill:#262626;" transform="translate(134.197262 606.2)rotate(-90)scale(0.25 -0.25)">
       <defs>
        <path d="M 16.890625 72.90625 
L 39.703125 72.90625 
Q 49.65625 72.90625 54.875 68.265625 
Q 60.109375 63.625 60.109375 54.6875 
Q 60.109375 42.671875 52.390625 35.984375 
Q 44.671875 29.296875 30.71875 29.296875 
L 18.3125 29.296875 
L 12.59375 0 
L 2.6875 0 
z
M 25.203125 64.796875 
L 19.921875 37.40625 
L 32.328125 37.40625 
Q 40.71875 37.40625 45.203125 41.703125 
Q 49.703125 46 49.703125 54 
Q 49.703125 59.125 46.65625 61.953125 
Q 43.609375 64.796875 38.09375 64.796875 
z
" id="DejaVuSans-Oblique-80"/>
        <path d="M 89.796875 33.015625 
L 83.40625 0 
L 74.421875 0 
L 80.71875 32.71875 
Q 81.109375 34.8125 81.296875 36.328125 
Q 81.5 37.84375 81.5 38.921875 
Q 81.5 43.3125 79.046875 45.75 
Q 76.609375 48.1875 72.21875 48.1875 
Q 65.671875 48.1875 60.546875 43.28125 
Q 55.421875 38.375 53.90625 30.515625 
L 47.90625 0 
L 38.921875 0 
L 45.3125 32.71875 
Q 45.703125 34.515625 45.890625 36.046875 
Q 46.09375 37.59375 46.09375 38.8125 
Q 46.09375 43.265625 43.65625 45.71875 
Q 41.21875 48.1875 36.921875 48.1875 
Q 30.28125 48.1875 25.140625 43.28125 
Q 20.015625 38.375 18.5 30.515625 
L 12.5 0 
L 3.515625 0 
L 14.203125 54.6875 
L 23.1875 54.6875 
L 21.484375 46.1875 
Q 25.140625 50.984375 30.046875 53.484375 
Q 34.96875 56 40.578125 56 
Q 46.53125 56 50.359375 52.875 
Q 54.203125 49.75 54.984375 44.1875 
Q 59.078125 49.953125 64.46875 52.96875 
Q 69.875 56 75.875 56 
Q 82.90625 56 86.734375 51.953125 
Q 90.578125 47.90625 90.578125 40.484375 
Q 90.578125 38.875 90.375 36.9375 
Q 90.1875 35.015625 89.796875 33.015625 
z
" id="DejaVuSans-Oblique-109"/>
        <path d="M 25.390625 -1.421875 
Q 15.765625 -1.421875 10.171875 4.515625 
Q 4.59375 10.453125 4.59375 20.703125 
Q 4.59375 26.65625 6.515625 32.828125 
Q 8.453125 39.015625 11.53125 43.21875 
Q 16.359375 49.75 22.3125 52.875 
Q 28.265625 56 35.796875 56 
Q 45.125 56 50.859375 50.1875 
Q 56.59375 44.390625 56.59375 35.015625 
Q 56.59375 28.515625 54.6875 22.0625 
Q 52.78125 15.625 49.703125 11.375 
Q 44.921875 4.828125 38.96875 1.703125 
Q 33.015625 -1.421875 25.390625 -1.421875 
z
M 13.921875 21 
Q 13.921875 13.578125 17.015625 9.890625 
Q 20.125 6.203125 26.421875 6.203125 
Q 35.453125 6.203125 41.375 14.078125 
Q 47.3125 21.96875 47.3125 34.078125 
Q 47.3125 41.15625 44.140625 44.765625 
Q 40.96875 48.390625 34.8125 48.390625 
Q 29.734375 48.390625 25.78125 46.015625 
Q 21.828125 43.65625 18.703125 38.8125 
Q 16.40625 35.203125 15.15625 30.5625 
Q 13.921875 25.921875 13.921875 21 
z
" id="DejaVuSans-Oblique-111"/>
        <path d="M 55.71875 33.015625 
L 49.3125 0 
L 40.28125 0 
L 46.6875 32.671875 
Q 47.125 34.96875 47.359375 36.71875 
Q 47.609375 38.484375 47.609375 39.5 
Q 47.609375 43.609375 45.015625 45.890625 
Q 42.4375 48.1875 37.796875 48.1875 
Q 30.5625 48.1875 25.34375 43.375 
Q 20.125 38.578125 18.5 30.328125 
L 12.5 0 
L 3.515625 0 
L 14.109375 54.6875 
L 23.09375 54.6875 
L 21.296875 46.09375 
Q 25.046875 50.828125 30.3125 53.40625 
Q 35.59375 56 41.40625 56 
Q 48.640625 56 52.609375 52.09375 
Q 56.59375 48.1875 56.59375 41.109375 
Q 56.59375 39.359375 56.375 37.359375 
Q 56.15625 35.359375 55.71875 33.015625 
z
" id="DejaVuSans-Oblique-110"/>
       </defs>
       <use transform="translate(0 0.09375)" xlink:href="#DejaVuSans-Oblique-80"/>
       <use transform="translate(60.302734 -16.3125)scale(0.7)" xlink:href="#DejaVuSans-Oblique-109"/>
       <use transform="translate(128.491211 -16.3125)scale(0.7)" xlink:href="#DejaVuSans-Oblique-111"/>
       <use transform="translate(171.318359 -16.3125)scale(0.7)" xlink:href="#DejaVuSans-Oblique-110"/>
       <use transform="translate(215.683594 -16.3125)scale(0.7)" xlink:href="#DejaVuSans-Oblique-111"/>
      </g>
     </g>
    </g>
   </g>
   <g id="matplotlib.axis_2">
    <g id="ytick_1">
     <g id="text_2">
      <!-- setA_15 -->
      <g style="fill:#262626;" transform="translate(7.2 175.920391)scale(0.25 -0.25)">
       <defs>
        <path d="M 44.28125 53.078125 
L 44.28125 44.578125 
Q 40.484375 46.53125 36.375 47.5 
Q 32.28125 48.484375 27.875 48.484375 
Q 21.1875 48.484375 17.84375 46.4375 
Q 14.5 44.390625 14.5 40.28125 
Q 14.5 37.15625 16.890625 35.375 
Q 19.28125 33.59375 26.515625 31.984375 
L 29.59375 31.296875 
Q 39.15625 29.25 43.1875 25.515625 
Q 47.21875 21.78125 47.21875 15.09375 
Q 47.21875 7.46875 41.1875 3.015625 
Q 35.15625 -1.421875 24.609375 -1.421875 
Q 20.21875 -1.421875 15.453125 -0.5625 
Q 10.6875 0.296875 5.421875 2 
L 5.421875 11.28125 
Q 10.40625 8.6875 15.234375 7.390625 
Q 20.0625 6.109375 24.8125 6.109375 
Q 31.15625 6.109375 34.5625 8.28125 
Q 37.984375 10.453125 37.984375 14.40625 
Q 37.984375 18.0625 35.515625 20.015625 
Q 33.0625 21.96875 24.703125 23.78125 
L 21.578125 24.515625 
Q 13.234375 26.265625 9.515625 29.90625 
Q 5.8125 33.546875 5.8125 39.890625 
Q 5.8125 47.609375 11.28125 51.796875 
Q 16.75 56 26.8125 56 
Q 31.78125 56 36.171875 55.265625 
Q 40.578125 54.546875 44.28125 53.078125 
z
" id="DejaVuSans-115"/>
        <path d="M 56.203125 29.59375 
L 56.203125 25.203125 
L 14.890625 25.203125 
Q 15.484375 15.921875 20.484375 11.0625 
Q 25.484375 6.203125 34.421875 6.203125 
Q 39.59375 6.203125 44.453125 7.46875 
Q 49.3125 8.734375 54.109375 11.28125 
L 54.109375 2.78125 
Q 49.265625 0.734375 44.1875 -0.34375 
Q 39.109375 -1.421875 33.890625 -1.421875 
Q 20.796875 -1.421875 13.15625 6.1875 
Q 5.515625 13.8125 5.515625 26.8125 
Q 5.515625 40.234375 12.765625 48.109375 
Q 20.015625 56 32.328125 56 
Q 43.359375 56 49.78125 48.890625 
Q 56.203125 41.796875 56.203125 29.59375 
z
M 47.21875 32.234375 
Q 47.125 39.59375 43.09375 43.984375 
Q 39.0625 48.390625 32.421875 48.390625 
Q 24.90625 48.390625 20.390625 44.140625 
Q 15.875 39.890625 15.1875 32.171875 
z
" id="DejaVuSans-101"/>
        <path d="M 18.3125 70.21875 
L 18.3125 54.6875 
L 36.8125 54.6875 
L 36.8125 47.703125 
L 18.3125 47.703125 
L 18.3125 18.015625 
Q 18.3125 11.328125 20.140625 9.421875 
Q 21.96875 7.515625 27.59375 7.515625 
L 36.8125 7.515625 
L 36.8125 0 
L 27.59375 0 
Q 17.1875 0 13.234375 3.875 
Q 9.28125 7.765625 9.28125 18.015625 
L 9.28125 47.703125 
L 2.6875 47.703125 
L 2.6875 54.6875 
L 9.28125 54.6875 
L 9.28125 70.21875 
z
" id="DejaVuSans-116"/>
        <path d="M 34.1875 63.1875 
L 20.796875 26.90625 
L 47.609375 26.90625 
z
M 28.609375 72.90625 
L 39.796875 72.90625 
L 67.578125 0 
L 57.328125 0 
L 50.6875 18.703125 
L 17.828125 18.703125 
L 11.1875 0 
L 0.78125 0 
z
" id="DejaVuSans-65"/>
        <path d="M 50.984375 -16.609375 
L 50.984375 -23.578125 
L -0.984375 -23.578125 
L -0.984375 -16.609375 
z
" id="DejaVuSans-95"/>
        <path d="M 12.40625 8.296875 
L 28.515625 8.296875 
L 28.515625 63.921875 
L 10.984375 60.40625 
L 10.984375 69.390625 
L 28.421875 72.90625 
L 38.28125 72.90625 
L 38.28125 8.296875 
L 54.390625 8.296875 
L 54.390625 0 
L 12.40625 0 
z
" id="DejaVuSans-49"/>
        <path d="M 10.796875 72.90625 
L 49.515625 72.90625 
L 49.515625 64.59375 
L 19.828125 64.59375 
L 19.828125 46.734375 
Q 21.96875 47.46875 24.109375 47.828125 
Q 26.265625 48.1875 28.421875 48.1875 
Q 40.625 48.1875 47.75 41.5 
Q 54.890625 34.8125 54.890625 23.390625 
Q 54.890625 11.625 47.5625 5.09375 
Q 40.234375 -1.421875 26.90625 -1.421875 
Q 22.3125 -1.421875 17.546875 -0.640625 
Q 12.796875 0.140625 7.71875 1.703125 
L 7.71875 11.625 
Q 12.109375 9.234375 16.796875 8.0625 
Q 21.484375 6.890625 26.703125 6.890625 
Q 35.15625 6.890625 40.078125 11.328125 
Q 45.015625 15.765625 45.015625 23.390625 
Q 45.015625 31 40.078125 35.4375 
Q 35.15625 39.890625 26.703125 39.890625 
Q 22.75 39.890625 18.8125 39.015625 
Q 14.890625 38.140625 10.796875 36.28125 
z
" id="DejaVuSans-53"/>
       </defs>
       <use xlink:href="#DejaVuSans-115"/>
       <use x="52.099609" xlink:href="#DejaVuSans-101"/>
       <use x="113.623047" xlink:href="#DejaVuSans-116"/>
       <use x="152.832031" xlink:href="#DejaVuSans-65"/>
       <use x="221.240234" xlink:href="#DejaVuSans-95"/>
       <use x="271.240234" xlink:href="#DejaVuSans-49"/>
       <use x="334.863281" xlink:href="#DejaVuSans-53"/>
      </g>
     </g>
    </g>
    <g id="ytick_2">
     <g id="text_3">
      <!-- setA_21 -->
      <g style="fill:#262626;" transform="translate(7.2 257.587344)scale(0.25 -0.25)">
       <defs>
        <path d="M 19.1875 8.296875 
L 53.609375 8.296875 
L 53.609375 0 
L 7.328125 0 
L 7.328125 8.296875 
Q 12.9375 14.109375 22.625 23.890625 
Q 32.328125 33.6875 34.8125 36.53125 
Q 39.546875 41.84375 41.421875 45.53125 
Q 43.3125 49.21875 43.3125 52.78125 
Q 43.3125 58.59375 39.234375 62.25 
Q 35.15625 65.921875 28.609375 65.921875 
Q 23.96875 65.921875 18.8125 64.3125 
Q 13.671875 62.703125 7.8125 59.421875 
L 7.8125 69.390625 
Q 13.765625 71.78125 18.9375 73 
Q 24.125 74.21875 28.421875 74.21875 
Q 39.75 74.21875 46.484375 68.546875 
Q 53.21875 62.890625 53.21875 53.421875 
Q 53.21875 48.921875 51.53125 44.890625 
Q 49.859375 40.875 45.40625 35.40625 
Q 44.1875 33.984375 37.640625 27.21875 
Q 31.109375 20.453125 19.1875 8.296875 
z
" id="DejaVuSans-50"/>
       </defs>
       <use xlink:href="#DejaVuSans-115"/>
       <use x="52.099609" xlink:href="#DejaVuSans-101"/>
       <use x="113.623047" xlink:href="#DejaVuSans-116"/>
       <use x="152.832031" xlink:href="#DejaVuSans-65"/>
       <use x="221.240234" xlink:href="#DejaVuSans-95"/>
       <use x="271.240234" xlink:href="#DejaVuSans-50"/>
       <use x="334.863281" xlink:href="#DejaVuSans-49"/>
      </g>
     </g>
    </g>
    <g id="ytick_3">
     <g id="text_4">
      <!-- setA_11 -->
      <g style="fill:#262626;" transform="translate(7.2 339.000391)scale(0.25 -0.25)">
       <use xlink:href="#DejaVuSans-115"/>
       <use x="52.099609" xlink:href="#DejaVuSans-101"/>
       <use x="113.623047" xlink:href="#DejaVuSans-116"/>
       <use x="152.832031" xlink:href="#DejaVuSans-65"/>
       <use x="221.240234" xlink:href="#DejaVuSans-95"/>
       <use x="271.240234" xlink:href="#DejaVuSans-49"/>
       <use x="334.863281" xlink:href="#DejaVuSans-49"/>
      </g>
     </g>
    </g>
    <g id="ytick_4">
     <g id="text_5">
      <!-- setA_24 -->
      <g style="fill:#262626;" transform="translate(7.2 420.667344)scale(0.25 -0.25)">
       <defs>
        <path d="M 37.796875 64.3125 
L 12.890625 25.390625 
L 37.796875 25.390625 
z
M 35.203125 72.90625 
L 47.609375 72.90625 
L 47.609375 25.390625 
L 58.015625 25.390625 
L 58.015625 17.1875 
L 47.609375 17.1875 
L 47.609375 0 
L 37.796875 0 
L 37.796875 17.1875 
L 4.890625 17.1875 
L 4.890625 26.703125 
z
" id="DejaVuSans-52"/>
       </defs>
       <use xlink:href="#DejaVuSans-115"/>
       <use x="52.099609" xlink:href="#DejaVuSans-101"/>
       <use x="113.623047" xlink:href="#DejaVuSans-116"/>
       <use x="152.832031" xlink:href="#DejaVuSans-65"/>
       <use x="221.240234" xlink:href="#DejaVuSans-95"/>
       <use x="271.240234" xlink:href="#DejaVuSans-50"/>
       <use x="334.863281" xlink:href="#DejaVuSans-52"/>
      </g>
     </g>
    </g>
    <g id="ytick_5">
     <g id="text_6">
      <!-- setA_16 -->
      <g style="fill:#262626;" transform="translate(7.2 502.207344)scale(0.25 -0.25)">
       <defs>
        <path d="M 33.015625 40.375 
Q 26.375 40.375 22.484375 35.828125 
Q 18.609375 31.296875 18.609375 23.390625 
Q 18.609375 15.53125 22.484375 10.953125 
Q 26.375 6.390625 33.015625 6.390625 
Q 39.65625 6.390625 43.53125 10.953125 
Q 47.40625 15.53125 47.40625 23.390625 
Q 47.40625 31.296875 43.53125 35.828125 
Q 39.65625 40.375 33.015625 40.375 
z
M 52.59375 71.296875 
L 52.59375 62.3125 
Q 48.875 64.0625 45.09375 64.984375 
Q 41.3125 65.921875 37.59375 65.921875 
Q 27.828125 65.921875 22.671875 59.328125 
Q 17.53125 52.734375 16.796875 39.40625 
Q 19.671875 43.65625 24.015625 45.921875 
Q 28.375 48.1875 33.59375 48.1875 
Q 44.578125 48.1875 50.953125 41.515625 
Q 57.328125 34.859375 57.328125 23.390625 
Q 57.328125 12.15625 50.6875 5.359375 
Q 44.046875 -1.421875 33.015625 -1.421875 
Q 20.359375 -1.421875 13.671875 8.265625 
Q 6.984375 17.96875 6.984375 36.375 
Q 6.984375 53.65625 15.1875 63.9375 
Q 23.390625 74.21875 37.203125 74.21875 
Q 40.921875 74.21875 44.703125 73.484375 
Q 48.484375 72.75 52.59375 71.296875 
z
" id="DejaVuSans-54"/>
       </defs>
       <use xlink:href="#DejaVuSans-115"/>
       <use x="52.099609" xlink:href="#DejaVuSans-101"/>
       <use x="113.623047" xlink:href="#DejaVuSans-116"/>
       <use x="152.832031" xlink:href="#DejaVuSans-65"/>
       <use x="221.240234" xlink:href="#DejaVuSans-95"/>
       <use x="271.240234" xlink:href="#DejaVuSans-49"/>
       <use x="334.863281" xlink:href="#DejaVuSans-54"/>
      </g>
     </g>
    </g>
   </g>
   <g id="QuadMesh_1">
    <path clip-path="url(#pebb146cafd)" d="M 113.821094 126 
L 140.776555 126 
L 140.776555 207.54 
L 113.821094 207.54 
L 113.821094 126 
" style="fill:#cecece;stroke:#ffffff;stroke-width:2;"/>
    <path clip-path="url(#pebb146cafd)" d="M 113.821094 207.54 
L 140.776555 207.54 
L 140.776555 289.08 
L 113.821094 289.08 
L 113.821094 207.54 
" style="fill:#939393;stroke:#ffffff;stroke-width:2;"/>
    <path clip-path="url(#pebb146cafd)" d="M 113.821094 289.08 
L 140.776555 289.08 
L 140.776555 370.62 
L 113.821094 370.62 
L 113.821094 289.08 
" style="fill:#fffefe;stroke:#ffffff;stroke-width:2;"/>
    <path clip-path="url(#pebb146cafd)" d="M 113.821094 370.62 
L 140.776555 370.62 
L 140.776555 452.16 
L 113.821094 452.16 
L 113.821094 370.62 
" style="fill:#c8c8c8;stroke:#ffffff;stroke-width:2;"/>
    <path clip-path="url(#pebb146cafd)" d="M 113.821094 452.16 
L 140.776555 452.16 
L 140.776555 533.7 
L 113.821094 533.7 
L 113.821094 452.16 
" style="fill:#fffefe;stroke:#ffffff;stroke-width:2;"/>
   </g>
  </g>
  <g id="axes_2">
   <g id="patch_3">
    <path d="M 140.776555 533.7 
L 578.57042 533.7 
L 578.57042 126 
L 140.776555 126 
z
" style="fill:none;"/>
   </g>
   <g id="matplotlib.axis_3">
    <g id="xtick_2">
     <g id="text_7">
      <!-- setA_15 -->
      <g style="fill:#262626;" transform="translate(190.759066 640.321094)rotate(-90)scale(0.25 -0.25)">
       <use xlink:href="#DejaVuSans-115"/>
       <use x="52.099609" xlink:href="#DejaVuSans-101"/>
       <use x="113.623047" xlink:href="#DejaVuSans-116"/>
       <use x="152.832031" xlink:href="#DejaVuSans-65"/>
       <use x="221.240234" xlink:href="#DejaVuSans-95"/>
       <use x="271.240234" xlink:href="#DejaVuSans-49"/>
       <use x="334.863281" xlink:href="#DejaVuSans-53"/>
      </g>
     </g>
    </g>
    <g id="xtick_3">
     <g id="text_8">
      <!-- setA_21 -->
      <g style="fill:#262626;" transform="translate(278.444792 640.321094)rotate(-90)scale(0.25 -0.25)">
       <use xlink:href="#DejaVuSans-115"/>
       <use x="52.099609" xlink:href="#DejaVuSans-101"/>
       <use x="113.623047" xlink:href="#DejaVuSans-116"/>
       <use x="152.832031" xlink:href="#DejaVuSans-65"/>
       <use x="221.240234" xlink:href="#DejaVuSans-95"/>
       <use x="271.240234" xlink:href="#DejaVuSans-50"/>
       <use x="334.863281" xlink:href="#DejaVuSans-49"/>
      </g>
     </g>
    </g>
    <g id="xtick_4">
     <g id="text_9">
      <!-- setA_11 -->
      <g style="fill:#262626;" transform="translate(365.876612 640.321094)rotate(-90)scale(0.25 -0.25)">
       <use xlink:href="#DejaVuSans-115"/>
       <use x="52.099609" xlink:href="#DejaVuSans-101"/>
       <use x="113.623047" xlink:href="#DejaVuSans-116"/>
       <use x="152.832031" xlink:href="#DejaVuSans-65"/>
       <use x="221.240234" xlink:href="#DejaVuSans-95"/>
       <use x="271.240234" xlink:href="#DejaVuSans-49"/>
       <use x="334.863281" xlink:href="#DejaVuSans-49"/>
      </g>
     </g>
    </g>
    <g id="xtick_5">
     <g id="text_10">
      <!-- setA_24 -->
      <g style="fill:#262626;" transform="translate(453.562338 640.321094)rotate(-90)scale(0.25 -0.25)">
       <use xlink:href="#DejaVuSans-115"/>
       <use x="52.099609" xlink:href="#DejaVuSans-101"/>
       <use x="113.623047" xlink:href="#DejaVuSans-116"/>
       <use x="152.832031" xlink:href="#DejaVuSans-65"/>
       <use x="221.240234" xlink:href="#DejaVuSans-95"/>
       <use x="271.240234" xlink:href="#DejaVuSans-50"/>
       <use x="334.863281" xlink:href="#DejaVuSans-52"/>
      </g>
     </g>
    </g>
    <g id="xtick_6">
     <g id="text_11">
      <!-- setA_16 -->
      <g style="fill:#262626;" transform="translate(541.121111 640.321094)rotate(-90)scale(0.25 -0.25)">
       <use xlink:href="#DejaVuSans-115"/>
       <use x="52.099609" xlink:href="#DejaVuSans-101"/>
       <use x="113.623047" xlink:href="#DejaVuSans-116"/>
       <use x="152.832031" xlink:href="#DejaVuSans-65"/>
       <use x="221.240234" xlink:href="#DejaVuSans-95"/>
       <use x="271.240234" xlink:href="#DejaVuSans-49"/>
       <use x="334.863281" xlink:href="#DejaVuSans-54"/>
      </g>
     </g>
    </g>
   </g>
   <g id="matplotlib.axis_4"/>
   <g id="QuadMesh_2">
    <path clip-path="url(#pc3a5b45c4b)" d="M 140.776555 126 
L 228.335328 126 
L 228.335328 207.54 
L 140.776555 207.54 
L 140.776555 126 
" style="fill:none;stroke:#ffffff;stroke-width:2;"/>
    <path clip-path="url(#pc3a5b45c4b)" d="M 228.335328 126 
L 315.894101 126 
L 315.894101 207.54 
L 228.335328 207.54 
L 228.335328 126 
" style="fill:none;stroke:#ffffff;stroke-width:2;"/>
    <path clip-path="url(#pc3a5b45c4b)" d="M 315.894101 126 
L 403.452874 126 
L 403.452874 207.54 
L 315.894101 207.54 
L 315.894101 126 
" style="fill:none;stroke:#ffffff;stroke-width:2;"/>
    <path clip-path="url(#pc3a5b45c4b)" d="M 403.452874 126 
L 491.011647 126 
L 491.011647 207.54 
L 403.452874 207.54 
L 403.452874 126 
" style="fill:none;stroke:#ffffff;stroke-width:2;"/>
    <path clip-path="url(#pc3a5b45c4b)" d="M 491.011647 126 
L 578.57042 126 
L 578.57042 207.54 
L 491.011647 207.54 
L 491.011647 126 
" style="fill:none;stroke:#ffffff;stroke-width:2;"/>
    <path clip-path="url(#pc3a5b45c4b)" d="M 140.776555 207.54 
L 228.335328 207.54 
L 228.335328 289.08 
L 140.776555 289.08 
L 140.776555 207.54 
" style="fill:none;stroke:#ffffff;stroke-width:2;"/>
    <path clip-path="url(#pc3a5b45c4b)" d="M 228.335328 207.54 
L 315.894101 207.54 
L 315.894101 289.08 
L 228.335328 289.08 
L 228.335328 207.54 
" style="fill:none;stroke:#ffffff;stroke-width:2;"/>
    <path clip-path="url(#pc3a5b45c4b)" d="M 315.894101 207.54 
L 403.452874 207.54 
L 403.452874 289.08 
L 315.894101 289.08 
L 315.894101 207.54 
" style="fill:none;stroke:#ffffff;stroke-width:2;"/>
    <path clip-path="url(#pc3a5b45c4b)" d="M 403.452874 207.54 
L 491.011647 207.54 
L 491.011647 289.08 
L 403.452874 289.08 
L 403.452874 207.54 
" style="fill:none;stroke:#ffffff;stroke-width:2;"/>
    <path clip-path="url(#pc3a5b45c4b)" d="M 491.011647 207.54 
L 578.57042 207.54 
L 578.57042 289.08 
L 491.011647 289.08 
L 491.011647 207.54 
" style="fill:none;stroke:#ffffff;stroke-width:2;"/>
    <path clip-path="url(#pc3a5b45c4b)" d="M 140.776555 289.08 
L 228.335328 289.08 
L 228.335328 370.62 
L 140.776555 370.62 
L 140.776555 289.08 
" style="fill:none;stroke:#ffffff;stroke-width:2;"/>
    <path clip-path="url(#pc3a5b45c4b)" d="M 228.335328 289.08 
L 315.894101 289.08 
L 315.894101 370.62 
L 228.335328 370.62 
L 228.335328 289.08 
" style="fill:none;stroke:#ffffff;stroke-width:2;"/>
    <path clip-path="url(#pc3a5b45c4b)" d="M 315.894101 289.08 
L 403.452874 289.08 
L 403.452874 370.62 
L 315.894101 370.62 
L 315.894101 289.08 
" style="fill:none;stroke:#ffffff;stroke-width:2;"/>
    <path clip-path="url(#pc3a5b45c4b)" d="M 403.452874 289.08 
L 491.011647 289.08 
L 491.011647 370.62 
L 403.452874 370.62 
L 403.452874 289.08 
" style="fill:none;stroke:#ffffff;stroke-width:2;"/>
    <path clip-path="url(#pc3a5b45c4b)" d="M 491.011647 289.08 
L 578.57042 289.08 
L 578.57042 370.62 
L 491.011647 370.62 
L 491.011647 289.08 
" style="fill:#25847b;stroke:#ffffff;stroke-width:2;"/>
    <path clip-path="url(#pc3a5b45c4b)" d="M 140.776555 370.62 
L 228.335328 370.62 
L 228.335328 452.16 
L 140.776555 452.16 
L 140.776555 370.62 
" style="fill:none;stroke:#ffffff;stroke-width:2;"/>
    <path clip-path="url(#pc3a5b45c4b)" d="M 228.335328 370.62 
L 315.894101 370.62 
L 315.894101 452.16 
L 228.335328 452.16 
L 228.335328 370.62 
" style="fill:none;stroke:#ffffff;stroke-width:2;"/>
    <path clip-path="url(#pc3a5b45c4b)" d="M 315.894101 370.62 
L 403.452874 370.62 
L 403.452874 452.16 
L 315.894101 452.16 
L 315.894101 370.62 
" style="fill:none;stroke:#ffffff;stroke-width:2;"/>
    <path clip-path="url(#pc3a5b45c4b)" d="M 403.452874 370.62 
L 491.011647 370.62 
L 491.011647 452.16 
L 403.452874 452.16 
L 403.452874 370.62 
" style="fill:none;stroke:#ffffff;stroke-width:2;"/>
    <path clip-path="url(#pc3a5b45c4b)" d="M 491.011647 370.62 
L 578.57042 370.62 
L 578.57042 452.16 
L 491.011647 452.16 
L 491.011647 370.62 
" style="fill:none;stroke:#ffffff;stroke-width:2;"/>
    <path clip-path="url(#pc3a5b45c4b)" d="M 140.776555 452.16 
L 228.335328 452.16 
L 228.335328 533.7 
L 140.776555 533.7 
L 140.776555 452.16 
" style="fill:none;stroke:#ffffff;stroke-width:2;"/>
    <path clip-path="url(#pc3a5b45c4b)" d="M 228.335328 452.16 
L 315.894101 452.16 
L 315.894101 533.7 
L 228.335328 533.7 
L 228.335328 452.16 
" style="fill:none;stroke:#ffffff;stroke-width:2;"/>
    <path clip-path="url(#pc3a5b45c4b)" d="M 315.894101 452.16 
L 403.452874 452.16 
L 403.452874 533.7 
L 315.894101 533.7 
L 315.894101 452.16 
" style="fill:#b75f22;stroke:#ffffff;stroke-width:2;"/>
    <path clip-path="url(#pc3a5b45c4b)" d="M 403.452874 452.16 
L 491.011647 452.16 
L 491.011647 533.7 
L 403.452874 533.7 
L 403.452874 452.16 
" style="fill:none;stroke:#ffffff;stroke-width:2;"/>
    <path clip-path="url(#pc3a5b45c4b)" d="M 491.011647 452.16 
L 578.57042 452.16 
L 578.57042 533.7 
L 491.011647 533.7 
L 491.011647 452.16 
" style="fill:none;stroke:#ffffff;stroke-width:2;"/>
   </g>
   <g id="QuadMesh_3">
    <path clip-path="url(#pc3a5b45c4b)" d="M 140.776555 126 
L 228.335328 126 
L 228.335328 207.54 
L 140.776555 207.54 
L 140.776555 126 
" style="fill:none;stroke:#ffffff;stroke-width:2;"/>
    <path clip-path="url(#pc3a5b45c4b)" d="M 228.335328 126 
L 315.894101 126 
L 315.894101 207.54 
L 228.335328 207.54 
L 228.335328 126 
" style="fill:#f1f2f2;stroke:#ffffff;stroke-width:2;"/>
    <path clip-path="url(#pc3a5b45c4b)" d="M 315.894101 126 
L 403.452874 126 
L 403.452874 207.54 
L 315.894101 207.54 
L 315.894101 126 
" style="fill:#f1f2f2;stroke:#ffffff;stroke-width:2;"/>
    <path clip-path="url(#pc3a5b45c4b)" d="M 403.452874 126 
L 491.011647 126 
L 491.011647 207.54 
L 403.452874 207.54 
L 403.452874 126 
" style="fill:#f1f2f2;stroke:#ffffff;stroke-width:2;"/>
    <path clip-path="url(#pc3a5b45c4b)" d="M 491.011647 126 
L 578.57042 126 
L 578.57042 207.54 
L 491.011647 207.54 
L 491.011647 126 
" style="fill:#f1f2f2;stroke:#ffffff;stroke-width:2;"/>
    <path clip-path="url(#pc3a5b45c4b)" d="M 140.776555 207.54 
L 228.335328 207.54 
L 228.335328 289.08 
L 140.776555 289.08 
L 140.776555 207.54 
" style="fill:#f1f2f2;stroke:#ffffff;stroke-width:2;"/>
    <path clip-path="url(#pc3a5b45c4b)" d="M 228.335328 207.54 
L 315.894101 207.54 
L 315.894101 289.08 
L 228.335328 289.08 
L 228.335328 207.54 
" style="fill:none;stroke:#ffffff;stroke-width:2;"/>
    <path clip-path="url(#pc3a5b45c4b)" d="M 315.894101 207.54 
L 403.452874 207.54 
L 403.452874 289.08 
L 315.894101 289.08 
L 315.894101 207.54 
" style="fill:#f1f2f2;stroke:#ffffff;stroke-width:2;"/>
    <path clip-path="url(#pc3a5b45c4b)" d="M 403.452874 207.54 
L 491.011647 207.54 
L 491.011647 289.08 
L 403.452874 289.08 
L 403.452874 207.54 
" style="fill:#f1f2f2;stroke:#ffffff;stroke-width:2;"/>
    <path clip-path="url(#pc3a5b45c4b)" d="M 491.011647 207.54 
L 578.57042 207.54 
L 578.57042 289.08 
L 491.011647 289.08 
L 491.011647 207.54 
" style="fill:#f1f2f2;stroke:#ffffff;stroke-width:2;"/>
    <path clip-path="url(#pc3a5b45c4b)" d="M 140.776555 289.08 
L 228.335328 289.08 
L 228.335328 370.62 
L 140.776555 370.62 
L 140.776555 289.08 
" style="fill:#f1f2f2;stroke:#ffffff;stroke-width:2;"/>
    <path clip-path="url(#pc3a5b45c4b)" d="M 228.335328 289.08 
L 315.894101 289.08 
L 315.894101 370.62 
L 228.335328 370.62 
L 228.335328 289.08 
" style="fill:#f1f2f2;stroke:#ffffff;stroke-width:2;"/>
    <path clip-path="url(#pc3a5b45c4b)" d="M 315.894101 289.08 
L 403.452874 289.08 
L 403.452874 370.62 
L 315.894101 370.62 
L 315.894101 289.08 
" style="fill:none;stroke:#ffffff;stroke-width:2;"/>
    <path clip-path="url(#pc3a5b45c4b)" d="M 403.452874 289.08 
L 491.011647 289.08 
L 491.011647 370.62 
L 403.452874 370.62 
L 403.452874 289.08 
" style="fill:#f1f2f2;stroke:#ffffff;stroke-width:2;"/>
    <path clip-path="url(#pc3a5b45c4b)" d="M 491.011647 289.08 
L 578.57042 289.08 
L 578.57042 370.62 
L 491.011647 370.62 
L 491.011647 289.08 
" style="fill:none;stroke:#ffffff;stroke-width:2;"/>
    <path clip-path="url(#pc3a5b45c4b)" d="M 140.776555 370.62 
L 228.335328 370.62 
L 228.335328 452.16 
L 140.776555 452.16 
L 140.776555 370.62 
" style="fill:#f59cb4;stroke:#ffffff;stroke-width:2;"/>
    <path clip-path="url(#pc3a5b45c4b)" d="M 228.335328 370.62 
L 315.894101 370.62 
L 315.894101 452.16 
L 228.335328 452.16 
L 228.335328 370.62 
" style="fill:#f1f2f2;stroke:#ffffff;stroke-width:2;"/>
    <path clip-path="url(#pc3a5b45c4b)" d="M 315.894101 370.62 
L 403.452874 370.62 
L 403.452874 452.16 
L 315.894101 452.16 
L 315.894101 370.62 
" style="fill:#f1f2f2;stroke:#ffffff;stroke-width:2;"/>
    <path clip-path="url(#pc3a5b45c4b)" d="M 403.452874 370.62 
L 491.011647 370.62 
L 491.011647 452.16 
L 403.452874 452.16 
L 403.452874 370.62 
" style="fill:none;stroke:#ffffff;stroke-width:2;"/>
    <path clip-path="url(#pc3a5b45c4b)" d="M 491.011647 370.62 
L 578.57042 370.62 
L 578.57042 452.16 
L 491.011647 452.16 
L 491.011647 370.62 
" style="fill:#f3eff0;stroke:#ffffff;stroke-width:2;"/>
    <path clip-path="url(#pc3a5b45c4b)" d="M 140.776555 452.16 
L 228.335328 452.16 
L 228.335328 533.7 
L 140.776555 533.7 
L 140.776555 452.16 
" style="fill:#f1f2f2;stroke:#ffffff;stroke-width:2;"/>
    <path clip-path="url(#pc3a5b45c4b)" d="M 228.335328 452.16 
L 315.894101 452.16 
L 315.894101 533.7 
L 228.335328 533.7 
L 228.335328 452.16 
" style="fill:#f1f2f2;stroke:#ffffff;stroke-width:2;"/>
    <path clip-path="url(#pc3a5b45c4b)" d="M 315.894101 452.16 
L 403.452874 452.16 
L 403.452874 533.7 
L 315.894101 533.7 
L 315.894101 452.16 
" style="fill:none;stroke:#ffffff;stroke-width:2;"/>
    <path clip-path="url(#pc3a5b45c4b)" d="M 403.452874 452.16 
L 491.011647 452.16 
L 491.011647 533.7 
L 403.452874 533.7 
L 403.452874 452.16 
" style="fill:#f1f2f2;stroke:#ffffff;stroke-width:2;"/>
    <path clip-path="url(#pc3a5b45c4b)" d="M 491.011647 452.16 
L 578.57042 452.16 
L 578.57042 533.7 
L 491.011647 533.7 
L 491.011647 452.16 
" style="fill:none;stroke:#ffffff;stroke-width:2;"/>
   </g>
   <g id="patch_4">
    <path clip-path="url(#pc3a5b45c4b)" d="M 158.288309 142.308 
L 210.823573 142.308 
L 210.823573 191.232 
L 158.288309 191.232 
z
" style="fill:url(#h58cb960be2);"/>
   </g>
   <g id="patch_5">
    <path clip-path="url(#pc3a5b45c4b)" d="M 245.847082 223.848 
L 298.382346 223.848 
L 298.382346 272.772 
L 245.847082 272.772 
z
" style="fill:url(#h58cb960be2);"/>
   </g>
   <g id="patch_6">
    <path clip-path="url(#pc3a5b45c4b)" d="M 333.405855 305.388 
L 385.941119 305.388 
L 385.941119 354.312 
L 333.405855 354.312 
z
" style="fill:url(#h58cb960be2);"/>
   </g>
   <g id="patch_7">
    <path clip-path="url(#pc3a5b45c4b)" d="M 420.964628 386.928 
L 473.499892 386.928 
L 473.499892 435.852 
L 420.964628 435.852 
z
" style="fill:url(#h58cb960be2);"/>
   </g>
   <g id="patch_8">
    <path clip-path="url(#pc3a5b45c4b)" d="M 508.523401 468.468 
L 561.058665 468.468 
L 561.058665 517.392 
L 508.523401 517.392 
z
" style="fill:url(#h58cb960be2);"/>
   </g>
   <g id="text_12">
    <!-- Plasticity = OFF -->
    <g style="fill:#262626;" transform="translate(241.068019 79.23)scale(0.3 -0.3)">
     <defs>
      <path d="M 19.671875 64.796875 
L 19.671875 37.40625 
L 32.078125 37.40625 
Q 38.96875 37.40625 42.71875 40.96875 
Q 46.484375 44.53125 46.484375 51.125 
Q 46.484375 57.671875 42.71875 61.234375 
Q 38.96875 64.796875 32.078125 64.796875 
z
M 9.8125 72.90625 
L 32.078125 72.90625 
Q 44.34375 72.90625 50.609375 67.359375 
Q 56.890625 61.8125 56.890625 51.125 
Q 56.890625 40.328125 50.609375 34.8125 
Q 44.34375 29.296875 32.078125 29.296875 
L 19.671875 29.296875 
L 19.671875 0 
L 9.8125 0 
z
" id="DejaVuSans-80"/>
      <path d="M 9.421875 75.984375 
L 18.40625 75.984375 
L 18.40625 0 
L 9.421875 0 
z
" id="DejaVuSans-108"/>
      <path d="M 34.28125 27.484375 
Q 23.390625 27.484375 19.1875 25 
Q 14.984375 22.515625 14.984375 16.5 
Q 14.984375 11.71875 18.140625 8.90625 
Q 21.296875 6.109375 26.703125 6.109375 
Q 34.1875 6.109375 38.703125 11.40625 
Q 43.21875 16.703125 43.21875 25.484375 
L 43.21875 27.484375 
z
M 52.203125 31.203125 
L 52.203125 0 
L 43.21875 0 
L 43.21875 8.296875 
Q 40.140625 3.328125 35.546875 0.953125 
Q 30.953125 -1.421875 24.3125 -1.421875 
Q 15.921875 -1.421875 10.953125 3.296875 
Q 6 8.015625 6 15.921875 
Q 6 25.140625 12.171875 29.828125 
Q 18.359375 34.515625 30.609375 34.515625 
L 43.21875 34.515625 
L 43.21875 35.40625 
Q 43.21875 41.609375 39.140625 45 
Q 35.0625 48.390625 27.6875 48.390625 
Q 23 48.390625 18.546875 47.265625 
Q 14.109375 46.140625 10.015625 43.890625 
L 10.015625 52.203125 
Q 14.9375 54.109375 19.578125 55.046875 
Q 24.21875 56 28.609375 56 
Q 40.484375 56 46.34375 49.84375 
Q 52.203125 43.703125 52.203125 31.203125 
z
" id="DejaVuSans-97"/>
      <path d="M 9.421875 54.6875 
L 18.40625 54.6875 
L 18.40625 0 
L 9.421875 0 
z
M 9.421875 75.984375 
L 18.40625 75.984375 
L 18.40625 64.59375 
L 9.421875 64.59375 
z
" id="DejaVuSans-105"/>
      <path d="M 48.78125 52.59375 
L 48.78125 44.1875 
Q 44.96875 46.296875 41.140625 47.34375 
Q 37.3125 48.390625 33.40625 48.390625 
Q 24.65625 48.390625 19.8125 42.84375 
Q 14.984375 37.3125 14.984375 27.296875 
Q 14.984375 17.28125 19.8125 11.734375 
Q 24.65625 6.203125 33.40625 6.203125 
Q 37.3125 6.203125 41.140625 7.25 
Q 44.96875 8.296875 48.78125 10.40625 
L 48.78125 2.09375 
Q 45.015625 0.34375 40.984375 -0.53125 
Q 36.96875 -1.421875 32.421875 -1.421875 
Q 20.0625 -1.421875 12.78125 6.34375 
Q 5.515625 14.109375 5.515625 27.296875 
Q 5.515625 40.671875 12.859375 48.328125 
Q 20.21875 56 33.015625 56 
Q 37.15625 56 41.109375 55.140625 
Q 45.0625 54.296875 48.78125 52.59375 
z
" id="DejaVuSans-99"/>
      <path d="M 32.171875 -5.078125 
Q 28.375 -14.84375 24.75 -17.8125 
Q 21.140625 -20.796875 15.09375 -20.796875 
L 7.90625 -20.796875 
L 7.90625 -13.28125 
L 13.1875 -13.28125 
Q 16.890625 -13.28125 18.9375 -11.515625 
Q 21 -9.765625 23.484375 -3.21875 
L 25.09375 0.875 
L 2.984375 54.6875 
L 12.5 54.6875 
L 29.59375 11.921875 
L 46.6875 54.6875 
L 56.203125 54.6875 
z
" id="DejaVuSans-121"/>
      <path id="DejaVuSans-32"/>
      <path d="M 10.59375 45.40625 
L 73.1875 45.40625 
L 73.1875 37.203125 
L 10.59375 37.203125 
z
M 10.59375 25.484375 
L 73.1875 25.484375 
L 73.1875 17.1875 
L 10.59375 17.1875 
z
" id="DejaVuSans-61"/>
      <path d="M 39.40625 66.21875 
Q 28.65625 66.21875 22.328125 58.203125 
Q 16.015625 50.203125 16.015625 36.375 
Q 16.015625 22.609375 22.328125 14.59375 
Q 28.65625 6.59375 39.40625 6.59375 
Q 50.140625 6.59375 56.421875 14.59375 
Q 62.703125 22.609375 62.703125 36.375 
Q 62.703125 50.203125 56.421875 58.203125 
Q 50.140625 66.21875 39.40625 66.21875 
z
M 39.40625 74.21875 
Q 54.734375 74.21875 63.90625 63.9375 
Q 73.09375 53.65625 73.09375 36.375 
Q 73.09375 19.140625 63.90625 8.859375 
Q 54.734375 -1.421875 39.40625 -1.421875 
Q 24.03125 -1.421875 14.8125 8.828125 
Q 5.609375 19.09375 5.609375 36.375 
Q 5.609375 53.65625 14.8125 63.9375 
Q 24.03125 74.21875 39.40625 74.21875 
z
" id="DejaVuSans-79"/>
      <path d="M 9.8125 72.90625 
L 51.703125 72.90625 
L 51.703125 64.59375 
L 19.671875 64.59375 
L 19.671875 43.109375 
L 48.578125 43.109375 
L 48.578125 34.8125 
L 19.671875 34.8125 
L 19.671875 0 
L 9.8125 0 
z
" id="DejaVuSans-70"/>
     </defs>
     <use xlink:href="#DejaVuSans-80"/>
     <use x="60.302734" xlink:href="#DejaVuSans-108"/>
     <use x="88.085938" xlink:href="#DejaVuSans-97"/>
     <use x="149.365234" xlink:href="#DejaVuSans-115"/>
     <use x="201.464844" xlink:href="#DejaVuSans-116"/>
     <use x="240.673828" xlink:href="#DejaVuSans-105"/>
     <use x="268.457031" xlink:href="#DejaVuSans-99"/>
     <use x="323.4375" xlink:href="#DejaVuSans-105"/>
     <use x="351.220703" xlink:href="#DejaVuSans-116"/>
     <use x="390.429688" xlink:href="#DejaVuSans-121"/>
     <use x="449.609375" xlink:href="#DejaVuSans-32"/>
     <use x="481.396484" xlink:href="#DejaVuSans-61"/>
     <use x="565.185547" xlink:href="#DejaVuSans-32"/>
     <use x="596.972656" xlink:href="#DejaVuSans-79"/>
     <use x="675.683594" xlink:href="#DejaVuSans-70"/>
     <use x="733.203125" xlink:href="#DejaVuSans-70"/>
    </g>
   </g>
  </g>
  <g id="axes_3">
   <g id="patch_9">
    <path d="M 623.691714 533.7 
L 1061.368264 533.7 
L 1061.368264 126 
L 623.691714 126 
z
" style="fill:none;"/>
   </g>
   <g id="matplotlib.axis_5">
    <g id="xtick_7">
     <g id="text_13">
      <!-- setA_15 -->
      <g style="fill:#262626;" transform="translate(673.662494 640.321094)rotate(-90)scale(0.25 -0.25)">
       <use xlink:href="#DejaVuSans-115"/>
       <use x="52.099609" xlink:href="#DejaVuSans-101"/>
       <use x="113.623047" xlink:href="#DejaVuSans-116"/>
       <use x="152.832031" xlink:href="#DejaVuSans-65"/>
       <use x="221.240234" xlink:href="#DejaVuSans-95"/>
       <use x="271.240234" xlink:href="#DejaVuSans-49"/>
       <use x="334.863281" xlink:href="#DejaVuSans-53"/>
      </g>
     </g>
    </g>
    <g id="xtick_8">
     <g id="text_14">
      <!-- setA_21 -->
      <g style="fill:#262626;" transform="translate(761.324757 640.321094)rotate(-90)scale(0.25 -0.25)">
       <use xlink:href="#DejaVuSans-115"/>
       <use x="52.099609" xlink:href="#DejaVuSans-101"/>
       <use x="113.623047" xlink:href="#DejaVuSans-116"/>
       <use x="152.832031" xlink:href="#DejaVuSans-65"/>
       <use x="221.240234" xlink:href="#DejaVuSans-95"/>
       <use x="271.240234" xlink:href="#DejaVuSans-50"/>
       <use x="334.863281" xlink:href="#DejaVuSans-49"/>
      </g>
     </g>
    </g>
    <g id="xtick_9">
     <g id="text_15">
      <!-- setA_11 -->
      <g style="fill:#262626;" transform="translate(848.733114 640.321094)rotate(-90)scale(0.25 -0.25)">
       <use xlink:href="#DejaVuSans-115"/>
       <use x="52.099609" xlink:href="#DejaVuSans-101"/>
       <use x="113.623047" xlink:href="#DejaVuSans-116"/>
       <use x="152.832031" xlink:href="#DejaVuSans-65"/>
       <use x="221.240234" xlink:href="#DejaVuSans-95"/>
       <use x="271.240234" xlink:href="#DejaVuSans-49"/>
       <use x="334.863281" xlink:href="#DejaVuSans-49"/>
      </g>
     </g>
    </g>
    <g id="xtick_10">
     <g id="text_16">
      <!-- setA_24 -->
      <g style="fill:#262626;" transform="translate(936.395377 640.321094)rotate(-90)scale(0.25 -0.25)">
       <use xlink:href="#DejaVuSans-115"/>
       <use x="52.099609" xlink:href="#DejaVuSans-101"/>
       <use x="113.623047" xlink:href="#DejaVuSans-116"/>
       <use x="152.832031" xlink:href="#DejaVuSans-65"/>
       <use x="221.240234" xlink:href="#DejaVuSans-95"/>
       <use x="271.240234" xlink:href="#DejaVuSans-50"/>
       <use x="334.863281" xlink:href="#DejaVuSans-52"/>
      </g>
     </g>
    </g>
    <g id="xtick_11">
     <g id="text_17">
      <!-- setA_16 -->
      <g style="fill:#262626;" transform="translate(1023.930687 640.321094)rotate(-90)scale(0.25 -0.25)">
       <use xlink:href="#DejaVuSans-115"/>
       <use x="52.099609" xlink:href="#DejaVuSans-101"/>
       <use x="113.623047" xlink:href="#DejaVuSans-116"/>
       <use x="152.832031" xlink:href="#DejaVuSans-65"/>
       <use x="221.240234" xlink:href="#DejaVuSans-95"/>
       <use x="271.240234" xlink:href="#DejaVuSans-49"/>
       <use x="334.863281" xlink:href="#DejaVuSans-54"/>
      </g>
     </g>
    </g>
   </g>
   <g id="matplotlib.axis_6"/>
   <g id="QuadMesh_4">
    <path clip-path="url(#p17425f854a)" d="M 623.691714 126 
L 711.227024 126 
L 711.227024 207.54 
L 623.691714 207.54 
L 623.691714 126 
" style="fill:none;stroke:#ffffff;stroke-width:2;"/>
    <path clip-path="url(#p17425f854a)" d="M 711.227024 126 
L 798.762334 126 
L 798.762334 207.54 
L 711.227024 207.54 
L 711.227024 126 
" style="fill:none;stroke:#ffffff;stroke-width:2;"/>
    <path clip-path="url(#p17425f854a)" d="M 798.762334 126 
L 886.297644 126 
L 886.297644 207.54 
L 798.762334 207.54 
L 798.762334 126 
" style="fill:none;stroke:#ffffff;stroke-width:2;"/>
    <path clip-path="url(#p17425f854a)" d="M 886.297644 126 
L 973.832954 126 
L 973.832954 207.54 
L 886.297644 207.54 
L 886.297644 126 
" style="fill:none;stroke:#ffffff;stroke-width:2;"/>
    <path clip-path="url(#p17425f854a)" d="M 973.832954 126 
L 1061.368264 126 
L 1061.368264 207.54 
L 973.832954 207.54 
L 973.832954 126 
" style="fill:none;stroke:#ffffff;stroke-width:2;"/>
    <path clip-path="url(#p17425f854a)" d="M 623.691714 207.54 
L 711.227024 207.54 
L 711.227024 289.08 
L 623.691714 289.08 
L 623.691714 207.54 
" style="fill:none;stroke:#ffffff;stroke-width:2;"/>
    <path clip-path="url(#p17425f854a)" d="M 711.227024 207.54 
L 798.762334 207.54 
L 798.762334 289.08 
L 711.227024 289.08 
L 711.227024 207.54 
" style="fill:none;stroke:#ffffff;stroke-width:2;"/>
    <path clip-path="url(#p17425f854a)" d="M 798.762334 207.54 
L 886.297644 207.54 
L 886.297644 289.08 
L 798.762334 289.08 
L 798.762334 207.54 
" style="fill:none;stroke:#ffffff;stroke-width:2;"/>
    <path clip-path="url(#p17425f854a)" d="M 886.297644 207.54 
L 973.832954 207.54 
L 973.832954 289.08 
L 886.297644 289.08 
L 886.297644 207.54 
" style="fill:none;stroke:#ffffff;stroke-width:2;"/>
    <path clip-path="url(#p17425f854a)" d="M 973.832954 207.54 
L 1061.368264 207.54 
L 1061.368264 289.08 
L 973.832954 289.08 
L 973.832954 207.54 
" style="fill:#25847b;stroke:#ffffff;stroke-width:2;"/>
    <path clip-path="url(#p17425f854a)" d="M 623.691714 289.08 
L 711.227024 289.08 
L 711.227024 370.62 
L 623.691714 370.62 
L 623.691714 289.08 
" style="fill:none;stroke:#ffffff;stroke-width:2;"/>
    <path clip-path="url(#p17425f854a)" d="M 711.227024 289.08 
L 798.762334 289.08 
L 798.762334 370.62 
L 711.227024 370.62 
L 711.227024 289.08 
" style="fill:none;stroke:#ffffff;stroke-width:2;"/>
    <path clip-path="url(#p17425f854a)" d="M 798.762334 289.08 
L 886.297644 289.08 
L 886.297644 370.62 
L 798.762334 370.62 
L 798.762334 289.08 
" style="fill:none;stroke:#ffffff;stroke-width:2;"/>
    <path clip-path="url(#p17425f854a)" d="M 886.297644 289.08 
L 973.832954 289.08 
L 973.832954 370.62 
L 886.297644 370.62 
L 886.297644 289.08 
" style="fill:none;stroke:#ffffff;stroke-width:2;"/>
    <path clip-path="url(#p17425f854a)" d="M 973.832954 289.08 
L 1061.368264 289.08 
L 1061.368264 370.62 
L 973.832954 370.62 
L 973.832954 289.08 
" style="fill:#25847b;stroke:#ffffff;stroke-width:2;"/>
    <path clip-path="url(#p17425f854a)" d="M 623.691714 370.62 
L 711.227024 370.62 
L 711.227024 452.16 
L 623.691714 452.16 
L 623.691714 370.62 
" style="fill:none;stroke:#ffffff;stroke-width:2;"/>
    <path clip-path="url(#p17425f854a)" d="M 711.227024 370.62 
L 798.762334 370.62 
L 798.762334 452.16 
L 711.227024 452.16 
L 711.227024 370.62 
" style="fill:none;stroke:#ffffff;stroke-width:2;"/>
    <path clip-path="url(#p17425f854a)" d="M 798.762334 370.62 
L 886.297644 370.62 
L 886.297644 452.16 
L 798.762334 452.16 
L 798.762334 370.62 
" style="fill:none;stroke:#ffffff;stroke-width:2;"/>
    <path clip-path="url(#p17425f854a)" d="M 886.297644 370.62 
L 973.832954 370.62 
L 973.832954 452.16 
L 886.297644 452.16 
L 886.297644 370.62 
" style="fill:none;stroke:#ffffff;stroke-width:2;"/>
    <path clip-path="url(#p17425f854a)" d="M 973.832954 370.62 
L 1061.368264 370.62 
L 1061.368264 452.16 
L 973.832954 452.16 
L 973.832954 370.62 
" style="fill:none;stroke:#ffffff;stroke-width:2;"/>
    <path clip-path="url(#p17425f854a)" d="M 623.691714 452.16 
L 711.227024 452.16 
L 711.227024 533.7 
L 623.691714 533.7 
L 623.691714 452.16 
" style="fill:none;stroke:#ffffff;stroke-width:2;"/>
    <path clip-path="url(#p17425f854a)" d="M 711.227024 452.16 
L 798.762334 452.16 
L 798.762334 533.7 
L 711.227024 533.7 
L 711.227024 452.16 
" style="fill:#b75f22;stroke:#ffffff;stroke-width:2;"/>
    <path clip-path="url(#p17425f854a)" d="M 798.762334 452.16 
L 886.297644 452.16 
L 886.297644 533.7 
L 798.762334 533.7 
L 798.762334 452.16 
" style="fill:#b75f22;stroke:#ffffff;stroke-width:2;"/>
    <path clip-path="url(#p17425f854a)" d="M 886.297644 452.16 
L 973.832954 452.16 
L 973.832954 533.7 
L 886.297644 533.7 
L 886.297644 452.16 
" style="fill:none;stroke:#ffffff;stroke-width:2;"/>
    <path clip-path="url(#p17425f854a)" d="M 973.832954 452.16 
L 1061.368264 452.16 
L 1061.368264 533.7 
L 973.832954 533.7 
L 973.832954 452.16 
" style="fill:none;stroke:#ffffff;stroke-width:2;"/>
   </g>
   <g id="QuadMesh_5">
    <path clip-path="url(#p17425f854a)" d="M 623.691714 126 
L 711.227024 126 
L 711.227024 207.54 
L 623.691714 207.54 
L 623.691714 126 
" style="fill:none;stroke:#ffffff;stroke-width:2;"/>
    <path clip-path="url(#p17425f854a)" d="M 711.227024 126 
L 798.762334 126 
L 798.762334 207.54 
L 711.227024 207.54 
L 711.227024 126 
" style="fill:#f1f2f2;stroke:#ffffff;stroke-width:2;"/>
    <path clip-path="url(#p17425f854a)" d="M 798.762334 126 
L 886.297644 126 
L 886.297644 207.54 
L 798.762334 207.54 
L 798.762334 126 
" style="fill:#dbe8ee;stroke:#ffffff;stroke-width:2;"/>
    <path clip-path="url(#p17425f854a)" d="M 886.297644 126 
L 973.832954 126 
L 973.832954 207.54 
L 886.297644 207.54 
L 886.297644 126 
" style="fill:#f1f2f2;stroke:#ffffff;stroke-width:2;"/>
    <path clip-path="url(#p17425f854a)" d="M 973.832954 126 
L 1061.368264 126 
L 1061.368264 207.54 
L 973.832954 207.54 
L 973.832954 126 
" style="fill:#aed3e3;stroke:#ffffff;stroke-width:2;"/>
    <path clip-path="url(#p17425f854a)" d="M 623.691714 207.54 
L 711.227024 207.54 
L 711.227024 289.08 
L 623.691714 289.08 
L 623.691714 207.54 
" style="fill:#f3e0e5;stroke:#ffffff;stroke-width:2;"/>
    <path clip-path="url(#p17425f854a)" d="M 711.227024 207.54 
L 798.762334 207.54 
L 798.762334 289.08 
L 711.227024 289.08 
L 711.227024 207.54 
" style="fill:none;stroke:#ffffff;stroke-width:2;"/>
    <path clip-path="url(#p17425f854a)" d="M 798.762334 207.54 
L 886.297644 207.54 
L 886.297644 289.08 
L 798.762334 289.08 
L 798.762334 207.54 
" style="fill:#f75782;stroke:#ffffff;stroke-width:2;"/>
    <path clip-path="url(#p17425f854a)" d="M 886.297644 207.54 
L 973.832954 207.54 
L 973.832954 289.08 
L 886.297644 289.08 
L 886.297644 207.54 
" style="fill:#f1f2f2;stroke:#ffffff;stroke-width:2;"/>
    <path clip-path="url(#p17425f854a)" d="M 973.832954 207.54 
L 1061.368264 207.54 
L 1061.368264 289.08 
L 973.832954 289.08 
L 973.832954 207.54 
" style="fill:none;stroke:#ffffff;stroke-width:2;"/>
    <path clip-path="url(#p17425f854a)" d="M 623.691714 289.08 
L 711.227024 289.08 
L 711.227024 370.62 
L 623.691714 370.62 
L 623.691714 289.08 
" style="fill:#f1f2f2;stroke:#ffffff;stroke-width:2;"/>
    <path clip-path="url(#p17425f854a)" d="M 711.227024 289.08 
L 798.762334 289.08 
L 798.762334 370.62 
L 711.227024 370.62 
L 711.227024 289.08 
" style="fill:#f1f2f2;stroke:#ffffff;stroke-width:2;"/>
    <path clip-path="url(#p17425f854a)" d="M 798.762334 289.08 
L 886.297644 289.08 
L 886.297644 370.62 
L 798.762334 370.62 
L 798.762334 289.08 
" style="fill:none;stroke:#ffffff;stroke-width:2;"/>
    <path clip-path="url(#p17425f854a)" d="M 886.297644 289.08 
L 973.832954 289.08 
L 973.832954 370.62 
L 886.297644 370.62 
L 886.297644 289.08 
" style="fill:#f1f2f2;stroke:#ffffff;stroke-width:2;"/>
    <path clip-path="url(#p17425f854a)" d="M 973.832954 289.08 
L 1061.368264 289.08 
L 1061.368264 370.62 
L 973.832954 370.62 
L 973.832954 289.08 
" style="fill:none;stroke:#ffffff;stroke-width:2;"/>
    <path clip-path="url(#p17425f854a)" d="M 623.691714 370.62 
L 711.227024 370.62 
L 711.227024 452.16 
L 623.691714 452.16 
L 623.691714 370.62 
" style="fill:#f1f2f2;stroke:#ffffff;stroke-width:2;"/>
    <path clip-path="url(#p17425f854a)" d="M 711.227024 370.62 
L 798.762334 370.62 
L 798.762334 452.16 
L 711.227024 452.16 
L 711.227024 370.62 
" style="fill:#f1f2f2;stroke:#ffffff;stroke-width:2;"/>
    <path clip-path="url(#p17425f854a)" d="M 798.762334 370.62 
L 886.297644 370.62 
L 886.297644 452.16 
L 798.762334 452.16 
L 798.762334 370.62 
" style="fill:#f3e8eb;stroke:#ffffff;stroke-width:2;"/>
    <path clip-path="url(#p17425f854a)" d="M 886.297644 370.62 
L 973.832954 370.62 
L 973.832954 452.16 
L 886.297644 452.16 
L 886.297644 370.62 
" style="fill:none;stroke:#ffffff;stroke-width:2;"/>
    <path clip-path="url(#p17425f854a)" d="M 973.832954 370.62 
L 1061.368264 370.62 
L 1061.368264 452.16 
L 973.832954 452.16 
L 973.832954 370.62 
" style="fill:#f3dbe1;stroke:#ffffff;stroke-width:2;"/>
    <path clip-path="url(#p17425f854a)" d="M 623.691714 452.16 
L 711.227024 452.16 
L 711.227024 533.7 
L 623.691714 533.7 
L 623.691714 452.16 
" style="fill:#f1f2f2;stroke:#ffffff;stroke-width:2;"/>
    <path clip-path="url(#p17425f854a)" d="M 711.227024 452.16 
L 798.762334 452.16 
L 798.762334 533.7 
L 711.227024 533.7 
L 711.227024 452.16 
" style="fill:none;stroke:#ffffff;stroke-width:2;"/>
    <path clip-path="url(#p17425f854a)" d="M 798.762334 452.16 
L 886.297644 452.16 
L 886.297644 533.7 
L 798.762334 533.7 
L 798.762334 452.16 
" style="fill:none;stroke:#ffffff;stroke-width:2;"/>
    <path clip-path="url(#p17425f854a)" d="M 886.297644 452.16 
L 973.832954 452.16 
L 973.832954 533.7 
L 886.297644 533.7 
L 886.297644 452.16 
" style="fill:#f3eff0;stroke:#ffffff;stroke-width:2;"/>
    <path clip-path="url(#p17425f854a)" d="M 973.832954 452.16 
L 1061.368264 452.16 
L 1061.368264 533.7 
L 973.832954 533.7 
L 973.832954 452.16 
" style="fill:none;stroke:#ffffff;stroke-width:2;"/>
   </g>
   <g id="patch_10">
    <path clip-path="url(#p17425f854a)" d="M 641.198776 142.308 
L 693.719962 142.308 
L 693.719962 191.232 
L 641.198776 191.232 
z
" style="fill:url(#h58cb960be2);"/>
   </g>
   <g id="patch_11">
    <path clip-path="url(#p17425f854a)" d="M 728.734086 223.848 
L 781.255272 223.848 
L 781.255272 272.772 
L 728.734086 272.772 
z
" style="fill:url(#h58cb960be2);"/>
   </g>
   <g id="patch_12">
    <path clip-path="url(#p17425f854a)" d="M 816.269396 305.388 
L 868.790582 305.388 
L 868.790582 354.312 
L 816.269396 354.312 
z
" style="fill:url(#h58cb960be2);"/>
   </g>
   <g id="patch_13">
    <path clip-path="url(#p17425f854a)" d="M 903.804706 386.928 
L 956.325892 386.928 
L 956.325892 435.852 
L 903.804706 435.852 
z
" style="fill:url(#h58cb960be2);"/>
   </g>
   <g id="patch_14">
    <path clip-path="url(#p17425f854a)" d="M 991.340016 468.468 
L 1043.861202 468.468 
L 1043.861202 517.392 
L 991.340016 517.392 
z
" style="fill:url(#h58cb960be2);"/>
   </g>
   <g id="text_18">
    <!-- Plasticity = ON -->
    <g style="fill:#262626;" transform="translate(729.957332 79.23)scale(0.3 -0.3)">
     <defs>
      <path d="M 9.8125 72.90625 
L 23.09375 72.90625 
L 55.421875 11.921875 
L 55.421875 72.90625 
L 64.984375 72.90625 
L 64.984375 0 
L 51.703125 0 
L 19.390625 60.984375 
L 19.390625 0 
L 9.8125 0 
z
" id="DejaVuSans-78"/>
     </defs>
     <use xlink:href="#DejaVuSans-80"/>
     <use x="60.302734" xlink:href="#DejaVuSans-108"/>
     <use x="88.085938" xlink:href="#DejaVuSans-97"/>
     <use x="149.365234" xlink:href="#DejaVuSans-115"/>
     <use x="201.464844" xlink:href="#DejaVuSans-116"/>
     <use x="240.673828" xlink:href="#DejaVuSans-105"/>
     <use x="268.457031" xlink:href="#DejaVuSans-99"/>
     <use x="323.4375" xlink:href="#DejaVuSans-105"/>
     <use x="351.220703" xlink:href="#DejaVuSans-116"/>
     <use x="390.429688" xlink:href="#DejaVuSans-121"/>
     <use x="449.609375" xlink:href="#DejaVuSans-32"/>
     <use x="481.396484" xlink:href="#DejaVuSans-61"/>
     <use x="565.185547" xlink:href="#DejaVuSans-32"/>
     <use x="596.972656" xlink:href="#DejaVuSans-79"/>
     <use x="675.683594" xlink:href="#DejaVuSans-78"/>
    </g>
   </g>
  </g>
  <g id="axes_4">
   <g id="patch_15">
    <path clip-path="url(#p36b322880e)" d="M 1137.172037 431.775 
L 1137.172037 430.713281 
L 1137.172037 161.036719 
L 1137.172037 159.975 
L 1167.396827 159.975 
L 1167.396827 161.036719 
L 1167.396827 430.713281 
L 1167.396827 431.775 
z
" style="fill:#ffffff;stroke:#ffffff;stroke-linejoin:miter;stroke-width:0.01;"/>
   </g>
   <g id="matplotlib.axis_7"/>
   <g id="matplotlib.axis_8">
    <g id="ytick_6">
     <g id="line2d_1">
      <defs>
       <path d="M 0 0 
L 3.5 0 
" id="m663a9cbdda" style="stroke:#262626;stroke-width:0.8;"/>
      </defs>
      <g>
       <use style="fill:#262626;stroke:#262626;stroke-width:0.8;" x="1167.396827" xlink:href="#m663a9cbdda" y="431.775"/>
      </g>
     </g>
     <g id="text_19">
      <!-- −1.0 -->
      <g style="fill:#262626;" transform="translate(1174.396827 441.273047)scale(0.25 -0.25)">
       <defs>
        <path d="M 10.59375 35.5 
L 73.1875 35.5 
L 73.1875 27.203125 
L 10.59375 27.203125 
z
" id="DejaVuSans-8722"/>
        <path d="M 10.6875 12.40625 
L 21 12.40625 
L 21 0 
L 10.6875 0 
z
" id="DejaVuSans-46"/>
        <path d="M 31.78125 66.40625 
Q 24.171875 66.40625 20.328125 58.90625 
Q 16.5 51.421875 16.5 36.375 
Q 16.5 21.390625 20.328125 13.890625 
Q 24.171875 6.390625 31.78125 6.390625 
Q 39.453125 6.390625 43.28125 13.890625 
Q 47.125 21.390625 47.125 36.375 
Q 47.125 51.421875 43.28125 58.90625 
Q 39.453125 66.40625 31.78125 66.40625 
z
M 31.78125 74.21875 
Q 44.046875 74.21875 50.515625 64.515625 
Q 56.984375 54.828125 56.984375 36.375 
Q 56.984375 17.96875 50.515625 8.265625 
Q 44.046875 -1.421875 31.78125 -1.421875 
Q 19.53125 -1.421875 13.0625 8.265625 
Q 6.59375 17.96875 6.59375 36.375 
Q 6.59375 54.828125 13.0625 64.515625 
Q 19.53125 74.21875 31.78125 74.21875 
z
" id="DejaVuSans-48"/>
       </defs>
       <use xlink:href="#DejaVuSans-8722"/>
       <use x="83.789062" xlink:href="#DejaVuSans-49"/>
       <use x="147.412109" xlink:href="#DejaVuSans-46"/>
       <use x="179.199219" xlink:href="#DejaVuSans-48"/>
      </g>
     </g>
    </g>
    <g id="ytick_7">
     <g id="line2d_2">
      <g>
       <use style="fill:#262626;stroke:#262626;stroke-width:0.8;" x="1167.396827" xlink:href="#m663a9cbdda" y="363.825"/>
      </g>
     </g>
     <g id="text_20">
      <!-- −0.5 -->
      <g style="fill:#262626;" transform="translate(1174.396827 373.323047)scale(0.25 -0.25)">
       <use xlink:href="#DejaVuSans-8722"/>
       <use x="83.789062" xlink:href="#DejaVuSans-48"/>
       <use x="147.412109" xlink:href="#DejaVuSans-46"/>
       <use x="179.199219" xlink:href="#DejaVuSans-53"/>
      </g>
     </g>
    </g>
    <g id="ytick_8">
     <g id="line2d_3">
      <g>
       <use style="fill:#262626;stroke:#262626;stroke-width:0.8;" x="1167.396827" xlink:href="#m663a9cbdda" y="295.875"/>
      </g>
     </g>
     <g id="text_21">
      <!-- 0.0 -->
      <g style="fill:#262626;" transform="translate(1174.396827 305.373047)scale(0.25 -0.25)">
       <use xlink:href="#DejaVuSans-48"/>
       <use x="63.623047" xlink:href="#DejaVuSans-46"/>
       <use x="95.410156" xlink:href="#DejaVuSans-48"/>
      </g>
     </g>
    </g>
    <g id="ytick_9">
     <g id="line2d_4">
      <g>
       <use style="fill:#262626;stroke:#262626;stroke-width:0.8;" x="1167.396827" xlink:href="#m663a9cbdda" y="227.925"/>
      </g>
     </g>
     <g id="text_22">
      <!-- 0.5 -->
      <g style="fill:#262626;" transform="translate(1174.396827 237.423047)scale(0.25 -0.25)">
       <use xlink:href="#DejaVuSans-48"/>
       <use x="63.623047" xlink:href="#DejaVuSans-46"/>
       <use x="95.410156" xlink:href="#DejaVuSans-53"/>
      </g>
     </g>
    </g>
    <g id="ytick_10">
     <g id="line2d_5">
      <g>
       <use style="fill:#262626;stroke:#262626;stroke-width:0.8;" x="1167.396827" xlink:href="#m663a9cbdda" y="159.975"/>
      </g>
     </g>
     <g id="text_23">
      <!-- 1.0 -->
      <g style="fill:#262626;" transform="translate(1174.396827 169.473047)scale(0.25 -0.25)">
       <use xlink:href="#DejaVuSans-49"/>
       <use x="63.623047" xlink:href="#DejaVuSans-46"/>
       <use x="95.410156" xlink:href="#DejaVuSans-48"/>
      </g>
     </g>
    </g>
   </g>
   <image height="272" id="imagef49aec5d5b" transform="scale(1 -1)translate(0 -272)" width="30" x="1137" xlink:href="data:image/png;base64,
iVBORw0KGgoAAAANSUhEUgAAAB4AAAEQCAYAAACnTcRmAAABpElEQVR4nO2ciQ3DMAwD5cCjdLCO2d1SxN2CBHqXBQ7UZ1oJsj7v15nCs2etBnf2uq4OeFYH3KHOzF6tHLdCvVcLXGunXqgvnGJccak4Bp7WseghkXp6RgDYTrWq7vUxLdQqjoF1mTGwVR0DtxQ3NwI0e2tVx8DA04l3d7KPU2CiYlgfFzcC9nEKjKtq4t2pdU31dIqBiZs9J1fmQW4EcAOENzIdIDEwsJ0srhAYODJp92OiA3GApMA9xbSvjS2uHBh4HusyU2DgOwlaqH2NmwRbXCGwt8UY2KqOgXGKiRsBoL3lKTbUITBv+fJt5fieym8EZj+nBD4t8EMLdc8I9HLMq2oVp8CnN0AqXGKObacYuNhOsBz3jAAu1CoOgitYZKhVHAN7Hv8/GFdcriJy4BK3uGAj5pim2FDHwDwjAMwxzggAl6j2cQqs4hiYp5gH5o1MXFW7EQCAeaEumUxzHASrOAb2ChMDawRiYGJxVbjuMoNg7W0M7KuBGBiYY5wRKE6uCpdo6O3jGFjFMTCvj4Gh5n1IhnMgvD4mthNNMS7UtQHyA68za07KLFSYAAAAAElFTkSuQmCC" y="-159"/>
   <g id="patch_16">
    <path d="M 1137.172037 431.775 
L 1137.172037 430.713281 
L 1137.172037 161.036719 
L 1137.172037 159.975 
L 1167.396827 159.975 
L 1167.396827 161.036719 
L 1167.396827 430.713281 
L 1167.396827 431.775 
z
" style="fill:none;"/>
   </g>
   <g id="text_24">
    <!-- Competitive -->
    <g style="fill:#262626;" transform="translate(1137.172037 102.159812)scale(0.22 -0.22)">
     <defs>
      <path d="M 64.40625 67.28125 
L 64.40625 56.890625 
Q 59.421875 61.53125 53.78125 63.8125 
Q 48.140625 66.109375 41.796875 66.109375 
Q 29.296875 66.109375 22.65625 58.46875 
Q 16.015625 50.828125 16.015625 36.375 
Q 16.015625 21.96875 22.65625 14.328125 
Q 29.296875 6.6875 41.796875 6.6875 
Q 48.140625 6.6875 53.78125 8.984375 
Q 59.421875 11.28125 64.40625 15.921875 
L 64.40625 5.609375 
Q 59.234375 2.09375 53.4375 0.328125 
Q 47.65625 -1.421875 41.21875 -1.421875 
Q 24.65625 -1.421875 15.125 8.703125 
Q 5.609375 18.84375 5.609375 36.375 
Q 5.609375 53.953125 15.125 64.078125 
Q 24.65625 74.21875 41.21875 74.21875 
Q 47.75 74.21875 53.53125 72.484375 
Q 59.328125 70.75 64.40625 67.28125 
z
" id="DejaVuSans-67"/>
      <path d="M 30.609375 48.390625 
Q 23.390625 48.390625 19.1875 42.75 
Q 14.984375 37.109375 14.984375 27.296875 
Q 14.984375 17.484375 19.15625 11.84375 
Q 23.34375 6.203125 30.609375 6.203125 
Q 37.796875 6.203125 41.984375 11.859375 
Q 46.1875 17.53125 46.1875 27.296875 
Q 46.1875 37.015625 41.984375 42.703125 
Q 37.796875 48.390625 30.609375 48.390625 
z
M 30.609375 56 
Q 42.328125 56 49.015625 48.375 
Q 55.71875 40.765625 55.71875 27.296875 
Q 55.71875 13.875 49.015625 6.21875 
Q 42.328125 -1.421875 30.609375 -1.421875 
Q 18.84375 -1.421875 12.171875 6.21875 
Q 5.515625 13.875 5.515625 27.296875 
Q 5.515625 40.765625 12.171875 48.375 
Q 18.84375 56 30.609375 56 
z
" id="DejaVuSans-111"/>
      <path d="M 52 44.1875 
Q 55.375 50.25 60.0625 53.125 
Q 64.75 56 71.09375 56 
Q 79.640625 56 84.28125 50.015625 
Q 88.921875 44.046875 88.921875 33.015625 
L 88.921875 0 
L 79.890625 0 
L 79.890625 32.71875 
Q 79.890625 40.578125 77.09375 44.375 
Q 74.3125 48.1875 68.609375 48.1875 
Q 61.625 48.1875 57.5625 43.546875 
Q 53.515625 38.921875 53.515625 30.90625 
L 53.515625 0 
L 44.484375 0 
L 44.484375 32.71875 
Q 44.484375 40.625 41.703125 44.40625 
Q 38.921875 48.1875 33.109375 48.1875 
Q 26.21875 48.1875 22.15625 43.53125 
Q 18.109375 38.875 18.109375 30.90625 
L 18.109375 0 
L 9.078125 0 
L 9.078125 54.6875 
L 18.109375 54.6875 
L 18.109375 46.1875 
Q 21.1875 51.21875 25.484375 53.609375 
Q 29.78125 56 35.6875 56 
Q 41.65625 56 45.828125 52.96875 
Q 50 49.953125 52 44.1875 
z
" id="DejaVuSans-109"/>
      <path d="M 18.109375 8.203125 
L 18.109375 -20.796875 
L 9.078125 -20.796875 
L 9.078125 54.6875 
L 18.109375 54.6875 
L 18.109375 46.390625 
Q 20.953125 51.265625 25.265625 53.625 
Q 29.59375 56 35.59375 56 
Q 45.5625 56 51.78125 48.09375 
Q 58.015625 40.1875 58.015625 27.296875 
Q 58.015625 14.40625 51.78125 6.484375 
Q 45.5625 -1.421875 35.59375 -1.421875 
Q 29.59375 -1.421875 25.265625 0.953125 
Q 20.953125 3.328125 18.109375 8.203125 
z
M 48.6875 27.296875 
Q 48.6875 37.203125 44.609375 42.84375 
Q 40.53125 48.484375 33.40625 48.484375 
Q 26.265625 48.484375 22.1875 42.84375 
Q 18.109375 37.203125 18.109375 27.296875 
Q 18.109375 17.390625 22.1875 11.75 
Q 26.265625 6.109375 33.40625 6.109375 
Q 40.53125 6.109375 44.609375 11.75 
Q 48.6875 17.390625 48.6875 27.296875 
z
" id="DejaVuSans-112"/>
      <path d="M 2.984375 54.6875 
L 12.5 54.6875 
L 29.59375 8.796875 
L 46.6875 54.6875 
L 56.203125 54.6875 
L 35.6875 0 
L 23.484375 0 
z
" id="DejaVuSans-118"/>
     </defs>
     <use xlink:href="#DejaVuSans-67"/>
     <use x="69.824219" xlink:href="#DejaVuSans-111"/>
     <use x="131.005859" xlink:href="#DejaVuSans-109"/>
     <use x="228.417969" xlink:href="#DejaVuSans-112"/>
     <use x="291.894531" xlink:href="#DejaVuSans-101"/>
     <use x="353.417969" xlink:href="#DejaVuSans-116"/>
     <use x="392.626953" xlink:href="#DejaVuSans-105"/>
     <use x="420.410156" xlink:href="#DejaVuSans-116"/>
     <use x="459.619141" xlink:href="#DejaVuSans-105"/>
     <use x="487.402344" xlink:href="#DejaVuSans-118"/>
     <use x="546.582031" xlink:href="#DejaVuSans-101"/>
    </g>
    <!-- exclusion -->
    <g style="fill:#262626;" transform="translate(1137.172037 126.795)scale(0.22 -0.22)">
     <defs>
      <path d="M 54.890625 54.6875 
L 35.109375 28.078125 
L 55.90625 0 
L 45.3125 0 
L 29.390625 21.484375 
L 13.484375 0 
L 2.875 0 
L 24.125 28.609375 
L 4.6875 54.6875 
L 15.28125 54.6875 
L 29.78125 35.203125 
L 44.28125 54.6875 
z
" id="DejaVuSans-120"/>
      <path d="M 8.5 21.578125 
L 8.5 54.6875 
L 17.484375 54.6875 
L 17.484375 21.921875 
Q 17.484375 14.15625 20.5 10.265625 
Q 23.53125 6.390625 29.59375 6.390625 
Q 36.859375 6.390625 41.078125 11.03125 
Q 45.3125 15.671875 45.3125 23.6875 
L 45.3125 54.6875 
L 54.296875 54.6875 
L 54.296875 0 
L 45.3125 0 
L 45.3125 8.40625 
Q 42.046875 3.421875 37.71875 1 
Q 33.40625 -1.421875 27.6875 -1.421875 
Q 18.265625 -1.421875 13.375 4.4375 
Q 8.5 10.296875 8.5 21.578125 
z
M 31.109375 56 
z
" id="DejaVuSans-117"/>
      <path d="M 54.890625 33.015625 
L 54.890625 0 
L 45.90625 0 
L 45.90625 32.71875 
Q 45.90625 40.484375 42.875 44.328125 
Q 39.84375 48.1875 33.796875 48.1875 
Q 26.515625 48.1875 22.3125 43.546875 
Q 18.109375 38.921875 18.109375 30.90625 
L 18.109375 0 
L 9.078125 0 
L 9.078125 54.6875 
L 18.109375 54.6875 
L 18.109375 46.1875 
Q 21.34375 51.125 25.703125 53.5625 
Q 30.078125 56 35.796875 56 
Q 45.21875 56 50.046875 50.171875 
Q 54.890625 44.34375 54.890625 33.015625 
z
" id="DejaVuSans-110"/>
     </defs>
     <use xlink:href="#DejaVuSans-101"/>
     <use x="59.773438" xlink:href="#DejaVuSans-120"/>
     <use x="117.203125" xlink:href="#DejaVuSans-99"/>
     <use x="172.183594" xlink:href="#DejaVuSans-108"/>
     <use x="199.966797" xlink:href="#DejaVuSans-117"/>
     <use x="263.345703" xlink:href="#DejaVuSans-115"/>
     <use x="315.445312" xlink:href="#DejaVuSans-105"/>
     <use x="343.228516" xlink:href="#DejaVuSans-111"/>
     <use x="404.410156" xlink:href="#DejaVuSans-110"/>
    </g>
   </g>
  </g>
  <g id="axes_5">
   <g id="patch_17">
    <path clip-path="url(#pd947196eff)" d="M 1327.588215 431.775 
L 1327.588215 430.713281 
L 1327.588215 161.036719 
L 1327.588215 159.975 
L 1357.813005 159.975 
L 1357.813005 161.036719 
L 1357.813005 430.713281 
L 1357.813005 431.775 
z
" style="fill:#ffffff;stroke:#ffffff;stroke-linejoin:miter;stroke-width:0.01;"/>
   </g>
   <g id="matplotlib.axis_9"/>
   <g id="matplotlib.axis_10">
    <g id="ytick_11">
     <g id="line2d_6">
      <g>
       <use style="fill:#262626;stroke:#262626;stroke-width:0.8;" x="1357.813005" xlink:href="#m663a9cbdda" y="423.878449"/>
      </g>
     </g>
     <g id="text_25">
      <!-- −0.6 -->
      <g style="fill:#262626;" transform="translate(1364.813005 433.376496)scale(0.25 -0.25)">
       <use xlink:href="#DejaVuSans-8722"/>
       <use x="83.789062" xlink:href="#DejaVuSans-48"/>
       <use x="147.412109" xlink:href="#DejaVuSans-46"/>
       <use x="179.199219" xlink:href="#DejaVuSans-54"/>
      </g>
     </g>
    </g>
    <g id="ytick_12">
     <g id="line2d_7">
      <g>
       <use style="fill:#262626;stroke:#262626;stroke-width:0.8;" x="1357.813005" xlink:href="#m663a9cbdda" y="359.362121"/>
      </g>
     </g>
     <g id="text_26">
      <!-- −0.4 -->
      <g style="fill:#262626;" transform="translate(1364.813005 368.860168)scale(0.25 -0.25)">
       <use xlink:href="#DejaVuSans-8722"/>
       <use x="83.789062" xlink:href="#DejaVuSans-48"/>
       <use x="147.412109" xlink:href="#DejaVuSans-46"/>
       <use x="179.199219" xlink:href="#DejaVuSans-52"/>
      </g>
     </g>
    </g>
    <g id="ytick_13">
     <g id="line2d_8">
      <g>
       <use style="fill:#262626;stroke:#262626;stroke-width:0.8;" x="1357.813005" xlink:href="#m663a9cbdda" y="294.845793"/>
      </g>
     </g>
     <g id="text_27">
      <!-- −0.2 -->
      <g style="fill:#262626;" transform="translate(1364.813005 304.34384)scale(0.25 -0.25)">
       <use xlink:href="#DejaVuSans-8722"/>
       <use x="83.789062" xlink:href="#DejaVuSans-48"/>
       <use x="147.412109" xlink:href="#DejaVuSans-46"/>
       <use x="179.199219" xlink:href="#DejaVuSans-50"/>
      </g>
     </g>
    </g>
    <g id="ytick_14">
     <g id="line2d_9">
      <g>
       <use style="fill:#262626;stroke:#262626;stroke-width:0.8;" x="1357.813005" xlink:href="#m663a9cbdda" y="230.329465"/>
      </g>
     </g>
     <g id="text_28">
      <!-- 0.0 -->
      <g style="fill:#262626;" transform="translate(1364.813005 239.827512)scale(0.25 -0.25)">
       <use xlink:href="#DejaVuSans-48"/>
       <use x="63.623047" xlink:href="#DejaVuSans-46"/>
       <use x="95.410156" xlink:href="#DejaVuSans-48"/>
      </g>
     </g>
    </g>
    <g id="ytick_15">
     <g id="line2d_10">
      <g>
       <use style="fill:#262626;stroke:#262626;stroke-width:0.8;" x="1357.813005" xlink:href="#m663a9cbdda" y="165.813136"/>
      </g>
     </g>
     <g id="text_29">
      <!-- 0.2 -->
      <g style="fill:#262626;" transform="translate(1364.813005 175.311183)scale(0.25 -0.25)">
       <use xlink:href="#DejaVuSans-48"/>
       <use x="63.623047" xlink:href="#DejaVuSans-46"/>
       <use x="95.410156" xlink:href="#DejaVuSans-50"/>
      </g>
     </g>
    </g>
   </g>
   <image height="272" id="imagecc84068d6f" transform="scale(1 -1)translate(0 -272)" width="30" x="1328" xlink:href="data:image/png;base64,
iVBORw0KGgoAAAANSUhEUgAAAB4AAAEQCAYAAACnTcRmAAABk0lEQVR4nO2cwXHDQAwDZY96TD9pOi/70gV2RrtoAHMgCZxoWa+/n99zAbiv14vg5YjfCCtJDNb4Latx4zTDfTEHNkp9oDkWSp2BrGA8sTCPMWKf1DnXBtgcG6XmuhrhVdZYGIud+OHEvnEySl1IjNASdYa8+vnEvnu1MI+PbZxyrhl8eaysMUYsk7o5nsEotW2cut7OUB7PkIHMUDrN4DuxMSS6ZY7gkzrnej6xT2rf28btuWbwjZNR6vJ4hLp6BtCrbbHYOM2Q1DMo8xjhVdbYtnwxSm3r6mo8A5lOFLFP6rp6hPJ4Bk7qY/s1VVhjoXO1vR3B19XGF1AapxF84+Tral9z+U5sDImeFkcoJGZI6hlaoj6fuHGaAVwp9smGEe4P8t3967oPRMxJ/cWkvhhmo9S2rgZrDHW1r8b3FzqyUWqK+EBaG0OC4c1AdlDmMUScc82Ie5KYEVPOhd2rwX9cY1Lb0gkzEJ/UxnHKuVbEunHKuWbALvTKB3OIWPjQRhG3A1kB3HMhtDnXklh3EcCI/wEG8GbbL5cpOQAAAABJRU5ErkJggg==" y="-159"/>
   <g id="patch_18">
    <path d="M 1327.588215 431.775 
L 1327.588215 430.713281 
L 1327.588215 161.036719 
L 1327.588215 159.975 
L 1357.813005 159.975 
L 1357.813005 161.036719 
L 1357.813005 430.713281 
L 1357.813005 431.775 
z
" style="fill:none;"/>
   </g>
   <g id="text_30">
    <!-- Interaction -->
    <g style="fill:#262626;" transform="translate(1327.588215 102.159812)scale(0.22 -0.22)">
     <defs>
      <path d="M 9.8125 72.90625 
L 19.671875 72.90625 
L 19.671875 0 
L 9.8125 0 
z
" id="DejaVuSans-73"/>
      <path d="M 41.109375 46.296875 
Q 39.59375 47.171875 37.8125 47.578125 
Q 36.03125 48 33.890625 48 
Q 26.265625 48 22.1875 43.046875 
Q 18.109375 38.09375 18.109375 28.8125 
L 18.109375 0 
L 9.078125 0 
L 9.078125 54.6875 
L 18.109375 54.6875 
L 18.109375 46.1875 
Q 20.953125 51.171875 25.484375 53.578125 
Q 30.03125 56 36.53125 56 
Q 37.453125 56 38.578125 55.875 
Q 39.703125 55.765625 41.0625 55.515625 
z
" id="DejaVuSans-114"/>
     </defs>
     <use xlink:href="#DejaVuSans-73"/>
     <use x="29.492188" xlink:href="#DejaVuSans-110"/>
     <use x="92.871094" xlink:href="#DejaVuSans-116"/>
     <use x="132.080078" xlink:href="#DejaVuSans-101"/>
     <use x="193.603516" xlink:href="#DejaVuSans-114"/>
     <use x="234.716797" xlink:href="#DejaVuSans-97"/>
     <use x="295.996094" xlink:href="#DejaVuSans-99"/>
     <use x="350.976562" xlink:href="#DejaVuSans-116"/>
     <use x="390.185547" xlink:href="#DejaVuSans-105"/>
     <use x="417.96875" xlink:href="#DejaVuSans-111"/>
     <use x="479.150391" xlink:href="#DejaVuSans-110"/>
    </g>
    <!-- coefficient -->
    <g style="fill:#262626;" transform="translate(1327.588215 126.795)scale(0.22 -0.22)">
     <defs>
      <path d="M 37.109375 75.984375 
L 37.109375 68.5 
L 28.515625 68.5 
Q 23.6875 68.5 21.796875 66.546875 
Q 19.921875 64.59375 19.921875 59.515625 
L 19.921875 54.6875 
L 34.71875 54.6875 
L 34.71875 47.703125 
L 19.921875 47.703125 
L 19.921875 0 
L 10.890625 0 
L 10.890625 47.703125 
L 2.296875 47.703125 
L 2.296875 54.6875 
L 10.890625 54.6875 
L 10.890625 58.5 
Q 10.890625 67.625 15.140625 71.796875 
Q 19.390625 75.984375 28.609375 75.984375 
z
" id="DejaVuSans-102"/>
     </defs>
     <use xlink:href="#DejaVuSans-99"/>
     <use x="54.980469" xlink:href="#DejaVuSans-111"/>
     <use x="116.162109" xlink:href="#DejaVuSans-101"/>
     <use x="177.685547" xlink:href="#DejaVuSans-102"/>
     <use x="212.890625" xlink:href="#DejaVuSans-102"/>
     <use x="248.095703" xlink:href="#DejaVuSans-105"/>
     <use x="275.878906" xlink:href="#DejaVuSans-99"/>
     <use x="330.859375" xlink:href="#DejaVuSans-105"/>
     <use x="358.642578" xlink:href="#DejaVuSans-101"/>
     <use x="420.166016" xlink:href="#DejaVuSans-110"/>
     <use x="483.544922" xlink:href="#DejaVuSans-116"/>
    </g>
   </g>
  </g>
  <g id="axes_6">
   <g id="patch_19">
    <path clip-path="url(#pc0396b4a80)" d="M 1137.172037 533.7 
L 1138.405823 533.7 
L 1451.787308 533.7 
L 1453.021094 533.7 
L 1453.021094 499.725 
L 1451.787308 499.725 
L 1138.405823 499.725 
L 1137.172037 499.725 
z
" style="fill:#ffffff;stroke:#ffffff;stroke-linejoin:miter;stroke-width:0.01;"/>
   </g>
   <g id="matplotlib.axis_11">
    <g id="xtick_12">
     <g id="line2d_11">
      <defs>
       <path d="M 0 0 
L 0 3.5 
" id="mf5775b1e3d" style="stroke:#262626;stroke-width:0.8;"/>
      </defs>
      <g>
       <use style="fill:#262626;stroke:#262626;stroke-width:0.8;" x="1137.838121" xlink:href="#mf5775b1e3d" y="533.7"/>
      </g>
     </g>
     <g id="text_31">
      <!-- 0 -->
      <g style="fill:#262626;" transform="translate(1129.884996 559.696094)scale(0.25 -0.25)">
       <use xlink:href="#DejaVuSans-48"/>
      </g>
     </g>
    </g>
    <g id="xtick_13">
     <g id="line2d_12">
      <g>
       <use style="fill:#262626;stroke:#262626;stroke-width:0.8;" x="1278.603505" xlink:href="#mf5775b1e3d" y="533.7"/>
      </g>
     </g>
     <g id="text_32">
      <!-- 2 -->
      <g style="fill:#262626;" transform="translate(1270.65038 559.696094)scale(0.25 -0.25)">
       <use xlink:href="#DejaVuSans-50"/>
      </g>
     </g>
    </g>
    <g id="xtick_14">
     <g id="line2d_13">
      <g>
       <use style="fill:#262626;stroke:#262626;stroke-width:0.8;" x="1419.368889" xlink:href="#mf5775b1e3d" y="533.7"/>
      </g>
     </g>
     <g id="text_33">
      <!-- 4 -->
      <g style="fill:#262626;" transform="translate(1411.415764 559.696094)scale(0.25 -0.25)">
       <use xlink:href="#DejaVuSans-52"/>
      </g>
     </g>
    </g>
   </g>
   <g id="matplotlib.axis_12"/>
   <image height="34" id="image4ea1cd63df" transform="scale(1 -1)translate(0 -34)" width="316" x="1137" xlink:href="data:image/png;base64,
iVBORw0KGgoAAAANSUhEUgAAATwAAAAiCAYAAADCrmVZAAAAzUlEQVR4nO3USQrCUBBAQfX+V86PC0FF1DgrvqpNkqYzQOCt5zHmebUz788O5+dmY4yX7j26f3zPu/bOfdO3Z5euH5mdHn9p9ol3TdN0197Sc6/t3fuuZ77p1mf82/9cmm1WABGCB2QIHpAheECG4AEZggdkCB6QIXhAhuABGYIHZAgekCF4QIbgARmCB2QIHpAheECG4AEZggdkCB6QIXhAhuABGYIHZAgekCF4QIbgARmCB2QIHpAheECG4AEZggdkCB6QIXhAhuABGVuFpn+gJSxWygAAAABJRU5ErkJggg==" y="-499"/>
   <g id="patch_20">
    <path d="M 1137.172037 533.7 
L 1138.405823 533.7 
L 1451.787308 533.7 
L 1453.021094 533.7 
L 1453.021094 499.725 
L 1451.787308 499.725 
L 1138.405823 499.725 
L 1137.172037 499.725 
z
" style="fill:none;"/>
   </g>
   <g id="text_34">
    <!-- $\it{P}_{mono}$ -->
    <g style="fill:#262626;" transform="translate(1137.172037 490.3275)scale(0.3 -0.3)">
     <use transform="translate(0 0.09375)" xlink:href="#DejaVuSans-Oblique-80"/>
     <use transform="translate(60.302734 -16.3125)scale(0.7)" xlink:href="#DejaVuSans-Oblique-109"/>
     <use transform="translate(128.491211 -16.3125)scale(0.7)" xlink:href="#DejaVuSans-Oblique-111"/>
     <use transform="translate(171.318359 -16.3125)scale(0.7)" xlink:href="#DejaVuSans-Oblique-110"/>
     <use transform="translate(215.683594 -16.3125)scale(0.7)" xlink:href="#DejaVuSans-Oblique-111"/>
    </g>
   </g>
  </g>
  <g id="text_35">
   <!-- high_fat -->
   <g style="fill:#262626;" transform="translate(10.065625 29.995312)scale(0.3 -0.3)">
    <defs>
     <path d="M 54.890625 33.015625 
L 54.890625 0 
L 45.90625 0 
L 45.90625 32.71875 
Q 45.90625 40.484375 42.875 44.328125 
Q 39.84375 48.1875 33.796875 48.1875 
Q 26.515625 48.1875 22.3125 43.546875 
Q 18.109375 38.921875 18.109375 30.90625 
L 18.109375 0 
L 9.078125 0 
L 9.078125 75.984375 
L 18.109375 75.984375 
L 18.109375 46.1875 
Q 21.34375 51.125 25.703125 53.5625 
Q 30.078125 56 35.796875 56 
Q 45.21875 56 50.046875 50.171875 
Q 54.890625 44.34375 54.890625 33.015625 
z
" id="DejaVuSans-104"/>
     <path d="M 45.40625 27.984375 
Q 45.40625 37.75 41.375 43.109375 
Q 37.359375 48.484375 30.078125 48.484375 
Q 22.859375 48.484375 18.828125 43.109375 
Q 14.796875 37.75 14.796875 27.984375 
Q 14.796875 18.265625 18.828125 12.890625 
Q 22.859375 7.515625 30.078125 7.515625 
Q 37.359375 7.515625 41.375 12.890625 
Q 45.40625 18.265625 45.40625 27.984375 
z
M 54.390625 6.78125 
Q 54.390625 -7.171875 48.1875 -13.984375 
Q 42 -20.796875 29.203125 -20.796875 
Q 24.46875 -20.796875 20.265625 -20.09375 
Q 16.0625 -19.390625 12.109375 -17.921875 
L 12.109375 -9.1875 
Q 16.0625 -11.328125 19.921875 -12.34375 
Q 23.78125 -13.375 27.78125 -13.375 
Q 36.625 -13.375 41.015625 -8.765625 
Q 45.40625 -4.15625 45.40625 5.171875 
L 45.40625 9.625 
Q 42.625 4.78125 38.28125 2.390625 
Q 33.9375 0 27.875 0 
Q 17.828125 0 11.671875 7.65625 
Q 5.515625 15.328125 5.515625 27.984375 
Q 5.515625 40.671875 11.671875 48.328125 
Q 17.828125 56 27.875 56 
Q 33.9375 56 38.28125 53.609375 
Q 42.625 51.21875 45.40625 46.390625 
L 45.40625 54.6875 
L 54.390625 54.6875 
z
" id="DejaVuSans-103"/>
    </defs>
    <use xlink:href="#DejaVuSans-104"/>
    <use x="63.378906" xlink:href="#DejaVuSans-105"/>
    <use x="91.162109" xlink:href="#DejaVuSans-103"/>
    <use x="154.638672" xlink:href="#DejaVuSans-104"/>
    <use x="218.017578" xlink:href="#DejaVuSans-95"/>
    <use x="268.017578" xlink:href="#DejaVuSans-102"/>
    <use x="303.222656" xlink:href="#DejaVuSans-97"/>
    <use x="364.501953" xlink:href="#DejaVuSans-116"/>
   </g>
  </g>
 </g>
 <defs>
  <clipPath id="pebb146cafd">
   <rect height="407.7" width="26.955461" x="113.821094" y="126"/>
  </clipPath>
  <clipPath id="pc3a5b45c4b">
   <rect height="407.7" width="437.793865" x="140.776555" y="126"/>
  </clipPath>
  <clipPath id="p17425f854a">
   <rect height="407.7" width="437.67655" x="623.691714" y="126"/>
  </clipPath>
  <clipPath id="p36b322880e">
   <rect height="271.8" width="30.22479" x="1137.172037" y="159.975"/>
  </clipPath>
  <clipPath id="pd947196eff">
   <rect height="271.8" width="30.22479" x="1327.588215" y="159.975"/>
  </clipPath>
  <clipPath id="pc0396b4a80">
   <rect height="33.975" width="315.849057" x="1137.172037" y="499.725"/>
  </clipPath>
 </defs>
 <defs>
  <pattern height="72" id="h58cb960be2" patternUnits="userSpaceOnUse" width="72" x="0" y="0">
   <rect fill="none" height="73" width="73" x="0" y="0"/>
   <path d="M -36 36 
L 36 -36 
M -24 48 
L 48 -24 
M -12 60 
L 60 -12 
M 0 72 
L 72 0 
M 12 84 
L 84 12 
M 24 96 
L 96 24 
M 36 108 
L 108 36 
" style="fill:#000000;stroke:#000000;stroke-linecap:butt;stroke-linejoin:miter;stroke-width:1.0;"/>
  </pattern>
 </defs>
</svg>
