<?xml version="1.0" encoding="utf-8" standalone="no"?>
<!DOCTYPE svg PUBLIC "-//W3C//DTD SVG 1.1//EN"
  "http://www.w3.org/Graphics/SVG/1.1/DTD/svg11.dtd">
<!-- Created with matplotlib (https://matplotlib.org/) -->
<svg height="598.286406pt" version="1.1" viewBox="0 0 1490.353094 598.286406" width="1490.353094pt" xmlns="http://www.w3.org/2000/svg" xmlns:xlink="http://www.w3.org/1999/xlink">
 <metadata>
  <rdf:RDF xmlns:cc="http://creativecommons.org/ns#" xmlns:dc="http://purl.org/dc/elements/1.1/" xmlns:rdf="http://www.w3.org/1999/02/22-rdf-syntax-ns#">
   <cc:Work>
    <dc:type rdf:resource="http://purl.org/dc/dcmitype/StillImage"/>
    <dc:date>2021-07-06T16:32:17.595767</dc:date>
    <dc:format>image/svg+xml</dc:format>
    <dc:creator>
     <cc:Agent>
      <dc:title>Matplotlib v3.3.4, https://matplotlib.org/</dc:title>
     </cc:Agent>
    </dc:creator>
   </cc:Work>
  </rdf:RDF>
 </metadata>
 <defs>
  <style type="text/css">*{stroke-linecap:butt;stroke-linejoin:round;}</style>
 </defs>
 <g id="figure_1">
  <g id="patch_1">
   <path d="M -0 598.286406 
L 1490.353094 598.286406 
L 1490.353094 0 
L -0 0 
z
" style="fill:none;"/>
  </g>
  <g id="axes_1">
   <g id="patch_2">
    <path d="M 113.821094 484.465312 
L 140.580277 484.465312 
L 140.580277 76.765313 
L 113.821094 76.765313 
z
" style="fill:none;"/>
   </g>
   <g id="matplotlib.axis_1">
    <g id="xtick_1">
     <g id="text_1">
      <!-- $\it{P}_{mono}$ -->
      <g style="fill:#262626;" transform="translate(134.099123 556.965312)rotate(-90)scale(0.25 -0.25)">
       <defs>
        <path d="M 16.890625 72.90625 
L 39.703125 72.90625 
Q 49.65625 72.90625 54.875 68.265625 
Q 60.109375 63.625 60.109375 54.6875 
Q 60.109375 42.671875 52.390625 35.984375 
Q 44.671875 29.296875 30.71875 29.296875 
L 18.3125 29.296875 
L 12.59375 0 
L 2.6875 0 
z
M 25.203125 64.796875 
L 19.921875 37.40625 
L 32.328125 37.40625 
Q 40.71875 37.40625 45.203125 41.703125 
Q 49.703125 46 49.703125 54 
Q 49.703125 59.125 46.65625 61.953125 
Q 43.609375 64.796875 38.09375 64.796875 
z
" id="DejaVuSans-Oblique-80"/>
        <path d="M 89.796875 33.015625 
L 83.40625 0 
L 74.421875 0 
L 80.71875 32.71875 
Q 81.109375 34.8125 81.296875 36.328125 
Q 81.5 37.84375 81.5 38.921875 
Q 81.5 43.3125 79.046875 45.75 
Q 76.609375 48.1875 72.21875 48.1875 
Q 65.671875 48.1875 60.546875 43.28125 
Q 55.421875 38.375 53.90625 30.515625 
L 47.90625 0 
L 38.921875 0 
L 45.3125 32.71875 
Q 45.703125 34.515625 45.890625 36.046875 
Q 46.09375 37.59375 46.09375 38.8125 
Q 46.09375 43.265625 43.65625 45.71875 
Q 41.21875 48.1875 36.921875 48.1875 
Q 30.28125 48.1875 25.140625 43.28125 
Q 20.015625 38.375 18.5 30.515625 
L 12.5 0 
L 3.515625 0 
L 14.203125 54.6875 
L 23.1875 54.6875 
L 21.484375 46.1875 
Q 25.140625 50.984375 30.046875 53.484375 
Q 34.96875 56 40.578125 56 
Q 46.53125 56 50.359375 52.875 
Q 54.203125 49.75 54.984375 44.1875 
Q 59.078125 49.953125 64.46875 52.96875 
Q 69.875 56 75.875 56 
Q 82.90625 56 86.734375 51.953125 
Q 90.578125 47.90625 90.578125 40.484375 
Q 90.578125 38.875 90.375 36.9375 
Q 90.1875 35.015625 89.796875 33.015625 
z
" id="DejaVuSans-Oblique-109"/>
        <path d="M 25.390625 -1.421875 
Q 15.765625 -1.421875 10.171875 4.515625 
Q 4.59375 10.453125 4.59375 20.703125 
Q 4.59375 26.65625 6.515625 32.828125 
Q 8.453125 39.015625 11.53125 43.21875 
Q 16.359375 49.75 22.3125 52.875 
Q 28.265625 56 35.796875 56 
Q 45.125 56 50.859375 50.1875 
Q 56.59375 44.390625 56.59375 35.015625 
Q 56.59375 28.515625 54.6875 22.0625 
Q 52.78125 15.625 49.703125 11.375 
Q 44.921875 4.828125 38.96875 1.703125 
Q 33.015625 -1.421875 25.390625 -1.421875 
z
M 13.921875 21 
Q 13.921875 13.578125 17.015625 9.890625 
Q 20.125 6.203125 26.421875 6.203125 
Q 35.453125 6.203125 41.375 14.078125 
Q 47.3125 21.96875 47.3125 34.078125 
Q 47.3125 41.15625 44.140625 44.765625 
Q 40.96875 48.390625 34.8125 48.390625 
Q 29.734375 48.390625 25.78125 46.015625 
Q 21.828125 43.65625 18.703125 38.8125 
Q 16.40625 35.203125 15.15625 30.5625 
Q 13.921875 25.921875 13.921875 21 
z
" id="DejaVuSans-Oblique-111"/>
        <path d="M 55.71875 33.015625 
L 49.3125 0 
L 40.28125 0 
L 46.6875 32.671875 
Q 47.125 34.96875 47.359375 36.71875 
Q 47.609375 38.484375 47.609375 39.5 
Q 47.609375 43.609375 45.015625 45.890625 
Q 42.4375 48.1875 37.796875 48.1875 
Q 30.5625 48.1875 25.34375 43.375 
Q 20.125 38.578125 18.5 30.328125 
L 12.5 0 
L 3.515625 0 
L 14.109375 54.6875 
L 23.09375 54.6875 
L 21.296875 46.09375 
Q 25.046875 50.828125 30.3125 53.40625 
Q 35.59375 56 41.40625 56 
Q 48.640625 56 52.609375 52.09375 
Q 56.59375 48.1875 56.59375 41.109375 
Q 56.59375 39.359375 56.375 37.359375 
Q 56.15625 35.359375 55.71875 33.015625 
z
" id="DejaVuSans-Oblique-110"/>
       </defs>
       <use transform="translate(0 0.09375)" xlink:href="#DejaVuSans-Oblique-80"/>
       <use transform="translate(60.302734 -16.3125)scale(0.7)" xlink:href="#DejaVuSans-Oblique-109"/>
       <use transform="translate(128.491211 -16.3125)scale(0.7)" xlink:href="#DejaVuSans-Oblique-111"/>
       <use transform="translate(171.318359 -16.3125)scale(0.7)" xlink:href="#DejaVuSans-Oblique-110"/>
       <use transform="translate(215.683594 -16.3125)scale(0.7)" xlink:href="#DejaVuSans-Oblique-111"/>
      </g>
     </g>
    </g>
   </g>
   <g id="matplotlib.axis_2">
    <g id="ytick_1">
     <g id="text_2">
      <!-- setA_15 -->
      <g style="fill:#262626;" transform="translate(7.2 126.685703)scale(0.25 -0.25)">
       <defs>
        <path d="M 44.28125 53.078125 
L 44.28125 44.578125 
Q 40.484375 46.53125 36.375 47.5 
Q 32.28125 48.484375 27.875 48.484375 
Q 21.1875 48.484375 17.84375 46.4375 
Q 14.5 44.390625 14.5 40.28125 
Q 14.5 37.15625 16.890625 35.375 
Q 19.28125 33.59375 26.515625 31.984375 
L 29.59375 31.296875 
Q 39.15625 29.25 43.1875 25.515625 
Q 47.21875 21.78125 47.21875 15.09375 
Q 47.21875 7.46875 41.1875 3.015625 
Q 35.15625 -1.421875 24.609375 -1.421875 
Q 20.21875 -1.421875 15.453125 -0.5625 
Q 10.6875 0.296875 5.421875 2 
L 5.421875 11.28125 
Q 10.40625 8.6875 15.234375 7.390625 
Q 20.0625 6.109375 24.8125 6.109375 
Q 31.15625 6.109375 34.5625 8.28125 
Q 37.984375 10.453125 37.984375 14.40625 
Q 37.984375 18.0625 35.515625 20.015625 
Q 33.0625 21.96875 24.703125 23.78125 
L 21.578125 24.515625 
Q 13.234375 26.265625 9.515625 29.90625 
Q 5.8125 33.546875 5.8125 39.890625 
Q 5.8125 47.609375 11.28125 51.796875 
Q 16.75 56 26.8125 56 
Q 31.78125 56 36.171875 55.265625 
Q 40.578125 54.546875 44.28125 53.078125 
z
" id="DejaVuSans-115"/>
        <path d="M 56.203125 29.59375 
L 56.203125 25.203125 
L 14.890625 25.203125 
Q 15.484375 15.921875 20.484375 11.0625 
Q 25.484375 6.203125 34.421875 6.203125 
Q 39.59375 6.203125 44.453125 7.46875 
Q 49.3125 8.734375 54.109375 11.28125 
L 54.109375 2.78125 
Q 49.265625 0.734375 44.1875 -0.34375 
Q 39.109375 -1.421875 33.890625 -1.421875 
Q 20.796875 -1.421875 13.15625 6.1875 
Q 5.515625 13.8125 5.515625 26.8125 
Q 5.515625 40.234375 12.765625 48.109375 
Q 20.015625 56 32.328125 56 
Q 43.359375 56 49.78125 48.890625 
Q 56.203125 41.796875 56.203125 29.59375 
z
M 47.21875 32.234375 
Q 47.125 39.59375 43.09375 43.984375 
Q 39.0625 48.390625 32.421875 48.390625 
Q 24.90625 48.390625 20.390625 44.140625 
Q 15.875 39.890625 15.1875 32.171875 
z
" id="DejaVuSans-101"/>
        <path d="M 18.3125 70.21875 
L 18.3125 54.6875 
L 36.8125 54.6875 
L 36.8125 47.703125 
L 18.3125 47.703125 
L 18.3125 18.015625 
Q 18.3125 11.328125 20.140625 9.421875 
Q 21.96875 7.515625 27.59375 7.515625 
L 36.8125 7.515625 
L 36.8125 0 
L 27.59375 0 
Q 17.1875 0 13.234375 3.875 
Q 9.28125 7.765625 9.28125 18.015625 
L 9.28125 47.703125 
L 2.6875 47.703125 
L 2.6875 54.6875 
L 9.28125 54.6875 
L 9.28125 70.21875 
z
" id="DejaVuSans-116"/>
        <path d="M 34.1875 63.1875 
L 20.796875 26.90625 
L 47.609375 26.90625 
z
M 28.609375 72.90625 
L 39.796875 72.90625 
L 67.578125 0 
L 57.328125 0 
L 50.6875 18.703125 
L 17.828125 18.703125 
L 11.1875 0 
L 0.78125 0 
z
" id="DejaVuSans-65"/>
        <path d="M 50.984375 -16.609375 
L 50.984375 -23.578125 
L -0.984375 -23.578125 
L -0.984375 -16.609375 
z
" id="DejaVuSans-95"/>
        <path d="M 12.40625 8.296875 
L 28.515625 8.296875 
L 28.515625 63.921875 
L 10.984375 60.40625 
L 10.984375 69.390625 
L 28.421875 72.90625 
L 38.28125 72.90625 
L 38.28125 8.296875 
L 54.390625 8.296875 
L 54.390625 0 
L 12.40625 0 
z
" id="DejaVuSans-49"/>
        <path d="M 10.796875 72.90625 
L 49.515625 72.90625 
L 49.515625 64.59375 
L 19.828125 64.59375 
L 19.828125 46.734375 
Q 21.96875 47.46875 24.109375 47.828125 
Q 26.265625 48.1875 28.421875 48.1875 
Q 40.625 48.1875 47.75 41.5 
Q 54.890625 34.8125 54.890625 23.390625 
Q 54.890625 11.625 47.5625 5.09375 
Q 40.234375 -1.421875 26.90625 -1.421875 
Q 22.3125 -1.421875 17.546875 -0.640625 
Q 12.796875 0.140625 7.71875 1.703125 
L 7.71875 11.625 
Q 12.109375 9.234375 16.796875 8.0625 
Q 21.484375 6.890625 26.703125 6.890625 
Q 35.15625 6.890625 40.078125 11.328125 
Q 45.015625 15.765625 45.015625 23.390625 
Q 45.015625 31 40.078125 35.4375 
Q 35.15625 39.890625 26.703125 39.890625 
Q 22.75 39.890625 18.8125 39.015625 
Q 14.890625 38.140625 10.796875 36.28125 
z
" id="DejaVuSans-53"/>
       </defs>
       <use xlink:href="#DejaVuSans-115"/>
       <use x="52.099609" xlink:href="#DejaVuSans-101"/>
       <use x="113.623047" xlink:href="#DejaVuSans-116"/>
       <use x="152.832031" xlink:href="#DejaVuSans-65"/>
       <use x="221.240234" xlink:href="#DejaVuSans-95"/>
       <use x="271.240234" xlink:href="#DejaVuSans-49"/>
       <use x="334.863281" xlink:href="#DejaVuSans-53"/>
      </g>
     </g>
    </g>
    <g id="ytick_2">
     <g id="text_3">
      <!-- setA_21 -->
      <g style="fill:#262626;" transform="translate(7.2 208.352656)scale(0.25 -0.25)">
       <defs>
        <path d="M 19.1875 8.296875 
L 53.609375 8.296875 
L 53.609375 0 
L 7.328125 0 
L 7.328125 8.296875 
Q 12.9375 14.109375 22.625 23.890625 
Q 32.328125 33.6875 34.8125 36.53125 
Q 39.546875 41.84375 41.421875 45.53125 
Q 43.3125 49.21875 43.3125 52.78125 
Q 43.3125 58.59375 39.234375 62.25 
Q 35.15625 65.921875 28.609375 65.921875 
Q 23.96875 65.921875 18.8125 64.3125 
Q 13.671875 62.703125 7.8125 59.421875 
L 7.8125 69.390625 
Q 13.765625 71.78125 18.9375 73 
Q 24.125 74.21875 28.421875 74.21875 
Q 39.75 74.21875 46.484375 68.546875 
Q 53.21875 62.890625 53.21875 53.421875 
Q 53.21875 48.921875 51.53125 44.890625 
Q 49.859375 40.875 45.40625 35.40625 
Q 44.1875 33.984375 37.640625 27.21875 
Q 31.109375 20.453125 19.1875 8.296875 
z
" id="DejaVuSans-50"/>
       </defs>
       <use xlink:href="#DejaVuSans-115"/>
       <use x="52.099609" xlink:href="#DejaVuSans-101"/>
       <use x="113.623047" xlink:href="#DejaVuSans-116"/>
       <use x="152.832031" xlink:href="#DejaVuSans-65"/>
       <use x="221.240234" xlink:href="#DejaVuSans-95"/>
       <use x="271.240234" xlink:href="#DejaVuSans-50"/>
       <use x="334.863281" xlink:href="#DejaVuSans-49"/>
      </g>
     </g>
    </g>
    <g id="ytick_3">
     <g id="text_4">
      <!-- setA_11 -->
      <g style="fill:#262626;" transform="translate(7.2 289.765703)scale(0.25 -0.25)">
       <use xlink:href="#DejaVuSans-115"/>
       <use x="52.099609" xlink:href="#DejaVuSans-101"/>
       <use x="113.623047" xlink:href="#DejaVuSans-116"/>
       <use x="152.832031" xlink:href="#DejaVuSans-65"/>
       <use x="221.240234" xlink:href="#DejaVuSans-95"/>
       <use x="271.240234" xlink:href="#DejaVuSans-49"/>
       <use x="334.863281" xlink:href="#DejaVuSans-49"/>
      </g>
     </g>
    </g>
    <g id="ytick_4">
     <g id="text_5">
      <!-- setA_24 -->
      <g style="fill:#262626;" transform="translate(7.2 371.432656)scale(0.25 -0.25)">
       <defs>
        <path d="M 37.796875 64.3125 
L 12.890625 25.390625 
L 37.796875 25.390625 
z
M 35.203125 72.90625 
L 47.609375 72.90625 
L 47.609375 25.390625 
L 58.015625 25.390625 
L 58.015625 17.1875 
L 47.609375 17.1875 
L 47.609375 0 
L 37.796875 0 
L 37.796875 17.1875 
L 4.890625 17.1875 
L 4.890625 26.703125 
z
" id="DejaVuSans-52"/>
       </defs>
       <use xlink:href="#DejaVuSans-115"/>
       <use x="52.099609" xlink:href="#DejaVuSans-101"/>
       <use x="113.623047" xlink:href="#DejaVuSans-116"/>
       <use x="152.832031" xlink:href="#DejaVuSans-65"/>
       <use x="221.240234" xlink:href="#DejaVuSans-95"/>
       <use x="271.240234" xlink:href="#DejaVuSans-50"/>
       <use x="334.863281" xlink:href="#DejaVuSans-52"/>
      </g>
     </g>
    </g>
    <g id="ytick_5">
     <g id="text_6">
      <!-- setA_16 -->
      <g style="fill:#262626;" transform="translate(7.2 452.972656)scale(0.25 -0.25)">
       <defs>
        <path d="M 33.015625 40.375 
Q 26.375 40.375 22.484375 35.828125 
Q 18.609375 31.296875 18.609375 23.390625 
Q 18.609375 15.53125 22.484375 10.953125 
Q 26.375 6.390625 33.015625 6.390625 
Q 39.65625 6.390625 43.53125 10.953125 
Q 47.40625 15.53125 47.40625 23.390625 
Q 47.40625 31.296875 43.53125 35.828125 
Q 39.65625 40.375 33.015625 40.375 
z
M 52.59375 71.296875 
L 52.59375 62.3125 
Q 48.875 64.0625 45.09375 64.984375 
Q 41.3125 65.921875 37.59375 65.921875 
Q 27.828125 65.921875 22.671875 59.328125 
Q 17.53125 52.734375 16.796875 39.40625 
Q 19.671875 43.65625 24.015625 45.921875 
Q 28.375 48.1875 33.59375 48.1875 
Q 44.578125 48.1875 50.953125 41.515625 
Q 57.328125 34.859375 57.328125 23.390625 
Q 57.328125 12.15625 50.6875 5.359375 
Q 44.046875 -1.421875 33.015625 -1.421875 
Q 20.359375 -1.421875 13.671875 8.265625 
Q 6.984375 17.96875 6.984375 36.375 
Q 6.984375 53.65625 15.1875 63.9375 
Q 23.390625 74.21875 37.203125 74.21875 
Q 40.921875 74.21875 44.703125 73.484375 
Q 48.484375 72.75 52.59375 71.296875 
z
" id="DejaVuSans-54"/>
       </defs>
       <use xlink:href="#DejaVuSans-115"/>
       <use x="52.099609" xlink:href="#DejaVuSans-101"/>
       <use x="113.623047" xlink:href="#DejaVuSans-116"/>
       <use x="152.832031" xlink:href="#DejaVuSans-65"/>
       <use x="221.240234" xlink:href="#DejaVuSans-95"/>
       <use x="271.240234" xlink:href="#DejaVuSans-49"/>
       <use x="334.863281" xlink:href="#DejaVuSans-54"/>
      </g>
     </g>
    </g>
   </g>
   <g id="QuadMesh_1">
    <path clip-path="url(#p5168787bb2)" d="M 113.821094 76.765313 
L 140.580277 76.765313 
L 140.580277 158.305313 
L 113.821094 158.305313 
L 113.821094 76.765313 
" style="fill:#1a1a1a;stroke:#ffffff;stroke-width:2;"/>
    <path clip-path="url(#p5168787bb2)" d="M 113.821094 158.305313 
L 140.580277 158.305313 
L 140.580277 239.845313 
L 113.821094 239.845313 
L 113.821094 158.305313 
" style="fill:#eaeaea;stroke:#ffffff;stroke-width:2;"/>
    <path clip-path="url(#p5168787bb2)" d="M 113.821094 239.845313 
L 140.580277 239.845313 
L 140.580277 321.385312 
L 113.821094 321.385312 
L 113.821094 239.845313 
" style="fill:#bbbbbb;stroke:#ffffff;stroke-width:2;"/>
    <path clip-path="url(#p5168787bb2)" d="M 113.821094 321.385312 
L 140.580277 321.385312 
L 140.580277 402.925312 
L 113.821094 402.925312 
L 113.821094 321.385312 
" style="fill:#fffefe;stroke:#ffffff;stroke-width:2;"/>
    <path clip-path="url(#p5168787bb2)" d="M 113.821094 402.925312 
L 140.580277 402.925312 
L 140.580277 484.465312 
L 113.821094 484.465312 
L 113.821094 402.925312 
" style="fill:#fffefe;stroke:#ffffff;stroke-width:2;"/>
   </g>
  </g>
  <g id="axes_2">
   <g id="patch_3">
    <path d="M 140.580277 484.465312 
L 575.186323 484.465312 
L 575.186323 76.765313 
L 140.580277 76.765313 
z
" style="fill:none;"/>
   </g>
   <g id="matplotlib.axis_3">
    <g id="xtick_2">
     <g id="text_7">
      <!-- setA_15 -->
      <g style="fill:#262626;" transform="translate(190.244007 591.086406)rotate(-90)scale(0.25 -0.25)">
       <use xlink:href="#DejaVuSans-115"/>
       <use x="52.099609" xlink:href="#DejaVuSans-101"/>
       <use x="113.623047" xlink:href="#DejaVuSans-116"/>
       <use x="152.832031" xlink:href="#DejaVuSans-65"/>
       <use x="221.240234" xlink:href="#DejaVuSans-95"/>
       <use x="271.240234" xlink:href="#DejaVuSans-49"/>
       <use x="334.863281" xlink:href="#DejaVuSans-53"/>
      </g>
     </g>
    </g>
    <g id="xtick_3">
     <g id="text_8">
      <!-- setA_21 -->
      <g style="fill:#262626;" transform="translate(277.292169 591.086406)rotate(-90)scale(0.25 -0.25)">
       <use xlink:href="#DejaVuSans-115"/>
       <use x="52.099609" xlink:href="#DejaVuSans-101"/>
       <use x="113.623047" xlink:href="#DejaVuSans-116"/>
       <use x="152.832031" xlink:href="#DejaVuSans-65"/>
       <use x="221.240234" xlink:href="#DejaVuSans-95"/>
       <use x="271.240234" xlink:href="#DejaVuSans-50"/>
       <use x="334.863281" xlink:href="#DejaVuSans-49"/>
      </g>
     </g>
    </g>
    <g id="xtick_4">
     <g id="text_9">
      <!-- setA_11 -->
      <g style="fill:#262626;" transform="translate(364.086425 591.086406)rotate(-90)scale(0.25 -0.25)">
       <use xlink:href="#DejaVuSans-115"/>
       <use x="52.099609" xlink:href="#DejaVuSans-101"/>
       <use x="113.623047" xlink:href="#DejaVuSans-116"/>
       <use x="152.832031" xlink:href="#DejaVuSans-65"/>
       <use x="221.240234" xlink:href="#DejaVuSans-95"/>
       <use x="271.240234" xlink:href="#DejaVuSans-49"/>
       <use x="334.863281" xlink:href="#DejaVuSans-49"/>
      </g>
     </g>
    </g>
    <g id="xtick_5">
     <g id="text_10">
      <!-- setA_24 -->
      <g style="fill:#262626;" transform="translate(451.134587 591.086406)rotate(-90)scale(0.25 -0.25)">
       <use xlink:href="#DejaVuSans-115"/>
       <use x="52.099609" xlink:href="#DejaVuSans-101"/>
       <use x="113.623047" xlink:href="#DejaVuSans-116"/>
       <use x="152.832031" xlink:href="#DejaVuSans-65"/>
       <use x="221.240234" xlink:href="#DejaVuSans-95"/>
       <use x="271.240234" xlink:href="#DejaVuSans-50"/>
       <use x="334.863281" xlink:href="#DejaVuSans-52"/>
      </g>
     </g>
    </g>
    <g id="xtick_6">
     <g id="text_11">
      <!-- setA_16 -->
      <g style="fill:#262626;" transform="translate(538.055796 591.086406)rotate(-90)scale(0.25 -0.25)">
       <use xlink:href="#DejaVuSans-115"/>
       <use x="52.099609" xlink:href="#DejaVuSans-101"/>
       <use x="113.623047" xlink:href="#DejaVuSans-116"/>
       <use x="152.832031" xlink:href="#DejaVuSans-65"/>
       <use x="221.240234" xlink:href="#DejaVuSans-95"/>
       <use x="271.240234" xlink:href="#DejaVuSans-49"/>
       <use x="334.863281" xlink:href="#DejaVuSans-54"/>
      </g>
     </g>
    </g>
   </g>
   <g id="matplotlib.axis_4"/>
   <g id="QuadMesh_2">
    <path clip-path="url(#p1be44d067f)" d="M 140.580277 76.765313 
L 227.501486 76.765313 
L 227.501486 158.305313 
L 140.580277 158.305313 
L 140.580277 76.765313 
" style="fill:none;stroke:#ffffff;stroke-width:2;"/>
    <path clip-path="url(#p1be44d067f)" d="M 227.501486 76.765313 
L 314.422695 76.765313 
L 314.422695 158.305313 
L 227.501486 158.305313 
L 227.501486 76.765313 
" style="fill:#c2c2c2;stroke:#ffffff;stroke-width:2;"/>
    <path clip-path="url(#p1be44d067f)" d="M 314.422695 76.765313 
L 401.343905 76.765313 
L 401.343905 158.305313 
L 314.422695 158.305313 
L 314.422695 76.765313 
" style="fill:#c2c2c2;stroke:#ffffff;stroke-width:2;"/>
    <path clip-path="url(#p1be44d067f)" d="M 401.343905 76.765313 
L 488.265114 76.765313 
L 488.265114 158.305313 
L 401.343905 158.305313 
L 401.343905 76.765313 
" style="fill:#d6d6d6;stroke:#ffffff;stroke-width:2;"/>
    <path clip-path="url(#p1be44d067f)" d="M 488.265114 76.765313 
L 575.186323 76.765313 
L 575.186323 158.305313 
L 488.265114 158.305313 
L 488.265114 76.765313 
" style="fill:#d6d6d6;stroke:#ffffff;stroke-width:2;"/>
    <path clip-path="url(#p1be44d067f)" d="M 140.580277 158.305313 
L 227.501486 158.305313 
L 227.501486 239.845313 
L 140.580277 239.845313 
L 140.580277 158.305313 
" style="fill:#fbfbfb;stroke:#ffffff;stroke-width:2;"/>
    <path clip-path="url(#p1be44d067f)" d="M 227.501486 158.305313 
L 314.422695 158.305313 
L 314.422695 239.845313 
L 227.501486 239.845313 
L 227.501486 158.305313 
" style="fill:none;stroke:#ffffff;stroke-width:2;"/>
    <path clip-path="url(#p1be44d067f)" d="M 314.422695 158.305313 
L 401.343905 158.305313 
L 401.343905 239.845313 
L 314.422695 239.845313 
L 314.422695 158.305313 
" style="fill:#fafafa;stroke:#ffffff;stroke-width:2;"/>
    <path clip-path="url(#p1be44d067f)" d="M 401.343905 158.305313 
L 488.265114 158.305313 
L 488.265114 239.845313 
L 401.343905 239.845313 
L 401.343905 158.305313 
" style="fill:#fafafa;stroke:#ffffff;stroke-width:2;"/>
    <path clip-path="url(#p1be44d067f)" d="M 488.265114 158.305313 
L 575.186323 158.305313 
L 575.186323 239.845313 
L 488.265114 239.845313 
L 488.265114 158.305313 
" style="fill:#fafafa;stroke:#ffffff;stroke-width:2;"/>
    <path clip-path="url(#p1be44d067f)" d="M 140.580277 239.845313 
L 227.501486 239.845313 
L 227.501486 321.385312 
L 140.580277 321.385312 
L 140.580277 239.845313 
" style="fill:#f0f0f0;stroke:#ffffff;stroke-width:2;"/>
    <path clip-path="url(#p1be44d067f)" d="M 227.501486 239.845313 
L 314.422695 239.845313 
L 314.422695 321.385312 
L 227.501486 321.385312 
L 227.501486 239.845313 
" style="fill:#e6e6e6;stroke:#ffffff;stroke-width:2;"/>
    <path clip-path="url(#p1be44d067f)" d="M 314.422695 239.845313 
L 401.343905 239.845313 
L 401.343905 321.385312 
L 314.422695 321.385312 
L 314.422695 239.845313 
" style="fill:none;stroke:#ffffff;stroke-width:2;"/>
    <path clip-path="url(#p1be44d067f)" d="M 401.343905 239.845313 
L 488.265114 239.845313 
L 488.265114 321.385312 
L 401.343905 321.385312 
L 401.343905 239.845313 
" style="fill:#f0f0f0;stroke:#ffffff;stroke-width:2;"/>
    <path clip-path="url(#p1be44d067f)" d="M 488.265114 239.845313 
L 575.186323 239.845313 
L 575.186323 321.385312 
L 488.265114 321.385312 
L 488.265114 239.845313 
" style="fill:#f0f0f0;stroke:#ffffff;stroke-width:2;"/>
    <path clip-path="url(#p1be44d067f)" d="M 140.580277 321.385312 
L 227.501486 321.385312 
L 227.501486 402.925312 
L 140.580277 402.925312 
L 140.580277 321.385312 
" style="fill:#fefefe;stroke:#ffffff;stroke-width:2;"/>
    <path clip-path="url(#p1be44d067f)" d="M 227.501486 321.385312 
L 314.422695 321.385312 
L 314.422695 402.925312 
L 227.501486 402.925312 
L 227.501486 321.385312 
" style="fill:#fefefe;stroke:#ffffff;stroke-width:2;"/>
    <path clip-path="url(#p1be44d067f)" d="M 314.422695 321.385312 
L 401.343905 321.385312 
L 401.343905 402.925312 
L 314.422695 402.925312 
L 314.422695 321.385312 
" style="fill:#6a011f;stroke:#ffffff;stroke-width:2;"/>
    <path clip-path="url(#p1be44d067f)" d="M 401.343905 321.385312 
L 488.265114 321.385312 
L 488.265114 402.925312 
L 401.343905 402.925312 
L 401.343905 321.385312 
" style="fill:none;stroke:#ffffff;stroke-width:2;"/>
    <path clip-path="url(#p1be44d067f)" d="M 488.265114 321.385312 
L 575.186323 321.385312 
L 575.186323 402.925312 
L 488.265114 402.925312 
L 488.265114 321.385312 
" style="fill:#fefefe;stroke:#ffffff;stroke-width:2;"/>
    <path clip-path="url(#p1be44d067f)" d="M 140.580277 402.925312 
L 227.501486 402.925312 
L 227.501486 484.465312 
L 140.580277 484.465312 
L 140.580277 402.925312 
" style="fill:#facab1;stroke:#ffffff;stroke-width:2;"/>
    <path clip-path="url(#p1be44d067f)" d="M 227.501486 402.925312 
L 314.422695 402.925312 
L 314.422695 484.465312 
L 227.501486 484.465312 
L 227.501486 402.925312 
" style="fill:#cc4c44;stroke:#ffffff;stroke-width:2;"/>
    <path clip-path="url(#p1be44d067f)" d="M 314.422695 402.925312 
L 401.343905 402.925312 
L 401.343905 484.465312 
L 314.422695 484.465312 
L 314.422695 402.925312 
" style="fill:#ec9374;stroke:#ffffff;stroke-width:2;"/>
    <path clip-path="url(#p1be44d067f)" d="M 401.343905 402.925312 
L 488.265114 402.925312 
L 488.265114 484.465312 
L 401.343905 484.465312 
L 401.343905 402.925312 
" style="fill:#fefefe;stroke:#ffffff;stroke-width:2;"/>
    <path clip-path="url(#p1be44d067f)" d="M 488.265114 402.925312 
L 575.186323 402.925312 
L 575.186323 484.465312 
L 488.265114 484.465312 
L 488.265114 402.925312 
" style="fill:none;stroke:#ffffff;stroke-width:2;"/>
   </g>
   <g id="patch_4">
    <path clip-path="url(#p1be44d067f)" d="M 157.964519 93.073313 
L 210.117244 93.073313 
L 210.117244 141.997313 
L 157.964519 141.997313 
z
" style="fill:url(#h029c4aa822);"/>
   </g>
   <g id="patch_5">
    <path clip-path="url(#p1be44d067f)" d="M 244.885728 174.613313 
L 297.038454 174.613313 
L 297.038454 223.537312 
L 244.885728 223.537312 
z
" style="fill:url(#h029c4aa822);"/>
   </g>
   <g id="patch_6">
    <path clip-path="url(#p1be44d067f)" d="M 331.806937 256.153313 
L 383.959663 256.153313 
L 383.959663 305.077313 
L 331.806937 305.077313 
z
" style="fill:url(#h029c4aa822);"/>
   </g>
   <g id="patch_7">
    <path clip-path="url(#p1be44d067f)" d="M 418.728146 337.693312 
L 470.880872 337.693312 
L 470.880872 386.617312 
L 418.728146 386.617312 
z
" style="fill:url(#h029c4aa822);"/>
   </g>
   <g id="patch_8">
    <path clip-path="url(#p1be44d067f)" d="M 505.649356 419.233312 
L 557.802081 419.233312 
L 557.802081 468.157312 
L 505.649356 468.157312 
z
" style="fill:url(#h029c4aa822);"/>
   </g>
   <g id="text_12">
    <!-- 6.49 -->
    <g style="fill:#262626;" transform="translate(247.778009 123.281711)scale(0.20825 -0.20825)">
     <defs>
      <path d="M 10.6875 12.40625 
L 21 12.40625 
L 21 0 
L 10.6875 0 
z
" id="DejaVuSans-46"/>
      <path d="M 10.984375 1.515625 
L 10.984375 10.5 
Q 14.703125 8.734375 18.5 7.8125 
Q 22.3125 6.890625 25.984375 6.890625 
Q 35.75 6.890625 40.890625 13.453125 
Q 46.046875 20.015625 46.78125 33.40625 
Q 43.953125 29.203125 39.59375 26.953125 
Q 35.25 24.703125 29.984375 24.703125 
Q 19.046875 24.703125 12.671875 31.3125 
Q 6.296875 37.9375 6.296875 49.421875 
Q 6.296875 60.640625 12.9375 67.421875 
Q 19.578125 74.21875 30.609375 74.21875 
Q 43.265625 74.21875 49.921875 64.515625 
Q 56.59375 54.828125 56.59375 36.375 
Q 56.59375 19.140625 48.40625 8.859375 
Q 40.234375 -1.421875 26.421875 -1.421875 
Q 22.703125 -1.421875 18.890625 -0.6875 
Q 15.09375 0.046875 10.984375 1.515625 
z
M 30.609375 32.421875 
Q 37.25 32.421875 41.125 36.953125 
Q 45.015625 41.5 45.015625 49.421875 
Q 45.015625 57.28125 41.125 61.84375 
Q 37.25 66.40625 30.609375 66.40625 
Q 23.96875 66.40625 20.09375 61.84375 
Q 16.21875 57.28125 16.21875 49.421875 
Q 16.21875 41.5 20.09375 36.953125 
Q 23.96875 32.421875 30.609375 32.421875 
z
" id="DejaVuSans-57"/>
     </defs>
     <use xlink:href="#DejaVuSans-54"/>
     <use x="63.623047" xlink:href="#DejaVuSans-46"/>
     <use x="95.410156" xlink:href="#DejaVuSans-52"/>
     <use x="159.033203" xlink:href="#DejaVuSans-57"/>
    </g>
   </g>
   <g id="text_13">
    <!-- 6.54 -->
    <g style="fill:#262626;" transform="translate(334.699218 123.281711)scale(0.20825 -0.20825)">
     <use xlink:href="#DejaVuSans-54"/>
     <use x="63.623047" xlink:href="#DejaVuSans-46"/>
     <use x="95.410156" xlink:href="#DejaVuSans-53"/>
     <use x="159.033203" xlink:href="#DejaVuSans-52"/>
    </g>
   </g>
   <g id="text_14">
    <!-- 4.51 -->
    <g style="fill:#262626;" transform="translate(421.620427 123.281711)scale(0.20825 -0.20825)">
     <use xlink:href="#DejaVuSans-52"/>
     <use x="63.623047" xlink:href="#DejaVuSans-46"/>
     <use x="95.410156" xlink:href="#DejaVuSans-53"/>
     <use x="159.033203" xlink:href="#DejaVuSans-49"/>
    </g>
   </g>
   <g id="text_15">
    <!-- 4.55 -->
    <g style="fill:#262626;" transform="translate(508.541636 123.281711)scale(0.20825 -0.20825)">
     <use xlink:href="#DejaVuSans-52"/>
     <use x="63.623047" xlink:href="#DejaVuSans-46"/>
     <use x="95.410156" xlink:href="#DejaVuSans-53"/>
     <use x="159.033203" xlink:href="#DejaVuSans-53"/>
    </g>
   </g>
   <g id="text_16">
    <!-- 0.50 -->
    <g style="fill:#262626;" transform="translate(160.8568 204.821711)scale(0.20825 -0.20825)">
     <defs>
      <path d="M 31.78125 66.40625 
Q 24.171875 66.40625 20.328125 58.90625 
Q 16.5 51.421875 16.5 36.375 
Q 16.5 21.390625 20.328125 13.890625 
Q 24.171875 6.390625 31.78125 6.390625 
Q 39.453125 6.390625 43.28125 13.890625 
Q 47.125 21.390625 47.125 36.375 
Q 47.125 51.421875 43.28125 58.90625 
Q 39.453125 66.40625 31.78125 66.40625 
z
M 31.78125 74.21875 
Q 44.046875 74.21875 50.515625 64.515625 
Q 56.984375 54.828125 56.984375 36.375 
Q 56.984375 17.96875 50.515625 8.265625 
Q 44.046875 -1.421875 31.78125 -1.421875 
Q 19.53125 -1.421875 13.0625 8.265625 
Q 6.59375 17.96875 6.59375 36.375 
Q 6.59375 54.828125 13.0625 64.515625 
Q 19.53125 74.21875 31.78125 74.21875 
z
" id="DejaVuSans-48"/>
     </defs>
     <use xlink:href="#DejaVuSans-48"/>
     <use x="63.623047" xlink:href="#DejaVuSans-46"/>
     <use x="95.410156" xlink:href="#DejaVuSans-53"/>
     <use x="159.033203" xlink:href="#DejaVuSans-48"/>
    </g>
   </g>
   <g id="text_17">
    <!-- 0.63 -->
    <g style="fill:#262626;" transform="translate(334.699218 204.821711)scale(0.20825 -0.20825)">
     <defs>
      <path d="M 40.578125 39.3125 
Q 47.65625 37.796875 51.625 33 
Q 55.609375 28.21875 55.609375 21.1875 
Q 55.609375 10.40625 48.1875 4.484375 
Q 40.765625 -1.421875 27.09375 -1.421875 
Q 22.515625 -1.421875 17.65625 -0.515625 
Q 12.796875 0.390625 7.625 2.203125 
L 7.625 11.71875 
Q 11.71875 9.328125 16.59375 8.109375 
Q 21.484375 6.890625 26.8125 6.890625 
Q 36.078125 6.890625 40.9375 10.546875 
Q 45.796875 14.203125 45.796875 21.1875 
Q 45.796875 27.640625 41.28125 31.265625 
Q 36.765625 34.90625 28.71875 34.90625 
L 20.21875 34.90625 
L 20.21875 43.015625 
L 29.109375 43.015625 
Q 36.375 43.015625 40.234375 45.921875 
Q 44.09375 48.828125 44.09375 54.296875 
Q 44.09375 59.90625 40.109375 62.90625 
Q 36.140625 65.921875 28.71875 65.921875 
Q 24.65625 65.921875 20.015625 65.03125 
Q 15.375 64.15625 9.8125 62.3125 
L 9.8125 71.09375 
Q 15.4375 72.65625 20.34375 73.4375 
Q 25.25 74.21875 29.59375 74.21875 
Q 40.828125 74.21875 47.359375 69.109375 
Q 53.90625 64.015625 53.90625 55.328125 
Q 53.90625 49.265625 50.4375 45.09375 
Q 46.96875 40.921875 40.578125 39.3125 
z
" id="DejaVuSans-51"/>
     </defs>
     <use xlink:href="#DejaVuSans-48"/>
     <use x="63.623047" xlink:href="#DejaVuSans-46"/>
     <use x="95.410156" xlink:href="#DejaVuSans-54"/>
     <use x="159.033203" xlink:href="#DejaVuSans-51"/>
    </g>
   </g>
   <g id="text_18">
    <!-- 0.62 -->
    <g style="fill:#262626;" transform="translate(421.620427 204.821711)scale(0.20825 -0.20825)">
     <use xlink:href="#DejaVuSans-48"/>
     <use x="63.623047" xlink:href="#DejaVuSans-46"/>
     <use x="95.410156" xlink:href="#DejaVuSans-54"/>
     <use x="159.033203" xlink:href="#DejaVuSans-50"/>
    </g>
   </g>
   <g id="text_19">
    <!-- 0.62 -->
    <g style="fill:#262626;" transform="translate(508.541636 204.821711)scale(0.20825 -0.20825)">
     <use xlink:href="#DejaVuSans-48"/>
     <use x="63.623047" xlink:href="#DejaVuSans-46"/>
     <use x="95.410156" xlink:href="#DejaVuSans-54"/>
     <use x="159.033203" xlink:href="#DejaVuSans-50"/>
    </g>
   </g>
   <g id="text_20">
    <!-- 1.74 -->
    <g style="fill:#262626;" transform="translate(160.8568 286.361711)scale(0.20825 -0.20825)">
     <defs>
      <path d="M 8.203125 72.90625 
L 55.078125 72.90625 
L 55.078125 68.703125 
L 28.609375 0 
L 18.3125 0 
L 43.21875 64.59375 
L 8.203125 64.59375 
z
" id="DejaVuSans-55"/>
     </defs>
     <use xlink:href="#DejaVuSans-49"/>
     <use x="63.623047" xlink:href="#DejaVuSans-46"/>
     <use x="95.410156" xlink:href="#DejaVuSans-55"/>
     <use x="159.033203" xlink:href="#DejaVuSans-52"/>
    </g>
   </g>
   <g id="text_21">
    <!-- 2.88 -->
    <g style="fill:#262626;" transform="translate(247.778009 286.361711)scale(0.20825 -0.20825)">
     <defs>
      <path d="M 31.78125 34.625 
Q 24.75 34.625 20.71875 30.859375 
Q 16.703125 27.09375 16.703125 20.515625 
Q 16.703125 13.921875 20.71875 10.15625 
Q 24.75 6.390625 31.78125 6.390625 
Q 38.8125 6.390625 42.859375 10.171875 
Q 46.921875 13.96875 46.921875 20.515625 
Q 46.921875 27.09375 42.890625 30.859375 
Q 38.875 34.625 31.78125 34.625 
z
M 21.921875 38.8125 
Q 15.578125 40.375 12.03125 44.71875 
Q 8.5 49.078125 8.5 55.328125 
Q 8.5 64.0625 14.71875 69.140625 
Q 20.953125 74.21875 31.78125 74.21875 
Q 42.671875 74.21875 48.875 69.140625 
Q 55.078125 64.0625 55.078125 55.328125 
Q 55.078125 49.078125 51.53125 44.71875 
Q 48 40.375 41.703125 38.8125 
Q 48.828125 37.15625 52.796875 32.3125 
Q 56.78125 27.484375 56.78125 20.515625 
Q 56.78125 9.90625 50.3125 4.234375 
Q 43.84375 -1.421875 31.78125 -1.421875 
Q 19.734375 -1.421875 13.25 4.234375 
Q 6.78125 9.90625 6.78125 20.515625 
Q 6.78125 27.484375 10.78125 32.3125 
Q 14.796875 37.15625 21.921875 38.8125 
z
M 18.3125 54.390625 
Q 18.3125 48.734375 21.84375 45.5625 
Q 25.390625 42.390625 31.78125 42.390625 
Q 38.140625 42.390625 41.71875 45.5625 
Q 45.3125 48.734375 45.3125 54.390625 
Q 45.3125 60.0625 41.71875 63.234375 
Q 38.140625 66.40625 31.78125 66.40625 
Q 25.390625 66.40625 21.84375 63.234375 
Q 18.3125 60.0625 18.3125 54.390625 
z
" id="DejaVuSans-56"/>
     </defs>
     <use xlink:href="#DejaVuSans-50"/>
     <use x="63.623047" xlink:href="#DejaVuSans-46"/>
     <use x="95.410156" xlink:href="#DejaVuSans-56"/>
     <use x="159.033203" xlink:href="#DejaVuSans-56"/>
    </g>
   </g>
   <g id="text_22">
    <!-- 1.74 -->
    <g style="fill:#262626;" transform="translate(421.620427 286.361711)scale(0.20825 -0.20825)">
     <use xlink:href="#DejaVuSans-49"/>
     <use x="63.623047" xlink:href="#DejaVuSans-46"/>
     <use x="95.410156" xlink:href="#DejaVuSans-55"/>
     <use x="159.033203" xlink:href="#DejaVuSans-52"/>
    </g>
   </g>
   <g id="text_23">
    <!-- 1.76 -->
    <g style="fill:#262626;" transform="translate(508.541636 286.361711)scale(0.20825 -0.20825)">
     <use xlink:href="#DejaVuSans-49"/>
     <use x="63.623047" xlink:href="#DejaVuSans-46"/>
     <use x="95.410156" xlink:href="#DejaVuSans-55"/>
     <use x="159.033203" xlink:href="#DejaVuSans-54"/>
    </g>
   </g>
   <g id="text_24">
    <!-- 0.00 -->
    <g style="fill:#262626;" transform="translate(160.8568 367.901711)scale(0.20825 -0.20825)">
     <use xlink:href="#DejaVuSans-48"/>
     <use x="63.623047" xlink:href="#DejaVuSans-46"/>
     <use x="95.410156" xlink:href="#DejaVuSans-48"/>
     <use x="159.033203" xlink:href="#DejaVuSans-48"/>
    </g>
   </g>
   <g id="text_25">
    <!-- 0.00 -->
    <g style="fill:#262626;" transform="translate(247.778009 367.901711)scale(0.20825 -0.20825)">
     <use xlink:href="#DejaVuSans-48"/>
     <use x="63.623047" xlink:href="#DejaVuSans-46"/>
     <use x="95.410156" xlink:href="#DejaVuSans-48"/>
     <use x="159.033203" xlink:href="#DejaVuSans-48"/>
    </g>
   </g>
   <g id="text_26">
    <!-- -18.03 -->
    <g style="fill:#ffffff;" transform="translate(324.31763 367.901711)scale(0.20825 -0.20825)">
     <defs>
      <path d="M 4.890625 31.390625 
L 31.203125 31.390625 
L 31.203125 23.390625 
L 4.890625 23.390625 
z
" id="DejaVuSans-45"/>
     </defs>
     <use xlink:href="#DejaVuSans-45"/>
     <use x="36.083984" xlink:href="#DejaVuSans-49"/>
     <use x="99.707031" xlink:href="#DejaVuSans-56"/>
     <use x="163.330078" xlink:href="#DejaVuSans-46"/>
     <use x="195.117188" xlink:href="#DejaVuSans-48"/>
     <use x="258.740234" xlink:href="#DejaVuSans-51"/>
    </g>
   </g>
   <g id="text_27">
    <!-- -0.02 -->
    <g style="fill:#262626;" transform="translate(504.785001 367.901711)scale(0.20825 -0.20825)">
     <use xlink:href="#DejaVuSans-45"/>
     <use x="36.083984" xlink:href="#DejaVuSans-48"/>
     <use x="99.707031" xlink:href="#DejaVuSans-46"/>
     <use x="131.494141" xlink:href="#DejaVuSans-48"/>
     <use x="195.117188" xlink:href="#DejaVuSans-50"/>
    </g>
   </g>
   <g id="text_28">
    <!-- -4.73 -->
    <g style="fill:#262626;" transform="translate(157.100165 449.441711)scale(0.20825 -0.20825)">
     <use xlink:href="#DejaVuSans-45"/>
     <use x="36.083984" xlink:href="#DejaVuSans-52"/>
     <use x="99.707031" xlink:href="#DejaVuSans-46"/>
     <use x="131.494141" xlink:href="#DejaVuSans-55"/>
     <use x="195.117188" xlink:href="#DejaVuSans-51"/>
    </g>
   </g>
   <g id="text_29">
    <!-- -11.90 -->
    <g style="fill:#ffffff;" transform="translate(237.396421 449.441711)scale(0.20825 -0.20825)">
     <use xlink:href="#DejaVuSans-45"/>
     <use x="36.083984" xlink:href="#DejaVuSans-49"/>
     <use x="99.707031" xlink:href="#DejaVuSans-49"/>
     <use x="163.330078" xlink:href="#DejaVuSans-46"/>
     <use x="195.117188" xlink:href="#DejaVuSans-57"/>
     <use x="258.740234" xlink:href="#DejaVuSans-48"/>
    </g>
   </g>
   <g id="text_30">
    <!-- -8.16 -->
    <g style="fill:#ffffff;" transform="translate(330.942583 449.441711)scale(0.20825 -0.20825)">
     <use xlink:href="#DejaVuSans-45"/>
     <use x="36.083984" xlink:href="#DejaVuSans-56"/>
     <use x="99.707031" xlink:href="#DejaVuSans-46"/>
     <use x="131.494141" xlink:href="#DejaVuSans-49"/>
     <use x="195.117188" xlink:href="#DejaVuSans-54"/>
    </g>
   </g>
   <g id="text_31">
    <!-- 0.00 -->
    <g style="fill:#262626;" transform="translate(421.620427 449.441711)scale(0.20825 -0.20825)">
     <use xlink:href="#DejaVuSans-48"/>
     <use x="63.623047" xlink:href="#DejaVuSans-46"/>
     <use x="95.410156" xlink:href="#DejaVuSans-48"/>
     <use x="159.033203" xlink:href="#DejaVuSans-48"/>
    </g>
   </g>
   <g id="text_32">
    <!-- EU_avg -->
    <g style="fill:#262626;" transform="translate(302.334081 29.995313)scale(0.3 -0.3)">
     <defs>
      <path d="M 9.8125 72.90625 
L 55.90625 72.90625 
L 55.90625 64.59375 
L 19.671875 64.59375 
L 19.671875 43.015625 
L 54.390625 43.015625 
L 54.390625 34.71875 
L 19.671875 34.71875 
L 19.671875 8.296875 
L 56.78125 8.296875 
L 56.78125 0 
L 9.8125 0 
z
" id="DejaVuSans-69"/>
      <path d="M 8.6875 72.90625 
L 18.609375 72.90625 
L 18.609375 28.609375 
Q 18.609375 16.890625 22.84375 11.734375 
Q 27.09375 6.59375 36.625 6.59375 
Q 46.09375 6.59375 50.34375 11.734375 
Q 54.59375 16.890625 54.59375 28.609375 
L 54.59375 72.90625 
L 64.5 72.90625 
L 64.5 27.390625 
Q 64.5 13.140625 57.4375 5.859375 
Q 50.390625 -1.421875 36.625 -1.421875 
Q 22.796875 -1.421875 15.734375 5.859375 
Q 8.6875 13.140625 8.6875 27.390625 
z
" id="DejaVuSans-85"/>
      <path d="M 34.28125 27.484375 
Q 23.390625 27.484375 19.1875 25 
Q 14.984375 22.515625 14.984375 16.5 
Q 14.984375 11.71875 18.140625 8.90625 
Q 21.296875 6.109375 26.703125 6.109375 
Q 34.1875 6.109375 38.703125 11.40625 
Q 43.21875 16.703125 43.21875 25.484375 
L 43.21875 27.484375 
z
M 52.203125 31.203125 
L 52.203125 0 
L 43.21875 0 
L 43.21875 8.296875 
Q 40.140625 3.328125 35.546875 0.953125 
Q 30.953125 -1.421875 24.3125 -1.421875 
Q 15.921875 -1.421875 10.953125 3.296875 
Q 6 8.015625 6 15.921875 
Q 6 25.140625 12.171875 29.828125 
Q 18.359375 34.515625 30.609375 34.515625 
L 43.21875 34.515625 
L 43.21875 35.40625 
Q 43.21875 41.609375 39.140625 45 
Q 35.0625 48.390625 27.6875 48.390625 
Q 23 48.390625 18.546875 47.265625 
Q 14.109375 46.140625 10.015625 43.890625 
L 10.015625 52.203125 
Q 14.9375 54.109375 19.578125 55.046875 
Q 24.21875 56 28.609375 56 
Q 40.484375 56 46.34375 49.84375 
Q 52.203125 43.703125 52.203125 31.203125 
z
" id="DejaVuSans-97"/>
      <path d="M 2.984375 54.6875 
L 12.5 54.6875 
L 29.59375 8.796875 
L 46.6875 54.6875 
L 56.203125 54.6875 
L 35.6875 0 
L 23.484375 0 
z
" id="DejaVuSans-118"/>
      <path d="M 45.40625 27.984375 
Q 45.40625 37.75 41.375 43.109375 
Q 37.359375 48.484375 30.078125 48.484375 
Q 22.859375 48.484375 18.828125 43.109375 
Q 14.796875 37.75 14.796875 27.984375 
Q 14.796875 18.265625 18.828125 12.890625 
Q 22.859375 7.515625 30.078125 7.515625 
Q 37.359375 7.515625 41.375 12.890625 
Q 45.40625 18.265625 45.40625 27.984375 
z
M 54.390625 6.78125 
Q 54.390625 -7.171875 48.1875 -13.984375 
Q 42 -20.796875 29.203125 -20.796875 
Q 24.46875 -20.796875 20.265625 -20.09375 
Q 16.0625 -19.390625 12.109375 -17.921875 
L 12.109375 -9.1875 
Q 16.0625 -11.328125 19.921875 -12.34375 
Q 23.78125 -13.375 27.78125 -13.375 
Q 36.625 -13.375 41.015625 -8.765625 
Q 45.40625 -4.15625 45.40625 5.171875 
L 45.40625 9.625 
Q 42.625 4.78125 38.28125 2.390625 
Q 33.9375 0 27.875 0 
Q 17.828125 0 11.671875 7.65625 
Q 5.515625 15.328125 5.515625 27.984375 
Q 5.515625 40.671875 11.671875 48.328125 
Q 17.828125 56 27.875 56 
Q 33.9375 56 38.28125 53.609375 
Q 42.625 51.21875 45.40625 46.390625 
L 45.40625 54.6875 
L 54.390625 54.6875 
z
" id="DejaVuSans-103"/>
     </defs>
     <use xlink:href="#DejaVuSans-69"/>
     <use x="63.183594" xlink:href="#DejaVuSans-85"/>
     <use x="136.376953" xlink:href="#DejaVuSans-95"/>
     <use x="186.376953" xlink:href="#DejaVuSans-97"/>
     <use x="247.65625" xlink:href="#DejaVuSans-118"/>
     <use x="306.835938" xlink:href="#DejaVuSans-103"/>
    </g>
   </g>
  </g>
  <g id="axes_3">
   <g id="patch_9">
    <path d="M 621.322846 484.465312 
L 648.082029 484.465312 
L 648.082029 76.765313 
L 621.322846 76.765313 
z
" style="fill:none;"/>
   </g>
   <g id="matplotlib.axis_5">
    <g id="xtick_7">
     <g id="text_33">
      <!-- $\it{P}_{mono}$ -->
      <g style="fill:#262626;" transform="translate(641.600875 556.965312)rotate(-90)scale(0.25 -0.25)">
       <use transform="translate(0 0.09375)" xlink:href="#DejaVuSans-Oblique-80"/>
       <use transform="translate(60.302734 -16.3125)scale(0.7)" xlink:href="#DejaVuSans-Oblique-109"/>
       <use transform="translate(128.491211 -16.3125)scale(0.7)" xlink:href="#DejaVuSans-Oblique-111"/>
       <use transform="translate(171.318359 -16.3125)scale(0.7)" xlink:href="#DejaVuSans-Oblique-110"/>
       <use transform="translate(215.683594 -16.3125)scale(0.7)" xlink:href="#DejaVuSans-Oblique-111"/>
      </g>
     </g>
    </g>
   </g>
   <g id="matplotlib.axis_6"/>
   <g id="QuadMesh_3">
    <path clip-path="url(#p38cf2374b2)" d="M 621.322846 76.765313 
L 648.082029 76.765313 
L 648.082029 158.305313 
L 621.322846 158.305313 
L 621.322846 76.765313 
" style="fill:#cecece;stroke:#ffffff;stroke-width:2;"/>
    <path clip-path="url(#p38cf2374b2)" d="M 621.322846 158.305313 
L 648.082029 158.305313 
L 648.082029 239.845313 
L 621.322846 239.845313 
L 621.322846 158.305313 
" style="fill:#939393;stroke:#ffffff;stroke-width:2;"/>
    <path clip-path="url(#p38cf2374b2)" d="M 621.322846 239.845313 
L 648.082029 239.845313 
L 648.082029 321.385312 
L 621.322846 321.385312 
L 621.322846 239.845313 
" style="fill:#fffefe;stroke:#ffffff;stroke-width:2;"/>
    <path clip-path="url(#p38cf2374b2)" d="M 621.322846 321.385312 
L 648.082029 321.385312 
L 648.082029 402.925312 
L 621.322846 402.925312 
L 621.322846 321.385312 
" style="fill:#c8c8c8;stroke:#ffffff;stroke-width:2;"/>
    <path clip-path="url(#p38cf2374b2)" d="M 621.322846 402.925312 
L 648.082029 402.925312 
L 648.082029 484.465312 
L 621.322846 484.465312 
L 621.322846 402.925312 
" style="fill:#fffefe;stroke:#ffffff;stroke-width:2;"/>
   </g>
  </g>
  <g id="axes_4">
   <g id="patch_10">
    <path d="M 648.082029 484.465312 
L 1082.688075 484.465312 
L 1082.688075 76.765313 
L 648.082029 76.765313 
z
" style="fill:none;"/>
   </g>
   <g id="matplotlib.axis_7">
    <g id="xtick_8">
     <g id="text_34">
      <!-- setA_15 -->
      <g style="fill:#262626;" transform="translate(697.745759 591.086406)rotate(-90)scale(0.25 -0.25)">
       <use xlink:href="#DejaVuSans-115"/>
       <use x="52.099609" xlink:href="#DejaVuSans-101"/>
       <use x="113.623047" xlink:href="#DejaVuSans-116"/>
       <use x="152.832031" xlink:href="#DejaVuSans-65"/>
       <use x="221.240234" xlink:href="#DejaVuSans-95"/>
       <use x="271.240234" xlink:href="#DejaVuSans-49"/>
       <use x="334.863281" xlink:href="#DejaVuSans-53"/>
      </g>
     </g>
    </g>
    <g id="xtick_9">
     <g id="text_35">
      <!-- setA_21 -->
      <g style="fill:#262626;" transform="translate(784.793921 591.086406)rotate(-90)scale(0.25 -0.25)">
       <use xlink:href="#DejaVuSans-115"/>
       <use x="52.099609" xlink:href="#DejaVuSans-101"/>
       <use x="113.623047" xlink:href="#DejaVuSans-116"/>
       <use x="152.832031" xlink:href="#DejaVuSans-65"/>
       <use x="221.240234" xlink:href="#DejaVuSans-95"/>
       <use x="271.240234" xlink:href="#DejaVuSans-50"/>
       <use x="334.863281" xlink:href="#DejaVuSans-49"/>
      </g>
     </g>
    </g>
    <g id="xtick_10">
     <g id="text_36">
      <!-- setA_11 -->
      <g style="fill:#262626;" transform="translate(871.588177 591.086406)rotate(-90)scale(0.25 -0.25)">
       <use xlink:href="#DejaVuSans-115"/>
       <use x="52.099609" xlink:href="#DejaVuSans-101"/>
       <use x="113.623047" xlink:href="#DejaVuSans-116"/>
       <use x="152.832031" xlink:href="#DejaVuSans-65"/>
       <use x="221.240234" xlink:href="#DejaVuSans-95"/>
       <use x="271.240234" xlink:href="#DejaVuSans-49"/>
       <use x="334.863281" xlink:href="#DejaVuSans-49"/>
      </g>
     </g>
    </g>
    <g id="xtick_11">
     <g id="text_37">
      <!-- setA_24 -->
      <g style="fill:#262626;" transform="translate(958.636339 591.086406)rotate(-90)scale(0.25 -0.25)">
       <use xlink:href="#DejaVuSans-115"/>
       <use x="52.099609" xlink:href="#DejaVuSans-101"/>
       <use x="113.623047" xlink:href="#DejaVuSans-116"/>
       <use x="152.832031" xlink:href="#DejaVuSans-65"/>
       <use x="221.240234" xlink:href="#DejaVuSans-95"/>
       <use x="271.240234" xlink:href="#DejaVuSans-50"/>
       <use x="334.863281" xlink:href="#DejaVuSans-52"/>
      </g>
     </g>
    </g>
    <g id="xtick_12">
     <g id="text_38">
      <!-- setA_16 -->
      <g style="fill:#262626;" transform="translate(1045.557548 591.086406)rotate(-90)scale(0.25 -0.25)">
       <use xlink:href="#DejaVuSans-115"/>
       <use x="52.099609" xlink:href="#DejaVuSans-101"/>
       <use x="113.623047" xlink:href="#DejaVuSans-116"/>
       <use x="152.832031" xlink:href="#DejaVuSans-65"/>
       <use x="221.240234" xlink:href="#DejaVuSans-95"/>
       <use x="271.240234" xlink:href="#DejaVuSans-49"/>
       <use x="334.863281" xlink:href="#DejaVuSans-54"/>
      </g>
     </g>
    </g>
   </g>
   <g id="matplotlib.axis_8"/>
   <g id="QuadMesh_4">
    <path clip-path="url(#p4f3f0b39fb)" d="M 648.082029 76.765313 
L 735.003238 76.765313 
L 735.003238 158.305313 
L 648.082029 158.305313 
L 648.082029 76.765313 
" style="fill:none;stroke:#ffffff;stroke-width:2;"/>
    <path clip-path="url(#p4f3f0b39fb)" d="M 735.003238 76.765313 
L 821.924447 76.765313 
L 821.924447 158.305313 
L 735.003238 158.305313 
L 735.003238 76.765313 
" style="fill:#f5f5f5;stroke:#ffffff;stroke-width:2;"/>
    <path clip-path="url(#p4f3f0b39fb)" d="M 821.924447 76.765313 
L 908.845657 76.765313 
L 908.845657 158.305313 
L 821.924447 158.305313 
L 821.924447 76.765313 
" style="fill:#f3f3f3;stroke:#ffffff;stroke-width:2;"/>
    <path clip-path="url(#p4f3f0b39fb)" d="M 908.845657 76.765313 
L 995.766866 76.765313 
L 995.766866 158.305313 
L 908.845657 158.305313 
L 908.845657 76.765313 
" style="fill:#f2f2f2;stroke:#ffffff;stroke-width:2;"/>
    <path clip-path="url(#p4f3f0b39fb)" d="M 995.766866 76.765313 
L 1082.688075 76.765313 
L 1082.688075 158.305313 
L 995.766866 158.305313 
L 995.766866 76.765313 
" style="fill:#f3f3f3;stroke:#ffffff;stroke-width:2;"/>
    <path clip-path="url(#p4f3f0b39fb)" d="M 648.082029 158.305313 
L 735.003238 158.305313 
L 735.003238 239.845313 
L 648.082029 239.845313 
L 648.082029 158.305313 
" style="fill:#ececec;stroke:#ffffff;stroke-width:2;"/>
    <path clip-path="url(#p4f3f0b39fb)" d="M 735.003238 158.305313 
L 821.924447 158.305313 
L 821.924447 239.845313 
L 735.003238 239.845313 
L 735.003238 158.305313 
" style="fill:none;stroke:#ffffff;stroke-width:2;"/>
    <path clip-path="url(#p4f3f0b39fb)" d="M 821.924447 158.305313 
L 908.845657 158.305313 
L 908.845657 239.845313 
L 821.924447 239.845313 
L 821.924447 158.305313 
" style="fill:#ebebeb;stroke:#ffffff;stroke-width:2;"/>
    <path clip-path="url(#p4f3f0b39fb)" d="M 908.845657 158.305313 
L 995.766866 158.305313 
L 995.766866 239.845313 
L 908.845657 239.845313 
L 908.845657 158.305313 
" style="fill:#eaeaea;stroke:#ffffff;stroke-width:2;"/>
    <path clip-path="url(#p4f3f0b39fb)" d="M 995.766866 158.305313 
L 1082.688075 158.305313 
L 1082.688075 239.845313 
L 995.766866 239.845313 
L 995.766866 158.305313 
" style="fill:#eaeaea;stroke:#ffffff;stroke-width:2;"/>
    <path clip-path="url(#p4f3f0b39fb)" d="M 648.082029 239.845313 
L 735.003238 239.845313 
L 735.003238 321.385312 
L 648.082029 321.385312 
L 648.082029 239.845313 
" style="fill:#fefefe;stroke:#ffffff;stroke-width:2;"/>
    <path clip-path="url(#p4f3f0b39fb)" d="M 735.003238 239.845313 
L 821.924447 239.845313 
L 821.924447 321.385312 
L 735.003238 321.385312 
L 735.003238 239.845313 
" style="fill:#fefefe;stroke:#ffffff;stroke-width:2;"/>
    <path clip-path="url(#p4f3f0b39fb)" d="M 821.924447 239.845313 
L 908.845657 239.845313 
L 908.845657 321.385312 
L 821.924447 321.385312 
L 821.924447 239.845313 
" style="fill:none;stroke:#ffffff;stroke-width:2;"/>
    <path clip-path="url(#p4f3f0b39fb)" d="M 908.845657 239.845313 
L 995.766866 239.845313 
L 995.766866 321.385312 
L 908.845657 321.385312 
L 908.845657 239.845313 
" style="fill:#fefefe;stroke:#ffffff;stroke-width:2;"/>
    <path clip-path="url(#p4f3f0b39fb)" d="M 995.766866 239.845313 
L 1082.688075 239.845313 
L 1082.688075 321.385312 
L 995.766866 321.385312 
L 995.766866 239.845313 
" style="fill:#fefefe;stroke:#ffffff;stroke-width:2;"/>
    <path clip-path="url(#p4f3f0b39fb)" d="M 648.082029 321.385312 
L 735.003238 321.385312 
L 735.003238 402.925312 
L 648.082029 402.925312 
L 648.082029 321.385312 
" style="fill:#eaeaea;stroke:#ffffff;stroke-width:2;"/>
    <path clip-path="url(#p4f3f0b39fb)" d="M 735.003238 321.385312 
L 821.924447 321.385312 
L 821.924447 402.925312 
L 735.003238 402.925312 
L 735.003238 321.385312 
" style="fill:#f2f2f2;stroke:#ffffff;stroke-width:2;"/>
    <path clip-path="url(#p4f3f0b39fb)" d="M 821.924447 321.385312 
L 908.845657 321.385312 
L 908.845657 402.925312 
L 821.924447 402.925312 
L 821.924447 321.385312 
" style="fill:#f2f2f2;stroke:#ffffff;stroke-width:2;"/>
    <path clip-path="url(#p4f3f0b39fb)" d="M 908.845657 321.385312 
L 995.766866 321.385312 
L 995.766866 402.925312 
L 908.845657 402.925312 
L 908.845657 321.385312 
" style="fill:none;stroke:#ffffff;stroke-width:2;"/>
    <path clip-path="url(#p4f3f0b39fb)" d="M 995.766866 321.385312 
L 1082.688075 321.385312 
L 1082.688075 402.925312 
L 995.766866 402.925312 
L 995.766866 321.385312 
" style="fill:#f2f2f2;stroke:#ffffff;stroke-width:2;"/>
    <path clip-path="url(#p4f3f0b39fb)" d="M 648.082029 402.925312 
L 735.003238 402.925312 
L 735.003238 484.465312 
L 648.082029 484.465312 
L 648.082029 402.925312 
" style="fill:#fefefe;stroke:#ffffff;stroke-width:2;"/>
    <path clip-path="url(#p4f3f0b39fb)" d="M 735.003238 402.925312 
L 821.924447 402.925312 
L 821.924447 484.465312 
L 735.003238 484.465312 
L 735.003238 402.925312 
" style="fill:#67001f;stroke:#ffffff;stroke-width:2;"/>
    <path clip-path="url(#p4f3f0b39fb)" d="M 821.924447 402.925312 
L 908.845657 402.925312 
L 908.845657 484.465312 
L 821.924447 484.465312 
L 821.924447 402.925312 
" style="fill:#fefefe;stroke:#ffffff;stroke-width:2;"/>
    <path clip-path="url(#p4f3f0b39fb)" d="M 908.845657 402.925312 
L 995.766866 402.925312 
L 995.766866 484.465312 
L 908.845657 484.465312 
L 908.845657 402.925312 
" style="fill:#fffdfc;stroke:#ffffff;stroke-width:2;"/>
    <path clip-path="url(#p4f3f0b39fb)" d="M 995.766866 402.925312 
L 1082.688075 402.925312 
L 1082.688075 484.465312 
L 995.766866 484.465312 
L 995.766866 402.925312 
" style="fill:none;stroke:#ffffff;stroke-width:2;"/>
   </g>
   <g id="patch_11">
    <path clip-path="url(#p4f3f0b39fb)" d="M 665.466271 93.073313 
L 717.618996 93.073313 
L 717.618996 141.997313 
L 665.466271 141.997313 
z
" style="fill:url(#h029c4aa822);"/>
   </g>
   <g id="patch_12">
    <path clip-path="url(#p4f3f0b39fb)" d="M 752.38748 174.613313 
L 804.540206 174.613313 
L 804.540206 223.537312 
L 752.38748 223.537312 
z
" style="fill:url(#h029c4aa822);"/>
   </g>
   <g id="patch_13">
    <path clip-path="url(#p4f3f0b39fb)" d="M 839.308689 256.153313 
L 891.461415 256.153313 
L 891.461415 305.077313 
L 839.308689 305.077313 
z
" style="fill:url(#h029c4aa822);"/>
   </g>
   <g id="patch_14">
    <path clip-path="url(#p4f3f0b39fb)" d="M 926.229898 337.693312 
L 978.382624 337.693312 
L 978.382624 386.617312 
L 926.229898 386.617312 
z
" style="fill:url(#h029c4aa822);"/>
   </g>
   <g id="patch_15">
    <path clip-path="url(#p4f3f0b39fb)" d="M 1013.151108 419.233312 
L 1065.303833 419.233312 
L 1065.303833 468.157312 
L 1013.151108 468.157312 
z
" style="fill:url(#h029c4aa822);"/>
   </g>
   <g id="text_39">
    <!-- 1.28 -->
    <g style="fill:#262626;" transform="translate(755.279761 123.281711)scale(0.20825 -0.20825)">
     <use xlink:href="#DejaVuSans-49"/>
     <use x="63.623047" xlink:href="#DejaVuSans-46"/>
     <use x="95.410156" xlink:href="#DejaVuSans-50"/>
     <use x="159.033203" xlink:href="#DejaVuSans-56"/>
    </g>
   </g>
   <g id="text_40">
    <!-- 1.39 -->
    <g style="fill:#262626;" transform="translate(842.20097 123.281711)scale(0.20825 -0.20825)">
     <use xlink:href="#DejaVuSans-49"/>
     <use x="63.623047" xlink:href="#DejaVuSans-46"/>
     <use x="95.410156" xlink:href="#DejaVuSans-51"/>
     <use x="159.033203" xlink:href="#DejaVuSans-57"/>
    </g>
   </g>
   <g id="text_41">
    <!-- 1.40 -->
    <g style="fill:#262626;" transform="translate(929.122179 123.281711)scale(0.20825 -0.20825)">
     <use xlink:href="#DejaVuSans-49"/>
     <use x="63.623047" xlink:href="#DejaVuSans-46"/>
     <use x="95.410156" xlink:href="#DejaVuSans-52"/>
     <use x="159.033203" xlink:href="#DejaVuSans-48"/>
    </g>
   </g>
   <g id="text_42">
    <!-- 1.39 -->
    <g style="fill:#262626;" transform="translate(1016.043388 123.281711)scale(0.20825 -0.20825)">
     <use xlink:href="#DejaVuSans-49"/>
     <use x="63.623047" xlink:href="#DejaVuSans-46"/>
     <use x="95.410156" xlink:href="#DejaVuSans-51"/>
     <use x="159.033203" xlink:href="#DejaVuSans-57"/>
    </g>
   </g>
   <g id="text_43">
    <!-- 2.26 -->
    <g style="fill:#262626;" transform="translate(668.358552 204.821711)scale(0.20825 -0.20825)">
     <use xlink:href="#DejaVuSans-50"/>
     <use x="63.623047" xlink:href="#DejaVuSans-46"/>
     <use x="95.410156" xlink:href="#DejaVuSans-50"/>
     <use x="159.033203" xlink:href="#DejaVuSans-54"/>
    </g>
   </g>
   <g id="text_44">
    <!-- 2.27 -->
    <g style="fill:#262626;" transform="translate(842.20097 204.821711)scale(0.20825 -0.20825)">
     <use xlink:href="#DejaVuSans-50"/>
     <use x="63.623047" xlink:href="#DejaVuSans-46"/>
     <use x="95.410156" xlink:href="#DejaVuSans-50"/>
     <use x="159.033203" xlink:href="#DejaVuSans-55"/>
    </g>
   </g>
   <g id="text_45">
    <!-- 2.45 -->
    <g style="fill:#262626;" transform="translate(929.122179 204.821711)scale(0.20825 -0.20825)">
     <use xlink:href="#DejaVuSans-50"/>
     <use x="63.623047" xlink:href="#DejaVuSans-46"/>
     <use x="95.410156" xlink:href="#DejaVuSans-52"/>
     <use x="159.033203" xlink:href="#DejaVuSans-53"/>
    </g>
   </g>
   <g id="text_46">
    <!-- 2.45 -->
    <g style="fill:#262626;" transform="translate(1016.043388 204.821711)scale(0.20825 -0.20825)">
     <use xlink:href="#DejaVuSans-50"/>
     <use x="63.623047" xlink:href="#DejaVuSans-46"/>
     <use x="95.410156" xlink:href="#DejaVuSans-52"/>
     <use x="159.033203" xlink:href="#DejaVuSans-53"/>
    </g>
   </g>
   <g id="text_47">
    <!-- 0.00 -->
    <g style="fill:#262626;" transform="translate(668.358552 286.361711)scale(0.20825 -0.20825)">
     <use xlink:href="#DejaVuSans-48"/>
     <use x="63.623047" xlink:href="#DejaVuSans-46"/>
     <use x="95.410156" xlink:href="#DejaVuSans-48"/>
     <use x="159.033203" xlink:href="#DejaVuSans-48"/>
    </g>
   </g>
   <g id="text_48">
    <!-- -0.00 -->
    <g style="fill:#262626;" transform="translate(751.523126 286.361711)scale(0.20825 -0.20825)">
     <use xlink:href="#DejaVuSans-45"/>
     <use x="36.083984" xlink:href="#DejaVuSans-48"/>
     <use x="99.707031" xlink:href="#DejaVuSans-46"/>
     <use x="131.494141" xlink:href="#DejaVuSans-48"/>
     <use x="195.117188" xlink:href="#DejaVuSans-48"/>
    </g>
   </g>
   <g id="text_49">
    <!-- -0.00 -->
    <g style="fill:#262626;" transform="translate(925.365544 286.361711)scale(0.20825 -0.20825)">
     <use xlink:href="#DejaVuSans-45"/>
     <use x="36.083984" xlink:href="#DejaVuSans-48"/>
     <use x="99.707031" xlink:href="#DejaVuSans-46"/>
     <use x="131.494141" xlink:href="#DejaVuSans-48"/>
     <use x="195.117188" xlink:href="#DejaVuSans-48"/>
    </g>
   </g>
   <g id="text_50">
    <!-- 0.00 -->
    <g style="fill:#262626;" transform="translate(1016.043388 286.361711)scale(0.20825 -0.20825)">
     <use xlink:href="#DejaVuSans-48"/>
     <use x="63.623047" xlink:href="#DejaVuSans-46"/>
     <use x="95.410156" xlink:href="#DejaVuSans-48"/>
     <use x="159.033203" xlink:href="#DejaVuSans-48"/>
    </g>
   </g>
   <g id="text_51">
    <!-- 2.48 -->
    <g style="fill:#262626;" transform="translate(668.358552 367.901711)scale(0.20825 -0.20825)">
     <use xlink:href="#DejaVuSans-50"/>
     <use x="63.623047" xlink:href="#DejaVuSans-46"/>
     <use x="95.410156" xlink:href="#DejaVuSans-52"/>
     <use x="159.033203" xlink:href="#DejaVuSans-56"/>
    </g>
   </g>
   <g id="text_52">
    <!-- 1.47 -->
    <g style="fill:#262626;" transform="translate(755.279761 367.901711)scale(0.20825 -0.20825)">
     <use xlink:href="#DejaVuSans-49"/>
     <use x="63.623047" xlink:href="#DejaVuSans-46"/>
     <use x="95.410156" xlink:href="#DejaVuSans-52"/>
     <use x="159.033203" xlink:href="#DejaVuSans-55"/>
    </g>
   </g>
   <g id="text_53">
    <!-- 1.45 -->
    <g style="fill:#262626;" transform="translate(842.20097 367.901711)scale(0.20825 -0.20825)">
     <use xlink:href="#DejaVuSans-49"/>
     <use x="63.623047" xlink:href="#DejaVuSans-46"/>
     <use x="95.410156" xlink:href="#DejaVuSans-52"/>
     <use x="159.033203" xlink:href="#DejaVuSans-53"/>
    </g>
   </g>
   <g id="text_54">
    <!-- 1.46 -->
    <g style="fill:#262626;" transform="translate(1016.043388 367.901711)scale(0.20825 -0.20825)">
     <use xlink:href="#DejaVuSans-49"/>
     <use x="63.623047" xlink:href="#DejaVuSans-46"/>
     <use x="95.410156" xlink:href="#DejaVuSans-52"/>
     <use x="159.033203" xlink:href="#DejaVuSans-54"/>
    </g>
   </g>
   <g id="text_55">
    <!-- 0.00 -->
    <g style="fill:#262626;" transform="translate(668.358552 449.441711)scale(0.20825 -0.20825)">
     <use xlink:href="#DejaVuSans-48"/>
     <use x="63.623047" xlink:href="#DejaVuSans-46"/>
     <use x="95.410156" xlink:href="#DejaVuSans-48"/>
     <use x="159.033203" xlink:href="#DejaVuSans-48"/>
    </g>
   </g>
   <g id="text_56">
    <!-- -18.29 -->
    <g style="fill:#ffffff;" transform="translate(744.898173 449.441711)scale(0.20825 -0.20825)">
     <use xlink:href="#DejaVuSans-45"/>
     <use x="36.083984" xlink:href="#DejaVuSans-49"/>
     <use x="99.707031" xlink:href="#DejaVuSans-56"/>
     <use x="163.330078" xlink:href="#DejaVuSans-46"/>
     <use x="195.117188" xlink:href="#DejaVuSans-50"/>
     <use x="258.740234" xlink:href="#DejaVuSans-57"/>
    </g>
   </g>
   <g id="text_57">
    <!-- 0.00 -->
    <g style="fill:#262626;" transform="translate(842.20097 449.441711)scale(0.20825 -0.20825)">
     <use xlink:href="#DejaVuSans-48"/>
     <use x="63.623047" xlink:href="#DejaVuSans-46"/>
     <use x="95.410156" xlink:href="#DejaVuSans-48"/>
     <use x="159.033203" xlink:href="#DejaVuSans-48"/>
    </g>
   </g>
   <g id="text_58">
    <!-- -0.26 -->
    <g style="fill:#262626;" transform="translate(925.365544 449.441711)scale(0.20825 -0.20825)">
     <use xlink:href="#DejaVuSans-45"/>
     <use x="36.083984" xlink:href="#DejaVuSans-48"/>
     <use x="99.707031" xlink:href="#DejaVuSans-46"/>
     <use x="131.494141" xlink:href="#DejaVuSans-50"/>
     <use x="195.117188" xlink:href="#DejaVuSans-54"/>
    </g>
   </g>
   <g id="text_59">
    <!-- high_fat -->
    <g style="fill:#262626;" transform="translate(804.829583 29.995313)scale(0.3 -0.3)">
     <defs>
      <path d="M 54.890625 33.015625 
L 54.890625 0 
L 45.90625 0 
L 45.90625 32.71875 
Q 45.90625 40.484375 42.875 44.328125 
Q 39.84375 48.1875 33.796875 48.1875 
Q 26.515625 48.1875 22.3125 43.546875 
Q 18.109375 38.921875 18.109375 30.90625 
L 18.109375 0 
L 9.078125 0 
L 9.078125 75.984375 
L 18.109375 75.984375 
L 18.109375 46.1875 
Q 21.34375 51.125 25.703125 53.5625 
Q 30.078125 56 35.796875 56 
Q 45.21875 56 50.046875 50.171875 
Q 54.890625 44.34375 54.890625 33.015625 
z
" id="DejaVuSans-104"/>
      <path d="M 9.421875 54.6875 
L 18.40625 54.6875 
L 18.40625 0 
L 9.421875 0 
z
M 9.421875 75.984375 
L 18.40625 75.984375 
L 18.40625 64.59375 
L 9.421875 64.59375 
z
" id="DejaVuSans-105"/>
      <path d="M 37.109375 75.984375 
L 37.109375 68.5 
L 28.515625 68.5 
Q 23.6875 68.5 21.796875 66.546875 
Q 19.921875 64.59375 19.921875 59.515625 
L 19.921875 54.6875 
L 34.71875 54.6875 
L 34.71875 47.703125 
L 19.921875 47.703125 
L 19.921875 0 
L 10.890625 0 
L 10.890625 47.703125 
L 2.296875 47.703125 
L 2.296875 54.6875 
L 10.890625 54.6875 
L 10.890625 58.5 
Q 10.890625 67.625 15.140625 71.796875 
Q 19.390625 75.984375 28.609375 75.984375 
z
" id="DejaVuSans-102"/>
     </defs>
     <use xlink:href="#DejaVuSans-104"/>
     <use x="63.378906" xlink:href="#DejaVuSans-105"/>
     <use x="91.162109" xlink:href="#DejaVuSans-103"/>
     <use x="154.638672" xlink:href="#DejaVuSans-104"/>
     <use x="218.017578" xlink:href="#DejaVuSans-95"/>
     <use x="268.017578" xlink:href="#DejaVuSans-102"/>
     <use x="303.222656" xlink:href="#DejaVuSans-97"/>
     <use x="364.501953" xlink:href="#DejaVuSans-116"/>
    </g>
   </g>
  </g>
  <g id="axes_5">
   <g id="patch_16">
    <path clip-path="url(#pf42b2e7b3b)" d="M 1160.197433 382.540313 
L 1160.197433 381.478594 
L 1160.197433 111.802031 
L 1160.197433 110.740313 
L 1191.102281 110.740313 
L 1191.102281 111.802031 
L 1191.102281 381.478594 
L 1191.102281 382.540313 
z
" style="fill:#ffffff;stroke:#ffffff;stroke-linejoin:miter;stroke-width:0.01;"/>
   </g>
   <g id="matplotlib.axis_9"/>
   <g id="matplotlib.axis_10">
    <g id="ytick_6">
     <g id="line2d_1">
      <defs>
       <path d="M 0 0 
L 3.5 0 
" id="ma1acaf9e21" style="stroke:#262626;stroke-width:0.8;"/>
      </defs>
      <g>
       <use style="fill:#262626;stroke:#262626;stroke-width:0.8;" x="1191.102281" xlink:href="#ma1acaf9e21" y="346.492281"/>
      </g>
     </g>
     <g id="text_60">
      <!-- −15 -->
      <g style="fill:#262626;" transform="translate(1198.102281 355.990327)scale(0.25 -0.25)">
       <defs>
        <path d="M 10.59375 35.5 
L 73.1875 35.5 
L 73.1875 27.203125 
L 10.59375 27.203125 
z
" id="DejaVuSans-8722"/>
       </defs>
       <use xlink:href="#DejaVuSans-8722"/>
       <use x="83.789062" xlink:href="#DejaVuSans-49"/>
       <use x="147.412109" xlink:href="#DejaVuSans-53"/>
      </g>
     </g>
    </g>
    <g id="ytick_7">
     <g id="line2d_2">
      <g>
       <use style="fill:#262626;stroke:#262626;stroke-width:0.8;" x="1191.102281" xlink:href="#ma1acaf9e21" y="291.760921"/>
      </g>
     </g>
     <g id="text_61">
      <!-- −10 -->
      <g style="fill:#262626;" transform="translate(1198.102281 301.258968)scale(0.25 -0.25)">
       <use xlink:href="#DejaVuSans-8722"/>
       <use x="83.789062" xlink:href="#DejaVuSans-49"/>
       <use x="147.412109" xlink:href="#DejaVuSans-48"/>
      </g>
     </g>
    </g>
    <g id="ytick_8">
     <g id="line2d_3">
      <g>
       <use style="fill:#262626;stroke:#262626;stroke-width:0.8;" x="1191.102281" xlink:href="#ma1acaf9e21" y="237.029561"/>
      </g>
     </g>
     <g id="text_62">
      <!-- −5 -->
      <g style="fill:#262626;" transform="translate(1198.102281 246.527608)scale(0.25 -0.25)">
       <use xlink:href="#DejaVuSans-8722"/>
       <use x="83.789062" xlink:href="#DejaVuSans-53"/>
      </g>
     </g>
    </g>
    <g id="ytick_9">
     <g id="line2d_4">
      <g>
       <use style="fill:#262626;stroke:#262626;stroke-width:0.8;" x="1191.102281" xlink:href="#ma1acaf9e21" y="182.298201"/>
      </g>
     </g>
     <g id="text_63">
      <!-- 0 -->
      <g style="fill:#262626;" transform="translate(1198.102281 191.796248)scale(0.25 -0.25)">
       <use xlink:href="#DejaVuSans-48"/>
      </g>
     </g>
    </g>
    <g id="ytick_10">
     <g id="line2d_5">
      <g>
       <use style="fill:#262626;stroke:#262626;stroke-width:0.8;" x="1191.102281" xlink:href="#ma1acaf9e21" y="127.566841"/>
      </g>
     </g>
     <g id="text_64">
      <!-- 5 -->
      <g style="fill:#262626;" transform="translate(1198.102281 137.064888)scale(0.25 -0.25)">
       <use xlink:href="#DejaVuSans-53"/>
      </g>
     </g>
    </g>
   </g>
   <image height="272" id="imagee73cd0e6dc" transform="scale(1 -1)translate(0 -272)" width="31" x="1160" xlink:href="data:image/png;base64,
iVBORw0KGgoAAAANSUhEUgAAAB8AAAEQCAYAAABIj69YAAABnUlEQVR4nO3d0ZXEIAxDUQz0seVt/w0k00Xuh/Qa0EGWjcl8zPyvv3ch7hklvdY949Q3U9birTmhthNqO+FK9WDbm3YBtV2fvDUn4k49Ou1UvK1GxGs7Ea/t36NPnlrzLe/zgYnDtsOT3znu8NZ2GThc851ac9xqqRMud8jIwOGabzpeUwNHb7XcCScDl2y7HDK91Yh4btobOCIuNxlte2+176F9Hv1xgKY91famPU78zjlSPLTmd8O04z6PrbmccMm2y7QHf/5s2tPEu0AS7u4OB2jaCd1eCfg+33DCLSgevEwsu0CG1pymPbfV7HjNtZ2mPXeH65ARRN9qbTUgjvf21Jr3uSToi4XQZYLQ7ZWATz70lRobuOka9T047VI8eLa31QC9WPLE9XiN3eHoLw2w5rWdoIdM7/PvuZN6n+e2WvucoG2Hrcb+J2Fp29/XnZ2K13aCtf15Hicea3tbjdBWIzTteeJtNUJbjdBlwojLPg+2PbbVmnZC007ITXtuzbu3E2o7obYTajuhthNqO6FrlBGPfTT0rUbI7fMfsr2Ov9cjst0AAAAASUVORK5CYII=" y="-110"/>
   <g id="patch_17">
    <path d="M 1160.197433 382.540313 
L 1160.197433 381.478594 
L 1160.197433 111.802031 
L 1160.197433 110.740313 
L 1191.102281 110.740313 
L 1191.102281 111.802031 
L 1191.102281 381.478594 
L 1191.102281 382.540313 
z
" style="fill:none;"/>
   </g>
   <g id="text_65">
    <!-- $\it{P}_{co}$ -->
    <g style="fill:#262626;" transform="translate(1160.197433 77.560313)scale(0.3 -0.3)">
     <defs>
      <path d="M 53.609375 52.59375 
L 51.8125 43.703125 
Q 48.578125 46.046875 44.9375 47.21875 
Q 41.3125 48.390625 37.40625 48.390625 
Q 33.109375 48.390625 29.21875 46.875 
Q 25.34375 45.359375 22.703125 42.578125 
Q 18.5 38.328125 16.203125 32.609375 
Q 13.921875 26.90625 13.921875 20.796875 
Q 13.921875 13.421875 17.609375 9.8125 
Q 21.296875 6.203125 28.8125 6.203125 
Q 32.515625 6.203125 36.6875 7.328125 
Q 40.875 8.453125 45.40625 10.6875 
L 43.703125 1.8125 
Q 39.796875 0.203125 35.671875 -0.609375 
Q 31.546875 -1.421875 27.203125 -1.421875 
Q 16.3125 -1.421875 10.453125 4.015625 
Q 4.59375 9.46875 4.59375 19.578125 
Q 4.59375 28.078125 7.640625 35.234375 
Q 10.6875 42.390625 16.703125 48.09375 
Q 20.796875 52 26.3125 54 
Q 31.84375 56 38.375 56 
Q 42.1875 56 45.9375 55.140625 
Q 49.703125 54.296875 53.609375 52.59375 
z
" id="DejaVuSans-Oblique-99"/>
     </defs>
     <use transform="translate(0 0.09375)" xlink:href="#DejaVuSans-Oblique-80"/>
     <use transform="translate(60.302734 -16.3125)scale(0.7)" xlink:href="#DejaVuSans-Oblique-99"/>
     <use transform="translate(98.789062 -16.3125)scale(0.7)" xlink:href="#DejaVuSans-Oblique-111"/>
    </g>
   </g>
  </g>
  <g id="axes_6">
   <g id="patch_18">
    <path clip-path="url(#p06ce435e3a)" d="M 1160.197433 484.465312 
L 1161.458979 484.465312 
L 1481.891548 484.465312 
L 1483.153094 484.465312 
L 1483.153094 450.490312 
L 1481.891548 450.490312 
L 1161.458979 450.490312 
L 1160.197433 450.490312 
z
" style="fill:#ffffff;stroke:#ffffff;stroke-linejoin:miter;stroke-width:0.01;"/>
   </g>
   <g id="patch_19">
    <path clip-path="url(#p06ce435e3a)" d="M 1160.197433 484.465312 
L 1161.458979 484.465312 
L 1481.891548 484.465312 
L 1483.153094 484.465312 
L 1483.153094 450.490312 
L 1481.891548 450.490312 
L 1161.458979 450.490312 
L 1160.197433 450.490312 
z
" style="fill:#ffffff;stroke:#ffffff;stroke-linejoin:miter;stroke-width:0.01;"/>
   </g>
   <g id="matplotlib.axis_11">
    <g id="xtick_13">
     <g id="line2d_6">
      <defs>
       <path d="M 0 0 
L 0 3.5 
" id="m3dcbd0ba64" style="stroke:#262626;stroke-width:0.8;"/>
      </defs>
      <g>
       <use style="fill:#262626;stroke:#262626;stroke-width:0.8;" x="1160.878504" xlink:href="#m3dcbd0ba64" y="484.465312"/>
      </g>
     </g>
     <g id="text_66">
      <!-- 0 -->
      <g style="fill:#262626;" transform="translate(1152.925379 510.461406)scale(0.25 -0.25)">
       <use xlink:href="#DejaVuSans-48"/>
      </g>
     </g>
    </g>
    <g id="xtick_14">
     <g id="line2d_7">
      <g>
       <use style="fill:#262626;stroke:#262626;stroke-width:0.8;" x="1304.811109" xlink:href="#m3dcbd0ba64" y="484.465312"/>
      </g>
     </g>
     <g id="text_67">
      <!-- 2 -->
      <g style="fill:#262626;" transform="translate(1296.857984 510.461406)scale(0.25 -0.25)">
       <use xlink:href="#DejaVuSans-50"/>
      </g>
     </g>
    </g>
    <g id="xtick_15">
     <g id="line2d_8">
      <g>
       <use style="fill:#262626;stroke:#262626;stroke-width:0.8;" x="1448.743714" xlink:href="#m3dcbd0ba64" y="484.465312"/>
      </g>
     </g>
     <g id="text_68">
      <!-- 4 -->
      <g style="fill:#262626;" transform="translate(1440.790589 510.461406)scale(0.25 -0.25)">
       <use xlink:href="#DejaVuSans-52"/>
      </g>
     </g>
    </g>
   </g>
   <g id="matplotlib.axis_12"/>
   <image height="34" id="image67ff903c31" transform="scale(1 -1)translate(0 -34)" width="323" x="1160" xlink:href="data:image/png;base64,
iVBORw0KGgoAAAANSUhEUgAAAUMAAAAiCAYAAADF7LtMAAAAy0lEQVR4nO3UsQqDMBRA0dv+/y8bO5SUDgVFHSycM4XnM2S6j3WMde1t/Zx+n79nY4xL9+Z57m/tnXnLkTfceXbVXfO8d3bkn7vPqpZl2fXPFXvz29a7rtrbe88/zs7e8wwAMQQoMQSoxBCgEkOASgwBKjEEqMQQoBJDgEoMASoxBKjEEKASQ4BKDAEqMQSoxBCgEkOASgwBKjEEqMQQoBJDgEoMASoxBKjEEKASQ4BKDAEqMQSoxBCgEkOASgwBKjEEqMQQoBJDgKpelsF/oDo26KgAAAAASUVORK5CYII=" y="-450"/>
   <image height="34" id="image9d8c2a42f9" transform="scale(1 -1)translate(0 -34)" width="323" x="1160" xlink:href="data:image/png;base64,
iVBORw0KGgoAAAANSUhEUgAAAUMAAAAiCAYAAADF7LtMAAAAy0lEQVR4nO3UsQqDMBRA0dv+/y8bO5SUDgVFHSycM4XnM2S6j3WMde1t/Zx+n79nY4xL9+Z57m/tnXnLkTfceXbVXfO8d3bkn7vPqpZl2fXPFXvz29a7rtrbe88/zs7e8wwAMQQoMQSoxBCgEkOASgwBKjEEqMQQoBJDgEoMASoxBKjEEKASQ4BKDAEqMQSoxBCgEkOASgwBKjEEqMQQoBJDgEoMASoxBKjEEKASQ4BKDAEqMQSoxBCgEkOASgwBKjEEqMQQoBJDgKpelsF/oDo26KgAAAAASUVORK5CYII=" y="-450"/>
   <g id="patch_20">
    <path d="M 1160.197433 484.465312 
L 1161.458979 484.465312 
L 1481.891548 484.465312 
L 1483.153094 484.465312 
L 1483.153094 450.490312 
L 1481.891548 450.490312 
L 1161.458979 450.490312 
L 1160.197433 450.490312 
z
" style="fill:none;"/>
   </g>
   <g id="patch_21">
    <path d="M 1160.197433 484.465312 
L 1161.458979 484.465312 
L 1481.891548 484.465312 
L 1483.153094 484.465312 
L 1483.153094 450.490312 
L 1481.891548 450.490312 
L 1161.458979 450.490312 
L 1160.197433 450.490312 
z
" style="fill:none;"/>
   </g>
   <g id="text_69">
    <!-- $\it{P}_{mono}$ -->
    <g style="fill:#262626;" transform="translate(1160.197433 441.092812)scale(0.3 -0.3)">
     <use transform="translate(0 0.09375)" xlink:href="#DejaVuSans-Oblique-80"/>
     <use transform="translate(60.302734 -16.3125)scale(0.7)" xlink:href="#DejaVuSans-Oblique-109"/>
     <use transform="translate(128.491211 -16.3125)scale(0.7)" xlink:href="#DejaVuSans-Oblique-111"/>
     <use transform="translate(171.318359 -16.3125)scale(0.7)" xlink:href="#DejaVuSans-Oblique-110"/>
     <use transform="translate(215.683594 -16.3125)scale(0.7)" xlink:href="#DejaVuSans-Oblique-111"/>
    </g>
   </g>
  </g>
 </g>
 <defs>
  <clipPath id="p5168787bb2">
   <rect height="407.7" width="26.759183" x="113.821094" y="76.765313"/>
  </clipPath>
  <clipPath id="p1be44d067f">
   <rect height="407.7" width="434.606046" x="140.580277" y="76.765313"/>
  </clipPath>
  <clipPath id="p38cf2374b2">
   <rect height="407.7" width="26.759183" x="621.322846" y="76.765313"/>
  </clipPath>
  <clipPath id="p4f3f0b39fb">
   <rect height="407.7" width="434.606046" x="648.082029" y="76.765313"/>
  </clipPath>
  <clipPath id="pf42b2e7b3b">
   <rect height="271.8" width="30.904848" x="1160.197433" y="110.740313"/>
  </clipPath>
  <clipPath id="p06ce435e3a">
   <rect height="33.975" width="322.95566" x="1160.197433" y="450.490312"/>
  </clipPath>
 </defs>
 <defs>
  <pattern height="72" id="h029c4aa822" patternUnits="userSpaceOnUse" width="72" x="0" y="0">
   <rect fill="none" height="73" width="73" x="0" y="0"/>
   <path d="M -36 36 
L 36 -36 
M -24 48 
L 48 -24 
M -12 60 
L 60 -12 
M 0 72 
L 72 0 
M 12 84 
L 84 12 
M 24 96 
L 96 24 
M 36 108 
L 108 36 
" style="fill:#000000;stroke:#000000;stroke-linecap:butt;stroke-linejoin:miter;stroke-width:1.0;"/>
  </pattern>
 </defs>
</svg>
