<?xml version="1.0" encoding="utf-8" standalone="no"?>
<!DOCTYPE svg PUBLIC "-//W3C//DTD SVG 1.1//EN"
  "http://www.w3.org/Graphics/SVG/1.1/DTD/svg11.dtd">
<!-- Created with matplotlib (https://matplotlib.org/) -->
<svg height="1751.166083pt" version="1.1" viewBox="0 0 1029.928125 1751.166083" width="1029.928125pt" xmlns="http://www.w3.org/2000/svg" xmlns:xlink="http://www.w3.org/1999/xlink">
 <metadata>
  <rdf:RDF xmlns:cc="http://creativecommons.org/ns#" xmlns:dc="http://purl.org/dc/elements/1.1/" xmlns:rdf="http://www.w3.org/1999/02/22-rdf-syntax-ns#">
   <cc:Work>
    <dc:type rdf:resource="http://purl.org/dc/dcmitype/StillImage"/>
    <dc:date>2021-05-03T15:59:10.760564</dc:date>
    <dc:format>image/svg+xml</dc:format>
    <dc:creator>
     <cc:Agent>
      <dc:title>Matplotlib v3.3.4, https://matplotlib.org/</dc:title>
     </cc:Agent>
    </dc:creator>
   </cc:Work>
  </rdf:RDF>
 </metadata>
 <defs>
  <style type="text/css">*{stroke-linecap:butt;stroke-linejoin:round;}</style>
 </defs>
 <g id="figure_1">
  <g id="patch_1">
   <path d="M 0 1751.166083 
L 1029.928125 1751.166083 
L 1029.928125 0 
L 0 0 
z
" style="fill:none;"/>
  </g>
  <g id="axes_1">
   <g id="patch_2">
    <path d="M 82.153125 398.55347 
L 863.353125 398.55347 
L 863.353125 53.775458 
L 82.153125 53.775458 
z
" style="fill:none;"/>
   </g>
   <g id="matplotlib.axis_1">
    <g id="xtick_1">
     <g id="line2d_1">
      <path clip-path="url(#p68cc32637f)" d="M 117.662216 398.55347 
L 117.662216 53.775458 
" style="fill:none;stroke:#cccccc;stroke-linecap:round;stroke-width:0.8;"/>
     </g>
    </g>
    <g id="xtick_2">
     <g id="line2d_2">
      <path clip-path="url(#p68cc32637f)" d="M 236.025852 398.55347 
L 236.025852 53.775458 
" style="fill:none;stroke:#cccccc;stroke-linecap:round;stroke-width:0.8;"/>
     </g>
    </g>
    <g id="xtick_3">
     <g id="line2d_3">
      <path clip-path="url(#p68cc32637f)" d="M 354.389489 398.55347 
L 354.389489 53.775458 
" style="fill:none;stroke:#cccccc;stroke-linecap:round;stroke-width:0.8;"/>
     </g>
    </g>
    <g id="xtick_4">
     <g id="line2d_4">
      <path clip-path="url(#p68cc32637f)" d="M 472.753125 398.55347 
L 472.753125 53.775458 
" style="fill:none;stroke:#cccccc;stroke-linecap:round;stroke-width:0.8;"/>
     </g>
    </g>
    <g id="xtick_5">
     <g id="line2d_5">
      <path clip-path="url(#p68cc32637f)" d="M 591.116761 398.55347 
L 591.116761 53.775458 
" style="fill:none;stroke:#cccccc;stroke-linecap:round;stroke-width:0.8;"/>
     </g>
    </g>
    <g id="xtick_6">
     <g id="line2d_6">
      <path clip-path="url(#p68cc32637f)" d="M 709.480398 398.55347 
L 709.480398 53.775458 
" style="fill:none;stroke:#cccccc;stroke-linecap:round;stroke-width:0.8;"/>
     </g>
    </g>
    <g id="xtick_7">
     <g id="line2d_7">
      <path clip-path="url(#p68cc32637f)" d="M 827.844034 398.55347 
L 827.844034 53.775458 
" style="fill:none;stroke:#cccccc;stroke-linecap:round;stroke-width:0.8;"/>
     </g>
    </g>
   </g>
   <g id="matplotlib.axis_2">
    <g id="ytick_1">
     <g id="line2d_8">
      <path clip-path="url(#p68cc32637f)" d="M 82.153125 382.933806 
L 863.353125 382.933806 
" style="fill:none;stroke:#cccccc;stroke-linecap:round;stroke-width:0.8;"/>
     </g>
     <g id="text_1">
      <!-- 0 -->
      <g style="fill:#262626;" transform="translate(59.246875 392.431853)scale(0.25 -0.25)">
       <defs>
        <path d="M 31.78125 66.40625 
Q 24.171875 66.40625 20.328125 58.90625 
Q 16.5 51.421875 16.5 36.375 
Q 16.5 21.390625 20.328125 13.890625 
Q 24.171875 6.390625 31.78125 6.390625 
Q 39.453125 6.390625 43.28125 13.890625 
Q 47.125 21.390625 47.125 36.375 
Q 47.125 51.421875 43.28125 58.90625 
Q 39.453125 66.40625 31.78125 66.40625 
z
M 31.78125 74.21875 
Q 44.046875 74.21875 50.515625 64.515625 
Q 56.984375 54.828125 56.984375 36.375 
Q 56.984375 17.96875 50.515625 8.265625 
Q 44.046875 -1.421875 31.78125 -1.421875 
Q 19.53125 -1.421875 13.0625 8.265625 
Q 6.59375 17.96875 6.59375 36.375 
Q 6.59375 54.828125 13.0625 64.515625 
Q 19.53125 74.21875 31.78125 74.21875 
z
" id="DejaVuSans-48"/>
       </defs>
       <use xlink:href="#DejaVuSans-48"/>
      </g>
     </g>
    </g>
    <g id="ytick_2">
     <g id="line2d_9">
      <path clip-path="url(#p68cc32637f)" d="M 82.153125 278.806011 
L 863.353125 278.806011 
" style="fill:none;stroke:#cccccc;stroke-linecap:round;stroke-width:0.8;"/>
     </g>
     <g id="text_2">
      <!-- 2 -->
      <g style="fill:#262626;" transform="translate(59.246875 288.304057)scale(0.25 -0.25)">
       <defs>
        <path d="M 19.1875 8.296875 
L 53.609375 8.296875 
L 53.609375 0 
L 7.328125 0 
L 7.328125 8.296875 
Q 12.9375 14.109375 22.625 23.890625 
Q 32.328125 33.6875 34.8125 36.53125 
Q 39.546875 41.84375 41.421875 45.53125 
Q 43.3125 49.21875 43.3125 52.78125 
Q 43.3125 58.59375 39.234375 62.25 
Q 35.15625 65.921875 28.609375 65.921875 
Q 23.96875 65.921875 18.8125 64.3125 
Q 13.671875 62.703125 7.8125 59.421875 
L 7.8125 69.390625 
Q 13.765625 71.78125 18.9375 73 
Q 24.125 74.21875 28.421875 74.21875 
Q 39.75 74.21875 46.484375 68.546875 
Q 53.21875 62.890625 53.21875 53.421875 
Q 53.21875 48.921875 51.53125 44.890625 
Q 49.859375 40.875 45.40625 35.40625 
Q 44.1875 33.984375 37.640625 27.21875 
Q 31.109375 20.453125 19.1875 8.296875 
z
" id="DejaVuSans-50"/>
       </defs>
       <use xlink:href="#DejaVuSans-50"/>
      </g>
     </g>
    </g>
    <g id="ytick_3">
     <g id="line2d_10">
      <path clip-path="url(#p68cc32637f)" d="M 82.153125 174.678215 
L 863.353125 174.678215 
" style="fill:none;stroke:#cccccc;stroke-linecap:round;stroke-width:0.8;"/>
     </g>
     <g id="text_3">
      <!-- 4 -->
      <g style="fill:#262626;" transform="translate(59.246875 184.176262)scale(0.25 -0.25)">
       <defs>
        <path d="M 37.796875 64.3125 
L 12.890625 25.390625 
L 37.796875 25.390625 
z
M 35.203125 72.90625 
L 47.609375 72.90625 
L 47.609375 25.390625 
L 58.015625 25.390625 
L 58.015625 17.1875 
L 47.609375 17.1875 
L 47.609375 0 
L 37.796875 0 
L 37.796875 17.1875 
L 4.890625 17.1875 
L 4.890625 26.703125 
z
" id="DejaVuSans-52"/>
       </defs>
       <use xlink:href="#DejaVuSans-52"/>
      </g>
     </g>
    </g>
    <g id="ytick_4">
     <g id="line2d_11">
      <path clip-path="url(#p68cc32637f)" d="M 82.153125 70.550419 
L 863.353125 70.550419 
" style="fill:none;stroke:#cccccc;stroke-linecap:round;stroke-width:0.8;"/>
     </g>
     <g id="text_4">
      <!-- 6 -->
      <g style="fill:#262626;" transform="translate(59.246875 80.048466)scale(0.25 -0.25)">
       <defs>
        <path d="M 33.015625 40.375 
Q 26.375 40.375 22.484375 35.828125 
Q 18.609375 31.296875 18.609375 23.390625 
Q 18.609375 15.53125 22.484375 10.953125 
Q 26.375 6.390625 33.015625 6.390625 
Q 39.65625 6.390625 43.53125 10.953125 
Q 47.40625 15.53125 47.40625 23.390625 
Q 47.40625 31.296875 43.53125 35.828125 
Q 39.65625 40.375 33.015625 40.375 
z
M 52.59375 71.296875 
L 52.59375 62.3125 
Q 48.875 64.0625 45.09375 64.984375 
Q 41.3125 65.921875 37.59375 65.921875 
Q 27.828125 65.921875 22.671875 59.328125 
Q 17.53125 52.734375 16.796875 39.40625 
Q 19.671875 43.65625 24.015625 45.921875 
Q 28.375 48.1875 33.59375 48.1875 
Q 44.578125 48.1875 50.953125 41.515625 
Q 57.328125 34.859375 57.328125 23.390625 
Q 57.328125 12.15625 50.6875 5.359375 
Q 44.046875 -1.421875 33.015625 -1.421875 
Q 20.359375 -1.421875 13.671875 8.265625 
Q 6.984375 17.96875 6.984375 36.375 
Q 6.984375 53.65625 15.1875 63.9375 
Q 23.390625 74.21875 37.203125 74.21875 
Q 40.921875 74.21875 44.703125 73.484375 
Q 48.484375 72.75 52.59375 71.296875 
z
" id="DejaVuSans-54"/>
       </defs>
       <use xlink:href="#DejaVuSans-54"/>
      </g>
     </g>
    </g>
    <g id="text_5">
     <!-- OD -->
     <g style="fill:#262626;" transform="translate(50.047656 245.629308)rotate(-90)scale(0.25 -0.25)">
      <defs>
       <path d="M 39.40625 66.21875 
Q 28.65625 66.21875 22.328125 58.203125 
Q 16.015625 50.203125 16.015625 36.375 
Q 16.015625 22.609375 22.328125 14.59375 
Q 28.65625 6.59375 39.40625 6.59375 
Q 50.140625 6.59375 56.421875 14.59375 
Q 62.703125 22.609375 62.703125 36.375 
Q 62.703125 50.203125 56.421875 58.203125 
Q 50.140625 66.21875 39.40625 66.21875 
z
M 39.40625 74.21875 
Q 54.734375 74.21875 63.90625 63.9375 
Q 73.09375 53.65625 73.09375 36.375 
Q 73.09375 19.140625 63.90625 8.859375 
Q 54.734375 -1.421875 39.40625 -1.421875 
Q 24.03125 -1.421875 14.8125 8.828125 
Q 5.609375 19.09375 5.609375 36.375 
Q 5.609375 53.65625 14.8125 63.9375 
Q 24.03125 74.21875 39.40625 74.21875 
z
" id="DejaVuSans-79"/>
       <path d="M 19.671875 64.796875 
L 19.671875 8.109375 
L 31.59375 8.109375 
Q 46.6875 8.109375 53.6875 14.9375 
Q 60.6875 21.78125 60.6875 36.53125 
Q 60.6875 51.171875 53.6875 57.984375 
Q 46.6875 64.796875 31.59375 64.796875 
z
M 9.8125 72.90625 
L 30.078125 72.90625 
Q 51.265625 72.90625 61.171875 64.09375 
Q 71.09375 55.28125 71.09375 36.53125 
Q 71.09375 17.671875 61.125 8.828125 
Q 51.171875 0 30.078125 0 
L 9.8125 0 
z
" id="DejaVuSans-68"/>
      </defs>
      <use xlink:href="#DejaVuSans-79"/>
      <use x="78.710938" xlink:href="#DejaVuSans-68"/>
     </g>
    </g>
   </g>
   <g id="line2d_12">
    <path clip-path="url(#p68cc32637f)" d="M 117.662216 382.881742 
L 165.421706 382.695828 
L 191.115138 382.394836 
L 209.58815 381.963851 
L 223.848601 381.407694 
L 235.272468 380.739891 
L 245.26295 379.92052 
L 253.827743 378.978574 
L 260.975131 377.97106 
L 268.11601 376.708526 
L 273.827647 375.4718 
L 279.52804 373.993029 
L 283.804518 372.694868 
L 288.091057 371.205164 
L 292.370494 369.502622 
L 296.655258 367.551371 
L 300.94298 365.316737 
L 305.219459 362.766387 
L 309.498304 359.847997 
L 312.352051 357.672091 
L 315.204023 355.294437 
L 318.05126 352.699676 
L 320.906191 349.856154 
L 323.764673 346.744659 
L 326.62138 343.346241 
L 329.471576 339.642675 
L 332.32414 335.595176 
L 335.186764 331.160113 
L 338.039328 326.335664 
L 340.896626 321.064194 
L 343.750965 315.321025 
L 346.606488 309.059821 
L 349.463786 302.233203 
L 352.311615 294.829196 
L 355.162995 286.767622 
L 358.016742 278.002144 
L 360.87049 268.488508 
L 363.7124 258.22359 
L 366.56378 247.087122 
L 369.41161 235.079105 
L 372.267724 222.119359 
L 375.114961 208.261512 
L 377.969892 193.432152 
L 380.818313 177.743217 
L 385.093016 152.774933 
L 392.20963 110.02006 
L 395.06101 94.533654 
L 396.489067 87.768471 
L 397.802311 82.374131 
L 399.232736 77.572277 
L 400.661385 73.986116 
L 402.0853 71.583367 
L 403.519275 70.179204 
L 405.107715 69.521637 
L 407.981584 69.447185 
L 827.844034 69.447185 
L 827.844034 69.447185 
" style="fill:none;stroke:#1b9e77;stroke-linecap:round;stroke-width:3;"/>
   </g>
   <g id="line2d_13">
    <path clip-path="url(#p68cc32637f)" d="M 117.662216 382.881742 
L 165.514326 382.695126 
L 191.176687 382.393773 
L 209.652067 381.961883 
L 223.890029 381.405705 
L 235.312711 380.737079 
L 245.30497 379.916443 
L 253.870946 378.973144 
L 261.018334 377.964177 
L 268.160396 376.699831 
L 273.872033 375.461231 
L 279.573018 373.980274 
L 283.861924 372.676385 
L 288.148463 371.18387 
L 292.4279 369.478152 
L 296.713256 367.523153 
L 301.000979 365.284353 
L 305.270947 362.733378 
L 309.549792 359.810147 
L 312.40354 357.630752 
L 315.256103 355.249245 
L 318.10334 352.650424 
L 320.963598 349.796333 
L 323.821488 346.679632 
L 326.678194 343.275642 
L 329.527799 339.566297 
L 332.37977 335.512654 
L 335.241211 331.07124 
L 338.090224 326.246114 
L 340.946339 320.968396 
L 343.799494 315.21898 
L 346.653833 308.951007 
L 349.509948 302.118662 
L 352.356001 294.708408 
L 355.206198 286.641107 
L 358.053435 277.883959 
L 360.905999 268.365637 
L 363.757379 258.055944 
L 366.616452 246.871578 
L 369.462506 234.857833 
L 372.315661 221.893402 
L 375.160531 208.031389 
L 378.012503 193.204632 
L 381.694796 172.749768 
L 385.971274 147.486282 
L 391.663381 113.186066 
L 394.519496 97.299809 
L 395.947553 90.234738 
L 397.377978 84.021953 
L 398.805443 78.882726 
L 400.23646 74.925869 
L 401.666884 72.175334 
L 403.101451 70.496794 
L 404.538386 69.668978 
L 405.971178 69.447185 
L 827.844034 69.447185 
L 827.844034 69.447185 
" style="fill:none;stroke:#d95f02;stroke-linecap:round;stroke-width:3;"/>
   </g>
   <g id="line2d_14">
    <path clip-path="url(#p68cc32637f)" d="M 117.662216 382.881742 
L 165.594103 382.69452 
L 191.293275 382.391774 
L 209.763329 381.958452 
L 224.00425 381.400134 
L 235.437585 380.728364 
L 245.43221 379.904265 
L 253.99937 378.956937 
L 261.148534 377.943607 
L 268.29178 376.673695 
L 274.0046 375.429733 
L 279.70736 373.942163 
L 283.98443 372.636296 
L 288.272153 371.137689 
L 292.552182 369.424995 
L 296.83813 367.462082 
L 301.126444 365.214171 
L 305.397004 362.652888 
L 309.67585 359.718046 
L 312.529597 357.530008 
L 315.381569 355.139286 
L 318.228806 352.530468 
L 321.083145 349.6719 
L 323.940443 346.544318 
L 326.795966 343.128822 
L 329.644387 339.407346 
L 332.495175 335.341052 
L 335.355432 330.886465 
L 338.202078 326.04775 
L 341.061743 320.745042 
L 343.912531 314.981048 
L 346.763911 308.698498 
L 349.616475 301.851574 
L 352.47259 294.39238 
L 355.318051 286.30998 
L 358.177125 277.487232 
L 361.024362 267.953291 
L 363.88166 257.58841 
L 366.734816 246.389987 
L 369.585012 234.320013 
L 372.43225 221.343607 
L 375.28067 207.425886 
L 378.127908 192.582989 
L 380.978104 176.836784 
L 385.245705 151.857047 
L 393.295024 103.882247 
L 394.72249 96.251242 
L 396.148771 89.303315 
L 397.57091 83.261299 
L 399.00311 78.263686 
L 400.423474 74.499466 
L 401.84798 71.908246 
L 403.280772 70.352056 
L 404.70587 69.616393 
L 406.139846 69.447185 
L 827.844034 69.447185 
L 827.844034 69.447185 
" style="fill:none;stroke:#7570b3;stroke-linecap:round;stroke-width:3;"/>
   </g>
   <g id="line2d_15"/>
   <g id="line2d_16"/>
   <g id="line2d_17"/>
   <g id="patch_3">
    <path d="M 82.153125 398.55347 
L 82.153125 53.775458 
" style="fill:none;stroke:#cccccc;stroke-linecap:square;stroke-linejoin:miter;stroke-width:0.8;"/>
   </g>
   <g id="patch_4">
    <path d="M 863.353125 398.55347 
L 863.353125 53.775458 
" style="fill:none;stroke:#cccccc;stroke-linecap:square;stroke-linejoin:miter;stroke-width:0.8;"/>
   </g>
   <g id="patch_5">
    <path d="M 82.153125 398.55347 
L 863.353125 398.55347 
" style="fill:none;stroke:#cccccc;stroke-linecap:square;stroke-linejoin:miter;stroke-width:0.8;"/>
   </g>
   <g id="patch_6">
    <path d="M 82.153125 53.775458 
L 863.353125 53.775458 
" style="fill:none;stroke:#cccccc;stroke-linecap:square;stroke-linejoin:miter;stroke-width:0.8;"/>
   </g>
   <g id="text_6">
    <!-- EU_avg -->
    <g style="fill:#262626;" transform="translate(31.682422 25.500781)scale(0.25 -0.25)">
     <defs>
      <path d="M 9.1875 72.90625 
L 59.90625 72.90625 
L 59.90625 58.6875 
L 27.984375 58.6875 
L 27.984375 45.125 
L 58.015625 45.125 
L 58.015625 30.90625 
L 27.984375 30.90625 
L 27.984375 14.203125 
L 60.984375 14.203125 
L 60.984375 0 
L 9.1875 0 
z
" id="DejaVuSans-Bold-69"/>
      <path d="M 9.1875 72.90625 
L 27.984375 72.90625 
L 27.984375 29.203125 
Q 27.984375 20.171875 30.9375 16.28125 
Q 33.890625 12.40625 40.578125 12.40625 
Q 47.3125 12.40625 50.265625 16.28125 
Q 53.21875 20.171875 53.21875 29.203125 
L 53.21875 72.90625 
L 72.015625 72.90625 
L 72.015625 29.203125 
Q 72.015625 13.71875 64.25 6.140625 
Q 56.5 -1.421875 40.578125 -1.421875 
Q 24.703125 -1.421875 16.9375 6.140625 
Q 9.1875 13.71875 9.1875 29.203125 
z
" id="DejaVuSans-Bold-85"/>
      <path d="M 50 -14.3125 
L 50 -23.578125 
L 0 -23.578125 
L 0 -14.3125 
z
" id="DejaVuSans-Bold-95"/>
      <path d="M 32.90625 24.609375 
Q 27.4375 24.609375 24.671875 22.75 
Q 21.921875 20.90625 21.921875 17.28125 
Q 21.921875 13.96875 24.140625 12.078125 
Q 26.375 10.203125 30.328125 10.203125 
Q 35.25 10.203125 38.625 13.734375 
Q 42 17.28125 42 22.609375 
L 42 24.609375 
z
M 59.625 31.203125 
L 59.625 0 
L 42 0 
L 42 8.109375 
Q 38.484375 3.125 34.078125 0.84375 
Q 29.6875 -1.421875 23.390625 -1.421875 
Q 14.890625 -1.421875 9.59375 3.53125 
Q 4.296875 8.5 4.296875 16.40625 
Q 4.296875 26.03125 10.90625 30.515625 
Q 17.53125 35.015625 31.6875 35.015625 
L 42 35.015625 
L 42 36.375 
Q 42 40.53125 38.71875 42.453125 
Q 35.453125 44.390625 28.515625 44.390625 
Q 22.90625 44.390625 18.0625 43.265625 
Q 13.234375 42.140625 9.078125 39.890625 
L 9.078125 53.21875 
Q 14.703125 54.59375 20.359375 55.296875 
Q 26.03125 56 31.6875 56 
Q 46.484375 56 53.046875 50.171875 
Q 59.625 44.34375 59.625 31.203125 
z
" id="DejaVuSans-Bold-97"/>
      <path d="M 1.515625 54.6875 
L 19 54.6875 
L 32.625 16.890625 
L 46.1875 54.6875 
L 63.71875 54.6875 
L 42.1875 0 
L 23 0 
z
" id="DejaVuSans-Bold-118"/>
      <path d="M 45.609375 9.28125 
Q 42 4.5 37.640625 2.25 
Q 33.296875 0 27.59375 0 
Q 17.578125 0 11.03125 7.875 
Q 4.5 15.765625 4.5 27.984375 
Q 4.5 40.234375 11.03125 48.0625 
Q 17.578125 55.90625 27.59375 55.90625 
Q 33.296875 55.90625 37.640625 53.65625 
Q 42 51.421875 45.609375 46.578125 
L 45.609375 54.6875 
L 63.1875 54.6875 
L 63.1875 5.515625 
Q 63.1875 -7.671875 54.859375 -14.625 
Q 46.53125 -21.578125 30.71875 -21.578125 
Q 25.59375 -21.578125 20.796875 -20.796875 
Q 16.015625 -20.015625 11.1875 -18.40625 
L 11.1875 -4.78125 
Q 15.765625 -7.421875 20.15625 -8.71875 
Q 24.5625 -10.015625 29 -10.015625 
Q 37.59375 -10.015625 41.59375 -6.25 
Q 45.609375 -2.484375 45.609375 5.515625 
z
M 34.078125 43.3125 
Q 28.65625 43.3125 25.625 39.296875 
Q 22.609375 35.296875 22.609375 27.984375 
Q 22.609375 20.453125 25.53125 16.578125 
Q 28.46875 12.703125 34.078125 12.703125 
Q 39.546875 12.703125 42.578125 16.703125 
Q 45.609375 20.703125 45.609375 27.984375 
Q 45.609375 35.296875 42.578125 39.296875 
Q 39.546875 43.3125 34.078125 43.3125 
z
" id="DejaVuSans-Bold-103"/>
     </defs>
     <use xlink:href="#DejaVuSans-Bold-69"/>
     <use x="68.310547" xlink:href="#DejaVuSans-Bold-85"/>
     <use x="149.511719" xlink:href="#DejaVuSans-Bold-95"/>
     <use x="199.511719" xlink:href="#DejaVuSans-Bold-97"/>
     <use x="266.992188" xlink:href="#DejaVuSans-Bold-118"/>
     <use x="332.177734" xlink:href="#DejaVuSans-Bold-103"/>
    </g>
   </g>
   <g id="text_7">
    <!-- I_a (setA_15) -->
    <g style="fill:#262626;" transform="translate(375.391406 47.775458)scale(0.3 -0.3)">
     <defs>
      <path d="M 9.8125 72.90625 
L 19.671875 72.90625 
L 19.671875 0 
L 9.8125 0 
z
" id="DejaVuSans-73"/>
      <path d="M 50.984375 -16.609375 
L 50.984375 -23.578125 
L -0.984375 -23.578125 
L -0.984375 -16.609375 
z
" id="DejaVuSans-95"/>
      <path d="M 34.28125 27.484375 
Q 23.390625 27.484375 19.1875 25 
Q 14.984375 22.515625 14.984375 16.5 
Q 14.984375 11.71875 18.140625 8.90625 
Q 21.296875 6.109375 26.703125 6.109375 
Q 34.1875 6.109375 38.703125 11.40625 
Q 43.21875 16.703125 43.21875 25.484375 
L 43.21875 27.484375 
z
M 52.203125 31.203125 
L 52.203125 0 
L 43.21875 0 
L 43.21875 8.296875 
Q 40.140625 3.328125 35.546875 0.953125 
Q 30.953125 -1.421875 24.3125 -1.421875 
Q 15.921875 -1.421875 10.953125 3.296875 
Q 6 8.015625 6 15.921875 
Q 6 25.140625 12.171875 29.828125 
Q 18.359375 34.515625 30.609375 34.515625 
L 43.21875 34.515625 
L 43.21875 35.40625 
Q 43.21875 41.609375 39.140625 45 
Q 35.0625 48.390625 27.6875 48.390625 
Q 23 48.390625 18.546875 47.265625 
Q 14.109375 46.140625 10.015625 43.890625 
L 10.015625 52.203125 
Q 14.9375 54.109375 19.578125 55.046875 
Q 24.21875 56 28.609375 56 
Q 40.484375 56 46.34375 49.84375 
Q 52.203125 43.703125 52.203125 31.203125 
z
" id="DejaVuSans-97"/>
      <path id="DejaVuSans-32"/>
      <path d="M 31 75.875 
Q 24.46875 64.65625 21.28125 53.65625 
Q 18.109375 42.671875 18.109375 31.390625 
Q 18.109375 20.125 21.3125 9.0625 
Q 24.515625 -2 31 -13.1875 
L 23.1875 -13.1875 
Q 15.875 -1.703125 12.234375 9.375 
Q 8.59375 20.453125 8.59375 31.390625 
Q 8.59375 42.28125 12.203125 53.3125 
Q 15.828125 64.359375 23.1875 75.875 
z
" id="DejaVuSans-40"/>
      <path d="M 44.28125 53.078125 
L 44.28125 44.578125 
Q 40.484375 46.53125 36.375 47.5 
Q 32.28125 48.484375 27.875 48.484375 
Q 21.1875 48.484375 17.84375 46.4375 
Q 14.5 44.390625 14.5 40.28125 
Q 14.5 37.15625 16.890625 35.375 
Q 19.28125 33.59375 26.515625 31.984375 
L 29.59375 31.296875 
Q 39.15625 29.25 43.1875 25.515625 
Q 47.21875 21.78125 47.21875 15.09375 
Q 47.21875 7.46875 41.1875 3.015625 
Q 35.15625 -1.421875 24.609375 -1.421875 
Q 20.21875 -1.421875 15.453125 -0.5625 
Q 10.6875 0.296875 5.421875 2 
L 5.421875 11.28125 
Q 10.40625 8.6875 15.234375 7.390625 
Q 20.0625 6.109375 24.8125 6.109375 
Q 31.15625 6.109375 34.5625 8.28125 
Q 37.984375 10.453125 37.984375 14.40625 
Q 37.984375 18.0625 35.515625 20.015625 
Q 33.0625 21.96875 24.703125 23.78125 
L 21.578125 24.515625 
Q 13.234375 26.265625 9.515625 29.90625 
Q 5.8125 33.546875 5.8125 39.890625 
Q 5.8125 47.609375 11.28125 51.796875 
Q 16.75 56 26.8125 56 
Q 31.78125 56 36.171875 55.265625 
Q 40.578125 54.546875 44.28125 53.078125 
z
" id="DejaVuSans-115"/>
      <path d="M 56.203125 29.59375 
L 56.203125 25.203125 
L 14.890625 25.203125 
Q 15.484375 15.921875 20.484375 11.0625 
Q 25.484375 6.203125 34.421875 6.203125 
Q 39.59375 6.203125 44.453125 7.46875 
Q 49.3125 8.734375 54.109375 11.28125 
L 54.109375 2.78125 
Q 49.265625 0.734375 44.1875 -0.34375 
Q 39.109375 -1.421875 33.890625 -1.421875 
Q 20.796875 -1.421875 13.15625 6.1875 
Q 5.515625 13.8125 5.515625 26.8125 
Q 5.515625 40.234375 12.765625 48.109375 
Q 20.015625 56 32.328125 56 
Q 43.359375 56 49.78125 48.890625 
Q 56.203125 41.796875 56.203125 29.59375 
z
M 47.21875 32.234375 
Q 47.125 39.59375 43.09375 43.984375 
Q 39.0625 48.390625 32.421875 48.390625 
Q 24.90625 48.390625 20.390625 44.140625 
Q 15.875 39.890625 15.1875 32.171875 
z
" id="DejaVuSans-101"/>
      <path d="M 18.3125 70.21875 
L 18.3125 54.6875 
L 36.8125 54.6875 
L 36.8125 47.703125 
L 18.3125 47.703125 
L 18.3125 18.015625 
Q 18.3125 11.328125 20.140625 9.421875 
Q 21.96875 7.515625 27.59375 7.515625 
L 36.8125 7.515625 
L 36.8125 0 
L 27.59375 0 
Q 17.1875 0 13.234375 3.875 
Q 9.28125 7.765625 9.28125 18.015625 
L 9.28125 47.703125 
L 2.6875 47.703125 
L 2.6875 54.6875 
L 9.28125 54.6875 
L 9.28125 70.21875 
z
" id="DejaVuSans-116"/>
      <path d="M 34.1875 63.1875 
L 20.796875 26.90625 
L 47.609375 26.90625 
z
M 28.609375 72.90625 
L 39.796875 72.90625 
L 67.578125 0 
L 57.328125 0 
L 50.6875 18.703125 
L 17.828125 18.703125 
L 11.1875 0 
L 0.78125 0 
z
" id="DejaVuSans-65"/>
      <path d="M 12.40625 8.296875 
L 28.515625 8.296875 
L 28.515625 63.921875 
L 10.984375 60.40625 
L 10.984375 69.390625 
L 28.421875 72.90625 
L 38.28125 72.90625 
L 38.28125 8.296875 
L 54.390625 8.296875 
L 54.390625 0 
L 12.40625 0 
z
" id="DejaVuSans-49"/>
      <path d="M 10.796875 72.90625 
L 49.515625 72.90625 
L 49.515625 64.59375 
L 19.828125 64.59375 
L 19.828125 46.734375 
Q 21.96875 47.46875 24.109375 47.828125 
Q 26.265625 48.1875 28.421875 48.1875 
Q 40.625 48.1875 47.75 41.5 
Q 54.890625 34.8125 54.890625 23.390625 
Q 54.890625 11.625 47.5625 5.09375 
Q 40.234375 -1.421875 26.90625 -1.421875 
Q 22.3125 -1.421875 17.546875 -0.640625 
Q 12.796875 0.140625 7.71875 1.703125 
L 7.71875 11.625 
Q 12.109375 9.234375 16.796875 8.0625 
Q 21.484375 6.890625 26.703125 6.890625 
Q 35.15625 6.890625 40.078125 11.328125 
Q 45.015625 15.765625 45.015625 23.390625 
Q 45.015625 31 40.078125 35.4375 
Q 35.15625 39.890625 26.703125 39.890625 
Q 22.75 39.890625 18.8125 39.015625 
Q 14.890625 38.140625 10.796875 36.28125 
z
" id="DejaVuSans-53"/>
      <path d="M 8.015625 75.875 
L 15.828125 75.875 
Q 23.140625 64.359375 26.78125 53.3125 
Q 30.421875 42.28125 30.421875 31.390625 
Q 30.421875 20.453125 26.78125 9.375 
Q 23.140625 -1.703125 15.828125 -13.1875 
L 8.015625 -13.1875 
Q 14.5 -2 17.703125 9.0625 
Q 20.90625 20.125 20.90625 31.390625 
Q 20.90625 42.671875 17.703125 53.65625 
Q 14.5 64.65625 8.015625 75.875 
z
" id="DejaVuSans-41"/>
     </defs>
     <use xlink:href="#DejaVuSans-73"/>
     <use x="29.492188" xlink:href="#DejaVuSans-95"/>
     <use x="79.492188" xlink:href="#DejaVuSans-97"/>
     <use x="140.771484" xlink:href="#DejaVuSans-32"/>
     <use x="172.558594" xlink:href="#DejaVuSans-40"/>
     <use x="211.572266" xlink:href="#DejaVuSans-115"/>
     <use x="263.671875" xlink:href="#DejaVuSans-101"/>
     <use x="325.195312" xlink:href="#DejaVuSans-116"/>
     <use x="364.404297" xlink:href="#DejaVuSans-65"/>
     <use x="432.8125" xlink:href="#DejaVuSans-95"/>
     <use x="482.8125" xlink:href="#DejaVuSans-49"/>
     <use x="546.435547" xlink:href="#DejaVuSans-53"/>
     <use x="610.058594" xlink:href="#DejaVuSans-41"/>
    </g>
   </g>
   <g id="legend_1">
    <g id="patch_7">
     <path d="M 880.853125 220.556708 
L 1017.728125 220.556708 
Q 1022.728125 220.556708 1022.728125 215.556708 
L 1022.728125 71.275458 
Q 1022.728125 66.275458 1017.728125 66.275458 
L 880.853125 66.275458 
Q 875.853125 66.275458 875.853125 71.275458 
L 875.853125 215.556708 
Q 875.853125 220.556708 880.853125 220.556708 
z
" style="fill:#ffffff;opacity:0.8;stroke:#cccccc;stroke-linejoin:miter;"/>
    </g>
    <g id="text_8">
     <!-- Replicate -->
     <g style="fill:#262626;" transform="translate(891.470313 95.271551)scale(0.25 -0.25)">
      <defs>
       <path d="M 44.390625 34.1875 
Q 47.5625 33.109375 50.5625 29.59375 
Q 53.5625 26.078125 56.59375 19.921875 
L 66.609375 0 
L 56 0 
L 46.6875 18.703125 
Q 43.0625 26.03125 39.671875 28.421875 
Q 36.28125 30.8125 30.421875 30.8125 
L 19.671875 30.8125 
L 19.671875 0 
L 9.8125 0 
L 9.8125 72.90625 
L 32.078125 72.90625 
Q 44.578125 72.90625 50.734375 67.671875 
Q 56.890625 62.453125 56.890625 51.90625 
Q 56.890625 45.015625 53.6875 40.46875 
Q 50.484375 35.9375 44.390625 34.1875 
z
M 19.671875 64.796875 
L 19.671875 38.921875 
L 32.078125 38.921875 
Q 39.203125 38.921875 42.84375 42.21875 
Q 46.484375 45.515625 46.484375 51.90625 
Q 46.484375 58.296875 42.84375 61.546875 
Q 39.203125 64.796875 32.078125 64.796875 
z
" id="DejaVuSans-82"/>
       <path d="M 18.109375 8.203125 
L 18.109375 -20.796875 
L 9.078125 -20.796875 
L 9.078125 54.6875 
L 18.109375 54.6875 
L 18.109375 46.390625 
Q 20.953125 51.265625 25.265625 53.625 
Q 29.59375 56 35.59375 56 
Q 45.5625 56 51.78125 48.09375 
Q 58.015625 40.1875 58.015625 27.296875 
Q 58.015625 14.40625 51.78125 6.484375 
Q 45.5625 -1.421875 35.59375 -1.421875 
Q 29.59375 -1.421875 25.265625 0.953125 
Q 20.953125 3.328125 18.109375 8.203125 
z
M 48.6875 27.296875 
Q 48.6875 37.203125 44.609375 42.84375 
Q 40.53125 48.484375 33.40625 48.484375 
Q 26.265625 48.484375 22.1875 42.84375 
Q 18.109375 37.203125 18.109375 27.296875 
Q 18.109375 17.390625 22.1875 11.75 
Q 26.265625 6.109375 33.40625 6.109375 
Q 40.53125 6.109375 44.609375 11.75 
Q 48.6875 17.390625 48.6875 27.296875 
z
" id="DejaVuSans-112"/>
       <path d="M 9.421875 75.984375 
L 18.40625 75.984375 
L 18.40625 0 
L 9.421875 0 
z
" id="DejaVuSans-108"/>
       <path d="M 9.421875 54.6875 
L 18.40625 54.6875 
L 18.40625 0 
L 9.421875 0 
z
M 9.421875 75.984375 
L 18.40625 75.984375 
L 18.40625 64.59375 
L 9.421875 64.59375 
z
" id="DejaVuSans-105"/>
       <path d="M 48.78125 52.59375 
L 48.78125 44.1875 
Q 44.96875 46.296875 41.140625 47.34375 
Q 37.3125 48.390625 33.40625 48.390625 
Q 24.65625 48.390625 19.8125 42.84375 
Q 14.984375 37.3125 14.984375 27.296875 
Q 14.984375 17.28125 19.8125 11.734375 
Q 24.65625 6.203125 33.40625 6.203125 
Q 37.3125 6.203125 41.140625 7.25 
Q 44.96875 8.296875 48.78125 10.40625 
L 48.78125 2.09375 
Q 45.015625 0.34375 40.984375 -0.53125 
Q 36.96875 -1.421875 32.421875 -1.421875 
Q 20.0625 -1.421875 12.78125 6.34375 
Q 5.515625 14.109375 5.515625 27.296875 
Q 5.515625 40.671875 12.859375 48.328125 
Q 20.21875 56 33.015625 56 
Q 37.15625 56 41.109375 55.140625 
Q 45.0625 54.296875 48.78125 52.59375 
z
" id="DejaVuSans-99"/>
      </defs>
      <use xlink:href="#DejaVuSans-82"/>
      <use x="64.982422" xlink:href="#DejaVuSans-101"/>
      <use x="126.505859" xlink:href="#DejaVuSans-112"/>
      <use x="189.982422" xlink:href="#DejaVuSans-108"/>
      <use x="217.765625" xlink:href="#DejaVuSans-105"/>
      <use x="245.548828" xlink:href="#DejaVuSans-99"/>
      <use x="300.529297" xlink:href="#DejaVuSans-97"/>
      <use x="361.808594" xlink:href="#DejaVuSans-116"/>
      <use x="401.017578" xlink:href="#DejaVuSans-101"/>
     </g>
    </g>
    <g id="line2d_18">
     <path d="M 885.853125 123.216864 
L 935.853125 123.216864 
" style="fill:none;stroke:#1b9e77;stroke-linecap:round;stroke-width:5;"/>
    </g>
    <g id="line2d_19"/>
    <g id="text_9">
     <!-- rep1 -->
     <g style="fill:#262626;" transform="translate(955.853125 131.966864)scale(0.25 -0.25)">
      <defs>
       <path d="M 41.109375 46.296875 
Q 39.59375 47.171875 37.8125 47.578125 
Q 36.03125 48 33.890625 48 
Q 26.265625 48 22.1875 43.046875 
Q 18.109375 38.09375 18.109375 28.8125 
L 18.109375 0 
L 9.078125 0 
L 9.078125 54.6875 
L 18.109375 54.6875 
L 18.109375 46.1875 
Q 20.953125 51.171875 25.484375 53.578125 
Q 30.03125 56 36.53125 56 
Q 37.453125 56 38.578125 55.875 
Q 39.703125 55.765625 41.0625 55.515625 
z
" id="DejaVuSans-114"/>
      </defs>
      <use xlink:href="#DejaVuSans-114"/>
      <use x="38.863281" xlink:href="#DejaVuSans-101"/>
      <use x="100.386719" xlink:href="#DejaVuSans-112"/>
      <use x="163.863281" xlink:href="#DejaVuSans-49"/>
     </g>
    </g>
    <g id="line2d_20">
     <path d="M 885.853125 159.912176 
L 935.853125 159.912176 
" style="fill:none;stroke:#d95f02;stroke-linecap:round;stroke-width:5;"/>
    </g>
    <g id="line2d_21"/>
    <g id="text_10">
     <!-- rep2 -->
     <g style="fill:#262626;" transform="translate(955.853125 168.662176)scale(0.25 -0.25)">
      <use xlink:href="#DejaVuSans-114"/>
      <use x="38.863281" xlink:href="#DejaVuSans-101"/>
      <use x="100.386719" xlink:href="#DejaVuSans-112"/>
      <use x="163.863281" xlink:href="#DejaVuSans-50"/>
     </g>
    </g>
    <g id="line2d_22">
     <path d="M 885.853125 196.607489 
L 935.853125 196.607489 
" style="fill:none;stroke:#7570b3;stroke-linecap:round;stroke-width:5;"/>
    </g>
    <g id="line2d_23"/>
    <g id="text_11">
     <!-- rep3 -->
     <g style="fill:#262626;" transform="translate(955.853125 205.357489)scale(0.25 -0.25)">
      <defs>
       <path d="M 40.578125 39.3125 
Q 47.65625 37.796875 51.625 33 
Q 55.609375 28.21875 55.609375 21.1875 
Q 55.609375 10.40625 48.1875 4.484375 
Q 40.765625 -1.421875 27.09375 -1.421875 
Q 22.515625 -1.421875 17.65625 -0.515625 
Q 12.796875 0.390625 7.625 2.203125 
L 7.625 11.71875 
Q 11.71875 9.328125 16.59375 8.109375 
Q 21.484375 6.890625 26.8125 6.890625 
Q 36.078125 6.890625 40.9375 10.546875 
Q 45.796875 14.203125 45.796875 21.1875 
Q 45.796875 27.640625 41.28125 31.265625 
Q 36.765625 34.90625 28.71875 34.90625 
L 20.21875 34.90625 
L 20.21875 43.015625 
L 29.109375 43.015625 
Q 36.375 43.015625 40.234375 45.921875 
Q 44.09375 48.828125 44.09375 54.296875 
Q 44.09375 59.90625 40.109375 62.90625 
Q 36.140625 65.921875 28.71875 65.921875 
Q 24.65625 65.921875 20.015625 65.03125 
Q 15.375 64.15625 9.8125 62.3125 
L 9.8125 71.09375 
Q 15.4375 72.65625 20.34375 73.4375 
Q 25.25 74.21875 29.59375 74.21875 
Q 40.828125 74.21875 47.359375 69.109375 
Q 53.90625 64.015625 53.90625 55.328125 
Q 53.90625 49.265625 50.4375 45.09375 
Q 46.96875 40.921875 40.578125 39.3125 
z
" id="DejaVuSans-51"/>
      </defs>
      <use xlink:href="#DejaVuSans-114"/>
      <use x="38.863281" xlink:href="#DejaVuSans-101"/>
      <use x="100.386719" xlink:href="#DejaVuSans-112"/>
      <use x="163.863281" xlink:href="#DejaVuSans-51"/>
     </g>
    </g>
   </g>
  </g>
  <g id="axes_2">
   <g id="patch_8">
    <path d="M 82.153125 795.048185 
L 863.353125 795.048185 
L 863.353125 450.270172 
L 82.153125 450.270172 
z
" style="fill:none;"/>
   </g>
   <g id="matplotlib.axis_3">
    <g id="xtick_8">
     <g id="line2d_24">
      <path clip-path="url(#pde324d2f6c)" d="M 117.662216 795.048185 
L 117.662216 450.270172 
" style="fill:none;stroke:#cccccc;stroke-linecap:round;stroke-width:0.8;"/>
     </g>
     <g id="text_12">
      <!-- 0 -->
      <g style="fill:#262626;" transform="translate(109.709091 821.044279)scale(0.25 -0.25)">
       <use xlink:href="#DejaVuSans-48"/>
      </g>
     </g>
    </g>
    <g id="xtick_9">
     <g id="line2d_25">
      <path clip-path="url(#pde324d2f6c)" d="M 236.025852 795.048185 
L 236.025852 450.270172 
" style="fill:none;stroke:#cccccc;stroke-linecap:round;stroke-width:0.8;"/>
     </g>
     <g id="text_13">
      <!-- 2 -->
      <g style="fill:#262626;" transform="translate(228.072727 821.044279)scale(0.25 -0.25)">
       <use xlink:href="#DejaVuSans-50"/>
      </g>
     </g>
    </g>
    <g id="xtick_10">
     <g id="line2d_26">
      <path clip-path="url(#pde324d2f6c)" d="M 354.389489 795.048185 
L 354.389489 450.270172 
" style="fill:none;stroke:#cccccc;stroke-linecap:round;stroke-width:0.8;"/>
     </g>
     <g id="text_14">
      <!-- 4 -->
      <g style="fill:#262626;" transform="translate(346.436364 821.044279)scale(0.25 -0.25)">
       <use xlink:href="#DejaVuSans-52"/>
      </g>
     </g>
    </g>
    <g id="xtick_11">
     <g id="line2d_27">
      <path clip-path="url(#pde324d2f6c)" d="M 472.753125 795.048185 
L 472.753125 450.270172 
" style="fill:none;stroke:#cccccc;stroke-linecap:round;stroke-width:0.8;"/>
     </g>
     <g id="text_15">
      <!-- 6 -->
      <g style="fill:#262626;" transform="translate(464.8 821.044279)scale(0.25 -0.25)">
       <use xlink:href="#DejaVuSans-54"/>
      </g>
     </g>
    </g>
    <g id="xtick_12">
     <g id="line2d_28">
      <path clip-path="url(#pde324d2f6c)" d="M 591.116761 795.048185 
L 591.116761 450.270172 
" style="fill:none;stroke:#cccccc;stroke-linecap:round;stroke-width:0.8;"/>
     </g>
     <g id="text_16">
      <!-- 8 -->
      <g style="fill:#262626;" transform="translate(583.163636 821.044279)scale(0.25 -0.25)">
       <defs>
        <path d="M 31.78125 34.625 
Q 24.75 34.625 20.71875 30.859375 
Q 16.703125 27.09375 16.703125 20.515625 
Q 16.703125 13.921875 20.71875 10.15625 
Q 24.75 6.390625 31.78125 6.390625 
Q 38.8125 6.390625 42.859375 10.171875 
Q 46.921875 13.96875 46.921875 20.515625 
Q 46.921875 27.09375 42.890625 30.859375 
Q 38.875 34.625 31.78125 34.625 
z
M 21.921875 38.8125 
Q 15.578125 40.375 12.03125 44.71875 
Q 8.5 49.078125 8.5 55.328125 
Q 8.5 64.0625 14.71875 69.140625 
Q 20.953125 74.21875 31.78125 74.21875 
Q 42.671875 74.21875 48.875 69.140625 
Q 55.078125 64.0625 55.078125 55.328125 
Q 55.078125 49.078125 51.53125 44.71875 
Q 48 40.375 41.703125 38.8125 
Q 48.828125 37.15625 52.796875 32.3125 
Q 56.78125 27.484375 56.78125 20.515625 
Q 56.78125 9.90625 50.3125 4.234375 
Q 43.84375 -1.421875 31.78125 -1.421875 
Q 19.734375 -1.421875 13.25 4.234375 
Q 6.78125 9.90625 6.78125 20.515625 
Q 6.78125 27.484375 10.78125 32.3125 
Q 14.796875 37.15625 21.921875 38.8125 
z
M 18.3125 54.390625 
Q 18.3125 48.734375 21.84375 45.5625 
Q 25.390625 42.390625 31.78125 42.390625 
Q 38.140625 42.390625 41.71875 45.5625 
Q 45.3125 48.734375 45.3125 54.390625 
Q 45.3125 60.0625 41.71875 63.234375 
Q 38.140625 66.40625 31.78125 66.40625 
Q 25.390625 66.40625 21.84375 63.234375 
Q 18.3125 60.0625 18.3125 54.390625 
z
" id="DejaVuSans-56"/>
       </defs>
       <use xlink:href="#DejaVuSans-56"/>
      </g>
     </g>
    </g>
    <g id="xtick_13">
     <g id="line2d_29">
      <path clip-path="url(#pde324d2f6c)" d="M 709.480398 795.048185 
L 709.480398 450.270172 
" style="fill:none;stroke:#cccccc;stroke-linecap:round;stroke-width:0.8;"/>
     </g>
     <g id="text_17">
      <!-- 10 -->
      <g style="fill:#262626;" transform="translate(693.574148 821.044279)scale(0.25 -0.25)">
       <use xlink:href="#DejaVuSans-49"/>
       <use x="63.623047" xlink:href="#DejaVuSans-48"/>
      </g>
     </g>
    </g>
    <g id="xtick_14">
     <g id="line2d_30">
      <path clip-path="url(#pde324d2f6c)" d="M 827.844034 795.048185 
L 827.844034 450.270172 
" style="fill:none;stroke:#cccccc;stroke-linecap:round;stroke-width:0.8;"/>
     </g>
     <g id="text_18">
      <!-- 12 -->
      <g style="fill:#262626;" transform="translate(811.937784 821.044279)scale(0.25 -0.25)">
       <use xlink:href="#DejaVuSans-49"/>
       <use x="63.623047" xlink:href="#DejaVuSans-50"/>
      </g>
     </g>
    </g>
    <g id="text_19">
     <!-- Time (h) -->
     <g style="fill:#262626;" transform="translate(420.520703 849.239591)scale(0.25 -0.25)">
      <defs>
       <path d="M -0.296875 72.90625 
L 61.375 72.90625 
L 61.375 64.59375 
L 35.5 64.59375 
L 35.5 0 
L 25.59375 0 
L 25.59375 64.59375 
L -0.296875 64.59375 
z
" id="DejaVuSans-84"/>
       <path d="M 52 44.1875 
Q 55.375 50.25 60.0625 53.125 
Q 64.75 56 71.09375 56 
Q 79.640625 56 84.28125 50.015625 
Q 88.921875 44.046875 88.921875 33.015625 
L 88.921875 0 
L 79.890625 0 
L 79.890625 32.71875 
Q 79.890625 40.578125 77.09375 44.375 
Q 74.3125 48.1875 68.609375 48.1875 
Q 61.625 48.1875 57.5625 43.546875 
Q 53.515625 38.921875 53.515625 30.90625 
L 53.515625 0 
L 44.484375 0 
L 44.484375 32.71875 
Q 44.484375 40.625 41.703125 44.40625 
Q 38.921875 48.1875 33.109375 48.1875 
Q 26.21875 48.1875 22.15625 43.53125 
Q 18.109375 38.875 18.109375 30.90625 
L 18.109375 0 
L 9.078125 0 
L 9.078125 54.6875 
L 18.109375 54.6875 
L 18.109375 46.1875 
Q 21.1875 51.21875 25.484375 53.609375 
Q 29.78125 56 35.6875 56 
Q 41.65625 56 45.828125 52.96875 
Q 50 49.953125 52 44.1875 
z
" id="DejaVuSans-109"/>
       <path d="M 54.890625 33.015625 
L 54.890625 0 
L 45.90625 0 
L 45.90625 32.71875 
Q 45.90625 40.484375 42.875 44.328125 
Q 39.84375 48.1875 33.796875 48.1875 
Q 26.515625 48.1875 22.3125 43.546875 
Q 18.109375 38.921875 18.109375 30.90625 
L 18.109375 0 
L 9.078125 0 
L 9.078125 75.984375 
L 18.109375 75.984375 
L 18.109375 46.1875 
Q 21.34375 51.125 25.703125 53.5625 
Q 30.078125 56 35.796875 56 
Q 45.21875 56 50.046875 50.171875 
Q 54.890625 44.34375 54.890625 33.015625 
z
" id="DejaVuSans-104"/>
      </defs>
      <use xlink:href="#DejaVuSans-84"/>
      <use x="57.958984" xlink:href="#DejaVuSans-105"/>
      <use x="85.742188" xlink:href="#DejaVuSans-109"/>
      <use x="183.154297" xlink:href="#DejaVuSans-101"/>
      <use x="244.677734" xlink:href="#DejaVuSans-32"/>
      <use x="276.464844" xlink:href="#DejaVuSans-40"/>
      <use x="315.478516" xlink:href="#DejaVuSans-104"/>
      <use x="378.857422" xlink:href="#DejaVuSans-41"/>
     </g>
    </g>
   </g>
   <g id="matplotlib.axis_4">
    <g id="ytick_5">
     <g id="line2d_31">
      <path clip-path="url(#pde324d2f6c)" d="M 82.153125 779.383794 
L 863.353125 779.383794 
" style="fill:none;stroke:#cccccc;stroke-linecap:round;stroke-width:0.8;"/>
     </g>
     <g id="text_20">
      <!-- 0 -->
      <g style="fill:#262626;" transform="translate(59.246875 788.881841)scale(0.25 -0.25)">
       <use xlink:href="#DejaVuSans-48"/>
      </g>
     </g>
    </g>
    <g id="ytick_6">
     <g id="line2d_32">
      <path clip-path="url(#pde324d2f6c)" d="M 82.153125 706.014797 
L 863.353125 706.014797 
" style="fill:none;stroke:#cccccc;stroke-linecap:round;stroke-width:0.8;"/>
     </g>
     <g id="text_21">
      <!-- 10 -->
      <g style="fill:#262626;" transform="translate(43.340625 715.512844)scale(0.25 -0.25)">
       <use xlink:href="#DejaVuSans-49"/>
       <use x="63.623047" xlink:href="#DejaVuSans-48"/>
      </g>
     </g>
    </g>
    <g id="ytick_7">
     <g id="line2d_33">
      <path clip-path="url(#pde324d2f6c)" d="M 82.153125 632.645799 
L 863.353125 632.645799 
" style="fill:none;stroke:#cccccc;stroke-linecap:round;stroke-width:0.8;"/>
     </g>
     <g id="text_22">
      <!-- 20 -->
      <g style="fill:#262626;" transform="translate(43.340625 642.143846)scale(0.25 -0.25)">
       <use xlink:href="#DejaVuSans-50"/>
       <use x="63.623047" xlink:href="#DejaVuSans-48"/>
      </g>
     </g>
    </g>
    <g id="ytick_8">
     <g id="line2d_34">
      <path clip-path="url(#pde324d2f6c)" d="M 82.153125 559.276802 
L 863.353125 559.276802 
" style="fill:none;stroke:#cccccc;stroke-linecap:round;stroke-width:0.8;"/>
     </g>
     <g id="text_23">
      <!-- 30 -->
      <g style="fill:#262626;" transform="translate(43.340625 568.774849)scale(0.25 -0.25)">
       <use xlink:href="#DejaVuSans-51"/>
       <use x="63.623047" xlink:href="#DejaVuSans-48"/>
      </g>
     </g>
    </g>
    <g id="ytick_9">
     <g id="line2d_35">
      <path clip-path="url(#pde324d2f6c)" d="M 82.153125 485.907805 
L 863.353125 485.907805 
" style="fill:none;stroke:#cccccc;stroke-linecap:round;stroke-width:0.8;"/>
     </g>
     <g id="text_24">
      <!-- 40 -->
      <g style="fill:#262626;" transform="translate(43.340625 495.405852)scale(0.25 -0.25)">
       <use xlink:href="#DejaVuSans-52"/>
       <use x="63.623047" xlink:href="#DejaVuSans-48"/>
      </g>
     </g>
    </g>
    <g id="text_25">
     <!-- OD -->
     <g style="fill:#262626;" transform="translate(34.141406 642.124022)rotate(-90)scale(0.25 -0.25)">
      <use xlink:href="#DejaVuSans-79"/>
      <use x="78.710938" xlink:href="#DejaVuSans-68"/>
     </g>
    </g>
   </g>
   <g id="line2d_36">
    <path clip-path="url(#pde324d2f6c)" d="M 117.662216 779.376457 
L 144.412812 779.243796 
L 153.782359 778.990587 
L 159.616148 778.635907 
L 163.996667 778.171929 
L 166.856037 777.723233 
L 169.726533 777.105782 
L 172.591761 776.260886 
L 175.447106 775.107849 
L 178.30405 773.529271 
L 179.72678 772.538224 
L 181.151287 771.378429 
L 182.57816 770.020516 
L 184.00385 768.435159 
L 185.427173 766.585746 
L 186.849312 764.428111 
L 188.271451 761.910967 
L 189.692407 758.975694 
L 191.115138 755.548775 
L 192.536685 751.556914 
L 193.95764 746.912143 
L 195.378596 741.504261 
L 196.800143 735.216024 
L 198.22169 727.915222 
L 199.643238 719.447926 
L 201.063601 709.652652 
L 202.484557 698.338932 
L 203.905512 685.307865 
L 205.325876 670.361866 
L 206.746831 653.288901 
L 208.167787 633.918752 
L 209.58815 612.1421 
L 211.009106 587.989026 
L 216.691744 484.818276 
L 218.1127 471.16724 
L 219.534247 466.528852 
L 220.994262 465.942634 
L 827.844034 465.942634 
L 827.844034 465.942634 
" style="fill:none;stroke:#1b9e77;stroke-linecap:round;stroke-width:3;"/>
   </g>
   <g id="line2d_37">
    <path clip-path="url(#pde324d2f6c)" d="M 117.662216 779.376457 
L 144.412812 779.243796 
L 153.782359 778.990587 
L 159.703145 778.628709 
L 164.050345 778.164739 
L 166.935163 777.708699 
L 169.813352 777.083903 
L 172.655145 776.239023 
L 175.509011 775.078648 
L 178.372109 773.485396 
L 179.794248 772.487005 
L 181.21757 771.319881 
L 182.642077 769.95463 
L 184.064216 768.361936 
L 185.489906 766.49785 
L 186.912045 764.325541 
L 188.332409 761.793724 
L 189.754548 758.836439 
L 191.176687 755.38751 
L 192.599418 751.366302 
L 194.021557 746.684846 
L 195.443104 741.240279 
L 196.864651 734.908021 
L 198.286199 727.555861 
L 199.707154 719.037207 
L 201.12811 709.1759 
L 202.549065 697.788665 
L 203.969429 684.676891 
L 205.390384 669.635513 
L 206.810748 652.467168 
L 208.231111 632.994302 
L 209.652067 611.10833 
L 211.07243 586.851806 
L 215.334113 506.270637 
L 216.755069 483.98994 
L 218.176024 470.801129 
L 219.599939 466.44888 
L 221.033914 465.942634 
L 827.844034 465.942634 
L 827.844034 465.942634 
" style="fill:none;stroke:#d95f02;stroke-linecap:round;stroke-width:3;"/>
   </g>
   <g id="line2d_38">
    <path clip-path="url(#pde324d2f6c)" d="M 117.662216 779.376457 
L 143.222429 779.261012 
L 152.443134 779.044544 
L 158.339892 778.734033 
L 162.675433 778.336107 
L 167.042874 777.688706 
L 169.92059 777.056581 
L 172.775698 776.197019 
L 175.627848 775.02197 
L 177.055313 774.280371 
L 178.481003 773.414045 
L 179.907285 772.40098 
L 181.330608 771.219145 
L 182.752747 769.839294 
L 184.177253 768.224589 
L 185.60176 766.338419 
L 187.025674 764.136762 
L 188.448997 761.568334 
L 189.870544 758.574292 
L 191.293275 755.081341 
L 192.713639 751.016185 
L 194.134002 746.283297 
L 195.55555 740.772772 
L 196.977097 734.367072 
L 198.39746 726.934279 
L 199.818416 718.312835 
L 201.239371 708.341474 
L 202.659735 696.829732 
L 204.080099 683.578557 
L 205.501054 668.375767 
L 206.92201 651.030603 
L 208.342965 631.367712 
L 209.763329 609.297584 
L 211.183692 584.865707 
L 215.445375 504.306549 
L 216.865739 482.590793 
L 218.286694 470.201704 
L 219.708241 466.33369 
L 221.148135 465.9419 
L 827.844034 465.9419 
L 827.844034 465.9419 
" style="fill:none;stroke:#7570b3;stroke-linecap:round;stroke-width:3;"/>
   </g>
   <g id="line2d_39"/>
   <g id="line2d_40"/>
   <g id="line2d_41"/>
   <g id="patch_9">
    <path d="M 82.153125 795.048185 
L 82.153125 450.270172 
" style="fill:none;stroke:#cccccc;stroke-linecap:square;stroke-linejoin:miter;stroke-width:0.8;"/>
   </g>
   <g id="patch_10">
    <path d="M 863.353125 795.048185 
L 863.353125 450.270172 
" style="fill:none;stroke:#cccccc;stroke-linecap:square;stroke-linejoin:miter;stroke-width:0.8;"/>
   </g>
   <g id="patch_11">
    <path d="M 82.153125 795.048185 
L 863.353125 795.048185 
" style="fill:none;stroke:#cccccc;stroke-linecap:square;stroke-linejoin:miter;stroke-width:0.8;"/>
   </g>
   <g id="patch_12">
    <path d="M 82.153125 450.270172 
L 863.353125 450.270172 
" style="fill:none;stroke:#cccccc;stroke-linecap:square;stroke-linejoin:miter;stroke-width:0.8;"/>
   </g>
   <g id="text_26">
    <!-- V_a (setA_16) -->
    <g style="fill:#262626;" transform="translate(369.555469 444.270172)scale(0.3 -0.3)">
     <defs>
      <path d="M 28.609375 0 
L 0.78125 72.90625 
L 11.078125 72.90625 
L 34.1875 11.53125 
L 57.328125 72.90625 
L 67.578125 72.90625 
L 39.796875 0 
z
" id="DejaVuSans-86"/>
     </defs>
     <use xlink:href="#DejaVuSans-86"/>
     <use x="68.408203" xlink:href="#DejaVuSans-95"/>
     <use x="118.408203" xlink:href="#DejaVuSans-97"/>
     <use x="179.6875" xlink:href="#DejaVuSans-32"/>
     <use x="211.474609" xlink:href="#DejaVuSans-40"/>
     <use x="250.488281" xlink:href="#DejaVuSans-115"/>
     <use x="302.587891" xlink:href="#DejaVuSans-101"/>
     <use x="364.111328" xlink:href="#DejaVuSans-116"/>
     <use x="403.320312" xlink:href="#DejaVuSans-65"/>
     <use x="471.728516" xlink:href="#DejaVuSans-95"/>
     <use x="521.728516" xlink:href="#DejaVuSans-49"/>
     <use x="585.351562" xlink:href="#DejaVuSans-54"/>
     <use x="648.974609" xlink:href="#DejaVuSans-41"/>
    </g>
   </g>
  </g>
  <g id="axes_3">
   <g id="patch_13">
    <path d="M 82.153125 1288.080743 
L 863.353125 1288.080743 
L 863.353125 943.30273 
L 82.153125 943.30273 
z
" style="fill:none;"/>
   </g>
   <g id="matplotlib.axis_5">
    <g id="xtick_15">
     <g id="line2d_42">
      <path clip-path="url(#pa118facd03)" d="M 117.662216 1288.080743 
L 117.662216 943.30273 
" style="fill:none;stroke:#cccccc;stroke-linecap:round;stroke-width:0.8;"/>
     </g>
    </g>
    <g id="xtick_16">
     <g id="line2d_43">
      <path clip-path="url(#pa118facd03)" d="M 236.025852 1288.080743 
L 236.025852 943.30273 
" style="fill:none;stroke:#cccccc;stroke-linecap:round;stroke-width:0.8;"/>
     </g>
    </g>
    <g id="xtick_17">
     <g id="line2d_44">
      <path clip-path="url(#pa118facd03)" d="M 354.389489 1288.080743 
L 354.389489 943.30273 
" style="fill:none;stroke:#cccccc;stroke-linecap:round;stroke-width:0.8;"/>
     </g>
    </g>
    <g id="xtick_18">
     <g id="line2d_45">
      <path clip-path="url(#pa118facd03)" d="M 472.753125 1288.080743 
L 472.753125 943.30273 
" style="fill:none;stroke:#cccccc;stroke-linecap:round;stroke-width:0.8;"/>
     </g>
    </g>
    <g id="xtick_19">
     <g id="line2d_46">
      <path clip-path="url(#pa118facd03)" d="M 591.116761 1288.080743 
L 591.116761 943.30273 
" style="fill:none;stroke:#cccccc;stroke-linecap:round;stroke-width:0.8;"/>
     </g>
    </g>
    <g id="xtick_20">
     <g id="line2d_47">
      <path clip-path="url(#pa118facd03)" d="M 709.480398 1288.080743 
L 709.480398 943.30273 
" style="fill:none;stroke:#cccccc;stroke-linecap:round;stroke-width:0.8;"/>
     </g>
    </g>
    <g id="xtick_21">
     <g id="line2d_48">
      <path clip-path="url(#pa118facd03)" d="M 827.844034 1288.080743 
L 827.844034 943.30273 
" style="fill:none;stroke:#cccccc;stroke-linecap:round;stroke-width:0.8;"/>
     </g>
    </g>
   </g>
   <g id="matplotlib.axis_6">
    <g id="ytick_10">
     <g id="line2d_49">
      <path clip-path="url(#pa118facd03)" d="M 82.153125 1272.45394 
L 863.353125 1272.45394 
" style="fill:none;stroke:#cccccc;stroke-linecap:round;stroke-width:0.8;"/>
     </g>
     <g id="text_27">
      <!-- 0 -->
      <g style="fill:#262626;" transform="translate(59.246875 1281.951987)scale(0.25 -0.25)">
       <use xlink:href="#DejaVuSans-48"/>
      </g>
     </g>
    </g>
    <g id="ytick_11">
     <g id="line2d_50">
      <path clip-path="url(#pa118facd03)" d="M 82.153125 1182.603806 
L 863.353125 1182.603806 
" style="fill:none;stroke:#cccccc;stroke-linecap:round;stroke-width:0.8;"/>
     </g>
     <g id="text_28">
      <!-- 2 -->
      <g style="fill:#262626;" transform="translate(59.246875 1192.101853)scale(0.25 -0.25)">
       <use xlink:href="#DejaVuSans-50"/>
      </g>
     </g>
    </g>
    <g id="ytick_12">
     <g id="line2d_51">
      <path clip-path="url(#pa118facd03)" d="M 82.153125 1092.753671 
L 863.353125 1092.753671 
" style="fill:none;stroke:#cccccc;stroke-linecap:round;stroke-width:0.8;"/>
     </g>
     <g id="text_29">
      <!-- 4 -->
      <g style="fill:#262626;" transform="translate(59.246875 1102.251718)scale(0.25 -0.25)">
       <use xlink:href="#DejaVuSans-52"/>
      </g>
     </g>
    </g>
    <g id="ytick_13">
     <g id="line2d_52">
      <path clip-path="url(#pa118facd03)" d="M 82.153125 1002.903537 
L 863.353125 1002.903537 
" style="fill:none;stroke:#cccccc;stroke-linecap:round;stroke-width:0.8;"/>
     </g>
     <g id="text_30">
      <!-- 6 -->
      <g style="fill:#262626;" transform="translate(59.246875 1012.401583)scale(0.25 -0.25)">
       <use xlink:href="#DejaVuSans-54"/>
      </g>
     </g>
    </g>
    <g id="text_31">
     <!-- OD -->
     <g style="fill:#262626;" transform="translate(50.047656 1135.15658)rotate(-90)scale(0.25 -0.25)">
      <use xlink:href="#DejaVuSans-79"/>
      <use x="78.710938" xlink:href="#DejaVuSans-68"/>
     </g>
    </g>
   </g>
   <g id="line2d_53">
    <path clip-path="url(#pa118facd03)" d="M 117.662216 1272.409015 
L 171.81062 1272.22305 
L 198.79753 1271.93192 
L 217.92746 1271.523268 
L 231.419731 1271.054731 
L 243.7982 1270.420093 
L 254.408909 1269.651537 
L 262.422719 1268.88419 
L 270.215189 1267.937264 
L 276.516869 1266.991007 
L 282.726817 1265.86514 
L 288.90895 1264.514603 
L 294.911761 1262.939575 
L 299.347439 1261.579019 
L 303.83638 1260.004665 
L 308.25667 1258.23291 
L 312.626063 1256.235092 
L 317.036292 1253.935783 
L 321.35183 1251.373212 
L 325.73957 1248.406226 
L 328.663152 1246.203639 
L 331.563061 1243.821353 
L 334.426278 1241.259411 
L 337.332697 1238.427874 
L 340.212484 1235.371756 
L 343.09168 1232.046043 
L 345.952529 1228.450825 
L 348.845928 1224.496431 
L 351.68843 1220.272127 
L 354.55579 1215.643497 
L 357.424924 1210.610991 
L 360.28163 1205.170116 
L 363.130643 1199.283585 
L 365.998002 1192.857952 
L 368.865361 1185.893668 
L 371.717333 1178.389834 
L 374.57404 1170.257499 
L 377.43548 1161.451287 
L 380.301656 1151.925825 
L 383.160138 1141.682011 
L 386.013885 1130.674471 
L 388.866449 1118.85828 
L 391.71191 1106.233438 
L 394.566841 1092.710094 
L 397.413487 1078.378548 
L 401.685822 1055.376015 
L 405.127245 1035.766223 
L 412.249777 994.573081 
L 415.102932 979.842152 
L 416.52448 973.556236 
L 417.951945 968.260919 
L 419.380594 964.180824 
L 420.82759 961.362675 
L 422.255647 959.763342 
L 423.676602 959.076438 
L 426.858217 958.974907 
L 827.844034 958.974907 
L 827.844034 958.974907 
" style="fill:none;stroke:#1b9e77;stroke-linecap:round;stroke-width:3;"/>
   </g>
   <g id="line2d_54">
    <path clip-path="url(#pa118facd03)" d="M 117.662216 1272.409015 
L 171.636034 1272.224266 
L 200.043307 1271.911883 
L 219.604673 1271.47487 
L 233.51536 1270.963246 
L 245.24993 1270.328913 
L 255.979594 1269.515387 
L 263.9792 1268.712423 
L 271.767528 1267.72059 
L 278.06684 1266.729408 
L 284.25134 1265.555067 
L 290.403882 1264.148463 
L 296.465284 1262.48354 
L 300.941205 1261.043961 
L 305.462696 1259.379757 
L 309.846885 1257.535898 
L 314.251788 1255.422488 
L 318.686281 1252.994602 
L 323.010105 1250.297211 
L 327.378315 1247.195495 
L 330.27704 1244.903059 
L 333.147359 1242.430967 
L 336.022411 1239.734205 
L 338.884444 1236.812863 
L 341.757721 1233.62197 
L 344.657039 1230.116557 
L 347.526173 1226.341503 
L 350.41543 1222.207499 
L 353.30291 1217.713644 
L 356.171453 1212.860389 
L 359.032894 1207.603258 
L 361.894927 1201.896427 
L 364.740389 1195.740345 
L 367.595911 1189.045611 
L 370.444924 1181.811327 
L 373.305181 1173.948542 
L 376.161296 1165.456806 
L 379.010309 1156.306468 
L 381.864056 1146.422055 
L 384.717211 1135.773916 
L 387.573326 1124.317125 
L 390.424114 1112.051683 
L 393.275494 1098.932665 
L 396.126874 1084.96052 
L 398.97352 1070.179274 
L 402.451635 1051.085671 
L 408.147885 1018.111121 
L 412.41371 993.67458 
L 415.265682 979.078875 
L 416.690189 972.883259 
L 418.117062 967.722716 
L 419.552221 963.777846 
L 420.980279 961.139846 
L 422.436743 959.631712 
L 423.85829 959.038252 
L 426.857625 958.974907 
L 827.844034 958.974907 
L 827.844034 958.974907 
" style="fill:none;stroke:#d95f02;stroke-linecap:round;stroke-width:3;"/>
   </g>
   <g id="line2d_55">
    <path clip-path="url(#pa118facd03)" d="M 117.662216 1272.409015 
L 171.625914 1272.224336 
L 200.033246 1271.912049 
L 219.148381 1271.488276 
L 233.875185 1270.946947 
L 245.502045 1270.312668 
L 255.880169 1269.524219 
L 263.983343 1268.711907 
L 271.771079 1267.720051 
L 278.0698 1266.728869 
L 284.236545 1265.558077 
L 290.347068 1264.162705 
L 296.417347 1262.497782 
L 300.899778 1261.058203 
L 305.426595 1259.393998 
L 309.814927 1257.550139 
L 314.204442 1255.446882 
L 318.644854 1253.018997 
L 322.973412 1250.321606 
L 327.345765 1247.219889 
L 330.24745 1244.927453 
L 333.120135 1242.455316 
L 335.997555 1239.758599 
L 338.867873 1236.830923 
L 341.741742 1233.64003 
L 344.632182 1230.14742 
L 347.503684 1226.372502 
L 350.394716 1222.238048 
L 353.259116 1217.783727 
L 356.119373 1212.952935 
L 358.984957 1207.695354 
L 361.849949 1201.988523 
L 364.699553 1195.83289 
L 367.558035 1189.137707 
L 370.410007 1181.903873 
L 373.272631 1174.040639 
L 376.131705 1165.548902 
L 378.98782 1156.38329 
L 381.84275 1146.498428 
L 384.697681 1135.850288 
L 387.55498 1124.393497 
L 390.406951 1112.128056 
L 393.259515 1099.009037 
L 396.111487 1085.036892 
L 398.959316 1070.255647 
L 403.23106 1046.669986 
L 413.206747 989.394569 
L 414.63007 982.119403 
L 416.058127 975.518563 
L 417.486184 969.862947 
L 418.911282 965.377628 
L 420.347625 962.153805 
L 421.849068 960.11241 
L 423.277717 959.195489 
L 425.043702 958.974458 
L 827.844034 958.974458 
L 827.844034 958.974458 
" style="fill:none;stroke:#7570b3;stroke-linecap:round;stroke-width:3;"/>
   </g>
   <g id="line2d_56"/>
   <g id="line2d_57"/>
   <g id="line2d_58"/>
   <g id="patch_14">
    <path d="M 82.153125 1288.080743 
L 82.153125 943.30273 
" style="fill:none;stroke:#cccccc;stroke-linecap:square;stroke-linejoin:miter;stroke-width:0.8;"/>
   </g>
   <g id="patch_15">
    <path d="M 863.353125 1288.080743 
L 863.353125 943.30273 
" style="fill:none;stroke:#cccccc;stroke-linecap:square;stroke-linejoin:miter;stroke-width:0.8;"/>
   </g>
   <g id="patch_16">
    <path d="M 82.153125 1288.080743 
L 863.353125 1288.080743 
" style="fill:none;stroke:#cccccc;stroke-linecap:square;stroke-linejoin:miter;stroke-width:0.8;"/>
   </g>
   <g id="patch_17">
    <path d="M 82.153125 943.30273 
L 863.353125 943.30273 
" style="fill:none;stroke:#cccccc;stroke-linecap:square;stroke-linejoin:miter;stroke-width:0.8;"/>
   </g>
   <g id="text_32">
    <!-- high_fat -->
    <g style="fill:#262626;" transform="translate(25.026172 915.37571)scale(0.25 -0.25)">
     <defs>
      <path d="M 63.375 33.296875 
L 63.375 0 
L 45.796875 0 
L 45.796875 5.421875 
L 45.796875 25.390625 
Q 45.796875 32.5625 45.484375 35.25 
Q 45.171875 37.9375 44.390625 39.203125 
Q 43.359375 40.921875 41.59375 41.875 
Q 39.84375 42.828125 37.59375 42.828125 
Q 32.125 42.828125 29 38.59375 
Q 25.875 34.375 25.875 26.90625 
L 25.875 0 
L 8.40625 0 
L 8.40625 75.984375 
L 25.875 75.984375 
L 25.875 46.6875 
Q 29.828125 51.46875 34.265625 53.734375 
Q 38.71875 56 44.09375 56 
Q 53.5625 56 58.46875 50.1875 
Q 63.375 44.390625 63.375 33.296875 
z
" id="DejaVuSans-Bold-104"/>
      <path d="M 8.40625 54.6875 
L 25.875 54.6875 
L 25.875 0 
L 8.40625 0 
z
M 8.40625 75.984375 
L 25.875 75.984375 
L 25.875 61.71875 
L 8.40625 61.71875 
z
" id="DejaVuSans-Bold-105"/>
      <path d="M 44.390625 75.984375 
L 44.390625 64.5 
L 34.71875 64.5 
Q 31 64.5 29.53125 63.15625 
Q 28.078125 61.8125 28.078125 58.5 
L 28.078125 54.6875 
L 43.015625 54.6875 
L 43.015625 42.1875 
L 28.078125 42.1875 
L 28.078125 0 
L 10.59375 0 
L 10.59375 42.1875 
L 1.90625 42.1875 
L 1.90625 54.6875 
L 10.59375 54.6875 
L 10.59375 58.5 
Q 10.59375 67.4375 15.578125 71.703125 
Q 20.5625 75.984375 31 75.984375 
z
" id="DejaVuSans-Bold-102"/>
      <path d="M 27.484375 70.21875 
L 27.484375 54.6875 
L 45.515625 54.6875 
L 45.515625 42.1875 
L 27.484375 42.1875 
L 27.484375 19 
Q 27.484375 15.1875 29 13.84375 
Q 30.515625 12.5 35.015625 12.5 
L 44 12.5 
L 44 0 
L 29 0 
Q 18.65625 0 14.328125 4.3125 
Q 10.015625 8.640625 10.015625 19 
L 10.015625 42.1875 
L 1.3125 42.1875 
L 1.3125 54.6875 
L 10.015625 54.6875 
L 10.015625 70.21875 
z
" id="DejaVuSans-Bold-116"/>
     </defs>
     <use xlink:href="#DejaVuSans-Bold-104"/>
     <use x="71.191406" xlink:href="#DejaVuSans-Bold-105"/>
     <use x="105.46875" xlink:href="#DejaVuSans-Bold-103"/>
     <use x="177.050781" xlink:href="#DejaVuSans-Bold-104"/>
     <use x="248.242188" xlink:href="#DejaVuSans-Bold-95"/>
     <use x="298.242188" xlink:href="#DejaVuSans-Bold-102"/>
     <use x="341.748047" xlink:href="#DejaVuSans-Bold-97"/>
     <use x="409.228516" xlink:href="#DejaVuSans-Bold-116"/>
    </g>
   </g>
   <g id="text_33">
    <!-- I_a (setA_15) -->
    <g style="fill:#262626;" transform="translate(375.391406 937.30273)scale(0.3 -0.3)">
     <use xlink:href="#DejaVuSans-73"/>
     <use x="29.492188" xlink:href="#DejaVuSans-95"/>
     <use x="79.492188" xlink:href="#DejaVuSans-97"/>
     <use x="140.771484" xlink:href="#DejaVuSans-32"/>
     <use x="172.558594" xlink:href="#DejaVuSans-40"/>
     <use x="211.572266" xlink:href="#DejaVuSans-115"/>
     <use x="263.671875" xlink:href="#DejaVuSans-101"/>
     <use x="325.195312" xlink:href="#DejaVuSans-116"/>
     <use x="364.404297" xlink:href="#DejaVuSans-65"/>
     <use x="432.8125" xlink:href="#DejaVuSans-95"/>
     <use x="482.8125" xlink:href="#DejaVuSans-49"/>
     <use x="546.435547" xlink:href="#DejaVuSans-53"/>
     <use x="610.058594" xlink:href="#DejaVuSans-41"/>
    </g>
   </g>
   <g id="legend_2">
    <g id="patch_18">
     <path d="M 880.853125 1110.08398 
L 1017.728125 1110.08398 
Q 1022.728125 1110.08398 1022.728125 1105.08398 
L 1022.728125 960.80273 
Q 1022.728125 955.80273 1017.728125 955.80273 
L 880.853125 955.80273 
Q 875.853125 955.80273 875.853125 960.80273 
L 875.853125 1105.08398 
Q 875.853125 1110.08398 880.853125 1110.08398 
z
" style="fill:#ffffff;opacity:0.8;stroke:#cccccc;stroke-linejoin:miter;"/>
    </g>
    <g id="text_34">
     <!-- Replicate -->
     <g style="fill:#262626;" transform="translate(891.470313 984.798824)scale(0.25 -0.25)">
      <use xlink:href="#DejaVuSans-82"/>
      <use x="64.982422" xlink:href="#DejaVuSans-101"/>
      <use x="126.505859" xlink:href="#DejaVuSans-112"/>
      <use x="189.982422" xlink:href="#DejaVuSans-108"/>
      <use x="217.765625" xlink:href="#DejaVuSans-105"/>
      <use x="245.548828" xlink:href="#DejaVuSans-99"/>
      <use x="300.529297" xlink:href="#DejaVuSans-97"/>
      <use x="361.808594" xlink:href="#DejaVuSans-116"/>
      <use x="401.017578" xlink:href="#DejaVuSans-101"/>
     </g>
    </g>
    <g id="line2d_59">
     <path d="M 885.853125 1012.744136 
L 935.853125 1012.744136 
" style="fill:none;stroke:#1b9e77;stroke-linecap:round;stroke-width:5;"/>
    </g>
    <g id="line2d_60"/>
    <g id="text_35">
     <!-- rep1 -->
     <g style="fill:#262626;" transform="translate(955.853125 1021.494136)scale(0.25 -0.25)">
      <use xlink:href="#DejaVuSans-114"/>
      <use x="38.863281" xlink:href="#DejaVuSans-101"/>
      <use x="100.386719" xlink:href="#DejaVuSans-112"/>
      <use x="163.863281" xlink:href="#DejaVuSans-49"/>
     </g>
    </g>
    <g id="line2d_61">
     <path d="M 885.853125 1049.439449 
L 935.853125 1049.439449 
" style="fill:none;stroke:#d95f02;stroke-linecap:round;stroke-width:5;"/>
    </g>
    <g id="line2d_62"/>
    <g id="text_36">
     <!-- rep2 -->
     <g style="fill:#262626;" transform="translate(955.853125 1058.189449)scale(0.25 -0.25)">
      <use xlink:href="#DejaVuSans-114"/>
      <use x="38.863281" xlink:href="#DejaVuSans-101"/>
      <use x="100.386719" xlink:href="#DejaVuSans-112"/>
      <use x="163.863281" xlink:href="#DejaVuSans-50"/>
     </g>
    </g>
    <g id="line2d_63">
     <path d="M 885.853125 1086.134761 
L 935.853125 1086.134761 
" style="fill:none;stroke:#7570b3;stroke-linecap:round;stroke-width:5;"/>
    </g>
    <g id="line2d_64"/>
    <g id="text_37">
     <!-- rep3 -->
     <g style="fill:#262626;" transform="translate(955.853125 1094.884761)scale(0.25 -0.25)">
      <use xlink:href="#DejaVuSans-114"/>
      <use x="38.863281" xlink:href="#DejaVuSans-101"/>
      <use x="100.386719" xlink:href="#DejaVuSans-112"/>
      <use x="163.863281" xlink:href="#DejaVuSans-51"/>
     </g>
    </g>
   </g>
  </g>
  <g id="axes_4">
   <g id="patch_19">
    <path d="M 82.153125 1684.575458 
L 863.353125 1684.575458 
L 863.353125 1339.797445 
L 82.153125 1339.797445 
z
" style="fill:none;"/>
   </g>
   <g id="matplotlib.axis_7">
    <g id="xtick_22">
     <g id="line2d_65">
      <path clip-path="url(#pd2d5f48029)" d="M 117.662216 1684.575458 
L 117.662216 1339.797445 
" style="fill:none;stroke:#cccccc;stroke-linecap:round;stroke-width:0.8;"/>
     </g>
     <g id="text_38">
      <!-- 0 -->
      <g style="fill:#262626;" transform="translate(109.709091 1710.571551)scale(0.25 -0.25)">
       <use xlink:href="#DejaVuSans-48"/>
      </g>
     </g>
    </g>
    <g id="xtick_23">
     <g id="line2d_66">
      <path clip-path="url(#pd2d5f48029)" d="M 236.025852 1684.575458 
L 236.025852 1339.797445 
" style="fill:none;stroke:#cccccc;stroke-linecap:round;stroke-width:0.8;"/>
     </g>
     <g id="text_39">
      <!-- 2 -->
      <g style="fill:#262626;" transform="translate(228.072727 1710.571551)scale(0.25 -0.25)">
       <use xlink:href="#DejaVuSans-50"/>
      </g>
     </g>
    </g>
    <g id="xtick_24">
     <g id="line2d_67">
      <path clip-path="url(#pd2d5f48029)" d="M 354.389489 1684.575458 
L 354.389489 1339.797445 
" style="fill:none;stroke:#cccccc;stroke-linecap:round;stroke-width:0.8;"/>
     </g>
     <g id="text_40">
      <!-- 4 -->
      <g style="fill:#262626;" transform="translate(346.436364 1710.571551)scale(0.25 -0.25)">
       <use xlink:href="#DejaVuSans-52"/>
      </g>
     </g>
    </g>
    <g id="xtick_25">
     <g id="line2d_68">
      <path clip-path="url(#pd2d5f48029)" d="M 472.753125 1684.575458 
L 472.753125 1339.797445 
" style="fill:none;stroke:#cccccc;stroke-linecap:round;stroke-width:0.8;"/>
     </g>
     <g id="text_41">
      <!-- 6 -->
      <g style="fill:#262626;" transform="translate(464.8 1710.571551)scale(0.25 -0.25)">
       <use xlink:href="#DejaVuSans-54"/>
      </g>
     </g>
    </g>
    <g id="xtick_26">
     <g id="line2d_69">
      <path clip-path="url(#pd2d5f48029)" d="M 591.116761 1684.575458 
L 591.116761 1339.797445 
" style="fill:none;stroke:#cccccc;stroke-linecap:round;stroke-width:0.8;"/>
     </g>
     <g id="text_42">
      <!-- 8 -->
      <g style="fill:#262626;" transform="translate(583.163636 1710.571551)scale(0.25 -0.25)">
       <use xlink:href="#DejaVuSans-56"/>
      </g>
     </g>
    </g>
    <g id="xtick_27">
     <g id="line2d_70">
      <path clip-path="url(#pd2d5f48029)" d="M 709.480398 1684.575458 
L 709.480398 1339.797445 
" style="fill:none;stroke:#cccccc;stroke-linecap:round;stroke-width:0.8;"/>
     </g>
     <g id="text_43">
      <!-- 10 -->
      <g style="fill:#262626;" transform="translate(693.574148 1710.571551)scale(0.25 -0.25)">
       <use xlink:href="#DejaVuSans-49"/>
       <use x="63.623047" xlink:href="#DejaVuSans-48"/>
      </g>
     </g>
    </g>
    <g id="xtick_28">
     <g id="line2d_71">
      <path clip-path="url(#pd2d5f48029)" d="M 827.844034 1684.575458 
L 827.844034 1339.797445 
" style="fill:none;stroke:#cccccc;stroke-linecap:round;stroke-width:0.8;"/>
     </g>
     <g id="text_44">
      <!-- 12 -->
      <g style="fill:#262626;" transform="translate(811.937784 1710.571551)scale(0.25 -0.25)">
       <use xlink:href="#DejaVuSans-49"/>
       <use x="63.623047" xlink:href="#DejaVuSans-50"/>
      </g>
     </g>
    </g>
    <g id="text_45">
     <!-- Time (h) -->
     <g style="fill:#262626;" transform="translate(420.520703 1738.766864)scale(0.25 -0.25)">
      <use xlink:href="#DejaVuSans-84"/>
      <use x="57.958984" xlink:href="#DejaVuSans-105"/>
      <use x="85.742188" xlink:href="#DejaVuSans-109"/>
      <use x="183.154297" xlink:href="#DejaVuSans-101"/>
      <use x="244.677734" xlink:href="#DejaVuSans-32"/>
      <use x="276.464844" xlink:href="#DejaVuSans-40"/>
      <use x="315.478516" xlink:href="#DejaVuSans-104"/>
      <use x="378.857422" xlink:href="#DejaVuSans-41"/>
     </g>
    </g>
   </g>
   <g id="matplotlib.axis_8">
    <g id="ytick_14">
     <g id="line2d_72">
      <path clip-path="url(#pd2d5f48029)" d="M 82.153125 1669.467642 
L 863.353125 1669.467642 
" style="fill:none;stroke:#cccccc;stroke-linecap:round;stroke-width:0.8;"/>
     </g>
     <g id="text_46">
      <!-- 0.0 -->
      <g style="fill:#262626;" transform="translate(35.395312 1678.965689)scale(0.25 -0.25)">
       <defs>
        <path d="M 10.6875 12.40625 
L 21 12.40625 
L 21 0 
L 10.6875 0 
z
" id="DejaVuSans-46"/>
       </defs>
       <use xlink:href="#DejaVuSans-48"/>
       <use x="63.623047" xlink:href="#DejaVuSans-46"/>
       <use x="95.410156" xlink:href="#DejaVuSans-48"/>
      </g>
     </g>
    </g>
    <g id="ytick_15">
     <g id="line2d_73">
      <path clip-path="url(#pd2d5f48029)" d="M 82.153125 1556.685089 
L 863.353125 1556.685089 
" style="fill:none;stroke:#cccccc;stroke-linecap:round;stroke-width:0.8;"/>
     </g>
     <g id="text_47">
      <!-- 0.2 -->
      <g style="fill:#262626;" transform="translate(35.395312 1566.183136)scale(0.25 -0.25)">
       <use xlink:href="#DejaVuSans-48"/>
       <use x="63.623047" xlink:href="#DejaVuSans-46"/>
       <use x="95.410156" xlink:href="#DejaVuSans-50"/>
      </g>
     </g>
    </g>
    <g id="ytick_16">
     <g id="line2d_74">
      <path clip-path="url(#pd2d5f48029)" d="M 82.153125 1443.902536 
L 863.353125 1443.902536 
" style="fill:none;stroke:#cccccc;stroke-linecap:round;stroke-width:0.8;"/>
     </g>
     <g id="text_48">
      <!-- 0.4 -->
      <g style="fill:#262626;" transform="translate(35.395312 1453.400583)scale(0.25 -0.25)">
       <use xlink:href="#DejaVuSans-48"/>
       <use x="63.623047" xlink:href="#DejaVuSans-46"/>
       <use x="95.410156" xlink:href="#DejaVuSans-52"/>
      </g>
     </g>
    </g>
    <g id="text_49">
     <!-- OD -->
     <g style="fill:#262626;" transform="translate(26.196094 1531.651295)rotate(-90)scale(0.25 -0.25)">
      <use xlink:href="#DejaVuSans-79"/>
      <use x="78.710938" xlink:href="#DejaVuSans-68"/>
     </g>
    </g>
   </g>
   <g id="line2d_75">
    <path clip-path="url(#pd2d5f48029)" d="M 117.662216 1668.90373 
L 153.171307 1668.475528 
L 180.332802 1667.939986 
L 201.638257 1667.325343 
L 221.046934 1666.553933 
L 237.303588 1665.6996 
L 252.768389 1664.658019 
L 265.611435 1663.580224 
L 278.116553 1662.303018 
L 288.90895 1660.984477 
L 299.347439 1659.484131 
L 308.25667 1658.000984 
L 317.036292 1656.330618 
L 325.73957 1654.443371 
L 334.426278 1652.300559 
L 341.6435 1650.300248 
L 348.845928 1648.083732 
L 355.9945 1645.64526 
L 363.130643 1642.951675 
L 370.29401 1639.964347 
L 376.00328 1637.363356 
L 381.732672 1634.543397 
L 387.4378 1631.512986 
L 393.138192 1628.251146 
L 398.834442 1624.744905 
L 405.127245 1620.568849 
L 410.826454 1616.500106 
L 416.52448 1612.147038 
L 422.255647 1607.470509 
L 428.373863 1602.135894 
L 433.232099 1597.642637 
L 439.070385 1591.934712 
L 444.915181 1585.879417 
L 450.805548 1579.430511 
L 456.74326 1572.579535 
L 462.49159 1565.618032 
L 468.345855 1558.205398 
L 475.502712 1548.721513 
L 482.728812 1538.712626 
L 490.024747 1528.214262 
L 498.87598 1515.039004 
L 509.34406 1499.017114 
L 536.970132 1456.4214 
L 544.412246 1445.392394 
L 551.960887 1434.606998 
L 557.728155 1426.703197 
L 563.50726 1419.120262 
L 569.356199 1411.825487 
L 575.278523 1404.8606 
L 579.769831 1399.877303 
L 584.304342 1395.117879 
L 588.773753 1390.700751 
L 593.065619 1386.72009 
L 597.396544 1382.963867 
L 601.767121 1379.439976 
L 606.177942 1376.154057 
L 610.629007 1373.111747 
L 615.120907 1370.316432 
L 619.65305 1367.769238 
L 624.226621 1365.471857 
L 628.72148 1363.471659 
L 633.016305 1361.79289 
L 637.345455 1360.322206 
L 641.709522 1359.055094 
L 646.108507 1357.988735 
L 650.543 1357.118054 
L 655.01182 1356.437411 
L 659.51674 1355.941732 
L 664.055985 1355.624813 
L 668.631331 1355.480451 
L 684.92882 1355.469173 
L 827.844034 1355.469173 
L 827.844034 1355.469173 
" style="fill:none;stroke:#1b9e77;stroke-linecap:round;stroke-width:3;"/>
   </g>
   <g id="line2d_76">
    <path clip-path="url(#pd2d5f48029)" d="M 117.662216 1668.90373 
L 153.171307 1668.475528 
L 180.158216 1667.944215 
L 202.884034 1667.282599 
L 222.4454 1666.4887 
L 239.064247 1665.593319 
L 254.417194 1664.531393 
L 267.027656 1663.447704 
L 279.615037 1662.132773 
L 290.403882 1660.78395 
L 300.941205 1659.23319 
L 309.846885 1657.714573 
L 318.686281 1655.991368 
L 327.378315 1654.060023 
L 336.022411 1651.876102 
L 343.201166 1649.84032 
L 350.41543 1647.5695 
L 357.594776 1645.06443 
L 364.740389 1642.305938 
L 371.878308 1639.262614 
L 377.587578 1636.605062 
L 383.286787 1633.740329 
L 388.99724 1630.644673 
L 394.7 1627.314938 
L 401.025945 1623.327285 
L 406.722195 1619.458336 
L 412.41371 1615.316509 
L 418.117062 1610.87767 
L 423.85829 1606.107532 
L 429.848674 1600.796602 
L 435.73549 1595.236986 
L 441.563715 1589.393158 
L 446.56813 1584.105348 
L 452.471516 1577.543659 
L 458.422248 1570.578772 
L 464.4221 1563.208996 
L 470.201797 1555.789032 
L 477.377 1546.165861 
L 484.620855 1536.025581 
L 491.935136 1525.407104 
L 500.810041 1512.108349 
L 512.761218 1493.723101 
L 534.433008 1460.253751 
L 543.333361 1446.96853 
L 550.866615 1436.141969 
L 556.667025 1428.13328 
L 562.43311 1420.502412 
L 568.269029 1413.151246 
L 573.506028 1406.899145 
L 577.980173 1401.831261 
L 582.497521 1396.981047 
L 587.058664 1392.363165 
L 591.33455 1388.294535 
L 595.716372 1384.389439 
L 600.071562 1380.774758 
L 604.466996 1377.396357 
L 608.902673 1374.25931 
L 613.378594 1371.368129 
L 617.89535 1368.72507 
L 622.452942 1366.330696 
L 626.95372 1364.22843 
L 631.233749 1362.462819 
L 635.548695 1360.90642 
L 639.898559 1359.555285 
L 644.28334 1358.40603 
L 648.702446 1357.455273 
L 653.157653 1356.696247 
L 657.647186 1356.125003 
L 662.172228 1355.734776 
L 666.732779 1355.519925 
L 672.869341 1355.469173 
L 827.844034 1355.469173 
L 827.844034 1355.469173 
" style="fill:none;stroke:#d95f02;stroke-linecap:round;stroke-width:3;"/>
   </g>
   <g id="line2d_77">
    <path clip-path="url(#pd2d5f48029)" d="M 117.662216 1668.90373 
L 153.161187 1668.475692 
L 180.148155 1667.944458 
L 202.873973 1667.282954 
L 221.989109 1666.510134 
L 239.368441 1665.574665 
L 254.312442 1664.539519 
L 267.031799 1663.44731 
L 279.597874 1662.134746 
L 290.347068 1660.791675 
L 300.899778 1659.239787 
L 309.814927 1657.720324 
L 318.644854 1656.000052 
L 327.345765 1654.067636 
L 335.997555 1651.882812 
L 343.185779 1649.844775 
L 350.394716 1647.576323 
L 357.544471 1645.08287 
L 364.699553 1642.322574 
L 371.845166 1639.277614 
L 377.55917 1636.618934 
L 383.266073 1633.751043 
L 388.979486 1630.654711 
L 394.684613 1627.324355 
L 400.382047 1623.747738 
L 406.078889 1619.908846 
L 411.782832 1615.789632 
L 417.486184 1611.3835 
L 423.277717 1606.603775 
L 429.569928 1601.05149 
L 435.482191 1595.482852 
L 441.310417 1589.654249 
L 447.171784 1583.449517 
L 453.080497 1576.847226 
L 459.036555 1569.84061 
L 465.04055 1562.429105 
L 470.825573 1554.970231 
L 478.006103 1545.300819 
L 485.256468 1535.117118 
L 492.577259 1524.459167 
L 501.459858 1511.11981 
L 513.482052 1492.604298 
L 533.702704 1461.361276 
L 542.591813 1448.05801 
L 550.107312 1437.212275 
L 557.331637 1427.236095 
L 563.106007 1419.635678 
L 568.196827 1413.239216 
L 574.104356 1406.206096 
L 579.230093 1400.46208 
L 583.75987 1395.675025 
L 588.33344 1391.123685 
L 592.621163 1387.120468 
L 596.947946 1383.340561 
L 601.31438 1379.792422 
L 605.721059 1376.48169 
L 610.16798 1373.414569 
L 614.655738 1370.593313 
L 619.183739 1368.020743 
L 623.752575 1365.696859 
L 628.243883 1363.672412 
L 632.534565 1361.970523 
L 636.859572 1360.476154 
L 641.28223 1359.170132 
L 645.678255 1358.084036 
L 650.108606 1357.194182 
L 654.574466 1356.495494 
L 659.075243 1355.982333 
L 663.61153 1355.647933 
L 668.183325 1355.487218 
L 680.160541 1355.469173 
L 827.844034 1355.469173 
L 827.844034 1355.469173 
" style="fill:none;stroke:#7570b3;stroke-linecap:round;stroke-width:3;"/>
   </g>
   <g id="line2d_78"/>
   <g id="line2d_79"/>
   <g id="line2d_80"/>
   <g id="patch_20">
    <path d="M 82.153125 1684.575458 
L 82.153125 1339.797445 
" style="fill:none;stroke:#cccccc;stroke-linecap:square;stroke-linejoin:miter;stroke-width:0.8;"/>
   </g>
   <g id="patch_21">
    <path d="M 863.353125 1684.575458 
L 863.353125 1339.797445 
" style="fill:none;stroke:#cccccc;stroke-linecap:square;stroke-linejoin:miter;stroke-width:0.8;"/>
   </g>
   <g id="patch_22">
    <path d="M 82.153125 1684.575458 
L 863.353125 1684.575458 
" style="fill:none;stroke:#cccccc;stroke-linecap:square;stroke-linejoin:miter;stroke-width:0.8;"/>
   </g>
   <g id="patch_23">
    <path d="M 82.153125 1339.797445 
L 863.353125 1339.797445 
" style="fill:none;stroke:#cccccc;stroke-linecap:square;stroke-linejoin:miter;stroke-width:0.8;"/>
   </g>
   <g id="text_50">
    <!-- V_a (setA_16) -->
    <g style="fill:#262626;" transform="translate(369.555469 1333.797445)scale(0.3 -0.3)">
     <use xlink:href="#DejaVuSans-86"/>
     <use x="68.408203" xlink:href="#DejaVuSans-95"/>
     <use x="118.408203" xlink:href="#DejaVuSans-97"/>
     <use x="179.6875" xlink:href="#DejaVuSans-32"/>
     <use x="211.474609" xlink:href="#DejaVuSans-40"/>
     <use x="250.488281" xlink:href="#DejaVuSans-115"/>
     <use x="302.587891" xlink:href="#DejaVuSans-101"/>
     <use x="364.111328" xlink:href="#DejaVuSans-116"/>
     <use x="403.320312" xlink:href="#DejaVuSans-65"/>
     <use x="471.728516" xlink:href="#DejaVuSans-95"/>
     <use x="521.728516" xlink:href="#DejaVuSans-49"/>
     <use x="585.351562" xlink:href="#DejaVuSans-54"/>
     <use x="648.974609" xlink:href="#DejaVuSans-41"/>
    </g>
   </g>
  </g>
 </g>
 <defs>
  <clipPath id="p68cc32637f">
   <rect height="344.778013" width="781.2" x="82.153125" y="53.775458"/>
  </clipPath>
  <clipPath id="pde324d2f6c">
   <rect height="344.778013" width="781.2" x="82.153125" y="450.270172"/>
  </clipPath>
  <clipPath id="pa118facd03">
   <rect height="344.778013" width="781.2" x="82.153125" y="943.30273"/>
  </clipPath>
  <clipPath id="pd2d5f48029">
   <rect height="344.778013" width="781.2" x="82.153125" y="1339.797445"/>
  </clipPath>
 </defs>
</svg>
