<?xml version="1.0" encoding="utf-8" standalone="no"?>
<!DOCTYPE svg PUBLIC "-//W3C//DTD SVG 1.1//EN"
  "http://www.w3.org/Graphics/SVG/1.1/DTD/svg11.dtd">
<!-- Created with matplotlib (https://matplotlib.org/) -->
<svg height="1751.166083pt" version="1.1" viewBox="0 0 1029.928125 1751.166083" width="1029.928125pt" xmlns="http://www.w3.org/2000/svg" xmlns:xlink="http://www.w3.org/1999/xlink">
 <metadata>
  <rdf:RDF xmlns:cc="http://creativecommons.org/ns#" xmlns:dc="http://purl.org/dc/elements/1.1/" xmlns:rdf="http://www.w3.org/1999/02/22-rdf-syntax-ns#">
   <cc:Work>
    <dc:type rdf:resource="http://purl.org/dc/dcmitype/StillImage"/>
    <dc:date>2021-05-03T15:59:27.824137</dc:date>
    <dc:format>image/svg+xml</dc:format>
    <dc:creator>
     <cc:Agent>
      <dc:title>Matplotlib v3.3.4, https://matplotlib.org/</dc:title>
     </cc:Agent>
    </dc:creator>
   </cc:Work>
  </rdf:RDF>
 </metadata>
 <defs>
  <style type="text/css">*{stroke-linecap:butt;stroke-linejoin:round;}</style>
 </defs>
 <g id="figure_1">
  <g id="patch_1">
   <path d="M 0 1751.166083 
L 1029.928125 1751.166083 
L 1029.928125 0 
L 0 0 
z
" style="fill:none;"/>
  </g>
  <g id="axes_1">
   <g id="patch_2">
    <path d="M 82.153125 398.55347 
L 863.353125 398.55347 
L 863.353125 53.775458 
L 82.153125 53.775458 
z
" style="fill:none;"/>
   </g>
   <g id="matplotlib.axis_1">
    <g id="xtick_1">
     <g id="line2d_1">
      <path clip-path="url(#p4fddcb4d45)" d="M 117.662216 398.55347 
L 117.662216 53.775458 
" style="fill:none;stroke:#cccccc;stroke-linecap:round;stroke-width:0.8;"/>
     </g>
    </g>
    <g id="xtick_2">
     <g id="line2d_2">
      <path clip-path="url(#p4fddcb4d45)" d="M 236.025852 398.55347 
L 236.025852 53.775458 
" style="fill:none;stroke:#cccccc;stroke-linecap:round;stroke-width:0.8;"/>
     </g>
    </g>
    <g id="xtick_3">
     <g id="line2d_3">
      <path clip-path="url(#p4fddcb4d45)" d="M 354.389489 398.55347 
L 354.389489 53.775458 
" style="fill:none;stroke:#cccccc;stroke-linecap:round;stroke-width:0.8;"/>
     </g>
    </g>
    <g id="xtick_4">
     <g id="line2d_4">
      <path clip-path="url(#p4fddcb4d45)" d="M 472.753125 398.55347 
L 472.753125 53.775458 
" style="fill:none;stroke:#cccccc;stroke-linecap:round;stroke-width:0.8;"/>
     </g>
    </g>
    <g id="xtick_5">
     <g id="line2d_5">
      <path clip-path="url(#p4fddcb4d45)" d="M 591.116761 398.55347 
L 591.116761 53.775458 
" style="fill:none;stroke:#cccccc;stroke-linecap:round;stroke-width:0.8;"/>
     </g>
    </g>
    <g id="xtick_6">
     <g id="line2d_6">
      <path clip-path="url(#p4fddcb4d45)" d="M 709.480398 398.55347 
L 709.480398 53.775458 
" style="fill:none;stroke:#cccccc;stroke-linecap:round;stroke-width:0.8;"/>
     </g>
    </g>
    <g id="xtick_7">
     <g id="line2d_7">
      <path clip-path="url(#p4fddcb4d45)" d="M 827.844034 398.55347 
L 827.844034 53.775458 
" style="fill:none;stroke:#cccccc;stroke-linecap:round;stroke-width:0.8;"/>
     </g>
    </g>
   </g>
   <g id="matplotlib.axis_2">
    <g id="ytick_1">
     <g id="line2d_8">
      <path clip-path="url(#p4fddcb4d45)" d="M 82.153125 382.885656 
L 863.353125 382.885656 
" style="fill:none;stroke:#cccccc;stroke-linecap:round;stroke-width:0.8;"/>
     </g>
     <g id="text_1">
      <!-- 0 -->
      <g style="fill:#262626;" transform="translate(59.246875 392.383703)scale(0.25 -0.25)">
       <defs>
        <path d="M 31.78125 66.40625 
Q 24.171875 66.40625 20.328125 58.90625 
Q 16.5 51.421875 16.5 36.375 
Q 16.5 21.390625 20.328125 13.890625 
Q 24.171875 6.390625 31.78125 6.390625 
Q 39.453125 6.390625 43.28125 13.890625 
Q 47.125 21.390625 47.125 36.375 
Q 47.125 51.421875 43.28125 58.90625 
Q 39.453125 66.40625 31.78125 66.40625 
z
M 31.78125 74.21875 
Q 44.046875 74.21875 50.515625 64.515625 
Q 56.984375 54.828125 56.984375 36.375 
Q 56.984375 17.96875 50.515625 8.265625 
Q 44.046875 -1.421875 31.78125 -1.421875 
Q 19.53125 -1.421875 13.0625 8.265625 
Q 6.59375 17.96875 6.59375 36.375 
Q 6.59375 54.828125 13.0625 64.515625 
Q 19.53125 74.21875 31.78125 74.21875 
z
" id="DejaVuSans-48"/>
       </defs>
       <use xlink:href="#DejaVuSans-48"/>
      </g>
     </g>
    </g>
    <g id="ytick_2">
     <g id="line2d_9">
      <path clip-path="url(#p4fddcb4d45)" d="M 82.153125 304.610087 
L 863.353125 304.610087 
" style="fill:none;stroke:#cccccc;stroke-linecap:round;stroke-width:0.8;"/>
     </g>
     <g id="text_2">
      <!-- 20 -->
      <g style="fill:#262626;" transform="translate(43.340625 314.108134)scale(0.25 -0.25)">
       <defs>
        <path d="M 19.1875 8.296875 
L 53.609375 8.296875 
L 53.609375 0 
L 7.328125 0 
L 7.328125 8.296875 
Q 12.9375 14.109375 22.625 23.890625 
Q 32.328125 33.6875 34.8125 36.53125 
Q 39.546875 41.84375 41.421875 45.53125 
Q 43.3125 49.21875 43.3125 52.78125 
Q 43.3125 58.59375 39.234375 62.25 
Q 35.15625 65.921875 28.609375 65.921875 
Q 23.96875 65.921875 18.8125 64.3125 
Q 13.671875 62.703125 7.8125 59.421875 
L 7.8125 69.390625 
Q 13.765625 71.78125 18.9375 73 
Q 24.125 74.21875 28.421875 74.21875 
Q 39.75 74.21875 46.484375 68.546875 
Q 53.21875 62.890625 53.21875 53.421875 
Q 53.21875 48.921875 51.53125 44.890625 
Q 49.859375 40.875 45.40625 35.40625 
Q 44.1875 33.984375 37.640625 27.21875 
Q 31.109375 20.453125 19.1875 8.296875 
z
" id="DejaVuSans-50"/>
       </defs>
       <use xlink:href="#DejaVuSans-50"/>
       <use x="63.623047" xlink:href="#DejaVuSans-48"/>
      </g>
     </g>
    </g>
    <g id="ytick_3">
     <g id="line2d_10">
      <path clip-path="url(#p4fddcb4d45)" d="M 82.153125 226.334518 
L 863.353125 226.334518 
" style="fill:none;stroke:#cccccc;stroke-linecap:round;stroke-width:0.8;"/>
     </g>
     <g id="text_3">
      <!-- 40 -->
      <g style="fill:#262626;" transform="translate(43.340625 235.832564)scale(0.25 -0.25)">
       <defs>
        <path d="M 37.796875 64.3125 
L 12.890625 25.390625 
L 37.796875 25.390625 
z
M 35.203125 72.90625 
L 47.609375 72.90625 
L 47.609375 25.390625 
L 58.015625 25.390625 
L 58.015625 17.1875 
L 47.609375 17.1875 
L 47.609375 0 
L 37.796875 0 
L 37.796875 17.1875 
L 4.890625 17.1875 
L 4.890625 26.703125 
z
" id="DejaVuSans-52"/>
       </defs>
       <use xlink:href="#DejaVuSans-52"/>
       <use x="63.623047" xlink:href="#DejaVuSans-48"/>
      </g>
     </g>
    </g>
    <g id="ytick_4">
     <g id="line2d_11">
      <path clip-path="url(#p4fddcb4d45)" d="M 82.153125 148.058948 
L 863.353125 148.058948 
" style="fill:none;stroke:#cccccc;stroke-linecap:round;stroke-width:0.8;"/>
     </g>
     <g id="text_4">
      <!-- 60 -->
      <g style="fill:#262626;" transform="translate(43.340625 157.556995)scale(0.25 -0.25)">
       <defs>
        <path d="M 33.015625 40.375 
Q 26.375 40.375 22.484375 35.828125 
Q 18.609375 31.296875 18.609375 23.390625 
Q 18.609375 15.53125 22.484375 10.953125 
Q 26.375 6.390625 33.015625 6.390625 
Q 39.65625 6.390625 43.53125 10.953125 
Q 47.40625 15.53125 47.40625 23.390625 
Q 47.40625 31.296875 43.53125 35.828125 
Q 39.65625 40.375 33.015625 40.375 
z
M 52.59375 71.296875 
L 52.59375 62.3125 
Q 48.875 64.0625 45.09375 64.984375 
Q 41.3125 65.921875 37.59375 65.921875 
Q 27.828125 65.921875 22.671875 59.328125 
Q 17.53125 52.734375 16.796875 39.40625 
Q 19.671875 43.65625 24.015625 45.921875 
Q 28.375 48.1875 33.59375 48.1875 
Q 44.578125 48.1875 50.953125 41.515625 
Q 57.328125 34.859375 57.328125 23.390625 
Q 57.328125 12.15625 50.6875 5.359375 
Q 44.046875 -1.421875 33.015625 -1.421875 
Q 20.359375 -1.421875 13.671875 8.265625 
Q 6.984375 17.96875 6.984375 36.375 
Q 6.984375 53.65625 15.1875 63.9375 
Q 23.390625 74.21875 37.203125 74.21875 
Q 40.921875 74.21875 44.703125 73.484375 
Q 48.484375 72.75 52.59375 71.296875 
z
" id="DejaVuSans-54"/>
       </defs>
       <use xlink:href="#DejaVuSans-54"/>
       <use x="63.623047" xlink:href="#DejaVuSans-48"/>
      </g>
     </g>
    </g>
    <g id="ytick_5">
     <g id="line2d_12">
      <path clip-path="url(#p4fddcb4d45)" d="M 82.153125 69.783379 
L 863.353125 69.783379 
" style="fill:none;stroke:#cccccc;stroke-linecap:round;stroke-width:0.8;"/>
     </g>
     <g id="text_5">
      <!-- 80 -->
      <g style="fill:#262626;" transform="translate(43.340625 79.281426)scale(0.25 -0.25)">
       <defs>
        <path d="M 31.78125 34.625 
Q 24.75 34.625 20.71875 30.859375 
Q 16.703125 27.09375 16.703125 20.515625 
Q 16.703125 13.921875 20.71875 10.15625 
Q 24.75 6.390625 31.78125 6.390625 
Q 38.8125 6.390625 42.859375 10.171875 
Q 46.921875 13.96875 46.921875 20.515625 
Q 46.921875 27.09375 42.890625 30.859375 
Q 38.875 34.625 31.78125 34.625 
z
M 21.921875 38.8125 
Q 15.578125 40.375 12.03125 44.71875 
Q 8.5 49.078125 8.5 55.328125 
Q 8.5 64.0625 14.71875 69.140625 
Q 20.953125 74.21875 31.78125 74.21875 
Q 42.671875 74.21875 48.875 69.140625 
Q 55.078125 64.0625 55.078125 55.328125 
Q 55.078125 49.078125 51.53125 44.71875 
Q 48 40.375 41.703125 38.8125 
Q 48.828125 37.15625 52.796875 32.3125 
Q 56.78125 27.484375 56.78125 20.515625 
Q 56.78125 9.90625 50.3125 4.234375 
Q 43.84375 -1.421875 31.78125 -1.421875 
Q 19.734375 -1.421875 13.25 4.234375 
Q 6.78125 9.90625 6.78125 20.515625 
Q 6.78125 27.484375 10.78125 32.3125 
Q 14.796875 37.15625 21.921875 38.8125 
z
M 18.3125 54.390625 
Q 18.3125 48.734375 21.84375 45.5625 
Q 25.390625 42.390625 31.78125 42.390625 
Q 38.140625 42.390625 41.71875 45.5625 
Q 45.3125 48.734375 45.3125 54.390625 
Q 45.3125 60.0625 41.71875 63.234375 
Q 38.140625 66.40625 31.78125 66.40625 
Q 25.390625 66.40625 21.84375 63.234375 
Q 18.3125 60.0625 18.3125 54.390625 
z
" id="DejaVuSans-56"/>
       </defs>
       <use xlink:href="#DejaVuSans-56"/>
       <use x="63.623047" xlink:href="#DejaVuSans-48"/>
      </g>
     </g>
    </g>
    <g id="text_6">
     <!-- OD -->
     <g style="fill:#262626;" transform="translate(34.141406 245.629308)rotate(-90)scale(0.25 -0.25)">
      <defs>
       <path d="M 39.40625 66.21875 
Q 28.65625 66.21875 22.328125 58.203125 
Q 16.015625 50.203125 16.015625 36.375 
Q 16.015625 22.609375 22.328125 14.59375 
Q 28.65625 6.59375 39.40625 6.59375 
Q 50.140625 6.59375 56.421875 14.59375 
Q 62.703125 22.609375 62.703125 36.375 
Q 62.703125 50.203125 56.421875 58.203125 
Q 50.140625 66.21875 39.40625 66.21875 
z
M 39.40625 74.21875 
Q 54.734375 74.21875 63.90625 63.9375 
Q 73.09375 53.65625 73.09375 36.375 
Q 73.09375 19.140625 63.90625 8.859375 
Q 54.734375 -1.421875 39.40625 -1.421875 
Q 24.03125 -1.421875 14.8125 8.828125 
Q 5.609375 19.09375 5.609375 36.375 
Q 5.609375 53.65625 14.8125 63.9375 
Q 24.03125 74.21875 39.40625 74.21875 
z
" id="DejaVuSans-79"/>
       <path d="M 19.671875 64.796875 
L 19.671875 8.109375 
L 31.59375 8.109375 
Q 46.6875 8.109375 53.6875 14.9375 
Q 60.6875 21.78125 60.6875 36.53125 
Q 60.6875 51.171875 53.6875 57.984375 
Q 46.6875 64.796875 31.59375 64.796875 
z
M 9.8125 72.90625 
L 30.078125 72.90625 
Q 51.265625 72.90625 61.171875 64.09375 
Q 71.09375 55.28125 71.09375 36.53125 
Q 71.09375 17.671875 61.125 8.828125 
Q 51.171875 0 30.078125 0 
L 9.8125 0 
z
" id="DejaVuSans-68"/>
      </defs>
      <use xlink:href="#DejaVuSans-79"/>
      <use x="78.710938" xlink:href="#DejaVuSans-68"/>
     </g>
    </g>
   </g>
   <g id="line2d_13">
    <path clip-path="url(#p4fddcb4d45)" d="M 117.662216 382.881742 
L 151.985658 382.760382 
L 162.327267 382.529719 
L 169.546916 382.147838 
L 173.853281 381.746042 
L 178.131239 381.13062 
L 180.97966 380.546058 
L 183.826897 379.767463 
L 186.672359 378.730867 
L 189.515453 377.351534 
L 190.936409 376.4997 
L 192.357956 375.516285 
L 193.780095 374.381407 
L 195.20105 373.073814 
L 196.622006 371.565561 
L 198.042961 369.827139 
L 199.463325 367.823519 
L 200.884872 365.514076 
L 202.305236 362.854821 
L 203.7256 359.792563 
L 205.146555 356.267736 
L 206.566919 352.213374 
L 207.987874 347.553434 
L 209.408238 342.201929 
L 210.828601 336.064342 
L 212.248965 329.035195 
L 213.669329 321.000991 
L 215.089692 311.840793 
L 216.510648 301.426228 
L 217.931011 289.613271 
L 219.351375 276.229714 
L 220.771739 261.068519 
L 222.192694 243.927343 
L 223.613058 224.619891 
L 225.033421 202.999396 
L 226.453785 179.011065 
L 229.295104 125.009924 
L 230.715468 97.600559 
L 232.135831 76.459502 
L 233.55797 69.663617 
L 234.98366 69.447185 
L 827.844034 69.447185 
L 827.844034 69.447185 
" style="fill:none;stroke:#1b9e77;stroke-linecap:round;stroke-width:3;"/>
   </g>
   <g id="line2d_14">
    <path clip-path="url(#p4fddcb4d45)" d="M 117.662216 382.881742 
L 151.985658 382.760382 
L 162.216952 382.533661 
L 169.391386 382.159329 
L 173.689643 381.764707 
L 177.96553 381.159684 
L 180.812175 380.58529 
L 183.664147 379.818228 
L 186.510792 378.79791 
L 189.356846 377.439399 
L 190.778985 376.600245 
L 192.19994 375.632642 
L 193.620896 374.516706 
L 195.041851 373.229464 
L 196.463399 371.744733 
L 197.884946 370.032886 
L 199.30531 368.060694 
L 200.726265 365.78761 
L 202.14722 363.169919 
L 203.567584 360.154783 
L 204.98854 356.684905 
L 206.408903 352.692695 
L 207.829859 348.10379 
L 209.250814 342.833221 
L 210.671178 336.787999 
L 212.091541 329.86296 
L 213.511905 321.944994 
L 214.93286 312.913951 
L 216.353224 302.643022 
L 217.77418 290.991703 
L 219.194543 277.791311 
L 220.614907 262.837547 
L 222.035862 245.922587 
L 223.456226 226.862095 
L 224.87659 205.504214 
L 226.296953 181.776932 
L 229.13768 128.120987 
L 230.558044 100.488537 
L 231.978408 78.161213 
L 233.399363 69.853436 
L 234.822094 69.447185 
L 827.844034 69.447185 
L 827.844034 69.447185 
" style="fill:none;stroke:#d95f02;stroke-linecap:round;stroke-width:3;"/>
   </g>
   <g id="line2d_15">
    <path clip-path="url(#p4fddcb4d45)" d="M 117.662216 382.881742 
L 151.985658 382.760382 
L 162.216952 382.533661 
L 169.397127 382.158911 
L 173.693253 381.7643 
L 177.967897 381.159288 
L 180.81395 380.584902 
L 183.66533 379.817849 
L 186.509609 378.798458 
L 189.355662 377.439907 
L 192.199349 375.633151 
L 193.620304 374.517215 
L 195.04126 373.229973 
L 196.462807 371.745242 
L 197.884354 370.033395 
L 199.30531 368.061203 
L 200.726265 365.788119 
L 202.146629 363.170428 
L 203.567584 360.155253 
L 204.987948 356.685414 
L 206.408903 352.693204 
L 207.829859 348.104298 
L 209.250222 342.833613 
L 210.670586 336.788391 
L 212.091541 329.863742 
L 213.511905 321.945777 
L 214.93286 312.914342 
L 216.353224 302.643805 
L 217.77418 290.992877 
L 219.194543 277.792485 
L 220.614907 262.838721 
L 222.03527 245.924153 
L 223.456226 226.862878 
L 224.87659 205.504997 
L 226.296953 181.774976 
L 229.13768 128.118638 
L 230.558044 100.48658 
L 231.979 78.158865 
L 233.401139 69.851479 
L 234.826237 69.447185 
L 827.844034 69.447185 
L 827.844034 69.447185 
" style="fill:none;stroke:#7570b3;stroke-linecap:round;stroke-width:3;"/>
   </g>
   <g id="line2d_16"/>
   <g id="line2d_17"/>
   <g id="line2d_18"/>
   <g id="patch_3">
    <path d="M 82.153125 398.55347 
L 82.153125 53.775458 
" style="fill:none;stroke:#cccccc;stroke-linecap:square;stroke-linejoin:miter;stroke-width:0.8;"/>
   </g>
   <g id="patch_4">
    <path d="M 863.353125 398.55347 
L 863.353125 53.775458 
" style="fill:none;stroke:#cccccc;stroke-linecap:square;stroke-linejoin:miter;stroke-width:0.8;"/>
   </g>
   <g id="patch_5">
    <path d="M 82.153125 398.55347 
L 863.353125 398.55347 
" style="fill:none;stroke:#cccccc;stroke-linecap:square;stroke-linejoin:miter;stroke-width:0.8;"/>
   </g>
   <g id="patch_6">
    <path d="M 82.153125 53.775458 
L 863.353125 53.775458 
" style="fill:none;stroke:#cccccc;stroke-linecap:square;stroke-linejoin:miter;stroke-width:0.8;"/>
   </g>
   <g id="text_7">
    <!-- EU_avg -->
    <g style="fill:#262626;" transform="translate(31.682422 25.500781)scale(0.25 -0.25)">
     <defs>
      <path d="M 9.1875 72.90625 
L 59.90625 72.90625 
L 59.90625 58.6875 
L 27.984375 58.6875 
L 27.984375 45.125 
L 58.015625 45.125 
L 58.015625 30.90625 
L 27.984375 30.90625 
L 27.984375 14.203125 
L 60.984375 14.203125 
L 60.984375 0 
L 9.1875 0 
z
" id="DejaVuSans-Bold-69"/>
      <path d="M 9.1875 72.90625 
L 27.984375 72.90625 
L 27.984375 29.203125 
Q 27.984375 20.171875 30.9375 16.28125 
Q 33.890625 12.40625 40.578125 12.40625 
Q 47.3125 12.40625 50.265625 16.28125 
Q 53.21875 20.171875 53.21875 29.203125 
L 53.21875 72.90625 
L 72.015625 72.90625 
L 72.015625 29.203125 
Q 72.015625 13.71875 64.25 6.140625 
Q 56.5 -1.421875 40.578125 -1.421875 
Q 24.703125 -1.421875 16.9375 6.140625 
Q 9.1875 13.71875 9.1875 29.203125 
z
" id="DejaVuSans-Bold-85"/>
      <path d="M 50 -14.3125 
L 50 -23.578125 
L 0 -23.578125 
L 0 -14.3125 
z
" id="DejaVuSans-Bold-95"/>
      <path d="M 32.90625 24.609375 
Q 27.4375 24.609375 24.671875 22.75 
Q 21.921875 20.90625 21.921875 17.28125 
Q 21.921875 13.96875 24.140625 12.078125 
Q 26.375 10.203125 30.328125 10.203125 
Q 35.25 10.203125 38.625 13.734375 
Q 42 17.28125 42 22.609375 
L 42 24.609375 
z
M 59.625 31.203125 
L 59.625 0 
L 42 0 
L 42 8.109375 
Q 38.484375 3.125 34.078125 0.84375 
Q 29.6875 -1.421875 23.390625 -1.421875 
Q 14.890625 -1.421875 9.59375 3.53125 
Q 4.296875 8.5 4.296875 16.40625 
Q 4.296875 26.03125 10.90625 30.515625 
Q 17.53125 35.015625 31.6875 35.015625 
L 42 35.015625 
L 42 36.375 
Q 42 40.53125 38.71875 42.453125 
Q 35.453125 44.390625 28.515625 44.390625 
Q 22.90625 44.390625 18.0625 43.265625 
Q 13.234375 42.140625 9.078125 39.890625 
L 9.078125 53.21875 
Q 14.703125 54.59375 20.359375 55.296875 
Q 26.03125 56 31.6875 56 
Q 46.484375 56 53.046875 50.171875 
Q 59.625 44.34375 59.625 31.203125 
z
" id="DejaVuSans-Bold-97"/>
      <path d="M 1.515625 54.6875 
L 19 54.6875 
L 32.625 16.890625 
L 46.1875 54.6875 
L 63.71875 54.6875 
L 42.1875 0 
L 23 0 
z
" id="DejaVuSans-Bold-118"/>
      <path d="M 45.609375 9.28125 
Q 42 4.5 37.640625 2.25 
Q 33.296875 0 27.59375 0 
Q 17.578125 0 11.03125 7.875 
Q 4.5 15.765625 4.5 27.984375 
Q 4.5 40.234375 11.03125 48.0625 
Q 17.578125 55.90625 27.59375 55.90625 
Q 33.296875 55.90625 37.640625 53.65625 
Q 42 51.421875 45.609375 46.578125 
L 45.609375 54.6875 
L 63.1875 54.6875 
L 63.1875 5.515625 
Q 63.1875 -7.671875 54.859375 -14.625 
Q 46.53125 -21.578125 30.71875 -21.578125 
Q 25.59375 -21.578125 20.796875 -20.796875 
Q 16.015625 -20.015625 11.1875 -18.40625 
L 11.1875 -4.78125 
Q 15.765625 -7.421875 20.15625 -8.71875 
Q 24.5625 -10.015625 29 -10.015625 
Q 37.59375 -10.015625 41.59375 -6.25 
Q 45.609375 -2.484375 45.609375 5.515625 
z
M 34.078125 43.3125 
Q 28.65625 43.3125 25.625 39.296875 
Q 22.609375 35.296875 22.609375 27.984375 
Q 22.609375 20.453125 25.53125 16.578125 
Q 28.46875 12.703125 34.078125 12.703125 
Q 39.546875 12.703125 42.578125 16.703125 
Q 45.609375 20.703125 45.609375 27.984375 
Q 45.609375 35.296875 42.578125 39.296875 
Q 39.546875 43.3125 34.078125 43.3125 
z
" id="DejaVuSans-Bold-103"/>
     </defs>
     <use xlink:href="#DejaVuSans-Bold-69"/>
     <use x="68.310547" xlink:href="#DejaVuSans-Bold-85"/>
     <use x="149.511719" xlink:href="#DejaVuSans-Bold-95"/>
     <use x="199.511719" xlink:href="#DejaVuSans-Bold-97"/>
     <use x="266.992188" xlink:href="#DejaVuSans-Bold-118"/>
     <use x="332.177734" xlink:href="#DejaVuSans-Bold-103"/>
    </g>
   </g>
   <g id="text_8">
    <!-- I_b (setA_21) -->
    <g style="fill:#262626;" transform="translate(375.060938 47.775458)scale(0.3 -0.3)">
     <defs>
      <path d="M 9.8125 72.90625 
L 19.671875 72.90625 
L 19.671875 0 
L 9.8125 0 
z
" id="DejaVuSans-73"/>
      <path d="M 50.984375 -16.609375 
L 50.984375 -23.578125 
L -0.984375 -23.578125 
L -0.984375 -16.609375 
z
" id="DejaVuSans-95"/>
      <path d="M 48.6875 27.296875 
Q 48.6875 37.203125 44.609375 42.84375 
Q 40.53125 48.484375 33.40625 48.484375 
Q 26.265625 48.484375 22.1875 42.84375 
Q 18.109375 37.203125 18.109375 27.296875 
Q 18.109375 17.390625 22.1875 11.75 
Q 26.265625 6.109375 33.40625 6.109375 
Q 40.53125 6.109375 44.609375 11.75 
Q 48.6875 17.390625 48.6875 27.296875 
z
M 18.109375 46.390625 
Q 20.953125 51.265625 25.265625 53.625 
Q 29.59375 56 35.59375 56 
Q 45.5625 56 51.78125 48.09375 
Q 58.015625 40.1875 58.015625 27.296875 
Q 58.015625 14.40625 51.78125 6.484375 
Q 45.5625 -1.421875 35.59375 -1.421875 
Q 29.59375 -1.421875 25.265625 0.953125 
Q 20.953125 3.328125 18.109375 8.203125 
L 18.109375 0 
L 9.078125 0 
L 9.078125 75.984375 
L 18.109375 75.984375 
z
" id="DejaVuSans-98"/>
      <path id="DejaVuSans-32"/>
      <path d="M 31 75.875 
Q 24.46875 64.65625 21.28125 53.65625 
Q 18.109375 42.671875 18.109375 31.390625 
Q 18.109375 20.125 21.3125 9.0625 
Q 24.515625 -2 31 -13.1875 
L 23.1875 -13.1875 
Q 15.875 -1.703125 12.234375 9.375 
Q 8.59375 20.453125 8.59375 31.390625 
Q 8.59375 42.28125 12.203125 53.3125 
Q 15.828125 64.359375 23.1875 75.875 
z
" id="DejaVuSans-40"/>
      <path d="M 44.28125 53.078125 
L 44.28125 44.578125 
Q 40.484375 46.53125 36.375 47.5 
Q 32.28125 48.484375 27.875 48.484375 
Q 21.1875 48.484375 17.84375 46.4375 
Q 14.5 44.390625 14.5 40.28125 
Q 14.5 37.15625 16.890625 35.375 
Q 19.28125 33.59375 26.515625 31.984375 
L 29.59375 31.296875 
Q 39.15625 29.25 43.1875 25.515625 
Q 47.21875 21.78125 47.21875 15.09375 
Q 47.21875 7.46875 41.1875 3.015625 
Q 35.15625 -1.421875 24.609375 -1.421875 
Q 20.21875 -1.421875 15.453125 -0.5625 
Q 10.6875 0.296875 5.421875 2 
L 5.421875 11.28125 
Q 10.40625 8.6875 15.234375 7.390625 
Q 20.0625 6.109375 24.8125 6.109375 
Q 31.15625 6.109375 34.5625 8.28125 
Q 37.984375 10.453125 37.984375 14.40625 
Q 37.984375 18.0625 35.515625 20.015625 
Q 33.0625 21.96875 24.703125 23.78125 
L 21.578125 24.515625 
Q 13.234375 26.265625 9.515625 29.90625 
Q 5.8125 33.546875 5.8125 39.890625 
Q 5.8125 47.609375 11.28125 51.796875 
Q 16.75 56 26.8125 56 
Q 31.78125 56 36.171875 55.265625 
Q 40.578125 54.546875 44.28125 53.078125 
z
" id="DejaVuSans-115"/>
      <path d="M 56.203125 29.59375 
L 56.203125 25.203125 
L 14.890625 25.203125 
Q 15.484375 15.921875 20.484375 11.0625 
Q 25.484375 6.203125 34.421875 6.203125 
Q 39.59375 6.203125 44.453125 7.46875 
Q 49.3125 8.734375 54.109375 11.28125 
L 54.109375 2.78125 
Q 49.265625 0.734375 44.1875 -0.34375 
Q 39.109375 -1.421875 33.890625 -1.421875 
Q 20.796875 -1.421875 13.15625 6.1875 
Q 5.515625 13.8125 5.515625 26.8125 
Q 5.515625 40.234375 12.765625 48.109375 
Q 20.015625 56 32.328125 56 
Q 43.359375 56 49.78125 48.890625 
Q 56.203125 41.796875 56.203125 29.59375 
z
M 47.21875 32.234375 
Q 47.125 39.59375 43.09375 43.984375 
Q 39.0625 48.390625 32.421875 48.390625 
Q 24.90625 48.390625 20.390625 44.140625 
Q 15.875 39.890625 15.1875 32.171875 
z
" id="DejaVuSans-101"/>
      <path d="M 18.3125 70.21875 
L 18.3125 54.6875 
L 36.8125 54.6875 
L 36.8125 47.703125 
L 18.3125 47.703125 
L 18.3125 18.015625 
Q 18.3125 11.328125 20.140625 9.421875 
Q 21.96875 7.515625 27.59375 7.515625 
L 36.8125 7.515625 
L 36.8125 0 
L 27.59375 0 
Q 17.1875 0 13.234375 3.875 
Q 9.28125 7.765625 9.28125 18.015625 
L 9.28125 47.703125 
L 2.6875 47.703125 
L 2.6875 54.6875 
L 9.28125 54.6875 
L 9.28125 70.21875 
z
" id="DejaVuSans-116"/>
      <path d="M 34.1875 63.1875 
L 20.796875 26.90625 
L 47.609375 26.90625 
z
M 28.609375 72.90625 
L 39.796875 72.90625 
L 67.578125 0 
L 57.328125 0 
L 50.6875 18.703125 
L 17.828125 18.703125 
L 11.1875 0 
L 0.78125 0 
z
" id="DejaVuSans-65"/>
      <path d="M 12.40625 8.296875 
L 28.515625 8.296875 
L 28.515625 63.921875 
L 10.984375 60.40625 
L 10.984375 69.390625 
L 28.421875 72.90625 
L 38.28125 72.90625 
L 38.28125 8.296875 
L 54.390625 8.296875 
L 54.390625 0 
L 12.40625 0 
z
" id="DejaVuSans-49"/>
      <path d="M 8.015625 75.875 
L 15.828125 75.875 
Q 23.140625 64.359375 26.78125 53.3125 
Q 30.421875 42.28125 30.421875 31.390625 
Q 30.421875 20.453125 26.78125 9.375 
Q 23.140625 -1.703125 15.828125 -13.1875 
L 8.015625 -13.1875 
Q 14.5 -2 17.703125 9.0625 
Q 20.90625 20.125 20.90625 31.390625 
Q 20.90625 42.671875 17.703125 53.65625 
Q 14.5 64.65625 8.015625 75.875 
z
" id="DejaVuSans-41"/>
     </defs>
     <use xlink:href="#DejaVuSans-73"/>
     <use x="29.492188" xlink:href="#DejaVuSans-95"/>
     <use x="79.492188" xlink:href="#DejaVuSans-98"/>
     <use x="142.96875" xlink:href="#DejaVuSans-32"/>
     <use x="174.755859" xlink:href="#DejaVuSans-40"/>
     <use x="213.769531" xlink:href="#DejaVuSans-115"/>
     <use x="265.869141" xlink:href="#DejaVuSans-101"/>
     <use x="327.392578" xlink:href="#DejaVuSans-116"/>
     <use x="366.601562" xlink:href="#DejaVuSans-65"/>
     <use x="435.009766" xlink:href="#DejaVuSans-95"/>
     <use x="485.009766" xlink:href="#DejaVuSans-50"/>
     <use x="548.632812" xlink:href="#DejaVuSans-49"/>
     <use x="612.255859" xlink:href="#DejaVuSans-41"/>
    </g>
   </g>
   <g id="legend_1">
    <g id="patch_7">
     <path d="M 880.853125 220.556708 
L 1017.728125 220.556708 
Q 1022.728125 220.556708 1022.728125 215.556708 
L 1022.728125 71.275458 
Q 1022.728125 66.275458 1017.728125 66.275458 
L 880.853125 66.275458 
Q 875.853125 66.275458 875.853125 71.275458 
L 875.853125 215.556708 
Q 875.853125 220.556708 880.853125 220.556708 
z
" style="fill:#ffffff;opacity:0.8;stroke:#cccccc;stroke-linejoin:miter;"/>
    </g>
    <g id="text_9">
     <!-- Replicate -->
     <g style="fill:#262626;" transform="translate(891.470313 95.271551)scale(0.25 -0.25)">
      <defs>
       <path d="M 44.390625 34.1875 
Q 47.5625 33.109375 50.5625 29.59375 
Q 53.5625 26.078125 56.59375 19.921875 
L 66.609375 0 
L 56 0 
L 46.6875 18.703125 
Q 43.0625 26.03125 39.671875 28.421875 
Q 36.28125 30.8125 30.421875 30.8125 
L 19.671875 30.8125 
L 19.671875 0 
L 9.8125 0 
L 9.8125 72.90625 
L 32.078125 72.90625 
Q 44.578125 72.90625 50.734375 67.671875 
Q 56.890625 62.453125 56.890625 51.90625 
Q 56.890625 45.015625 53.6875 40.46875 
Q 50.484375 35.9375 44.390625 34.1875 
z
M 19.671875 64.796875 
L 19.671875 38.921875 
L 32.078125 38.921875 
Q 39.203125 38.921875 42.84375 42.21875 
Q 46.484375 45.515625 46.484375 51.90625 
Q 46.484375 58.296875 42.84375 61.546875 
Q 39.203125 64.796875 32.078125 64.796875 
z
" id="DejaVuSans-82"/>
       <path d="M 18.109375 8.203125 
L 18.109375 -20.796875 
L 9.078125 -20.796875 
L 9.078125 54.6875 
L 18.109375 54.6875 
L 18.109375 46.390625 
Q 20.953125 51.265625 25.265625 53.625 
Q 29.59375 56 35.59375 56 
Q 45.5625 56 51.78125 48.09375 
Q 58.015625 40.1875 58.015625 27.296875 
Q 58.015625 14.40625 51.78125 6.484375 
Q 45.5625 -1.421875 35.59375 -1.421875 
Q 29.59375 -1.421875 25.265625 0.953125 
Q 20.953125 3.328125 18.109375 8.203125 
z
M 48.6875 27.296875 
Q 48.6875 37.203125 44.609375 42.84375 
Q 40.53125 48.484375 33.40625 48.484375 
Q 26.265625 48.484375 22.1875 42.84375 
Q 18.109375 37.203125 18.109375 27.296875 
Q 18.109375 17.390625 22.1875 11.75 
Q 26.265625 6.109375 33.40625 6.109375 
Q 40.53125 6.109375 44.609375 11.75 
Q 48.6875 17.390625 48.6875 27.296875 
z
" id="DejaVuSans-112"/>
       <path d="M 9.421875 75.984375 
L 18.40625 75.984375 
L 18.40625 0 
L 9.421875 0 
z
" id="DejaVuSans-108"/>
       <path d="M 9.421875 54.6875 
L 18.40625 54.6875 
L 18.40625 0 
L 9.421875 0 
z
M 9.421875 75.984375 
L 18.40625 75.984375 
L 18.40625 64.59375 
L 9.421875 64.59375 
z
" id="DejaVuSans-105"/>
       <path d="M 48.78125 52.59375 
L 48.78125 44.1875 
Q 44.96875 46.296875 41.140625 47.34375 
Q 37.3125 48.390625 33.40625 48.390625 
Q 24.65625 48.390625 19.8125 42.84375 
Q 14.984375 37.3125 14.984375 27.296875 
Q 14.984375 17.28125 19.8125 11.734375 
Q 24.65625 6.203125 33.40625 6.203125 
Q 37.3125 6.203125 41.140625 7.25 
Q 44.96875 8.296875 48.78125 10.40625 
L 48.78125 2.09375 
Q 45.015625 0.34375 40.984375 -0.53125 
Q 36.96875 -1.421875 32.421875 -1.421875 
Q 20.0625 -1.421875 12.78125 6.34375 
Q 5.515625 14.109375 5.515625 27.296875 
Q 5.515625 40.671875 12.859375 48.328125 
Q 20.21875 56 33.015625 56 
Q 37.15625 56 41.109375 55.140625 
Q 45.0625 54.296875 48.78125 52.59375 
z
" id="DejaVuSans-99"/>
       <path d="M 34.28125 27.484375 
Q 23.390625 27.484375 19.1875 25 
Q 14.984375 22.515625 14.984375 16.5 
Q 14.984375 11.71875 18.140625 8.90625 
Q 21.296875 6.109375 26.703125 6.109375 
Q 34.1875 6.109375 38.703125 11.40625 
Q 43.21875 16.703125 43.21875 25.484375 
L 43.21875 27.484375 
z
M 52.203125 31.203125 
L 52.203125 0 
L 43.21875 0 
L 43.21875 8.296875 
Q 40.140625 3.328125 35.546875 0.953125 
Q 30.953125 -1.421875 24.3125 -1.421875 
Q 15.921875 -1.421875 10.953125 3.296875 
Q 6 8.015625 6 15.921875 
Q 6 25.140625 12.171875 29.828125 
Q 18.359375 34.515625 30.609375 34.515625 
L 43.21875 34.515625 
L 43.21875 35.40625 
Q 43.21875 41.609375 39.140625 45 
Q 35.0625 48.390625 27.6875 48.390625 
Q 23 48.390625 18.546875 47.265625 
Q 14.109375 46.140625 10.015625 43.890625 
L 10.015625 52.203125 
Q 14.9375 54.109375 19.578125 55.046875 
Q 24.21875 56 28.609375 56 
Q 40.484375 56 46.34375 49.84375 
Q 52.203125 43.703125 52.203125 31.203125 
z
" id="DejaVuSans-97"/>
      </defs>
      <use xlink:href="#DejaVuSans-82"/>
      <use x="64.982422" xlink:href="#DejaVuSans-101"/>
      <use x="126.505859" xlink:href="#DejaVuSans-112"/>
      <use x="189.982422" xlink:href="#DejaVuSans-108"/>
      <use x="217.765625" xlink:href="#DejaVuSans-105"/>
      <use x="245.548828" xlink:href="#DejaVuSans-99"/>
      <use x="300.529297" xlink:href="#DejaVuSans-97"/>
      <use x="361.808594" xlink:href="#DejaVuSans-116"/>
      <use x="401.017578" xlink:href="#DejaVuSans-101"/>
     </g>
    </g>
    <g id="line2d_19">
     <path d="M 885.853125 123.216864 
L 935.853125 123.216864 
" style="fill:none;stroke:#1b9e77;stroke-linecap:round;stroke-width:5;"/>
    </g>
    <g id="line2d_20"/>
    <g id="text_10">
     <!-- rep1 -->
     <g style="fill:#262626;" transform="translate(955.853125 131.966864)scale(0.25 -0.25)">
      <defs>
       <path d="M 41.109375 46.296875 
Q 39.59375 47.171875 37.8125 47.578125 
Q 36.03125 48 33.890625 48 
Q 26.265625 48 22.1875 43.046875 
Q 18.109375 38.09375 18.109375 28.8125 
L 18.109375 0 
L 9.078125 0 
L 9.078125 54.6875 
L 18.109375 54.6875 
L 18.109375 46.1875 
Q 20.953125 51.171875 25.484375 53.578125 
Q 30.03125 56 36.53125 56 
Q 37.453125 56 38.578125 55.875 
Q 39.703125 55.765625 41.0625 55.515625 
z
" id="DejaVuSans-114"/>
      </defs>
      <use xlink:href="#DejaVuSans-114"/>
      <use x="38.863281" xlink:href="#DejaVuSans-101"/>
      <use x="100.386719" xlink:href="#DejaVuSans-112"/>
      <use x="163.863281" xlink:href="#DejaVuSans-49"/>
     </g>
    </g>
    <g id="line2d_21">
     <path d="M 885.853125 159.912176 
L 935.853125 159.912176 
" style="fill:none;stroke:#d95f02;stroke-linecap:round;stroke-width:5;"/>
    </g>
    <g id="line2d_22"/>
    <g id="text_11">
     <!-- rep2 -->
     <g style="fill:#262626;" transform="translate(955.853125 168.662176)scale(0.25 -0.25)">
      <use xlink:href="#DejaVuSans-114"/>
      <use x="38.863281" xlink:href="#DejaVuSans-101"/>
      <use x="100.386719" xlink:href="#DejaVuSans-112"/>
      <use x="163.863281" xlink:href="#DejaVuSans-50"/>
     </g>
    </g>
    <g id="line2d_23">
     <path d="M 885.853125 196.607489 
L 935.853125 196.607489 
" style="fill:none;stroke:#7570b3;stroke-linecap:round;stroke-width:5;"/>
    </g>
    <g id="line2d_24"/>
    <g id="text_12">
     <!-- rep3 -->
     <g style="fill:#262626;" transform="translate(955.853125 205.357489)scale(0.25 -0.25)">
      <defs>
       <path d="M 40.578125 39.3125 
Q 47.65625 37.796875 51.625 33 
Q 55.609375 28.21875 55.609375 21.1875 
Q 55.609375 10.40625 48.1875 4.484375 
Q 40.765625 -1.421875 27.09375 -1.421875 
Q 22.515625 -1.421875 17.65625 -0.515625 
Q 12.796875 0.390625 7.625 2.203125 
L 7.625 11.71875 
Q 11.71875 9.328125 16.59375 8.109375 
Q 21.484375 6.890625 26.8125 6.890625 
Q 36.078125 6.890625 40.9375 10.546875 
Q 45.796875 14.203125 45.796875 21.1875 
Q 45.796875 27.640625 41.28125 31.265625 
Q 36.765625 34.90625 28.71875 34.90625 
L 20.21875 34.90625 
L 20.21875 43.015625 
L 29.109375 43.015625 
Q 36.375 43.015625 40.234375 45.921875 
Q 44.09375 48.828125 44.09375 54.296875 
Q 44.09375 59.90625 40.109375 62.90625 
Q 36.140625 65.921875 28.71875 65.921875 
Q 24.65625 65.921875 20.015625 65.03125 
Q 15.375 64.15625 9.8125 62.3125 
L 9.8125 71.09375 
Q 15.4375 72.65625 20.34375 73.4375 
Q 25.25 74.21875 29.59375 74.21875 
Q 40.828125 74.21875 47.359375 69.109375 
Q 53.90625 64.015625 53.90625 55.328125 
Q 53.90625 49.265625 50.4375 45.09375 
Q 46.96875 40.921875 40.578125 39.3125 
z
" id="DejaVuSans-51"/>
      </defs>
      <use xlink:href="#DejaVuSans-114"/>
      <use x="38.863281" xlink:href="#DejaVuSans-101"/>
      <use x="100.386719" xlink:href="#DejaVuSans-112"/>
      <use x="163.863281" xlink:href="#DejaVuSans-51"/>
     </g>
    </g>
   </g>
  </g>
  <g id="axes_2">
   <g id="patch_8">
    <path d="M 82.153125 795.048185 
L 863.353125 795.048185 
L 863.353125 450.270172 
L 82.153125 450.270172 
z
" style="fill:none;"/>
   </g>
   <g id="matplotlib.axis_3">
    <g id="xtick_8">
     <g id="line2d_25">
      <path clip-path="url(#p1a11a9888c)" d="M 117.662216 795.048185 
L 117.662216 450.270172 
" style="fill:none;stroke:#cccccc;stroke-linecap:round;stroke-width:0.8;"/>
     </g>
     <g id="text_13">
      <!-- 0 -->
      <g style="fill:#262626;" transform="translate(109.709091 821.044279)scale(0.25 -0.25)">
       <use xlink:href="#DejaVuSans-48"/>
      </g>
     </g>
    </g>
    <g id="xtick_9">
     <g id="line2d_26">
      <path clip-path="url(#p1a11a9888c)" d="M 236.025852 795.048185 
L 236.025852 450.270172 
" style="fill:none;stroke:#cccccc;stroke-linecap:round;stroke-width:0.8;"/>
     </g>
     <g id="text_14">
      <!-- 2 -->
      <g style="fill:#262626;" transform="translate(228.072727 821.044279)scale(0.25 -0.25)">
       <use xlink:href="#DejaVuSans-50"/>
      </g>
     </g>
    </g>
    <g id="xtick_10">
     <g id="line2d_27">
      <path clip-path="url(#p1a11a9888c)" d="M 354.389489 795.048185 
L 354.389489 450.270172 
" style="fill:none;stroke:#cccccc;stroke-linecap:round;stroke-width:0.8;"/>
     </g>
     <g id="text_15">
      <!-- 4 -->
      <g style="fill:#262626;" transform="translate(346.436364 821.044279)scale(0.25 -0.25)">
       <use xlink:href="#DejaVuSans-52"/>
      </g>
     </g>
    </g>
    <g id="xtick_11">
     <g id="line2d_28">
      <path clip-path="url(#p1a11a9888c)" d="M 472.753125 795.048185 
L 472.753125 450.270172 
" style="fill:none;stroke:#cccccc;stroke-linecap:round;stroke-width:0.8;"/>
     </g>
     <g id="text_16">
      <!-- 6 -->
      <g style="fill:#262626;" transform="translate(464.8 821.044279)scale(0.25 -0.25)">
       <use xlink:href="#DejaVuSans-54"/>
      </g>
     </g>
    </g>
    <g id="xtick_12">
     <g id="line2d_29">
      <path clip-path="url(#p1a11a9888c)" d="M 591.116761 795.048185 
L 591.116761 450.270172 
" style="fill:none;stroke:#cccccc;stroke-linecap:round;stroke-width:0.8;"/>
     </g>
     <g id="text_17">
      <!-- 8 -->
      <g style="fill:#262626;" transform="translate(583.163636 821.044279)scale(0.25 -0.25)">
       <use xlink:href="#DejaVuSans-56"/>
      </g>
     </g>
    </g>
    <g id="xtick_13">
     <g id="line2d_30">
      <path clip-path="url(#p1a11a9888c)" d="M 709.480398 795.048185 
L 709.480398 450.270172 
" style="fill:none;stroke:#cccccc;stroke-linecap:round;stroke-width:0.8;"/>
     </g>
     <g id="text_18">
      <!-- 10 -->
      <g style="fill:#262626;" transform="translate(693.574148 821.044279)scale(0.25 -0.25)">
       <use xlink:href="#DejaVuSans-49"/>
       <use x="63.623047" xlink:href="#DejaVuSans-48"/>
      </g>
     </g>
    </g>
    <g id="xtick_14">
     <g id="line2d_31">
      <path clip-path="url(#p1a11a9888c)" d="M 827.844034 795.048185 
L 827.844034 450.270172 
" style="fill:none;stroke:#cccccc;stroke-linecap:round;stroke-width:0.8;"/>
     </g>
     <g id="text_19">
      <!-- 12 -->
      <g style="fill:#262626;" transform="translate(811.937784 821.044279)scale(0.25 -0.25)">
       <use xlink:href="#DejaVuSans-49"/>
       <use x="63.623047" xlink:href="#DejaVuSans-50"/>
      </g>
     </g>
    </g>
    <g id="text_20">
     <!-- Time (h) -->
     <g style="fill:#262626;" transform="translate(420.520703 849.239591)scale(0.25 -0.25)">
      <defs>
       <path d="M -0.296875 72.90625 
L 61.375 72.90625 
L 61.375 64.59375 
L 35.5 64.59375 
L 35.5 0 
L 25.59375 0 
L 25.59375 64.59375 
L -0.296875 64.59375 
z
" id="DejaVuSans-84"/>
       <path d="M 52 44.1875 
Q 55.375 50.25 60.0625 53.125 
Q 64.75 56 71.09375 56 
Q 79.640625 56 84.28125 50.015625 
Q 88.921875 44.046875 88.921875 33.015625 
L 88.921875 0 
L 79.890625 0 
L 79.890625 32.71875 
Q 79.890625 40.578125 77.09375 44.375 
Q 74.3125 48.1875 68.609375 48.1875 
Q 61.625 48.1875 57.5625 43.546875 
Q 53.515625 38.921875 53.515625 30.90625 
L 53.515625 0 
L 44.484375 0 
L 44.484375 32.71875 
Q 44.484375 40.625 41.703125 44.40625 
Q 38.921875 48.1875 33.109375 48.1875 
Q 26.21875 48.1875 22.15625 43.53125 
Q 18.109375 38.875 18.109375 30.90625 
L 18.109375 0 
L 9.078125 0 
L 9.078125 54.6875 
L 18.109375 54.6875 
L 18.109375 46.1875 
Q 21.1875 51.21875 25.484375 53.609375 
Q 29.78125 56 35.6875 56 
Q 41.65625 56 45.828125 52.96875 
Q 50 49.953125 52 44.1875 
z
" id="DejaVuSans-109"/>
       <path d="M 54.890625 33.015625 
L 54.890625 0 
L 45.90625 0 
L 45.90625 32.71875 
Q 45.90625 40.484375 42.875 44.328125 
Q 39.84375 48.1875 33.796875 48.1875 
Q 26.515625 48.1875 22.3125 43.546875 
Q 18.109375 38.921875 18.109375 30.90625 
L 18.109375 0 
L 9.078125 0 
L 9.078125 75.984375 
L 18.109375 75.984375 
L 18.109375 46.1875 
Q 21.34375 51.125 25.703125 53.5625 
Q 30.078125 56 35.796875 56 
Q 45.21875 56 50.046875 50.171875 
Q 54.890625 44.34375 54.890625 33.015625 
z
" id="DejaVuSans-104"/>
      </defs>
      <use xlink:href="#DejaVuSans-84"/>
      <use x="57.958984" xlink:href="#DejaVuSans-105"/>
      <use x="85.742188" xlink:href="#DejaVuSans-109"/>
      <use x="183.154297" xlink:href="#DejaVuSans-101"/>
      <use x="244.677734" xlink:href="#DejaVuSans-32"/>
      <use x="276.464844" xlink:href="#DejaVuSans-40"/>
      <use x="315.478516" xlink:href="#DejaVuSans-104"/>
      <use x="378.857422" xlink:href="#DejaVuSans-41"/>
     </g>
    </g>
   </g>
   <g id="matplotlib.axis_4">
    <g id="ytick_6">
     <g id="line2d_32">
      <path clip-path="url(#p1a11a9888c)" d="M 82.153125 779.383795 
L 863.353125 779.383795 
" style="fill:none;stroke:#cccccc;stroke-linecap:round;stroke-width:0.8;"/>
     </g>
     <g id="text_21">
      <!-- 0 -->
      <g style="fill:#262626;" transform="translate(59.246875 788.881842)scale(0.25 -0.25)">
       <use xlink:href="#DejaVuSans-48"/>
      </g>
     </g>
    </g>
    <g id="ytick_7">
     <g id="line2d_33">
      <path clip-path="url(#p1a11a9888c)" d="M 82.153125 705.998823 
L 863.353125 705.998823 
" style="fill:none;stroke:#cccccc;stroke-linecap:round;stroke-width:0.8;"/>
     </g>
     <g id="text_22">
      <!-- 10 -->
      <g style="fill:#262626;" transform="translate(43.340625 715.49687)scale(0.25 -0.25)">
       <use xlink:href="#DejaVuSans-49"/>
       <use x="63.623047" xlink:href="#DejaVuSans-48"/>
      </g>
     </g>
    </g>
    <g id="ytick_8">
     <g id="line2d_34">
      <path clip-path="url(#p1a11a9888c)" d="M 82.153125 632.61385 
L 863.353125 632.61385 
" style="fill:none;stroke:#cccccc;stroke-linecap:round;stroke-width:0.8;"/>
     </g>
     <g id="text_23">
      <!-- 20 -->
      <g style="fill:#262626;" transform="translate(43.340625 642.111897)scale(0.25 -0.25)">
       <use xlink:href="#DejaVuSans-50"/>
       <use x="63.623047" xlink:href="#DejaVuSans-48"/>
      </g>
     </g>
    </g>
    <g id="ytick_9">
     <g id="line2d_35">
      <path clip-path="url(#p1a11a9888c)" d="M 82.153125 559.228877 
L 863.353125 559.228877 
" style="fill:none;stroke:#cccccc;stroke-linecap:round;stroke-width:0.8;"/>
     </g>
     <g id="text_24">
      <!-- 30 -->
      <g style="fill:#262626;" transform="translate(43.340625 568.726924)scale(0.25 -0.25)">
       <use xlink:href="#DejaVuSans-51"/>
       <use x="63.623047" xlink:href="#DejaVuSans-48"/>
      </g>
     </g>
    </g>
    <g id="ytick_10">
     <g id="line2d_36">
      <path clip-path="url(#p1a11a9888c)" d="M 82.153125 485.843905 
L 863.353125 485.843905 
" style="fill:none;stroke:#cccccc;stroke-linecap:round;stroke-width:0.8;"/>
     </g>
     <g id="text_25">
      <!-- 40 -->
      <g style="fill:#262626;" transform="translate(43.340625 495.341951)scale(0.25 -0.25)">
       <use xlink:href="#DejaVuSans-52"/>
       <use x="63.623047" xlink:href="#DejaVuSans-48"/>
      </g>
     </g>
    </g>
    <g id="text_26">
     <!-- OD -->
     <g style="fill:#262626;" transform="translate(34.141406 642.124022)rotate(-90)scale(0.25 -0.25)">
      <use xlink:href="#DejaVuSans-79"/>
      <use x="78.710938" xlink:href="#DejaVuSans-68"/>
     </g>
    </g>
   </g>
   <g id="line2d_37">
    <path clip-path="url(#p1a11a9888c)" d="M 117.662216 779.376457 
L 144.329247 779.245052 
L 153.426736 779.005626 
L 159.42209 778.651596 
L 163.791247 778.198841 
L 168.116965 777.475537 
L 170.987697 776.766102 
L 173.853281 775.795388 
L 176.710402 774.470128 
L 178.131239 773.639381 
L 179.559296 772.663302 
L 180.97966 771.528154 
L 182.40239 770.200547 
L 183.826897 768.64684 
L 185.250811 766.833277 
L 186.672359 764.719276 
L 188.094498 762.250973 
L 189.515453 759.374208 
L 190.936409 756.021396 
L 192.357956 752.111518 
L 193.780095 747.556659 
L 195.20105 742.262154 
L 196.622006 736.106769 
L 198.042961 728.962522 
L 199.463325 720.681982 
L 200.884872 711.098271 
L 202.305236 700.039229 
L 203.7256 687.308404 
L 205.146555 672.706996 
L 206.566919 656.042003 
L 207.987874 637.143904 
L 209.408238 615.904092 
L 210.828601 592.343846 
L 213.669329 539.737829 
L 215.089692 512.971394 
L 216.510648 489.452244 
L 217.931011 473.60696 
L 219.351375 467.143212 
L 220.771739 465.944102 
L 293.352912 465.9419 
L 827.844034 465.9419 
L 827.844034 465.9419 
" style="fill:none;stroke:#1b9e77;stroke-linecap:round;stroke-width:3;"/>
   </g>
   <g id="line2d_38">
    <path clip-path="url(#p1a11a9888c)" d="M 117.662216 779.376457 
L 144.329247 779.245052 
L 153.426736 779.005626 
L 159.350895 778.657319 
L 163.648205 778.217371 
L 167.96617 777.506982 
L 170.832167 776.810544 
L 173.689643 775.859416 
L 176.541733 774.560436 
L 177.96553 773.742927 
L 179.390628 772.786655 
L 180.812175 771.671402 
L 182.238457 770.363828 
L 183.664147 768.83676 
L 185.086878 767.056514 
L 186.510792 764.975977 
L 187.934707 762.547815 
L 189.356846 759.717944 
L 190.778985 756.418849 
L 192.19994 752.576045 
L 193.620896 748.101763 
L 195.041851 742.894732 
L 196.463399 736.840178 
L 197.884946 729.810338 
L 199.30531 721.664239 
L 200.726265 712.234931 
L 202.14722 701.349885 
L 203.567584 688.812796 
L 204.98854 674.430809 
L 206.408903 658.002115 
L 207.829859 639.358663 
L 209.250814 618.380101 
L 210.671178 595.070098 
L 213.511905 542.756886 
L 214.93286 515.844415 
L 216.353224 491.756532 
L 217.77418 474.867714 
L 219.194543 467.501331 
L 220.614907 465.96098 
L 229.13768 465.9419 
L 827.844034 465.9419 
L 827.844034 465.9419 
" style="fill:none;stroke:#d95f02;stroke-linecap:round;stroke-width:3;"/>
   </g>
   <g id="line2d_39">
    <path clip-path="url(#p1a11a9888c)" d="M 117.662216 779.376457 
L 144.329247 779.245052 
L 153.426736 779.005626 
L 159.350895 778.657319 
L 163.648205 778.217371 
L 167.972857 777.505595 
L 170.83708 776.80915 
L 173.693253 775.858022 
L 176.544397 774.559027 
L 177.967897 773.741511 
L 179.392403 772.785239 
L 180.81395 771.670007 
L 182.240232 770.362361 
L 183.66533 768.835293 
L 185.088061 767.055047 
L 186.509609 764.978032 
L 187.933523 762.54987 
L 189.355662 759.719998 
L 190.777801 756.420904 
L 192.199349 752.5781 
L 193.620304 748.103818 
L 195.04126 742.896787 
L 196.462807 736.842307 
L 197.884354 729.812467 
L 199.30531 721.666294 
L 200.726265 712.237059 
L 202.146629 701.352086 
L 203.567584 688.814998 
L 204.987948 674.433011 
L 206.408903 658.004317 
L 207.829859 639.360864 
L 209.250222 618.382302 
L 210.670586 595.0723 
L 213.511905 542.759088 
L 214.93286 515.845883 
L 216.353224 491.758733 
L 217.77418 474.869182 
L 219.194543 467.501331 
L 220.614907 465.96098 
L 229.13768 465.9419 
L 827.844034 465.9419 
L 827.844034 465.9419 
" style="fill:none;stroke:#7570b3;stroke-linecap:round;stroke-width:3;"/>
   </g>
   <g id="line2d_40"/>
   <g id="line2d_41"/>
   <g id="line2d_42"/>
   <g id="patch_9">
    <path d="M 82.153125 795.048185 
L 82.153125 450.270172 
" style="fill:none;stroke:#cccccc;stroke-linecap:square;stroke-linejoin:miter;stroke-width:0.8;"/>
   </g>
   <g id="patch_10">
    <path d="M 863.353125 795.048185 
L 863.353125 450.270172 
" style="fill:none;stroke:#cccccc;stroke-linecap:square;stroke-linejoin:miter;stroke-width:0.8;"/>
   </g>
   <g id="patch_11">
    <path d="M 82.153125 795.048185 
L 863.353125 795.048185 
" style="fill:none;stroke:#cccccc;stroke-linecap:square;stroke-linejoin:miter;stroke-width:0.8;"/>
   </g>
   <g id="patch_12">
    <path d="M 82.153125 450.270172 
L 863.353125 450.270172 
" style="fill:none;stroke:#cccccc;stroke-linecap:square;stroke-linejoin:miter;stroke-width:0.8;"/>
   </g>
   <g id="text_27">
    <!-- V_a (setA_16) -->
    <g style="fill:#262626;" transform="translate(369.555469 444.270172)scale(0.3 -0.3)">
     <defs>
      <path d="M 28.609375 0 
L 0.78125 72.90625 
L 11.078125 72.90625 
L 34.1875 11.53125 
L 57.328125 72.90625 
L 67.578125 72.90625 
L 39.796875 0 
z
" id="DejaVuSans-86"/>
     </defs>
     <use xlink:href="#DejaVuSans-86"/>
     <use x="68.408203" xlink:href="#DejaVuSans-95"/>
     <use x="118.408203" xlink:href="#DejaVuSans-97"/>
     <use x="179.6875" xlink:href="#DejaVuSans-32"/>
     <use x="211.474609" xlink:href="#DejaVuSans-40"/>
     <use x="250.488281" xlink:href="#DejaVuSans-115"/>
     <use x="302.587891" xlink:href="#DejaVuSans-101"/>
     <use x="364.111328" xlink:href="#DejaVuSans-116"/>
     <use x="403.320312" xlink:href="#DejaVuSans-65"/>
     <use x="471.728516" xlink:href="#DejaVuSans-95"/>
     <use x="521.728516" xlink:href="#DejaVuSans-49"/>
     <use x="585.351562" xlink:href="#DejaVuSans-54"/>
     <use x="648.974609" xlink:href="#DejaVuSans-41"/>
    </g>
   </g>
  </g>
  <g id="axes_3">
   <g id="patch_13">
    <path d="M 82.153125 1288.080743 
L 863.353125 1288.080743 
L 863.353125 943.30273 
L 82.153125 943.30273 
z
" style="fill:none;"/>
   </g>
   <g id="matplotlib.axis_5">
    <g id="xtick_15">
     <g id="line2d_43">
      <path clip-path="url(#pf0ee09aa8d)" d="M 117.662216 1288.080743 
L 117.662216 943.30273 
" style="fill:none;stroke:#cccccc;stroke-linecap:round;stroke-width:0.8;"/>
     </g>
    </g>
    <g id="xtick_16">
     <g id="line2d_44">
      <path clip-path="url(#pf0ee09aa8d)" d="M 236.025852 1288.080743 
L 236.025852 943.30273 
" style="fill:none;stroke:#cccccc;stroke-linecap:round;stroke-width:0.8;"/>
     </g>
    </g>
    <g id="xtick_17">
     <g id="line2d_45">
      <path clip-path="url(#pf0ee09aa8d)" d="M 354.389489 1288.080743 
L 354.389489 943.30273 
" style="fill:none;stroke:#cccccc;stroke-linecap:round;stroke-width:0.8;"/>
     </g>
    </g>
    <g id="xtick_18">
     <g id="line2d_46">
      <path clip-path="url(#pf0ee09aa8d)" d="M 472.753125 1288.080743 
L 472.753125 943.30273 
" style="fill:none;stroke:#cccccc;stroke-linecap:round;stroke-width:0.8;"/>
     </g>
    </g>
    <g id="xtick_19">
     <g id="line2d_47">
      <path clip-path="url(#pf0ee09aa8d)" d="M 591.116761 1288.080743 
L 591.116761 943.30273 
" style="fill:none;stroke:#cccccc;stroke-linecap:round;stroke-width:0.8;"/>
     </g>
    </g>
    <g id="xtick_20">
     <g id="line2d_48">
      <path clip-path="url(#pf0ee09aa8d)" d="M 709.480398 1288.080743 
L 709.480398 943.30273 
" style="fill:none;stroke:#cccccc;stroke-linecap:round;stroke-width:0.8;"/>
     </g>
    </g>
    <g id="xtick_21">
     <g id="line2d_49">
      <path clip-path="url(#pf0ee09aa8d)" d="M 827.844034 1288.080743 
L 827.844034 943.30273 
" style="fill:none;stroke:#cccccc;stroke-linecap:round;stroke-width:0.8;"/>
     </g>
    </g>
   </g>
   <g id="matplotlib.axis_6">
    <g id="ytick_11">
     <g id="line2d_50">
      <path clip-path="url(#pf0ee09aa8d)" d="M 82.153125 1272.417514 
L 863.353125 1272.417514 
" style="fill:none;stroke:#cccccc;stroke-linecap:round;stroke-width:0.8;"/>
     </g>
     <g id="text_28">
      <!-- 0 -->
      <g style="fill:#262626;" transform="translate(59.246875 1281.915561)scale(0.25 -0.25)">
       <use xlink:href="#DejaVuSans-48"/>
      </g>
     </g>
    </g>
    <g id="ytick_12">
     <g id="line2d_51">
      <path clip-path="url(#pf0ee09aa8d)" d="M 82.153125 1187.426379 
L 863.353125 1187.426379 
" style="fill:none;stroke:#cccccc;stroke-linecap:round;stroke-width:0.8;"/>
     </g>
     <g id="text_29">
      <!-- 10 -->
      <g style="fill:#262626;" transform="translate(43.340625 1196.924426)scale(0.25 -0.25)">
       <use xlink:href="#DejaVuSans-49"/>
       <use x="63.623047" xlink:href="#DejaVuSans-48"/>
      </g>
     </g>
    </g>
    <g id="ytick_13">
     <g id="line2d_52">
      <path clip-path="url(#pf0ee09aa8d)" d="M 82.153125 1102.435244 
L 863.353125 1102.435244 
" style="fill:none;stroke:#cccccc;stroke-linecap:round;stroke-width:0.8;"/>
     </g>
     <g id="text_30">
      <!-- 20 -->
      <g style="fill:#262626;" transform="translate(43.340625 1111.933291)scale(0.25 -0.25)">
       <use xlink:href="#DejaVuSans-50"/>
       <use x="63.623047" xlink:href="#DejaVuSans-48"/>
      </g>
     </g>
    </g>
    <g id="ytick_14">
     <g id="line2d_53">
      <path clip-path="url(#pf0ee09aa8d)" d="M 82.153125 1017.444109 
L 863.353125 1017.444109 
" style="fill:none;stroke:#cccccc;stroke-linecap:round;stroke-width:0.8;"/>
     </g>
     <g id="text_31">
      <!-- 30 -->
      <g style="fill:#262626;" transform="translate(43.340625 1026.942156)scale(0.25 -0.25)">
       <use xlink:href="#DejaVuSans-51"/>
       <use x="63.623047" xlink:href="#DejaVuSans-48"/>
      </g>
     </g>
    </g>
    <g id="text_32">
     <!-- OD -->
     <g style="fill:#262626;" transform="translate(34.141406 1135.15658)rotate(-90)scale(0.25 -0.25)">
      <use xlink:href="#DejaVuSans-79"/>
      <use x="78.710938" xlink:href="#DejaVuSans-68"/>
     </g>
    </g>
   </g>
   <g id="line2d_54">
    <path clip-path="url(#pf0ee09aa8d)" d="M 117.662216 1272.409015 
L 147.683495 1272.279285 
L 159.061022 1272.019777 
L 166.471888 1271.625884 
L 170.963729 1271.216156 
L 175.255772 1270.628017 
L 178.120586 1270.082944 
L 180.999781 1269.367888 
L 183.862998 1268.440354 
L 186.732132 1267.228202 
L 189.577002 1265.663252 
L 191.001509 1264.71079 
L 192.428974 1263.622377 
L 193.855848 1262.380911 
L 195.27917 1260.969548 
L 196.70131 1259.362621 
L 198.127 1257.526217 
L 199.551506 1255.434926 
L 200.97542 1253.054579 
L 202.399927 1250.342852 
L 203.823841 1247.257079 
L 205.244797 1243.754934 
L 206.666936 1239.76834 
L 208.089075 1235.238992 
L 209.511214 1230.096519 
L 210.93217 1224.265617 
L 212.353717 1217.652711 
L 213.775264 1210.164483 
L 215.196811 1201.698856 
L 216.617767 1192.147467 
L 218.038722 1181.386909 
L 219.46027 1169.292671 
L 220.880633 1155.752733 
L 222.301589 1140.641309 
L 223.722544 1123.871708 
L 225.142908 1105.394636 
L 227.984227 1063.544151 
L 232.246501 995.610737 
L 233.666865 977.296847 
L 235.088412 965.392139 
L 236.508776 960.238276 
L 237.948078 958.998256 
L 245.094874 958.974458 
L 827.844034 958.974458 
L 827.844034 958.974458 
" style="fill:none;stroke:#1b9e77;stroke-linecap:round;stroke-width:3;"/>
   </g>
   <g id="line2d_55">
    <path clip-path="url(#pf0ee09aa8d)" d="M 117.662216 1272.409015 
L 147.706458 1272.278989 
L 159.068834 1272.019488 
L 166.475794 1271.625597 
L 170.966273 1271.215867 
L 175.257488 1270.627728 
L 178.12177 1270.082663 
L 181.000965 1269.367599 
L 183.86359 1268.440074 
L 186.724439 1267.232069 
L 189.570492 1265.667119 
L 190.996182 1264.714657 
L 192.42424 1263.626201 
L 193.851705 1262.384821 
L 195.27562 1260.973373 
L 196.697759 1259.366445 
L 198.12404 1257.530127 
L 199.549139 1255.43875 
L 200.973053 1253.058488 
L 202.394009 1250.355175 
L 203.814964 1247.277986 
L 205.236511 1243.775842 
L 206.658059 1239.794517 
L 208.079014 1235.272479 
L 209.49997 1230.138419 
L 210.922109 1224.307517 
L 212.343656 1217.703196 
L 213.764611 1210.223466 
L 215.186159 1201.766339 
L 216.607706 1192.221324 
L 218.028661 1181.469351 
L 219.74375 1166.70809 
L 221.164114 1152.863034 
L 222.58507 1137.427794 
L 224.006025 1120.319079 
L 225.426389 1101.501192 
L 228.267708 1059.065118 
L 232.456005 992.60715 
L 233.87696 975.080278 
L 235.297916 964.254957 
L 236.721239 959.883013 
L 238.28068 958.975308 
L 827.844034 958.975308 
L 827.844034 958.975308 
" style="fill:none;stroke:#d95f02;stroke-linecap:round;stroke-width:3;"/>
   </g>
   <g id="line2d_56">
    <path clip-path="url(#pf0ee09aa8d)" d="M 117.662216 1272.409015 
L 147.914363 1272.276288 
L 159.36859 1272.008252 
L 166.740632 1271.605875 
L 171.141274 1271.196183 
L 175.526292 1270.582513 
L 178.40525 1270.020433 
L 181.277344 1269.288379 
L 184.144111 1268.335356 
L 187.009103 1267.093355 
L 189.869952 1265.477402 
L 191.299785 1264.495134 
L 192.721332 1263.381172 
L 194.148798 1262.105795 
L 195.575671 1260.651851 
L 197.002545 1258.994014 
L 198.428235 1257.106616 
L 199.853333 1254.955746 
L 201.278431 1252.507491 
L 202.698795 1249.727771 
L 204.119159 1246.565506 
L 205.542481 1242.961372 
L 206.965804 1238.864204 
L 208.387351 1234.214934 
L 209.808307 1228.93639 
L 211.22867 1222.952504 
L 212.649626 1216.169701 
L 214.06999 1208.494492 
L 215.490945 1199.816387 
L 216.9119 1190.024898 
L 218.332264 1179.001208 
L 219.753811 1166.61715 
L 221.174175 1152.763595 
L 222.594539 1137.319856 
L 224.015494 1120.202641 
L 225.435858 1101.367756 
L 228.277769 1058.905335 
L 232.539451 991.438522 
L 233.959815 974.246515 
L 235.38077 963.84615 
L 236.805869 959.763176 
L 238.318556 958.975308 
L 827.844034 958.975308 
L 827.844034 958.975308 
" style="fill:none;stroke:#7570b3;stroke-linecap:round;stroke-width:3;"/>
   </g>
   <g id="line2d_57"/>
   <g id="line2d_58"/>
   <g id="line2d_59"/>
   <g id="patch_14">
    <path d="M 82.153125 1288.080743 
L 82.153125 943.30273 
" style="fill:none;stroke:#cccccc;stroke-linecap:square;stroke-linejoin:miter;stroke-width:0.8;"/>
   </g>
   <g id="patch_15">
    <path d="M 863.353125 1288.080743 
L 863.353125 943.30273 
" style="fill:none;stroke:#cccccc;stroke-linecap:square;stroke-linejoin:miter;stroke-width:0.8;"/>
   </g>
   <g id="patch_16">
    <path d="M 82.153125 1288.080743 
L 863.353125 1288.080743 
" style="fill:none;stroke:#cccccc;stroke-linecap:square;stroke-linejoin:miter;stroke-width:0.8;"/>
   </g>
   <g id="patch_17">
    <path d="M 82.153125 943.30273 
L 863.353125 943.30273 
" style="fill:none;stroke:#cccccc;stroke-linecap:square;stroke-linejoin:miter;stroke-width:0.8;"/>
   </g>
   <g id="text_33">
    <!-- high_fat -->
    <g style="fill:#262626;" transform="translate(25.026172 915.37571)scale(0.25 -0.25)">
     <defs>
      <path d="M 63.375 33.296875 
L 63.375 0 
L 45.796875 0 
L 45.796875 5.421875 
L 45.796875 25.390625 
Q 45.796875 32.5625 45.484375 35.25 
Q 45.171875 37.9375 44.390625 39.203125 
Q 43.359375 40.921875 41.59375 41.875 
Q 39.84375 42.828125 37.59375 42.828125 
Q 32.125 42.828125 29 38.59375 
Q 25.875 34.375 25.875 26.90625 
L 25.875 0 
L 8.40625 0 
L 8.40625 75.984375 
L 25.875 75.984375 
L 25.875 46.6875 
Q 29.828125 51.46875 34.265625 53.734375 
Q 38.71875 56 44.09375 56 
Q 53.5625 56 58.46875 50.1875 
Q 63.375 44.390625 63.375 33.296875 
z
" id="DejaVuSans-Bold-104"/>
      <path d="M 8.40625 54.6875 
L 25.875 54.6875 
L 25.875 0 
L 8.40625 0 
z
M 8.40625 75.984375 
L 25.875 75.984375 
L 25.875 61.71875 
L 8.40625 61.71875 
z
" id="DejaVuSans-Bold-105"/>
      <path d="M 44.390625 75.984375 
L 44.390625 64.5 
L 34.71875 64.5 
Q 31 64.5 29.53125 63.15625 
Q 28.078125 61.8125 28.078125 58.5 
L 28.078125 54.6875 
L 43.015625 54.6875 
L 43.015625 42.1875 
L 28.078125 42.1875 
L 28.078125 0 
L 10.59375 0 
L 10.59375 42.1875 
L 1.90625 42.1875 
L 1.90625 54.6875 
L 10.59375 54.6875 
L 10.59375 58.5 
Q 10.59375 67.4375 15.578125 71.703125 
Q 20.5625 75.984375 31 75.984375 
z
" id="DejaVuSans-Bold-102"/>
      <path d="M 27.484375 70.21875 
L 27.484375 54.6875 
L 45.515625 54.6875 
L 45.515625 42.1875 
L 27.484375 42.1875 
L 27.484375 19 
Q 27.484375 15.1875 29 13.84375 
Q 30.515625 12.5 35.015625 12.5 
L 44 12.5 
L 44 0 
L 29 0 
Q 18.65625 0 14.328125 4.3125 
Q 10.015625 8.640625 10.015625 19 
L 10.015625 42.1875 
L 1.3125 42.1875 
L 1.3125 54.6875 
L 10.015625 54.6875 
L 10.015625 70.21875 
z
" id="DejaVuSans-Bold-116"/>
     </defs>
     <use xlink:href="#DejaVuSans-Bold-104"/>
     <use x="71.191406" xlink:href="#DejaVuSans-Bold-105"/>
     <use x="105.46875" xlink:href="#DejaVuSans-Bold-103"/>
     <use x="177.050781" xlink:href="#DejaVuSans-Bold-104"/>
     <use x="248.242188" xlink:href="#DejaVuSans-Bold-95"/>
     <use x="298.242188" xlink:href="#DejaVuSans-Bold-102"/>
     <use x="341.748047" xlink:href="#DejaVuSans-Bold-97"/>
     <use x="409.228516" xlink:href="#DejaVuSans-Bold-116"/>
    </g>
   </g>
   <g id="text_34">
    <!-- I_b (setA_21) -->
    <g style="fill:#262626;" transform="translate(375.060938 937.30273)scale(0.3 -0.3)">
     <use xlink:href="#DejaVuSans-73"/>
     <use x="29.492188" xlink:href="#DejaVuSans-95"/>
     <use x="79.492188" xlink:href="#DejaVuSans-98"/>
     <use x="142.96875" xlink:href="#DejaVuSans-32"/>
     <use x="174.755859" xlink:href="#DejaVuSans-40"/>
     <use x="213.769531" xlink:href="#DejaVuSans-115"/>
     <use x="265.869141" xlink:href="#DejaVuSans-101"/>
     <use x="327.392578" xlink:href="#DejaVuSans-116"/>
     <use x="366.601562" xlink:href="#DejaVuSans-65"/>
     <use x="435.009766" xlink:href="#DejaVuSans-95"/>
     <use x="485.009766" xlink:href="#DejaVuSans-50"/>
     <use x="548.632812" xlink:href="#DejaVuSans-49"/>
     <use x="612.255859" xlink:href="#DejaVuSans-41"/>
    </g>
   </g>
   <g id="legend_2">
    <g id="patch_18">
     <path d="M 880.853125 1110.08398 
L 1017.728125 1110.08398 
Q 1022.728125 1110.08398 1022.728125 1105.08398 
L 1022.728125 960.80273 
Q 1022.728125 955.80273 1017.728125 955.80273 
L 880.853125 955.80273 
Q 875.853125 955.80273 875.853125 960.80273 
L 875.853125 1105.08398 
Q 875.853125 1110.08398 880.853125 1110.08398 
z
" style="fill:#ffffff;opacity:0.8;stroke:#cccccc;stroke-linejoin:miter;"/>
    </g>
    <g id="text_35">
     <!-- Replicate -->
     <g style="fill:#262626;" transform="translate(891.470313 984.798824)scale(0.25 -0.25)">
      <use xlink:href="#DejaVuSans-82"/>
      <use x="64.982422" xlink:href="#DejaVuSans-101"/>
      <use x="126.505859" xlink:href="#DejaVuSans-112"/>
      <use x="189.982422" xlink:href="#DejaVuSans-108"/>
      <use x="217.765625" xlink:href="#DejaVuSans-105"/>
      <use x="245.548828" xlink:href="#DejaVuSans-99"/>
      <use x="300.529297" xlink:href="#DejaVuSans-97"/>
      <use x="361.808594" xlink:href="#DejaVuSans-116"/>
      <use x="401.017578" xlink:href="#DejaVuSans-101"/>
     </g>
    </g>
    <g id="line2d_60">
     <path d="M 885.853125 1012.744136 
L 935.853125 1012.744136 
" style="fill:none;stroke:#1b9e77;stroke-linecap:round;stroke-width:5;"/>
    </g>
    <g id="line2d_61"/>
    <g id="text_36">
     <!-- rep1 -->
     <g style="fill:#262626;" transform="translate(955.853125 1021.494136)scale(0.25 -0.25)">
      <use xlink:href="#DejaVuSans-114"/>
      <use x="38.863281" xlink:href="#DejaVuSans-101"/>
      <use x="100.386719" xlink:href="#DejaVuSans-112"/>
      <use x="163.863281" xlink:href="#DejaVuSans-49"/>
     </g>
    </g>
    <g id="line2d_62">
     <path d="M 885.853125 1049.439449 
L 935.853125 1049.439449 
" style="fill:none;stroke:#d95f02;stroke-linecap:round;stroke-width:5;"/>
    </g>
    <g id="line2d_63"/>
    <g id="text_37">
     <!-- rep2 -->
     <g style="fill:#262626;" transform="translate(955.853125 1058.189449)scale(0.25 -0.25)">
      <use xlink:href="#DejaVuSans-114"/>
      <use x="38.863281" xlink:href="#DejaVuSans-101"/>
      <use x="100.386719" xlink:href="#DejaVuSans-112"/>
      <use x="163.863281" xlink:href="#DejaVuSans-50"/>
     </g>
    </g>
    <g id="line2d_64">
     <path d="M 885.853125 1086.134761 
L 935.853125 1086.134761 
" style="fill:none;stroke:#7570b3;stroke-linecap:round;stroke-width:5;"/>
    </g>
    <g id="line2d_65"/>
    <g id="text_38">
     <!-- rep3 -->
     <g style="fill:#262626;" transform="translate(955.853125 1094.884761)scale(0.25 -0.25)">
      <use xlink:href="#DejaVuSans-114"/>
      <use x="38.863281" xlink:href="#DejaVuSans-101"/>
      <use x="100.386719" xlink:href="#DejaVuSans-112"/>
      <use x="163.863281" xlink:href="#DejaVuSans-51"/>
     </g>
    </g>
   </g>
  </g>
  <g id="axes_4">
   <g id="patch_19">
    <path d="M 82.153125 1684.575458 
L 863.353125 1684.575458 
L 863.353125 1339.797445 
L 82.153125 1339.797445 
z
" style="fill:none;"/>
   </g>
   <g id="matplotlib.axis_7">
    <g id="xtick_22">
     <g id="line2d_66">
      <path clip-path="url(#pfa88968965)" d="M 117.662216 1684.575458 
L 117.662216 1339.797445 
" style="fill:none;stroke:#cccccc;stroke-linecap:round;stroke-width:0.8;"/>
     </g>
     <g id="text_39">
      <!-- 0 -->
      <g style="fill:#262626;" transform="translate(109.709091 1710.571551)scale(0.25 -0.25)">
       <use xlink:href="#DejaVuSans-48"/>
      </g>
     </g>
    </g>
    <g id="xtick_23">
     <g id="line2d_67">
      <path clip-path="url(#pfa88968965)" d="M 236.025852 1684.575458 
L 236.025852 1339.797445 
" style="fill:none;stroke:#cccccc;stroke-linecap:round;stroke-width:0.8;"/>
     </g>
     <g id="text_40">
      <!-- 2 -->
      <g style="fill:#262626;" transform="translate(228.072727 1710.571551)scale(0.25 -0.25)">
       <use xlink:href="#DejaVuSans-50"/>
      </g>
     </g>
    </g>
    <g id="xtick_24">
     <g id="line2d_68">
      <path clip-path="url(#pfa88968965)" d="M 354.389489 1684.575458 
L 354.389489 1339.797445 
" style="fill:none;stroke:#cccccc;stroke-linecap:round;stroke-width:0.8;"/>
     </g>
     <g id="text_41">
      <!-- 4 -->
      <g style="fill:#262626;" transform="translate(346.436364 1710.571551)scale(0.25 -0.25)">
       <use xlink:href="#DejaVuSans-52"/>
      </g>
     </g>
    </g>
    <g id="xtick_25">
     <g id="line2d_69">
      <path clip-path="url(#pfa88968965)" d="M 472.753125 1684.575458 
L 472.753125 1339.797445 
" style="fill:none;stroke:#cccccc;stroke-linecap:round;stroke-width:0.8;"/>
     </g>
     <g id="text_42">
      <!-- 6 -->
      <g style="fill:#262626;" transform="translate(464.8 1710.571551)scale(0.25 -0.25)">
       <use xlink:href="#DejaVuSans-54"/>
      </g>
     </g>
    </g>
    <g id="xtick_26">
     <g id="line2d_70">
      <path clip-path="url(#pfa88968965)" d="M 591.116761 1684.575458 
L 591.116761 1339.797445 
" style="fill:none;stroke:#cccccc;stroke-linecap:round;stroke-width:0.8;"/>
     </g>
     <g id="text_43">
      <!-- 8 -->
      <g style="fill:#262626;" transform="translate(583.163636 1710.571551)scale(0.25 -0.25)">
       <use xlink:href="#DejaVuSans-56"/>
      </g>
     </g>
    </g>
    <g id="xtick_27">
     <g id="line2d_71">
      <path clip-path="url(#pfa88968965)" d="M 709.480398 1684.575458 
L 709.480398 1339.797445 
" style="fill:none;stroke:#cccccc;stroke-linecap:round;stroke-width:0.8;"/>
     </g>
     <g id="text_44">
      <!-- 10 -->
      <g style="fill:#262626;" transform="translate(693.574148 1710.571551)scale(0.25 -0.25)">
       <use xlink:href="#DejaVuSans-49"/>
       <use x="63.623047" xlink:href="#DejaVuSans-48"/>
      </g>
     </g>
    </g>
    <g id="xtick_28">
     <g id="line2d_72">
      <path clip-path="url(#pfa88968965)" d="M 827.844034 1684.575458 
L 827.844034 1339.797445 
" style="fill:none;stroke:#cccccc;stroke-linecap:round;stroke-width:0.8;"/>
     </g>
     <g id="text_45">
      <!-- 12 -->
      <g style="fill:#262626;" transform="translate(811.937784 1710.571551)scale(0.25 -0.25)">
       <use xlink:href="#DejaVuSans-49"/>
       <use x="63.623047" xlink:href="#DejaVuSans-50"/>
      </g>
     </g>
    </g>
    <g id="text_46">
     <!-- Time (h) -->
     <g style="fill:#262626;" transform="translate(420.520703 1738.766864)scale(0.25 -0.25)">
      <use xlink:href="#DejaVuSans-84"/>
      <use x="57.958984" xlink:href="#DejaVuSans-105"/>
      <use x="85.742188" xlink:href="#DejaVuSans-109"/>
      <use x="183.154297" xlink:href="#DejaVuSans-101"/>
      <use x="244.677734" xlink:href="#DejaVuSans-32"/>
      <use x="276.464844" xlink:href="#DejaVuSans-40"/>
      <use x="315.478516" xlink:href="#DejaVuSans-104"/>
      <use x="378.857422" xlink:href="#DejaVuSans-41"/>
     </g>
    </g>
   </g>
   <g id="matplotlib.axis_8">
    <g id="ytick_15">
     <g id="line2d_73">
      <path clip-path="url(#pfa88968965)" d="M 82.153125 1669.467736 
L 863.353125 1669.467736 
" style="fill:none;stroke:#cccccc;stroke-linecap:round;stroke-width:0.8;"/>
     </g>
     <g id="text_47">
      <!-- 0.0 -->
      <g style="fill:#262626;" transform="translate(35.395312 1678.965783)scale(0.25 -0.25)">
       <defs>
        <path d="M 10.6875 12.40625 
L 21 12.40625 
L 21 0 
L 10.6875 0 
z
" id="DejaVuSans-46"/>
       </defs>
       <use xlink:href="#DejaVuSans-48"/>
       <use x="63.623047" xlink:href="#DejaVuSans-46"/>
       <use x="95.410156" xlink:href="#DejaVuSans-48"/>
      </g>
     </g>
    </g>
    <g id="ytick_16">
     <g id="line2d_74">
      <path clip-path="url(#pfa88968965)" d="M 82.153125 1556.666512 
L 863.353125 1556.666512 
" style="fill:none;stroke:#cccccc;stroke-linecap:round;stroke-width:0.8;"/>
     </g>
     <g id="text_48">
      <!-- 0.2 -->
      <g style="fill:#262626;" transform="translate(35.395312 1566.164559)scale(0.25 -0.25)">
       <use xlink:href="#DejaVuSans-48"/>
       <use x="63.623047" xlink:href="#DejaVuSans-46"/>
       <use x="95.410156" xlink:href="#DejaVuSans-50"/>
      </g>
     </g>
    </g>
    <g id="ytick_17">
     <g id="line2d_75">
      <path clip-path="url(#pfa88968965)" d="M 82.153125 1443.865288 
L 863.353125 1443.865288 
" style="fill:none;stroke:#cccccc;stroke-linecap:round;stroke-width:0.8;"/>
     </g>
     <g id="text_49">
      <!-- 0.4 -->
      <g style="fill:#262626;" transform="translate(35.395312 1453.363335)scale(0.25 -0.25)">
       <use xlink:href="#DejaVuSans-48"/>
       <use x="63.623047" xlink:href="#DejaVuSans-46"/>
       <use x="95.410156" xlink:href="#DejaVuSans-52"/>
      </g>
     </g>
    </g>
    <g id="text_50">
     <!-- OD -->
     <g style="fill:#262626;" transform="translate(26.196094 1531.651295)rotate(-90)scale(0.25 -0.25)">
      <use xlink:href="#DejaVuSans-79"/>
      <use x="78.710938" xlink:href="#DejaVuSans-68"/>
     </g>
    </g>
   </g>
   <g id="line2d_76">
    <path clip-path="url(#pfa88968965)" d="M 117.662216 1668.90373 
L 154.481651 1668.454566 
L 182.434349 1667.887977 
L 205.244797 1667.199066 
L 223.722544 1666.428132 
L 240.817804 1665.487421 
L 255.097785 1664.485159 
L 267.95977 1663.371112 
L 279.404941 1662.175475 
L 290.847746 1660.750344 
L 300.85835 1659.282349 
L 310.860078 1657.575667 
L 319.435523 1655.893631 
L 328.036417 1653.976236 
L 336.61778 1651.804756 
L 343.77227 1649.774221 
L 350.917291 1647.525755 
L 358.07119 1645.032565 
L 365.213251 1642.279764 
L 372.362415 1639.237064 
L 378.095358 1636.572756 
L 383.80226 1633.708394 
L 389.523367 1630.611493 
L 395.258677 1627.267106 
L 400.964988 1623.687867 
L 406.684319 1619.835987 
L 412.416078 1615.697366 
L 418.138368 1611.27584 
L 423.871902 1606.544393 
L 429.595376 1601.511202 
L 435.307013 1596.171756 
L 441.0512 1590.476987 
L 446.759879 1584.49119 
L 452.500515 1578.142737 
L 458.226948 1571.483517 
L 464.9429 1563.268203 
L 470.694781 1555.894387 
L 477.839802 1546.327716 
L 484.98364 1536.345371 
L 492.158251 1525.954123 
L 500.762696 1513.093655 
L 512.228581 1495.497792 
L 536.046896 1458.762945 
L 544.672054 1445.939702 
L 551.822401 1435.697915 
L 557.578425 1427.771373 
L 563.309 1420.206359 
L 569.04076 1413.001745 
L 574.77311 1406.187987 
L 580.505461 1399.79103 
L 584.79851 1395.284621 
L 589.12411 1390.99761 
L 593.423669 1386.992603 
L 597.726187 1383.243654 
L 602.060071 1379.729332 
L 606.337733 1376.517881 
L 610.646761 1373.539365 
L 614.987748 1370.796039 
L 619.269552 1368.337536 
L 623.583315 1366.1052 
L 627.89767 1364.109746 
L 632.182433 1362.357379 
L 636.497971 1360.814823 
L 640.814101 1359.487152 
L 645.758742 1358.219267 
L 650.079015 1357.323061 
L 654.399288 1356.614105 
L 658.685827 1356.087323 
L 664.450728 1355.639503 
L 670.171834 1355.471429 
L 742.042234 1355.469173 
L 827.844034 1355.469173 
L 827.844034 1355.469173 
" style="fill:none;stroke:#1b9e77;stroke-linecap:round;stroke-width:3;"/>
   </g>
   <g id="line2d_77">
    <path clip-path="url(#pfa88968965)" d="M 117.662216 1668.90373 
L 152.957365 1668.47883 
L 181.000965 1667.923532 
L 203.814964 1667.249906 
L 222.58507 1666.482288 
L 239.70992 1665.556269 
L 253.997595 1664.57055 
L 266.851886 1663.476017 
L 278.275752 1662.302997 
L 289.698435 1660.905051 
L 299.706672 1659.462775 
L 309.707216 1657.785815 
L 318.281478 1656.132713 
L 326.851597 1654.255137 
L 335.434144 1652.120712 
L 342.576798 1650.128304 
L 349.727145 1647.916554 
L 356.880451 1645.465271 
L 364.02784 1642.755898 
L 371.18233 1639.760011 
L 376.904028 1637.143473 
L 382.6204 1634.319777 
L 388.346832 1631.267488 
L 394.070306 1627.980292 
L 399.786678 1624.448147 
L 405.515478 1620.64511 
L 411.235992 1616.572647 
L 416.947038 1612.220551 
L 422.691225 1607.543812 
L 428.403454 1602.585634 
L 434.125744 1597.302589 
L 439.848034 1591.697496 
L 445.567957 1585.7681 
L 451.319838 1579.474919 
L 457.035026 1572.896352 
L 462.7585 1565.987277 
L 468.489667 1558.757283 
L 474.204855 1551.249233 
L 481.371773 1541.441731 
L 488.527447 1531.25578 
L 497.104076 1518.607379 
L 507.138353 1503.356089 
L 541.541928 1450.541428 
L 548.708254 1440.109007 
L 555.907722 1430.039806 
L 561.621727 1422.397523 
L 567.392546 1415.034423 
L 573.108326 1408.124784 
L 578.881512 1401.559753 
L 584.5967 1395.490483 
L 588.921116 1391.19332 
L 593.2189 1387.177597 
L 597.519642 1383.417932 
L 601.852343 1379.891766 
L 606.12823 1376.669035 
L 610.435482 1373.679238 
L 614.775285 1370.924632 
L 619.055314 1368.45485 
L 623.367301 1366.210669 
L 627.680472 1364.205063 
L 631.96346 1362.441416 
L 636.277815 1360.888143 
L 640.591578 1359.550321 
L 644.874566 1358.426821 
L 649.203124 1357.489443 
L 653.548845 1356.739314 
L 657.829466 1356.178692 
L 663.58549 1355.688007 
L 669.332044 1355.479889 
L 685.138324 1355.469173 
L 827.844034 1355.469173 
L 827.844034 1355.469173 
" style="fill:none;stroke:#d95f02;stroke-linecap:round;stroke-width:3;"/>
   </g>
   <g id="line2d_78">
    <path clip-path="url(#pfa88968965)" d="M 117.662216 1668.90373 
L 153.083954 1668.476839 
L 181.277344 1667.916736 
L 204.119159 1667.239178 
L 222.594539 1666.481842 
L 239.754899 1665.553477 
L 254.049083 1664.566613 
L 266.904558 1663.47111 
L 278.329016 1662.297075 
L 289.751107 1660.898001 
L 299.760528 1659.454484 
L 309.761663 1657.775945 
L 318.336517 1656.121321 
L 326.914921 1654.240304 
L 335.498652 1652.103623 
L 342.63953 1650.109861 
L 349.79047 1647.895855 
L 356.950286 1645.440116 
L 364.098858 1642.727754 
L 371.25394 1639.728595 
L 376.97623 1637.109182 
L 382.693193 1634.282383 
L 388.423769 1631.224793 
L 394.148426 1627.933874 
L 399.86539 1624.397781 
L 405.594781 1620.590514 
L 411.31648 1616.513596 
L 417.028117 1612.156818 
L 423.032704 1607.256169 
L 428.747892 1602.276559 
L 434.473733 1596.970953 
L 440.209635 1591.33202 
L 445.933109 1585.378371 
L 451.66546 1579.086319 
L 457.384199 1572.484063 
L 463.110631 1565.551864 
L 468.84535 1558.298182 
L 475.996289 1548.837543 
L 483.160248 1538.930211 
L 490.337227 1528.623 
L 498.915631 1515.885485 
L 510.09271 1498.80174 
L 538.750321 1454.697589 
L 547.373112 1442.024372 
L 554.556601 1431.894258 
L 560.28481 1424.156094 
L 566.042017 1416.724185 
L 571.744777 1409.737278 
L 577.130914 1403.50501 
L 582.857939 1397.29079 
L 587.168742 1392.903387 
L 591.483097 1388.768658 
L 595.77082 1384.915368 
L 600.0905 1381.293885 
L 604.382958 1377.953841 
L 608.677782 1374.868727 
L 613.003973 1372.017676 
L 617.301757 1369.437348 
L 621.600724 1367.101235 
L 625.632781 1365.127777 
L 629.931749 1363.250201 
L 634.230716 1361.597663 
L 638.561641 1360.153808 
L 642.8612 1358.929914 
L 647.16076 1357.907371 
L 651.491685 1357.07095 
L 655.789469 1356.424599 
L 660.086069 1355.951398 
L 665.864581 1355.57295 
L 671.599891 1355.469173 
L 827.844034 1355.469173 
L 827.844034 1355.469173 
" style="fill:none;stroke:#7570b3;stroke-linecap:round;stroke-width:3;"/>
   </g>
   <g id="line2d_79"/>
   <g id="line2d_80"/>
   <g id="line2d_81"/>
   <g id="patch_20">
    <path d="M 82.153125 1684.575458 
L 82.153125 1339.797445 
" style="fill:none;stroke:#cccccc;stroke-linecap:square;stroke-linejoin:miter;stroke-width:0.8;"/>
   </g>
   <g id="patch_21">
    <path d="M 863.353125 1684.575458 
L 863.353125 1339.797445 
" style="fill:none;stroke:#cccccc;stroke-linecap:square;stroke-linejoin:miter;stroke-width:0.8;"/>
   </g>
   <g id="patch_22">
    <path d="M 82.153125 1684.575458 
L 863.353125 1684.575458 
" style="fill:none;stroke:#cccccc;stroke-linecap:square;stroke-linejoin:miter;stroke-width:0.8;"/>
   </g>
   <g id="patch_23">
    <path d="M 82.153125 1339.797445 
L 863.353125 1339.797445 
" style="fill:none;stroke:#cccccc;stroke-linecap:square;stroke-linejoin:miter;stroke-width:0.8;"/>
   </g>
   <g id="text_51">
    <!-- V_a (setA_16) -->
    <g style="fill:#262626;" transform="translate(369.555469 1333.797445)scale(0.3 -0.3)">
     <use xlink:href="#DejaVuSans-86"/>
     <use x="68.408203" xlink:href="#DejaVuSans-95"/>
     <use x="118.408203" xlink:href="#DejaVuSans-97"/>
     <use x="179.6875" xlink:href="#DejaVuSans-32"/>
     <use x="211.474609" xlink:href="#DejaVuSans-40"/>
     <use x="250.488281" xlink:href="#DejaVuSans-115"/>
     <use x="302.587891" xlink:href="#DejaVuSans-101"/>
     <use x="364.111328" xlink:href="#DejaVuSans-116"/>
     <use x="403.320312" xlink:href="#DejaVuSans-65"/>
     <use x="471.728516" xlink:href="#DejaVuSans-95"/>
     <use x="521.728516" xlink:href="#DejaVuSans-49"/>
     <use x="585.351562" xlink:href="#DejaVuSans-54"/>
     <use x="648.974609" xlink:href="#DejaVuSans-41"/>
    </g>
   </g>
  </g>
 </g>
 <defs>
  <clipPath id="p4fddcb4d45">
   <rect height="344.778013" width="781.2" x="82.153125" y="53.775458"/>
  </clipPath>
  <clipPath id="p1a11a9888c">
   <rect height="344.778013" width="781.2" x="82.153125" y="450.270172"/>
  </clipPath>
  <clipPath id="pf0ee09aa8d">
   <rect height="344.778013" width="781.2" x="82.153125" y="943.30273"/>
  </clipPath>
  <clipPath id="pfa88968965">
   <rect height="344.778013" width="781.2" x="82.153125" y="1339.797445"/>
  </clipPath>
 </defs>
</svg>
