<?xml version="1.0" encoding="utf-8" standalone="no"?>
<!DOCTYPE svg PUBLIC "-//W3C//DTD SVG 1.1//EN"
  "http://www.w3.org/Graphics/SVG/1.1/DTD/svg11.dtd">
<!-- Created with matplotlib (https://matplotlib.org/) -->
<svg height="1751.166083pt" version="1.1" viewBox="0 0 1061.740625 1751.166083" width="1061.740625pt" xmlns="http://www.w3.org/2000/svg" xmlns:xlink="http://www.w3.org/1999/xlink">
 <metadata>
  <rdf:RDF xmlns:cc="http://creativecommons.org/ns#" xmlns:dc="http://purl.org/dc/elements/1.1/" xmlns:rdf="http://www.w3.org/1999/02/22-rdf-syntax-ns#">
   <cc:Work>
    <dc:type rdf:resource="http://purl.org/dc/dcmitype/StillImage"/>
    <dc:date>2021-05-03T15:59:39.367339</dc:date>
    <dc:format>image/svg+xml</dc:format>
    <dc:creator>
     <cc:Agent>
      <dc:title>Matplotlib v3.3.4, https://matplotlib.org/</dc:title>
     </cc:Agent>
    </dc:creator>
   </cc:Work>
  </rdf:RDF>
 </metadata>
 <defs>
  <style type="text/css">*{stroke-linecap:butt;stroke-linejoin:round;}</style>
 </defs>
 <g id="figure_1">
  <g id="patch_1">
   <path d="M 0 1751.166083 
L 1061.740625 1751.166083 
L 1061.740625 0 
L 0 0 
z
" style="fill:none;"/>
  </g>
  <g id="axes_1">
   <g id="patch_2">
    <path d="M 113.965625 398.55347 
L 895.165625 398.55347 
L 895.165625 53.775458 
L 113.965625 53.775458 
z
" style="fill:none;"/>
   </g>
   <g id="matplotlib.axis_1">
    <g id="xtick_1">
     <g id="line2d_1">
      <path clip-path="url(#p2614aa0372)" d="M 149.474716 398.55347 
L 149.474716 53.775458 
" style="fill:none;stroke:#cccccc;stroke-linecap:round;stroke-width:0.8;"/>
     </g>
    </g>
    <g id="xtick_2">
     <g id="line2d_2">
      <path clip-path="url(#p2614aa0372)" d="M 267.838352 398.55347 
L 267.838352 53.775458 
" style="fill:none;stroke:#cccccc;stroke-linecap:round;stroke-width:0.8;"/>
     </g>
    </g>
    <g id="xtick_3">
     <g id="line2d_3">
      <path clip-path="url(#p2614aa0372)" d="M 386.201989 398.55347 
L 386.201989 53.775458 
" style="fill:none;stroke:#cccccc;stroke-linecap:round;stroke-width:0.8;"/>
     </g>
    </g>
    <g id="xtick_4">
     <g id="line2d_4">
      <path clip-path="url(#p2614aa0372)" d="M 504.565625 398.55347 
L 504.565625 53.775458 
" style="fill:none;stroke:#cccccc;stroke-linecap:round;stroke-width:0.8;"/>
     </g>
    </g>
    <g id="xtick_5">
     <g id="line2d_5">
      <path clip-path="url(#p2614aa0372)" d="M 622.929261 398.55347 
L 622.929261 53.775458 
" style="fill:none;stroke:#cccccc;stroke-linecap:round;stroke-width:0.8;"/>
     </g>
    </g>
    <g id="xtick_6">
     <g id="line2d_6">
      <path clip-path="url(#p2614aa0372)" d="M 741.292898 398.55347 
L 741.292898 53.775458 
" style="fill:none;stroke:#cccccc;stroke-linecap:round;stroke-width:0.8;"/>
     </g>
    </g>
    <g id="xtick_7">
     <g id="line2d_7">
      <path clip-path="url(#p2614aa0372)" d="M 859.656534 398.55347 
L 859.656534 53.775458 
" style="fill:none;stroke:#cccccc;stroke-linecap:round;stroke-width:0.8;"/>
     </g>
    </g>
   </g>
   <g id="matplotlib.axis_2">
    <g id="ytick_1">
     <g id="line2d_8">
      <path clip-path="url(#p2614aa0372)" d="M 113.965625 382.904954 
L 895.165625 382.904954 
" style="fill:none;stroke:#cccccc;stroke-linecap:round;stroke-width:0.8;"/>
     </g>
     <g id="text_1">
      <!-- 0.0 -->
      <g style="fill:#262626;" transform="translate(67.207813 392.403001)scale(0.25 -0.25)">
       <defs>
        <path d="M 31.78125 66.40625 
Q 24.171875 66.40625 20.328125 58.90625 
Q 16.5 51.421875 16.5 36.375 
Q 16.5 21.390625 20.328125 13.890625 
Q 24.171875 6.390625 31.78125 6.390625 
Q 39.453125 6.390625 43.28125 13.890625 
Q 47.125 21.390625 47.125 36.375 
Q 47.125 51.421875 43.28125 58.90625 
Q 39.453125 66.40625 31.78125 66.40625 
z
M 31.78125 74.21875 
Q 44.046875 74.21875 50.515625 64.515625 
Q 56.984375 54.828125 56.984375 36.375 
Q 56.984375 17.96875 50.515625 8.265625 
Q 44.046875 -1.421875 31.78125 -1.421875 
Q 19.53125 -1.421875 13.0625 8.265625 
Q 6.59375 17.96875 6.59375 36.375 
Q 6.59375 54.828125 13.0625 64.515625 
Q 19.53125 74.21875 31.78125 74.21875 
z
" id="DejaVuSans-48"/>
        <path d="M 10.6875 12.40625 
L 21 12.40625 
L 21 0 
L 10.6875 0 
z
" id="DejaVuSans-46"/>
       </defs>
       <use xlink:href="#DejaVuSans-48"/>
       <use x="63.623047" xlink:href="#DejaVuSans-46"/>
       <use x="95.410156" xlink:href="#DejaVuSans-48"/>
      </g>
     </g>
    </g>
    <g id="ytick_2">
     <g id="line2d_9">
      <path clip-path="url(#p2614aa0372)" d="M 113.965625 324.876562 
L 895.165625 324.876562 
" style="fill:none;stroke:#cccccc;stroke-linecap:round;stroke-width:0.8;"/>
     </g>
     <g id="text_2">
      <!-- 2.5 -->
      <g style="fill:#262626;" transform="translate(67.207813 334.374609)scale(0.25 -0.25)">
       <defs>
        <path d="M 19.1875 8.296875 
L 53.609375 8.296875 
L 53.609375 0 
L 7.328125 0 
L 7.328125 8.296875 
Q 12.9375 14.109375 22.625 23.890625 
Q 32.328125 33.6875 34.8125 36.53125 
Q 39.546875 41.84375 41.421875 45.53125 
Q 43.3125 49.21875 43.3125 52.78125 
Q 43.3125 58.59375 39.234375 62.25 
Q 35.15625 65.921875 28.609375 65.921875 
Q 23.96875 65.921875 18.8125 64.3125 
Q 13.671875 62.703125 7.8125 59.421875 
L 7.8125 69.390625 
Q 13.765625 71.78125 18.9375 73 
Q 24.125 74.21875 28.421875 74.21875 
Q 39.75 74.21875 46.484375 68.546875 
Q 53.21875 62.890625 53.21875 53.421875 
Q 53.21875 48.921875 51.53125 44.890625 
Q 49.859375 40.875 45.40625 35.40625 
Q 44.1875 33.984375 37.640625 27.21875 
Q 31.109375 20.453125 19.1875 8.296875 
z
" id="DejaVuSans-50"/>
        <path d="M 10.796875 72.90625 
L 49.515625 72.90625 
L 49.515625 64.59375 
L 19.828125 64.59375 
L 19.828125 46.734375 
Q 21.96875 47.46875 24.109375 47.828125 
Q 26.265625 48.1875 28.421875 48.1875 
Q 40.625 48.1875 47.75 41.5 
Q 54.890625 34.8125 54.890625 23.390625 
Q 54.890625 11.625 47.5625 5.09375 
Q 40.234375 -1.421875 26.90625 -1.421875 
Q 22.3125 -1.421875 17.546875 -0.640625 
Q 12.796875 0.140625 7.71875 1.703125 
L 7.71875 11.625 
Q 12.109375 9.234375 16.796875 8.0625 
Q 21.484375 6.890625 26.703125 6.890625 
Q 35.15625 6.890625 40.078125 11.328125 
Q 45.015625 15.765625 45.015625 23.390625 
Q 45.015625 31 40.078125 35.4375 
Q 35.15625 39.890625 26.703125 39.890625 
Q 22.75 39.890625 18.8125 39.015625 
Q 14.890625 38.140625 10.796875 36.28125 
z
" id="DejaVuSans-53"/>
       </defs>
       <use xlink:href="#DejaVuSans-50"/>
       <use x="63.623047" xlink:href="#DejaVuSans-46"/>
       <use x="95.410156" xlink:href="#DejaVuSans-53"/>
      </g>
     </g>
    </g>
    <g id="ytick_3">
     <g id="line2d_10">
      <path clip-path="url(#p2614aa0372)" d="M 113.965625 266.84817 
L 895.165625 266.84817 
" style="fill:none;stroke:#cccccc;stroke-linecap:round;stroke-width:0.8;"/>
     </g>
     <g id="text_3">
      <!-- 5.0 -->
      <g style="fill:#262626;" transform="translate(67.207813 276.346216)scale(0.25 -0.25)">
       <use xlink:href="#DejaVuSans-53"/>
       <use x="63.623047" xlink:href="#DejaVuSans-46"/>
       <use x="95.410156" xlink:href="#DejaVuSans-48"/>
      </g>
     </g>
    </g>
    <g id="ytick_4">
     <g id="line2d_11">
      <path clip-path="url(#p2614aa0372)" d="M 113.965625 208.819777 
L 895.165625 208.819777 
" style="fill:none;stroke:#cccccc;stroke-linecap:round;stroke-width:0.8;"/>
     </g>
     <g id="text_4">
      <!-- 7.5 -->
      <g style="fill:#262626;" transform="translate(67.207813 218.317824)scale(0.25 -0.25)">
       <defs>
        <path d="M 8.203125 72.90625 
L 55.078125 72.90625 
L 55.078125 68.703125 
L 28.609375 0 
L 18.3125 0 
L 43.21875 64.59375 
L 8.203125 64.59375 
z
" id="DejaVuSans-55"/>
       </defs>
       <use xlink:href="#DejaVuSans-55"/>
       <use x="63.623047" xlink:href="#DejaVuSans-46"/>
       <use x="95.410156" xlink:href="#DejaVuSans-53"/>
      </g>
     </g>
    </g>
    <g id="ytick_5">
     <g id="line2d_12">
      <path clip-path="url(#p2614aa0372)" d="M 113.965625 150.791385 
L 895.165625 150.791385 
" style="fill:none;stroke:#cccccc;stroke-linecap:round;stroke-width:0.8;"/>
     </g>
     <g id="text_5">
      <!-- 10.0 -->
      <g style="fill:#262626;" transform="translate(51.301563 160.289432)scale(0.25 -0.25)">
       <defs>
        <path d="M 12.40625 8.296875 
L 28.515625 8.296875 
L 28.515625 63.921875 
L 10.984375 60.40625 
L 10.984375 69.390625 
L 28.421875 72.90625 
L 38.28125 72.90625 
L 38.28125 8.296875 
L 54.390625 8.296875 
L 54.390625 0 
L 12.40625 0 
z
" id="DejaVuSans-49"/>
       </defs>
       <use xlink:href="#DejaVuSans-49"/>
       <use x="63.623047" xlink:href="#DejaVuSans-48"/>
       <use x="127.246094" xlink:href="#DejaVuSans-46"/>
       <use x="159.033203" xlink:href="#DejaVuSans-48"/>
      </g>
     </g>
    </g>
    <g id="ytick_6">
     <g id="line2d_13">
      <path clip-path="url(#p2614aa0372)" d="M 113.965625 92.762993 
L 895.165625 92.762993 
" style="fill:none;stroke:#cccccc;stroke-linecap:round;stroke-width:0.8;"/>
     </g>
     <g id="text_6">
      <!-- 12.5 -->
      <g style="fill:#262626;" transform="translate(51.301563 102.26104)scale(0.25 -0.25)">
       <use xlink:href="#DejaVuSans-49"/>
       <use x="63.623047" xlink:href="#DejaVuSans-50"/>
       <use x="127.246094" xlink:href="#DejaVuSans-46"/>
       <use x="159.033203" xlink:href="#DejaVuSans-53"/>
      </g>
     </g>
    </g>
    <g id="text_7">
     <!-- OD -->
     <g style="fill:#262626;" transform="translate(42.102344 245.629308)rotate(-90)scale(0.25 -0.25)">
      <defs>
       <path d="M 39.40625 66.21875 
Q 28.65625 66.21875 22.328125 58.203125 
Q 16.015625 50.203125 16.015625 36.375 
Q 16.015625 22.609375 22.328125 14.59375 
Q 28.65625 6.59375 39.40625 6.59375 
Q 50.140625 6.59375 56.421875 14.59375 
Q 62.703125 22.609375 62.703125 36.375 
Q 62.703125 50.203125 56.421875 58.203125 
Q 50.140625 66.21875 39.40625 66.21875 
z
M 39.40625 74.21875 
Q 54.734375 74.21875 63.90625 63.9375 
Q 73.09375 53.65625 73.09375 36.375 
Q 73.09375 19.140625 63.90625 8.859375 
Q 54.734375 -1.421875 39.40625 -1.421875 
Q 24.03125 -1.421875 14.8125 8.828125 
Q 5.609375 19.09375 5.609375 36.375 
Q 5.609375 53.65625 14.8125 63.9375 
Q 24.03125 74.21875 39.40625 74.21875 
z
" id="DejaVuSans-79"/>
       <path d="M 19.671875 64.796875 
L 19.671875 8.109375 
L 31.59375 8.109375 
Q 46.6875 8.109375 53.6875 14.9375 
Q 60.6875 21.78125 60.6875 36.53125 
Q 60.6875 51.171875 53.6875 57.984375 
Q 46.6875 64.796875 31.59375 64.796875 
z
M 9.8125 72.90625 
L 30.078125 72.90625 
Q 51.265625 72.90625 61.171875 64.09375 
Q 71.09375 55.28125 71.09375 36.53125 
Q 71.09375 17.671875 61.125 8.828125 
Q 51.171875 0 30.078125 0 
L 9.8125 0 
z
" id="DejaVuSans-68"/>
      </defs>
      <use xlink:href="#DejaVuSans-79"/>
      <use x="78.710938" xlink:href="#DejaVuSans-68"/>
     </g>
    </g>
   </g>
   <g id="line2d_14">
    <path clip-path="url(#p2614aa0372)" d="M 149.474716 382.881742 
L 171.131296 382.720573 
L 181.208184 382.42135 
L 187.282251 382.040164 
L 191.720828 381.58257 
L 196.02891 380.907969 
L 198.921007 380.27137 
L 201.779074 379.443189 
L 204.643829 378.351744 
L 207.507342 376.917074 
L 210.352685 375.044265 
L 211.7766 373.897763 
L 213.196963 372.58732 
L 214.622061 371.081228 
L 216.046568 369.356856 
L 217.467523 367.385492 
L 218.890254 365.125542 
L 220.312985 362.537452 
L 221.73394 359.57638 
L 223.154896 356.185897 
L 224.575851 352.304958 
L 225.997399 347.860911 
L 227.418354 342.776696 
L 228.83931 336.957144 
L 230.259673 330.300824 
L 231.680629 322.687266 
L 233.100992 313.97999 
L 234.521356 304.029281 
L 235.942903 292.655252 
L 237.363267 279.674301 
L 238.78363 264.858956 
L 240.204586 247.975247 
L 241.62495 228.762975 
L 243.045313 206.944764 
L 244.466269 182.26436 
L 245.886632 154.53793 
L 248.727951 92.373043 
L 250.149499 71.373728 
L 251.580515 69.447185 
L 859.656534 69.447185 
L 859.656534 69.447185 
" style="fill:none;stroke:#1b9e77;stroke-linecap:round;stroke-width:3;"/>
   </g>
   <g id="line2d_15">
    <path clip-path="url(#p2614aa0372)" d="M 149.474716 382.881742 
L 170.568655 382.730237 
L 179.943528 382.47647 
L 185.915802 382.146156 
L 190.370062 381.742898 
L 194.722057 381.142683 
L 197.618237 380.579988 
L 200.513116 379.83806 
L 203.383197 378.869033 
L 206.247242 377.596981 
L 209.102173 375.930452 
L 210.531414 374.908664 
L 211.956512 373.741365 
L 213.382202 372.4033 
L 214.806709 370.870538 
L 216.228256 369.11952 
L 217.652762 367.108929 
L 219.073718 364.811098 
L 220.495265 362.179394 
L 221.917996 359.162521 
L 223.339543 355.710992 
L 224.762274 351.757402 
L 226.182638 347.236062 
L 227.604777 342.057144 
L 229.026324 336.131749 
L 230.44728 329.35264 
L 231.868827 321.598654 
L 233.289782 312.732612 
L 234.710146 302.604104 
L 236.131101 291.030457 
L 237.551465 277.817857 
L 238.97242 262.74092 
L 240.393376 245.562659 
L 241.81374 226.018232 
L 243.234695 203.834442 
L 245.136799 169.551732 
L 246.557754 140.39734 
L 249.399073 79.671788 
L 250.822988 69.533067 
L 253.679102 69.447185 
L 859.656534 69.447185 
L 859.656534 69.447185 
" style="fill:none;stroke:#d95f02;stroke-linecap:round;stroke-width:3;"/>
   </g>
   <g id="line2d_16">
    <path clip-path="url(#p2614aa0372)" d="M 149.474716 382.881742 
L 171.131296 382.720573 
L 181.168592 382.423176 
L 187.236918 382.043905 
L 191.692776 381.586112 
L 196.011273 380.91133 
L 198.908638 380.27448 
L 201.770019 379.446183 
L 204.637142 378.354646 
L 207.502429 376.919882 
L 210.349134 375.046958 
L 211.77364 373.900433 
L 213.194596 372.589943 
L 214.619694 371.083781 
L 216.0442 369.359386 
L 217.465748 367.387976 
L 218.88907 365.127979 
L 220.311801 362.539843 
L 221.732757 359.578701 
L 223.154304 356.188218 
L 224.57526 352.307279 
L 225.996807 347.863233 
L 227.417762 342.779017 
L 228.838718 336.959233 
L 230.259081 330.303145 
L 231.680037 322.689355 
L 233.100992 313.982079 
L 234.521356 304.031371 
L 235.94172 292.663609 
L 237.362083 279.682425 
L 238.783039 264.867312 
L 240.203994 247.983836 
L 241.624358 228.771796 
L 243.045313 206.954049 
L 244.465677 182.274341 
L 245.88604 154.549536 
L 248.69481 93.069383 
L 250.115173 71.580309 
L 251.550332 69.447185 
L 859.656534 69.447185 
L 859.656534 69.447185 
" style="fill:none;stroke:#7570b3;stroke-linecap:round;stroke-width:3;"/>
   </g>
   <g id="line2d_17"/>
   <g id="line2d_18"/>
   <g id="line2d_19"/>
   <g id="patch_3">
    <path d="M 113.965625 398.55347 
L 113.965625 53.775458 
" style="fill:none;stroke:#cccccc;stroke-linecap:square;stroke-linejoin:miter;stroke-width:0.8;"/>
   </g>
   <g id="patch_4">
    <path d="M 895.165625 398.55347 
L 895.165625 53.775458 
" style="fill:none;stroke:#cccccc;stroke-linecap:square;stroke-linejoin:miter;stroke-width:0.8;"/>
   </g>
   <g id="patch_5">
    <path d="M 113.965625 398.55347 
L 895.165625 398.55347 
" style="fill:none;stroke:#cccccc;stroke-linecap:square;stroke-linejoin:miter;stroke-width:0.8;"/>
   </g>
   <g id="patch_6">
    <path d="M 113.965625 53.775458 
L 895.165625 53.775458 
" style="fill:none;stroke:#cccccc;stroke-linecap:square;stroke-linejoin:miter;stroke-width:0.8;"/>
   </g>
   <g id="text_8">
    <!-- EU_avg -->
    <g style="fill:#262626;" transform="translate(63.494922 25.500781)scale(0.25 -0.25)">
     <defs>
      <path d="M 9.1875 72.90625 
L 59.90625 72.90625 
L 59.90625 58.6875 
L 27.984375 58.6875 
L 27.984375 45.125 
L 58.015625 45.125 
L 58.015625 30.90625 
L 27.984375 30.90625 
L 27.984375 14.203125 
L 60.984375 14.203125 
L 60.984375 0 
L 9.1875 0 
z
" id="DejaVuSans-Bold-69"/>
      <path d="M 9.1875 72.90625 
L 27.984375 72.90625 
L 27.984375 29.203125 
Q 27.984375 20.171875 30.9375 16.28125 
Q 33.890625 12.40625 40.578125 12.40625 
Q 47.3125 12.40625 50.265625 16.28125 
Q 53.21875 20.171875 53.21875 29.203125 
L 53.21875 72.90625 
L 72.015625 72.90625 
L 72.015625 29.203125 
Q 72.015625 13.71875 64.25 6.140625 
Q 56.5 -1.421875 40.578125 -1.421875 
Q 24.703125 -1.421875 16.9375 6.140625 
Q 9.1875 13.71875 9.1875 29.203125 
z
" id="DejaVuSans-Bold-85"/>
      <path d="M 50 -14.3125 
L 50 -23.578125 
L 0 -23.578125 
L 0 -14.3125 
z
" id="DejaVuSans-Bold-95"/>
      <path d="M 32.90625 24.609375 
Q 27.4375 24.609375 24.671875 22.75 
Q 21.921875 20.90625 21.921875 17.28125 
Q 21.921875 13.96875 24.140625 12.078125 
Q 26.375 10.203125 30.328125 10.203125 
Q 35.25 10.203125 38.625 13.734375 
Q 42 17.28125 42 22.609375 
L 42 24.609375 
z
M 59.625 31.203125 
L 59.625 0 
L 42 0 
L 42 8.109375 
Q 38.484375 3.125 34.078125 0.84375 
Q 29.6875 -1.421875 23.390625 -1.421875 
Q 14.890625 -1.421875 9.59375 3.53125 
Q 4.296875 8.5 4.296875 16.40625 
Q 4.296875 26.03125 10.90625 30.515625 
Q 17.53125 35.015625 31.6875 35.015625 
L 42 35.015625 
L 42 36.375 
Q 42 40.53125 38.71875 42.453125 
Q 35.453125 44.390625 28.515625 44.390625 
Q 22.90625 44.390625 18.0625 43.265625 
Q 13.234375 42.140625 9.078125 39.890625 
L 9.078125 53.21875 
Q 14.703125 54.59375 20.359375 55.296875 
Q 26.03125 56 31.6875 56 
Q 46.484375 56 53.046875 50.171875 
Q 59.625 44.34375 59.625 31.203125 
z
" id="DejaVuSans-Bold-97"/>
      <path d="M 1.515625 54.6875 
L 19 54.6875 
L 32.625 16.890625 
L 46.1875 54.6875 
L 63.71875 54.6875 
L 42.1875 0 
L 23 0 
z
" id="DejaVuSans-Bold-118"/>
      <path d="M 45.609375 9.28125 
Q 42 4.5 37.640625 2.25 
Q 33.296875 0 27.59375 0 
Q 17.578125 0 11.03125 7.875 
Q 4.5 15.765625 4.5 27.984375 
Q 4.5 40.234375 11.03125 48.0625 
Q 17.578125 55.90625 27.59375 55.90625 
Q 33.296875 55.90625 37.640625 53.65625 
Q 42 51.421875 45.609375 46.578125 
L 45.609375 54.6875 
L 63.1875 54.6875 
L 63.1875 5.515625 
Q 63.1875 -7.671875 54.859375 -14.625 
Q 46.53125 -21.578125 30.71875 -21.578125 
Q 25.59375 -21.578125 20.796875 -20.796875 
Q 16.015625 -20.015625 11.1875 -18.40625 
L 11.1875 -4.78125 
Q 15.765625 -7.421875 20.15625 -8.71875 
Q 24.5625 -10.015625 29 -10.015625 
Q 37.59375 -10.015625 41.59375 -6.25 
Q 45.609375 -2.484375 45.609375 5.515625 
z
M 34.078125 43.3125 
Q 28.65625 43.3125 25.625 39.296875 
Q 22.609375 35.296875 22.609375 27.984375 
Q 22.609375 20.453125 25.53125 16.578125 
Q 28.46875 12.703125 34.078125 12.703125 
Q 39.546875 12.703125 42.578125 16.703125 
Q 45.609375 20.703125 45.609375 27.984375 
Q 45.609375 35.296875 42.578125 39.296875 
Q 39.546875 43.3125 34.078125 43.3125 
z
" id="DejaVuSans-Bold-103"/>
     </defs>
     <use xlink:href="#DejaVuSans-Bold-69"/>
     <use x="68.310547" xlink:href="#DejaVuSans-Bold-85"/>
     <use x="149.511719" xlink:href="#DejaVuSans-Bold-95"/>
     <use x="199.511719" xlink:href="#DejaVuSans-Bold-97"/>
     <use x="266.992188" xlink:href="#DejaVuSans-Bold-118"/>
     <use x="332.177734" xlink:href="#DejaVuSans-Bold-103"/>
    </g>
   </g>
   <g id="text_9">
    <!-- II_a (setA_11) -->
    <g style="fill:#262626;" transform="translate(402.778906 47.775458)scale(0.3 -0.3)">
     <defs>
      <path d="M 9.8125 72.90625 
L 19.671875 72.90625 
L 19.671875 0 
L 9.8125 0 
z
" id="DejaVuSans-73"/>
      <path d="M 50.984375 -16.609375 
L 50.984375 -23.578125 
L -0.984375 -23.578125 
L -0.984375 -16.609375 
z
" id="DejaVuSans-95"/>
      <path d="M 34.28125 27.484375 
Q 23.390625 27.484375 19.1875 25 
Q 14.984375 22.515625 14.984375 16.5 
Q 14.984375 11.71875 18.140625 8.90625 
Q 21.296875 6.109375 26.703125 6.109375 
Q 34.1875 6.109375 38.703125 11.40625 
Q 43.21875 16.703125 43.21875 25.484375 
L 43.21875 27.484375 
z
M 52.203125 31.203125 
L 52.203125 0 
L 43.21875 0 
L 43.21875 8.296875 
Q 40.140625 3.328125 35.546875 0.953125 
Q 30.953125 -1.421875 24.3125 -1.421875 
Q 15.921875 -1.421875 10.953125 3.296875 
Q 6 8.015625 6 15.921875 
Q 6 25.140625 12.171875 29.828125 
Q 18.359375 34.515625 30.609375 34.515625 
L 43.21875 34.515625 
L 43.21875 35.40625 
Q 43.21875 41.609375 39.140625 45 
Q 35.0625 48.390625 27.6875 48.390625 
Q 23 48.390625 18.546875 47.265625 
Q 14.109375 46.140625 10.015625 43.890625 
L 10.015625 52.203125 
Q 14.9375 54.109375 19.578125 55.046875 
Q 24.21875 56 28.609375 56 
Q 40.484375 56 46.34375 49.84375 
Q 52.203125 43.703125 52.203125 31.203125 
z
" id="DejaVuSans-97"/>
      <path id="DejaVuSans-32"/>
      <path d="M 31 75.875 
Q 24.46875 64.65625 21.28125 53.65625 
Q 18.109375 42.671875 18.109375 31.390625 
Q 18.109375 20.125 21.3125 9.0625 
Q 24.515625 -2 31 -13.1875 
L 23.1875 -13.1875 
Q 15.875 -1.703125 12.234375 9.375 
Q 8.59375 20.453125 8.59375 31.390625 
Q 8.59375 42.28125 12.203125 53.3125 
Q 15.828125 64.359375 23.1875 75.875 
z
" id="DejaVuSans-40"/>
      <path d="M 44.28125 53.078125 
L 44.28125 44.578125 
Q 40.484375 46.53125 36.375 47.5 
Q 32.28125 48.484375 27.875 48.484375 
Q 21.1875 48.484375 17.84375 46.4375 
Q 14.5 44.390625 14.5 40.28125 
Q 14.5 37.15625 16.890625 35.375 
Q 19.28125 33.59375 26.515625 31.984375 
L 29.59375 31.296875 
Q 39.15625 29.25 43.1875 25.515625 
Q 47.21875 21.78125 47.21875 15.09375 
Q 47.21875 7.46875 41.1875 3.015625 
Q 35.15625 -1.421875 24.609375 -1.421875 
Q 20.21875 -1.421875 15.453125 -0.5625 
Q 10.6875 0.296875 5.421875 2 
L 5.421875 11.28125 
Q 10.40625 8.6875 15.234375 7.390625 
Q 20.0625 6.109375 24.8125 6.109375 
Q 31.15625 6.109375 34.5625 8.28125 
Q 37.984375 10.453125 37.984375 14.40625 
Q 37.984375 18.0625 35.515625 20.015625 
Q 33.0625 21.96875 24.703125 23.78125 
L 21.578125 24.515625 
Q 13.234375 26.265625 9.515625 29.90625 
Q 5.8125 33.546875 5.8125 39.890625 
Q 5.8125 47.609375 11.28125 51.796875 
Q 16.75 56 26.8125 56 
Q 31.78125 56 36.171875 55.265625 
Q 40.578125 54.546875 44.28125 53.078125 
z
" id="DejaVuSans-115"/>
      <path d="M 56.203125 29.59375 
L 56.203125 25.203125 
L 14.890625 25.203125 
Q 15.484375 15.921875 20.484375 11.0625 
Q 25.484375 6.203125 34.421875 6.203125 
Q 39.59375 6.203125 44.453125 7.46875 
Q 49.3125 8.734375 54.109375 11.28125 
L 54.109375 2.78125 
Q 49.265625 0.734375 44.1875 -0.34375 
Q 39.109375 -1.421875 33.890625 -1.421875 
Q 20.796875 -1.421875 13.15625 6.1875 
Q 5.515625 13.8125 5.515625 26.8125 
Q 5.515625 40.234375 12.765625 48.109375 
Q 20.015625 56 32.328125 56 
Q 43.359375 56 49.78125 48.890625 
Q 56.203125 41.796875 56.203125 29.59375 
z
M 47.21875 32.234375 
Q 47.125 39.59375 43.09375 43.984375 
Q 39.0625 48.390625 32.421875 48.390625 
Q 24.90625 48.390625 20.390625 44.140625 
Q 15.875 39.890625 15.1875 32.171875 
z
" id="DejaVuSans-101"/>
      <path d="M 18.3125 70.21875 
L 18.3125 54.6875 
L 36.8125 54.6875 
L 36.8125 47.703125 
L 18.3125 47.703125 
L 18.3125 18.015625 
Q 18.3125 11.328125 20.140625 9.421875 
Q 21.96875 7.515625 27.59375 7.515625 
L 36.8125 7.515625 
L 36.8125 0 
L 27.59375 0 
Q 17.1875 0 13.234375 3.875 
Q 9.28125 7.765625 9.28125 18.015625 
L 9.28125 47.703125 
L 2.6875 47.703125 
L 2.6875 54.6875 
L 9.28125 54.6875 
L 9.28125 70.21875 
z
" id="DejaVuSans-116"/>
      <path d="M 34.1875 63.1875 
L 20.796875 26.90625 
L 47.609375 26.90625 
z
M 28.609375 72.90625 
L 39.796875 72.90625 
L 67.578125 0 
L 57.328125 0 
L 50.6875 18.703125 
L 17.828125 18.703125 
L 11.1875 0 
L 0.78125 0 
z
" id="DejaVuSans-65"/>
      <path d="M 8.015625 75.875 
L 15.828125 75.875 
Q 23.140625 64.359375 26.78125 53.3125 
Q 30.421875 42.28125 30.421875 31.390625 
Q 30.421875 20.453125 26.78125 9.375 
Q 23.140625 -1.703125 15.828125 -13.1875 
L 8.015625 -13.1875 
Q 14.5 -2 17.703125 9.0625 
Q 20.90625 20.125 20.90625 31.390625 
Q 20.90625 42.671875 17.703125 53.65625 
Q 14.5 64.65625 8.015625 75.875 
z
" id="DejaVuSans-41"/>
     </defs>
     <use xlink:href="#DejaVuSans-73"/>
     <use x="29.492188" xlink:href="#DejaVuSans-73"/>
     <use x="58.984375" xlink:href="#DejaVuSans-95"/>
     <use x="108.984375" xlink:href="#DejaVuSans-97"/>
     <use x="170.263672" xlink:href="#DejaVuSans-32"/>
     <use x="202.050781" xlink:href="#DejaVuSans-40"/>
     <use x="241.064453" xlink:href="#DejaVuSans-115"/>
     <use x="293.164062" xlink:href="#DejaVuSans-101"/>
     <use x="354.6875" xlink:href="#DejaVuSans-116"/>
     <use x="393.896484" xlink:href="#DejaVuSans-65"/>
     <use x="462.304688" xlink:href="#DejaVuSans-95"/>
     <use x="512.304688" xlink:href="#DejaVuSans-49"/>
     <use x="575.927734" xlink:href="#DejaVuSans-49"/>
     <use x="639.550781" xlink:href="#DejaVuSans-41"/>
    </g>
   </g>
   <g id="legend_1">
    <g id="patch_7">
     <path d="M 912.665625 220.556708 
L 1049.540625 220.556708 
Q 1054.540625 220.556708 1054.540625 215.556708 
L 1054.540625 71.275458 
Q 1054.540625 66.275458 1049.540625 66.275458 
L 912.665625 66.275458 
Q 907.665625 66.275458 907.665625 71.275458 
L 907.665625 215.556708 
Q 907.665625 220.556708 912.665625 220.556708 
z
" style="fill:#ffffff;opacity:0.8;stroke:#cccccc;stroke-linejoin:miter;"/>
    </g>
    <g id="text_10">
     <!-- Replicate -->
     <g style="fill:#262626;" transform="translate(923.282813 95.271551)scale(0.25 -0.25)">
      <defs>
       <path d="M 44.390625 34.1875 
Q 47.5625 33.109375 50.5625 29.59375 
Q 53.5625 26.078125 56.59375 19.921875 
L 66.609375 0 
L 56 0 
L 46.6875 18.703125 
Q 43.0625 26.03125 39.671875 28.421875 
Q 36.28125 30.8125 30.421875 30.8125 
L 19.671875 30.8125 
L 19.671875 0 
L 9.8125 0 
L 9.8125 72.90625 
L 32.078125 72.90625 
Q 44.578125 72.90625 50.734375 67.671875 
Q 56.890625 62.453125 56.890625 51.90625 
Q 56.890625 45.015625 53.6875 40.46875 
Q 50.484375 35.9375 44.390625 34.1875 
z
M 19.671875 64.796875 
L 19.671875 38.921875 
L 32.078125 38.921875 
Q 39.203125 38.921875 42.84375 42.21875 
Q 46.484375 45.515625 46.484375 51.90625 
Q 46.484375 58.296875 42.84375 61.546875 
Q 39.203125 64.796875 32.078125 64.796875 
z
" id="DejaVuSans-82"/>
       <path d="M 18.109375 8.203125 
L 18.109375 -20.796875 
L 9.078125 -20.796875 
L 9.078125 54.6875 
L 18.109375 54.6875 
L 18.109375 46.390625 
Q 20.953125 51.265625 25.265625 53.625 
Q 29.59375 56 35.59375 56 
Q 45.5625 56 51.78125 48.09375 
Q 58.015625 40.1875 58.015625 27.296875 
Q 58.015625 14.40625 51.78125 6.484375 
Q 45.5625 -1.421875 35.59375 -1.421875 
Q 29.59375 -1.421875 25.265625 0.953125 
Q 20.953125 3.328125 18.109375 8.203125 
z
M 48.6875 27.296875 
Q 48.6875 37.203125 44.609375 42.84375 
Q 40.53125 48.484375 33.40625 48.484375 
Q 26.265625 48.484375 22.1875 42.84375 
Q 18.109375 37.203125 18.109375 27.296875 
Q 18.109375 17.390625 22.1875 11.75 
Q 26.265625 6.109375 33.40625 6.109375 
Q 40.53125 6.109375 44.609375 11.75 
Q 48.6875 17.390625 48.6875 27.296875 
z
" id="DejaVuSans-112"/>
       <path d="M 9.421875 75.984375 
L 18.40625 75.984375 
L 18.40625 0 
L 9.421875 0 
z
" id="DejaVuSans-108"/>
       <path d="M 9.421875 54.6875 
L 18.40625 54.6875 
L 18.40625 0 
L 9.421875 0 
z
M 9.421875 75.984375 
L 18.40625 75.984375 
L 18.40625 64.59375 
L 9.421875 64.59375 
z
" id="DejaVuSans-105"/>
       <path d="M 48.78125 52.59375 
L 48.78125 44.1875 
Q 44.96875 46.296875 41.140625 47.34375 
Q 37.3125 48.390625 33.40625 48.390625 
Q 24.65625 48.390625 19.8125 42.84375 
Q 14.984375 37.3125 14.984375 27.296875 
Q 14.984375 17.28125 19.8125 11.734375 
Q 24.65625 6.203125 33.40625 6.203125 
Q 37.3125 6.203125 41.140625 7.25 
Q 44.96875 8.296875 48.78125 10.40625 
L 48.78125 2.09375 
Q 45.015625 0.34375 40.984375 -0.53125 
Q 36.96875 -1.421875 32.421875 -1.421875 
Q 20.0625 -1.421875 12.78125 6.34375 
Q 5.515625 14.109375 5.515625 27.296875 
Q 5.515625 40.671875 12.859375 48.328125 
Q 20.21875 56 33.015625 56 
Q 37.15625 56 41.109375 55.140625 
Q 45.0625 54.296875 48.78125 52.59375 
z
" id="DejaVuSans-99"/>
      </defs>
      <use xlink:href="#DejaVuSans-82"/>
      <use x="64.982422" xlink:href="#DejaVuSans-101"/>
      <use x="126.505859" xlink:href="#DejaVuSans-112"/>
      <use x="189.982422" xlink:href="#DejaVuSans-108"/>
      <use x="217.765625" xlink:href="#DejaVuSans-105"/>
      <use x="245.548828" xlink:href="#DejaVuSans-99"/>
      <use x="300.529297" xlink:href="#DejaVuSans-97"/>
      <use x="361.808594" xlink:href="#DejaVuSans-116"/>
      <use x="401.017578" xlink:href="#DejaVuSans-101"/>
     </g>
    </g>
    <g id="line2d_20">
     <path d="M 917.665625 123.216864 
L 967.665625 123.216864 
" style="fill:none;stroke:#1b9e77;stroke-linecap:round;stroke-width:5;"/>
    </g>
    <g id="line2d_21"/>
    <g id="text_11">
     <!-- rep1 -->
     <g style="fill:#262626;" transform="translate(987.665625 131.966864)scale(0.25 -0.25)">
      <defs>
       <path d="M 41.109375 46.296875 
Q 39.59375 47.171875 37.8125 47.578125 
Q 36.03125 48 33.890625 48 
Q 26.265625 48 22.1875 43.046875 
Q 18.109375 38.09375 18.109375 28.8125 
L 18.109375 0 
L 9.078125 0 
L 9.078125 54.6875 
L 18.109375 54.6875 
L 18.109375 46.1875 
Q 20.953125 51.171875 25.484375 53.578125 
Q 30.03125 56 36.53125 56 
Q 37.453125 56 38.578125 55.875 
Q 39.703125 55.765625 41.0625 55.515625 
z
" id="DejaVuSans-114"/>
      </defs>
      <use xlink:href="#DejaVuSans-114"/>
      <use x="38.863281" xlink:href="#DejaVuSans-101"/>
      <use x="100.386719" xlink:href="#DejaVuSans-112"/>
      <use x="163.863281" xlink:href="#DejaVuSans-49"/>
     </g>
    </g>
    <g id="line2d_22">
     <path d="M 917.665625 159.912176 
L 967.665625 159.912176 
" style="fill:none;stroke:#d95f02;stroke-linecap:round;stroke-width:5;"/>
    </g>
    <g id="line2d_23"/>
    <g id="text_12">
     <!-- rep2 -->
     <g style="fill:#262626;" transform="translate(987.665625 168.662176)scale(0.25 -0.25)">
      <use xlink:href="#DejaVuSans-114"/>
      <use x="38.863281" xlink:href="#DejaVuSans-101"/>
      <use x="100.386719" xlink:href="#DejaVuSans-112"/>
      <use x="163.863281" xlink:href="#DejaVuSans-50"/>
     </g>
    </g>
    <g id="line2d_24">
     <path d="M 917.665625 196.607489 
L 967.665625 196.607489 
" style="fill:none;stroke:#7570b3;stroke-linecap:round;stroke-width:5;"/>
    </g>
    <g id="line2d_25"/>
    <g id="text_13">
     <!-- rep3 -->
     <g style="fill:#262626;" transform="translate(987.665625 205.357489)scale(0.25 -0.25)">
      <defs>
       <path d="M 40.578125 39.3125 
Q 47.65625 37.796875 51.625 33 
Q 55.609375 28.21875 55.609375 21.1875 
Q 55.609375 10.40625 48.1875 4.484375 
Q 40.765625 -1.421875 27.09375 -1.421875 
Q 22.515625 -1.421875 17.65625 -0.515625 
Q 12.796875 0.390625 7.625 2.203125 
L 7.625 11.71875 
Q 11.71875 9.328125 16.59375 8.109375 
Q 21.484375 6.890625 26.8125 6.890625 
Q 36.078125 6.890625 40.9375 10.546875 
Q 45.796875 14.203125 45.796875 21.1875 
Q 45.796875 27.640625 41.28125 31.265625 
Q 36.765625 34.90625 28.71875 34.90625 
L 20.21875 34.90625 
L 20.21875 43.015625 
L 29.109375 43.015625 
Q 36.375 43.015625 40.234375 45.921875 
Q 44.09375 48.828125 44.09375 54.296875 
Q 44.09375 59.90625 40.109375 62.90625 
Q 36.140625 65.921875 28.71875 65.921875 
Q 24.65625 65.921875 20.015625 65.03125 
Q 15.375 64.15625 9.8125 62.3125 
L 9.8125 71.09375 
Q 15.4375 72.65625 20.34375 73.4375 
Q 25.25 74.21875 29.59375 74.21875 
Q 40.828125 74.21875 47.359375 69.109375 
Q 53.90625 64.015625 53.90625 55.328125 
Q 53.90625 49.265625 50.4375 45.09375 
Q 46.96875 40.921875 40.578125 39.3125 
z
" id="DejaVuSans-51"/>
      </defs>
      <use xlink:href="#DejaVuSans-114"/>
      <use x="38.863281" xlink:href="#DejaVuSans-101"/>
      <use x="100.386719" xlink:href="#DejaVuSans-112"/>
      <use x="163.863281" xlink:href="#DejaVuSans-51"/>
     </g>
    </g>
   </g>
  </g>
  <g id="axes_2">
   <g id="patch_8">
    <path d="M 113.965625 795.048185 
L 895.165625 795.048185 
L 895.165625 450.270172 
L 113.965625 450.270172 
z
" style="fill:none;"/>
   </g>
   <g id="matplotlib.axis_3">
    <g id="xtick_8">
     <g id="line2d_26">
      <path clip-path="url(#pbfd069c91a)" d="M 149.474716 795.048185 
L 149.474716 450.270172 
" style="fill:none;stroke:#cccccc;stroke-linecap:round;stroke-width:0.8;"/>
     </g>
     <g id="text_14">
      <!-- 0 -->
      <g style="fill:#262626;" transform="translate(141.521591 821.044279)scale(0.25 -0.25)">
       <use xlink:href="#DejaVuSans-48"/>
      </g>
     </g>
    </g>
    <g id="xtick_9">
     <g id="line2d_27">
      <path clip-path="url(#pbfd069c91a)" d="M 267.838352 795.048185 
L 267.838352 450.270172 
" style="fill:none;stroke:#cccccc;stroke-linecap:round;stroke-width:0.8;"/>
     </g>
     <g id="text_15">
      <!-- 2 -->
      <g style="fill:#262626;" transform="translate(259.885227 821.044279)scale(0.25 -0.25)">
       <use xlink:href="#DejaVuSans-50"/>
      </g>
     </g>
    </g>
    <g id="xtick_10">
     <g id="line2d_28">
      <path clip-path="url(#pbfd069c91a)" d="M 386.201989 795.048185 
L 386.201989 450.270172 
" style="fill:none;stroke:#cccccc;stroke-linecap:round;stroke-width:0.8;"/>
     </g>
     <g id="text_16">
      <!-- 4 -->
      <g style="fill:#262626;" transform="translate(378.248864 821.044279)scale(0.25 -0.25)">
       <defs>
        <path d="M 37.796875 64.3125 
L 12.890625 25.390625 
L 37.796875 25.390625 
z
M 35.203125 72.90625 
L 47.609375 72.90625 
L 47.609375 25.390625 
L 58.015625 25.390625 
L 58.015625 17.1875 
L 47.609375 17.1875 
L 47.609375 0 
L 37.796875 0 
L 37.796875 17.1875 
L 4.890625 17.1875 
L 4.890625 26.703125 
z
" id="DejaVuSans-52"/>
       </defs>
       <use xlink:href="#DejaVuSans-52"/>
      </g>
     </g>
    </g>
    <g id="xtick_11">
     <g id="line2d_29">
      <path clip-path="url(#pbfd069c91a)" d="M 504.565625 795.048185 
L 504.565625 450.270172 
" style="fill:none;stroke:#cccccc;stroke-linecap:round;stroke-width:0.8;"/>
     </g>
     <g id="text_17">
      <!-- 6 -->
      <g style="fill:#262626;" transform="translate(496.6125 821.044279)scale(0.25 -0.25)">
       <defs>
        <path d="M 33.015625 40.375 
Q 26.375 40.375 22.484375 35.828125 
Q 18.609375 31.296875 18.609375 23.390625 
Q 18.609375 15.53125 22.484375 10.953125 
Q 26.375 6.390625 33.015625 6.390625 
Q 39.65625 6.390625 43.53125 10.953125 
Q 47.40625 15.53125 47.40625 23.390625 
Q 47.40625 31.296875 43.53125 35.828125 
Q 39.65625 40.375 33.015625 40.375 
z
M 52.59375 71.296875 
L 52.59375 62.3125 
Q 48.875 64.0625 45.09375 64.984375 
Q 41.3125 65.921875 37.59375 65.921875 
Q 27.828125 65.921875 22.671875 59.328125 
Q 17.53125 52.734375 16.796875 39.40625 
Q 19.671875 43.65625 24.015625 45.921875 
Q 28.375 48.1875 33.59375 48.1875 
Q 44.578125 48.1875 50.953125 41.515625 
Q 57.328125 34.859375 57.328125 23.390625 
Q 57.328125 12.15625 50.6875 5.359375 
Q 44.046875 -1.421875 33.015625 -1.421875 
Q 20.359375 -1.421875 13.671875 8.265625 
Q 6.984375 17.96875 6.984375 36.375 
Q 6.984375 53.65625 15.1875 63.9375 
Q 23.390625 74.21875 37.203125 74.21875 
Q 40.921875 74.21875 44.703125 73.484375 
Q 48.484375 72.75 52.59375 71.296875 
z
" id="DejaVuSans-54"/>
       </defs>
       <use xlink:href="#DejaVuSans-54"/>
      </g>
     </g>
    </g>
    <g id="xtick_12">
     <g id="line2d_30">
      <path clip-path="url(#pbfd069c91a)" d="M 622.929261 795.048185 
L 622.929261 450.270172 
" style="fill:none;stroke:#cccccc;stroke-linecap:round;stroke-width:0.8;"/>
     </g>
     <g id="text_18">
      <!-- 8 -->
      <g style="fill:#262626;" transform="translate(614.976136 821.044279)scale(0.25 -0.25)">
       <defs>
        <path d="M 31.78125 34.625 
Q 24.75 34.625 20.71875 30.859375 
Q 16.703125 27.09375 16.703125 20.515625 
Q 16.703125 13.921875 20.71875 10.15625 
Q 24.75 6.390625 31.78125 6.390625 
Q 38.8125 6.390625 42.859375 10.171875 
Q 46.921875 13.96875 46.921875 20.515625 
Q 46.921875 27.09375 42.890625 30.859375 
Q 38.875 34.625 31.78125 34.625 
z
M 21.921875 38.8125 
Q 15.578125 40.375 12.03125 44.71875 
Q 8.5 49.078125 8.5 55.328125 
Q 8.5 64.0625 14.71875 69.140625 
Q 20.953125 74.21875 31.78125 74.21875 
Q 42.671875 74.21875 48.875 69.140625 
Q 55.078125 64.0625 55.078125 55.328125 
Q 55.078125 49.078125 51.53125 44.71875 
Q 48 40.375 41.703125 38.8125 
Q 48.828125 37.15625 52.796875 32.3125 
Q 56.78125 27.484375 56.78125 20.515625 
Q 56.78125 9.90625 50.3125 4.234375 
Q 43.84375 -1.421875 31.78125 -1.421875 
Q 19.734375 -1.421875 13.25 4.234375 
Q 6.78125 9.90625 6.78125 20.515625 
Q 6.78125 27.484375 10.78125 32.3125 
Q 14.796875 37.15625 21.921875 38.8125 
z
M 18.3125 54.390625 
Q 18.3125 48.734375 21.84375 45.5625 
Q 25.390625 42.390625 31.78125 42.390625 
Q 38.140625 42.390625 41.71875 45.5625 
Q 45.3125 48.734375 45.3125 54.390625 
Q 45.3125 60.0625 41.71875 63.234375 
Q 38.140625 66.40625 31.78125 66.40625 
Q 25.390625 66.40625 21.84375 63.234375 
Q 18.3125 60.0625 18.3125 54.390625 
z
" id="DejaVuSans-56"/>
       </defs>
       <use xlink:href="#DejaVuSans-56"/>
      </g>
     </g>
    </g>
    <g id="xtick_13">
     <g id="line2d_31">
      <path clip-path="url(#pbfd069c91a)" d="M 741.292898 795.048185 
L 741.292898 450.270172 
" style="fill:none;stroke:#cccccc;stroke-linecap:round;stroke-width:0.8;"/>
     </g>
     <g id="text_19">
      <!-- 10 -->
      <g style="fill:#262626;" transform="translate(725.386648 821.044279)scale(0.25 -0.25)">
       <use xlink:href="#DejaVuSans-49"/>
       <use x="63.623047" xlink:href="#DejaVuSans-48"/>
      </g>
     </g>
    </g>
    <g id="xtick_14">
     <g id="line2d_32">
      <path clip-path="url(#pbfd069c91a)" d="M 859.656534 795.048185 
L 859.656534 450.270172 
" style="fill:none;stroke:#cccccc;stroke-linecap:round;stroke-width:0.8;"/>
     </g>
     <g id="text_20">
      <!-- 12 -->
      <g style="fill:#262626;" transform="translate(843.750284 821.044279)scale(0.25 -0.25)">
       <use xlink:href="#DejaVuSans-49"/>
       <use x="63.623047" xlink:href="#DejaVuSans-50"/>
      </g>
     </g>
    </g>
    <g id="text_21">
     <!-- Time (h) -->
     <g style="fill:#262626;" transform="translate(452.333203 849.239591)scale(0.25 -0.25)">
      <defs>
       <path d="M -0.296875 72.90625 
L 61.375 72.90625 
L 61.375 64.59375 
L 35.5 64.59375 
L 35.5 0 
L 25.59375 0 
L 25.59375 64.59375 
L -0.296875 64.59375 
z
" id="DejaVuSans-84"/>
       <path d="M 52 44.1875 
Q 55.375 50.25 60.0625 53.125 
Q 64.75 56 71.09375 56 
Q 79.640625 56 84.28125 50.015625 
Q 88.921875 44.046875 88.921875 33.015625 
L 88.921875 0 
L 79.890625 0 
L 79.890625 32.71875 
Q 79.890625 40.578125 77.09375 44.375 
Q 74.3125 48.1875 68.609375 48.1875 
Q 61.625 48.1875 57.5625 43.546875 
Q 53.515625 38.921875 53.515625 30.90625 
L 53.515625 0 
L 44.484375 0 
L 44.484375 32.71875 
Q 44.484375 40.625 41.703125 44.40625 
Q 38.921875 48.1875 33.109375 48.1875 
Q 26.21875 48.1875 22.15625 43.53125 
Q 18.109375 38.875 18.109375 30.90625 
L 18.109375 0 
L 9.078125 0 
L 9.078125 54.6875 
L 18.109375 54.6875 
L 18.109375 46.1875 
Q 21.1875 51.21875 25.484375 53.609375 
Q 29.78125 56 35.6875 56 
Q 41.65625 56 45.828125 52.96875 
Q 50 49.953125 52 44.1875 
z
" id="DejaVuSans-109"/>
       <path d="M 54.890625 33.015625 
L 54.890625 0 
L 45.90625 0 
L 45.90625 32.71875 
Q 45.90625 40.484375 42.875 44.328125 
Q 39.84375 48.1875 33.796875 48.1875 
Q 26.515625 48.1875 22.3125 43.546875 
Q 18.109375 38.921875 18.109375 30.90625 
L 18.109375 0 
L 9.078125 0 
L 9.078125 75.984375 
L 18.109375 75.984375 
L 18.109375 46.1875 
Q 21.34375 51.125 25.703125 53.5625 
Q 30.078125 56 35.796875 56 
Q 45.21875 56 50.046875 50.171875 
Q 54.890625 44.34375 54.890625 33.015625 
z
" id="DejaVuSans-104"/>
      </defs>
      <use xlink:href="#DejaVuSans-84"/>
      <use x="57.958984" xlink:href="#DejaVuSans-105"/>
      <use x="85.742188" xlink:href="#DejaVuSans-109"/>
      <use x="183.154297" xlink:href="#DejaVuSans-101"/>
      <use x="244.677734" xlink:href="#DejaVuSans-32"/>
      <use x="276.464844" xlink:href="#DejaVuSans-40"/>
      <use x="315.478516" xlink:href="#DejaVuSans-104"/>
      <use x="378.857422" xlink:href="#DejaVuSans-41"/>
     </g>
    </g>
   </g>
   <g id="matplotlib.axis_4">
    <g id="ytick_7">
     <g id="line2d_33">
      <path clip-path="url(#pbfd069c91a)" d="M 113.965625 779.384798 
L 895.165625 779.384798 
" style="fill:none;stroke:#cccccc;stroke-linecap:round;stroke-width:0.8;"/>
     </g>
     <g id="text_22">
      <!-- 0 -->
      <g style="fill:#262626;" transform="translate(91.059375 788.882845)scale(0.25 -0.25)">
       <use xlink:href="#DejaVuSans-48"/>
      </g>
     </g>
    </g>
    <g id="ytick_8">
     <g id="line2d_34">
      <path clip-path="url(#pbfd069c91a)" d="M 113.965625 695.970635 
L 895.165625 695.970635 
" style="fill:none;stroke:#cccccc;stroke-linecap:round;stroke-width:0.8;"/>
     </g>
     <g id="text_23">
      <!-- 10 -->
      <g style="fill:#262626;" transform="translate(75.153125 705.468682)scale(0.25 -0.25)">
       <use xlink:href="#DejaVuSans-49"/>
       <use x="63.623047" xlink:href="#DejaVuSans-48"/>
      </g>
     </g>
    </g>
    <g id="ytick_9">
     <g id="line2d_35">
      <path clip-path="url(#pbfd069c91a)" d="M 113.965625 612.556472 
L 895.165625 612.556472 
" style="fill:none;stroke:#cccccc;stroke-linecap:round;stroke-width:0.8;"/>
     </g>
     <g id="text_24">
      <!-- 20 -->
      <g style="fill:#262626;" transform="translate(75.153125 622.054519)scale(0.25 -0.25)">
       <use xlink:href="#DejaVuSans-50"/>
       <use x="63.623047" xlink:href="#DejaVuSans-48"/>
      </g>
     </g>
    </g>
    <g id="ytick_10">
     <g id="line2d_36">
      <path clip-path="url(#pbfd069c91a)" d="M 113.965625 529.142309 
L 895.165625 529.142309 
" style="fill:none;stroke:#cccccc;stroke-linecap:round;stroke-width:0.8;"/>
     </g>
     <g id="text_25">
      <!-- 30 -->
      <g style="fill:#262626;" transform="translate(75.153125 538.640356)scale(0.25 -0.25)">
       <use xlink:href="#DejaVuSans-51"/>
       <use x="63.623047" xlink:href="#DejaVuSans-48"/>
      </g>
     </g>
    </g>
    <g id="text_26">
     <!-- OD -->
     <g style="fill:#262626;" transform="translate(65.953906 642.124022)rotate(-90)scale(0.25 -0.25)">
      <use xlink:href="#DejaVuSans-79"/>
      <use x="78.710938" xlink:href="#DejaVuSans-68"/>
     </g>
    </g>
   </g>
   <g id="line2d_37">
    <path clip-path="url(#pbfd069c91a)" d="M 149.474716 779.376457 
L 174.715702 779.250034 
L 184.325764 778.996129 
L 190.282533 778.635471 
L 194.594638 778.179747 
L 197.483184 777.728285 
L 200.352615 777.11268 
L 203.220625 776.269121 
L 206.078574 775.117755 
L 208.929954 773.546433 
L 210.352685 772.558108 
L 211.7766 771.40253 
L 213.196963 770.055425 
L 214.622061 768.476728 
L 216.046568 766.633943 
L 217.467523 764.486612 
L 218.890254 761.978348 
L 220.312985 759.052346 
L 221.73394 755.643793 
L 223.154896 751.671861 
L 224.575851 747.047296 
L 225.997399 741.66483 
L 227.418354 735.410937 
L 228.83931 728.148149 
L 230.259673 719.730659 
L 231.680629 709.988886 
L 233.100992 698.737316 
L 234.521356 685.783263 
L 235.942903 670.910518 
L 237.363267 653.930731 
L 238.78363 634.648713 
L 240.204586 612.951021 
L 241.62495 588.836821 
L 244.466269 534.810301 
L 245.886632 507.31032 
L 247.306996 483.571483 
L 248.727951 469.212569 
L 250.149499 465.942734 
L 441.612741 465.9419 
L 859.656534 465.9419 
L 859.656534 465.9419 
" style="fill:none;stroke:#1b9e77;stroke-linecap:round;stroke-width:3;"/>
   </g>
   <g id="line2d_38">
    <path clip-path="url(#pbfd069c91a)" d="M 149.474716 779.376457 
L 175.315687 779.240821 
L 184.491592 778.988959 
L 190.370062 778.628209 
L 194.722057 778.162706 
L 197.618237 777.703469 
L 200.513116 777.072174 
L 203.383197 776.212875 
L 206.247242 775.037828 
L 209.102173 773.434783 
L 210.531414 772.422652 
L 211.956512 771.243176 
L 213.382202 769.864239 
L 214.806709 768.253512 
L 216.228256 766.377611 
L 217.652762 764.182233 
L 219.073718 761.625756 
L 220.495265 758.64345 
L 221.917996 755.162577 
L 223.339543 751.110066 
L 224.762274 746.388825 
L 226.182638 740.901424 
L 227.604777 734.518572 
L 229.026324 727.110394 
L 230.44728 718.523406 
L 231.868827 708.587862 
L 233.289782 697.118331 
L 234.710146 683.922293 
L 236.131101 668.784291 
L 237.551465 651.506716 
L 238.97242 631.907724 
L 240.393376 609.883882 
L 241.81374 585.456879 
L 246.557754 495.313695 
L 247.97871 475.278447 
L 249.399073 466.630901 
L 250.822988 465.9419 
L 859.656534 465.9419 
L 859.656534 465.9419 
" style="fill:none;stroke:#d95f02;stroke-linecap:round;stroke-width:3;"/>
   </g>
   <g id="line2d_39">
    <path clip-path="url(#pbfd069c91a)" d="M 149.474716 779.376457 
L 174.684395 779.250498 
L 184.263268 778.998794 
L 190.249746 778.638172 
L 194.574043 778.182475 
L 197.468152 777.731029 
L 200.342021 777.115324 
L 203.212872 776.271782 
L 206.072833 775.120424 
L 208.925811 773.549118 
L 210.349134 772.560802 
L 211.77364 771.405233 
L 213.194596 770.058177 
L 214.619694 768.479481 
L 216.0442 766.636695 
L 217.465748 764.489364 
L 218.88907 761.981017 
L 220.311801 759.055015 
L 221.732757 755.646546 
L 223.154304 751.67453 
L 224.57526 747.049965 
L 225.996807 741.667583 
L 227.417762 735.41369 
L 228.838718 728.150902 
L 230.259081 719.733412 
L 231.680037 709.991638 
L 233.100992 698.740069 
L 234.521356 685.785766 
L 235.94172 670.921362 
L 237.362083 653.941575 
L 238.783039 634.659557 
L 240.203994 612.961865 
L 241.624358 588.847664 
L 244.465677 534.821145 
L 245.88604 507.32033 
L 247.306996 483.573986 
L 248.69481 469.405256 
L 250.115173 465.945237 
L 298.666161 465.9419 
L 859.656534 465.9419 
L 859.656534 465.9419 
" style="fill:none;stroke:#7570b3;stroke-linecap:round;stroke-width:3;"/>
   </g>
   <g id="line2d_40"/>
   <g id="line2d_41"/>
   <g id="line2d_42"/>
   <g id="patch_9">
    <path d="M 113.965625 795.048185 
L 113.965625 450.270172 
" style="fill:none;stroke:#cccccc;stroke-linecap:square;stroke-linejoin:miter;stroke-width:0.8;"/>
   </g>
   <g id="patch_10">
    <path d="M 895.165625 795.048185 
L 895.165625 450.270172 
" style="fill:none;stroke:#cccccc;stroke-linecap:square;stroke-linejoin:miter;stroke-width:0.8;"/>
   </g>
   <g id="patch_11">
    <path d="M 113.965625 795.048185 
L 895.165625 795.048185 
" style="fill:none;stroke:#cccccc;stroke-linecap:square;stroke-linejoin:miter;stroke-width:0.8;"/>
   </g>
   <g id="patch_12">
    <path d="M 113.965625 450.270172 
L 895.165625 450.270172 
" style="fill:none;stroke:#cccccc;stroke-linecap:square;stroke-linejoin:miter;stroke-width:0.8;"/>
   </g>
   <g id="text_27">
    <!-- V_a (setA_16) -->
    <g style="fill:#262626;" transform="translate(401.367969 444.270172)scale(0.3 -0.3)">
     <defs>
      <path d="M 28.609375 0 
L 0.78125 72.90625 
L 11.078125 72.90625 
L 34.1875 11.53125 
L 57.328125 72.90625 
L 67.578125 72.90625 
L 39.796875 0 
z
" id="DejaVuSans-86"/>
     </defs>
     <use xlink:href="#DejaVuSans-86"/>
     <use x="68.408203" xlink:href="#DejaVuSans-95"/>
     <use x="118.408203" xlink:href="#DejaVuSans-97"/>
     <use x="179.6875" xlink:href="#DejaVuSans-32"/>
     <use x="211.474609" xlink:href="#DejaVuSans-40"/>
     <use x="250.488281" xlink:href="#DejaVuSans-115"/>
     <use x="302.587891" xlink:href="#DejaVuSans-101"/>
     <use x="364.111328" xlink:href="#DejaVuSans-116"/>
     <use x="403.320312" xlink:href="#DejaVuSans-65"/>
     <use x="471.728516" xlink:href="#DejaVuSans-95"/>
     <use x="521.728516" xlink:href="#DejaVuSans-49"/>
     <use x="585.351562" xlink:href="#DejaVuSans-54"/>
     <use x="648.974609" xlink:href="#DejaVuSans-41"/>
    </g>
   </g>
  </g>
  <g id="axes_3">
   <g id="patch_13">
    <path d="M 113.965625 1288.080743 
L 895.165625 1288.080743 
L 895.165625 943.30273 
L 113.965625 943.30273 
z
" style="fill:none;"/>
   </g>
   <g id="matplotlib.axis_5">
    <g id="xtick_15">
     <g id="line2d_43">
      <path clip-path="url(#pe5f2121ba5)" d="M 149.474716 1288.080743 
L 149.474716 943.30273 
" style="fill:none;stroke:#cccccc;stroke-linecap:round;stroke-width:0.8;"/>
     </g>
    </g>
    <g id="xtick_16">
     <g id="line2d_44">
      <path clip-path="url(#pe5f2121ba5)" d="M 267.838352 1288.080743 
L 267.838352 943.30273 
" style="fill:none;stroke:#cccccc;stroke-linecap:round;stroke-width:0.8;"/>
     </g>
    </g>
    <g id="xtick_17">
     <g id="line2d_45">
      <path clip-path="url(#pe5f2121ba5)" d="M 386.201989 1288.080743 
L 386.201989 943.30273 
" style="fill:none;stroke:#cccccc;stroke-linecap:round;stroke-width:0.8;"/>
     </g>
    </g>
    <g id="xtick_18">
     <g id="line2d_46">
      <path clip-path="url(#pe5f2121ba5)" d="M 504.565625 1288.080743 
L 504.565625 943.30273 
" style="fill:none;stroke:#cccccc;stroke-linecap:round;stroke-width:0.8;"/>
     </g>
    </g>
    <g id="xtick_19">
     <g id="line2d_47">
      <path clip-path="url(#pe5f2121ba5)" d="M 622.929261 1288.080743 
L 622.929261 943.30273 
" style="fill:none;stroke:#cccccc;stroke-linecap:round;stroke-width:0.8;"/>
     </g>
    </g>
    <g id="xtick_20">
     <g id="line2d_48">
      <path clip-path="url(#pe5f2121ba5)" d="M 741.292898 1288.080743 
L 741.292898 943.30273 
" style="fill:none;stroke:#cccccc;stroke-linecap:round;stroke-width:0.8;"/>
     </g>
    </g>
    <g id="xtick_21">
     <g id="line2d_49">
      <path clip-path="url(#pe5f2121ba5)" d="M 859.656534 1288.080743 
L 859.656534 943.30273 
" style="fill:none;stroke:#cccccc;stroke-linecap:round;stroke-width:0.8;"/>
     </g>
    </g>
   </g>
   <g id="matplotlib.axis_6">
    <g id="ytick_11">
     <g id="line2d_50">
      <path clip-path="url(#pe5f2121ba5)" d="M 113.965625 1272.573215 
L 895.165625 1272.573215 
" style="fill:none;stroke:#cccccc;stroke-linecap:round;stroke-width:0.8;"/>
     </g>
     <g id="text_28">
      <!-- 0.0 -->
      <g style="fill:#262626;" transform="translate(67.207813 1282.071262)scale(0.25 -0.25)">
       <use xlink:href="#DejaVuSans-48"/>
       <use x="63.623047" xlink:href="#DejaVuSans-46"/>
       <use x="95.410156" xlink:href="#DejaVuSans-48"/>
      </g>
     </g>
    </g>
    <g id="ytick_12">
     <g id="line2d_51">
      <path clip-path="url(#pe5f2121ba5)" d="M 113.965625 1190.473282 
L 895.165625 1190.473282 
" style="fill:none;stroke:#cccccc;stroke-linecap:round;stroke-width:0.8;"/>
     </g>
     <g id="text_29">
      <!-- 0.5 -->
      <g style="fill:#262626;" transform="translate(67.207813 1199.971329)scale(0.25 -0.25)">
       <use xlink:href="#DejaVuSans-48"/>
       <use x="63.623047" xlink:href="#DejaVuSans-46"/>
       <use x="95.410156" xlink:href="#DejaVuSans-53"/>
      </g>
     </g>
    </g>
    <g id="ytick_13">
     <g id="line2d_52">
      <path clip-path="url(#pe5f2121ba5)" d="M 113.965625 1108.373349 
L 895.165625 1108.373349 
" style="fill:none;stroke:#cccccc;stroke-linecap:round;stroke-width:0.8;"/>
     </g>
     <g id="text_30">
      <!-- 1.0 -->
      <g style="fill:#262626;" transform="translate(67.207813 1117.871395)scale(0.25 -0.25)">
       <use xlink:href="#DejaVuSans-49"/>
       <use x="63.623047" xlink:href="#DejaVuSans-46"/>
       <use x="95.410156" xlink:href="#DejaVuSans-48"/>
      </g>
     </g>
    </g>
    <g id="ytick_14">
     <g id="line2d_53">
      <path clip-path="url(#pe5f2121ba5)" d="M 113.965625 1026.273415 
L 895.165625 1026.273415 
" style="fill:none;stroke:#cccccc;stroke-linecap:round;stroke-width:0.8;"/>
     </g>
     <g id="text_31">
      <!-- 1.5 -->
      <g style="fill:#262626;" transform="translate(67.207813 1035.771462)scale(0.25 -0.25)">
       <use xlink:href="#DejaVuSans-49"/>
       <use x="63.623047" xlink:href="#DejaVuSans-46"/>
       <use x="95.410156" xlink:href="#DejaVuSans-53"/>
      </g>
     </g>
    </g>
    <g id="ytick_15">
     <g id="line2d_54">
      <path clip-path="url(#pe5f2121ba5)" d="M 113.965625 944.173482 
L 895.165625 944.173482 
" style="fill:none;stroke:#cccccc;stroke-linecap:round;stroke-width:0.8;"/>
     </g>
     <g id="text_32">
      <!-- 2.0 -->
      <g style="fill:#262626;" transform="translate(67.207813 953.671529)scale(0.25 -0.25)">
       <use xlink:href="#DejaVuSans-50"/>
       <use x="63.623047" xlink:href="#DejaVuSans-46"/>
       <use x="95.410156" xlink:href="#DejaVuSans-48"/>
      </g>
     </g>
    </g>
    <g id="text_33">
     <!-- OD -->
     <g style="fill:#262626;" transform="translate(58.008594 1135.15658)rotate(-90)scale(0.25 -0.25)">
      <use xlink:href="#DejaVuSans-79"/>
      <use x="78.710938" xlink:href="#DejaVuSans-68"/>
     </g>
    </g>
   </g>
   <g id="line2d_55">
    <path clip-path="url(#pe5f2121ba5)" d="M 149.474716 1272.409015 
L 162.257989 1272.160558 
L 172.200534 1271.728397 
L 177.881989 1271.301165 
L 184.660911 1270.500848 
L 188.60674 1269.820486 
L 191.687923 1269.13776 
L 195.263274 1268.131412 
L 198.516558 1266.96285 
L 201.815116 1265.465676 
L 205.006436 1263.640824 
L 208.02607 1261.48864 
L 209.605219 1260.165863 
L 212.61994 1257.192843 
L 214.053324 1255.542569 
L 215.479606 1253.72816 
L 216.999395 1251.585024 
L 218.474206 1249.277687 
L 219.902263 1246.806644 
L 221.367605 1244.007036 
L 222.847742 1240.878864 
L 224.326696 1237.422457 
L 225.79263 1233.637814 
L 227.238441 1229.524936 
L 228.693722 1224.966748 
L 230.126514 1220.033034 
L 231.562857 1214.606886 
L 232.992098 1208.688301 
L 234.443236 1202.112918 
L 235.871293 1195.045263 
L 237.303493 1187.320809 
L 239.23282 1175.840939 
L 240.666204 1166.474979 
L 243.518176 1145.609773 
L 246.384943 1121.626577 
L 249.238099 1095.018973 
L 257.823605 1010.300052 
L 259.248111 998.487514 
L 260.679128 988.156058 
L 262.126123 979.469885 
L 263.579037 972.596479 
L 265.008278 967.530913 
L 266.432192 963.949714 
L 267.883922 961.52284 
L 269.496627 959.931743 
L 271.079149 959.179708 
L 272.598346 958.9761 
L 370.01517 958.974458 
L 859.656534 958.974458 
L 859.656534 958.974458 
" style="fill:none;stroke:#1b9e77;stroke-linecap:round;stroke-width:3;"/>
   </g>
   <g id="line2d_56">
    <path clip-path="url(#pe5f2121ba5)" d="M 149.474716 1272.409015 
L 162.257989 1272.160558 
L 172.200534 1271.728397 
L 177.881989 1271.301165 
L 184.660911 1270.500848 
L 188.60674 1269.820486 
L 191.656202 1269.145576 
L 195.238891 1268.139195 
L 198.497324 1266.970584 
L 201.799965 1265.473393 
L 204.994363 1263.648525 
L 208.016364 1261.496325 
L 211.017297 1258.851722 
L 213.910104 1255.715307 
L 215.349998 1253.900735 
L 216.770361 1251.92229 
L 218.267661 1249.614954 
L 219.71584 1247.143746 
L 221.198937 1244.343974 
L 222.619892 1241.380495 
L 224.052684 1238.088452 
L 225.483109 1234.468173 
L 226.957328 1230.35513 
L 228.402548 1225.913853 
L 229.86138 1220.980139 
L 231.321395 1215.553662 
L 233.17852 1207.878139 
L 234.61368 1201.30292 
L 236.0589 1194.070901 
L 237.504711 1186.182247 
L 238.944605 1177.637121 
L 240.37503 1168.435525 
L 243.245348 1147.734191 
L 246.106789 1124.07923 
L 248.951659 1097.798877 
L 253.236422 1054.775228 
L 256.097271 1026.209377 
L 257.527696 1012.914114 
L 258.958712 1000.773176 
L 260.389137 990.111679 
L 261.830214 981.097106 
L 263.273067 973.893658 
L 264.696981 968.499692 
L 266.135691 964.588452 
L 267.656072 961.83482 
L 269.098333 960.235513 
L 270.671978 959.31271 
L 272.799564 958.977742 
L 859.656534 958.977742 
L 859.656534 958.977742 
" style="fill:none;stroke:#d95f02;stroke-linecap:round;stroke-width:3;"/>
   </g>
   <g id="line2d_57">
    <path clip-path="url(#pe5f2121ba5)" d="M 149.474716 1272.409015 
L 162.257989 1272.160558 
L 172.200534 1271.728397 
L 177.881989 1271.301165 
L 184.660911 1270.500848 
L 188.60674 1269.820486 
L 191.656202 1269.145576 
L 195.238891 1268.139195 
L 198.497324 1266.970584 
L 201.799965 1265.473393 
L 204.994363 1263.648525 
L 208.016364 1261.496325 
L 211.017297 1258.851722 
L 213.910104 1255.715307 
L 215.349998 1253.900735 
L 216.770361 1251.92229 
L 218.267661 1249.614954 
L 219.71584 1247.143746 
L 221.198937 1244.343974 
L 222.678482 1241.252255 
L 224.105948 1237.960376 
L 225.531638 1234.340097 
L 227.001122 1230.227055 
L 228.4422 1225.785777 
L 229.89748 1220.852063 
L 231.353945 1215.42575 
L 232.802124 1209.507002 
L 234.234916 1203.095818 
L 235.680136 1196.027999 
L 237.127723 1188.303545 
L 238.570576 1179.922619 
L 240.005143 1170.885059 
L 242.86185 1150.676324 
L 245.712638 1127.51347 
L 248.559875 1101.562338 
L 252.85174 1058.699605 
L 255.72561 1029.805354 
L 258.577581 1003.874912 
L 260.018067 992.720815 
L 261.465062 983.212 
L 262.914425 975.514311 
L 264.360829 969.627745 
L 265.795396 965.386463 
L 267.240616 962.465347 
L 268.691754 960.601679 
L 270.215686 959.508108 
L 272.351558 958.982668 
L 296.331439 958.9761 
L 859.656534 958.9761 
L 859.656534 958.9761 
" style="fill:none;stroke:#7570b3;stroke-linecap:round;stroke-width:3;"/>
   </g>
   <g id="line2d_58"/>
   <g id="line2d_59"/>
   <g id="line2d_60"/>
   <g id="patch_14">
    <path d="M 113.965625 1288.080743 
L 113.965625 943.30273 
" style="fill:none;stroke:#cccccc;stroke-linecap:square;stroke-linejoin:miter;stroke-width:0.8;"/>
   </g>
   <g id="patch_15">
    <path d="M 895.165625 1288.080743 
L 895.165625 943.30273 
" style="fill:none;stroke:#cccccc;stroke-linecap:square;stroke-linejoin:miter;stroke-width:0.8;"/>
   </g>
   <g id="patch_16">
    <path d="M 113.965625 1288.080743 
L 895.165625 1288.080743 
" style="fill:none;stroke:#cccccc;stroke-linecap:square;stroke-linejoin:miter;stroke-width:0.8;"/>
   </g>
   <g id="patch_17">
    <path d="M 113.965625 943.30273 
L 895.165625 943.30273 
" style="fill:none;stroke:#cccccc;stroke-linecap:square;stroke-linejoin:miter;stroke-width:0.8;"/>
   </g>
   <g id="text_34">
    <!-- high_fat -->
    <g style="fill:#262626;" transform="translate(56.838672 915.37571)scale(0.25 -0.25)">
     <defs>
      <path d="M 63.375 33.296875 
L 63.375 0 
L 45.796875 0 
L 45.796875 5.421875 
L 45.796875 25.390625 
Q 45.796875 32.5625 45.484375 35.25 
Q 45.171875 37.9375 44.390625 39.203125 
Q 43.359375 40.921875 41.59375 41.875 
Q 39.84375 42.828125 37.59375 42.828125 
Q 32.125 42.828125 29 38.59375 
Q 25.875 34.375 25.875 26.90625 
L 25.875 0 
L 8.40625 0 
L 8.40625 75.984375 
L 25.875 75.984375 
L 25.875 46.6875 
Q 29.828125 51.46875 34.265625 53.734375 
Q 38.71875 56 44.09375 56 
Q 53.5625 56 58.46875 50.1875 
Q 63.375 44.390625 63.375 33.296875 
z
" id="DejaVuSans-Bold-104"/>
      <path d="M 8.40625 54.6875 
L 25.875 54.6875 
L 25.875 0 
L 8.40625 0 
z
M 8.40625 75.984375 
L 25.875 75.984375 
L 25.875 61.71875 
L 8.40625 61.71875 
z
" id="DejaVuSans-Bold-105"/>
      <path d="M 44.390625 75.984375 
L 44.390625 64.5 
L 34.71875 64.5 
Q 31 64.5 29.53125 63.15625 
Q 28.078125 61.8125 28.078125 58.5 
L 28.078125 54.6875 
L 43.015625 54.6875 
L 43.015625 42.1875 
L 28.078125 42.1875 
L 28.078125 0 
L 10.59375 0 
L 10.59375 42.1875 
L 1.90625 42.1875 
L 1.90625 54.6875 
L 10.59375 54.6875 
L 10.59375 58.5 
Q 10.59375 67.4375 15.578125 71.703125 
Q 20.5625 75.984375 31 75.984375 
z
" id="DejaVuSans-Bold-102"/>
      <path d="M 27.484375 70.21875 
L 27.484375 54.6875 
L 45.515625 54.6875 
L 45.515625 42.1875 
L 27.484375 42.1875 
L 27.484375 19 
Q 27.484375 15.1875 29 13.84375 
Q 30.515625 12.5 35.015625 12.5 
L 44 12.5 
L 44 0 
L 29 0 
Q 18.65625 0 14.328125 4.3125 
Q 10.015625 8.640625 10.015625 19 
L 10.015625 42.1875 
L 1.3125 42.1875 
L 1.3125 54.6875 
L 10.015625 54.6875 
L 10.015625 70.21875 
z
" id="DejaVuSans-Bold-116"/>
     </defs>
     <use xlink:href="#DejaVuSans-Bold-104"/>
     <use x="71.191406" xlink:href="#DejaVuSans-Bold-105"/>
     <use x="105.46875" xlink:href="#DejaVuSans-Bold-103"/>
     <use x="177.050781" xlink:href="#DejaVuSans-Bold-104"/>
     <use x="248.242188" xlink:href="#DejaVuSans-Bold-95"/>
     <use x="298.242188" xlink:href="#DejaVuSans-Bold-102"/>
     <use x="341.748047" xlink:href="#DejaVuSans-Bold-97"/>
     <use x="409.228516" xlink:href="#DejaVuSans-Bold-116"/>
    </g>
   </g>
   <g id="text_35">
    <!-- II_a (setA_11) -->
    <g style="fill:#262626;" transform="translate(402.778906 937.30273)scale(0.3 -0.3)">
     <use xlink:href="#DejaVuSans-73"/>
     <use x="29.492188" xlink:href="#DejaVuSans-73"/>
     <use x="58.984375" xlink:href="#DejaVuSans-95"/>
     <use x="108.984375" xlink:href="#DejaVuSans-97"/>
     <use x="170.263672" xlink:href="#DejaVuSans-32"/>
     <use x="202.050781" xlink:href="#DejaVuSans-40"/>
     <use x="241.064453" xlink:href="#DejaVuSans-115"/>
     <use x="293.164062" xlink:href="#DejaVuSans-101"/>
     <use x="354.6875" xlink:href="#DejaVuSans-116"/>
     <use x="393.896484" xlink:href="#DejaVuSans-65"/>
     <use x="462.304688" xlink:href="#DejaVuSans-95"/>
     <use x="512.304688" xlink:href="#DejaVuSans-49"/>
     <use x="575.927734" xlink:href="#DejaVuSans-49"/>
     <use x="639.550781" xlink:href="#DejaVuSans-41"/>
    </g>
   </g>
   <g id="legend_2">
    <g id="patch_18">
     <path d="M 912.665625 1110.08398 
L 1049.540625 1110.08398 
Q 1054.540625 1110.08398 1054.540625 1105.08398 
L 1054.540625 960.80273 
Q 1054.540625 955.80273 1049.540625 955.80273 
L 912.665625 955.80273 
Q 907.665625 955.80273 907.665625 960.80273 
L 907.665625 1105.08398 
Q 907.665625 1110.08398 912.665625 1110.08398 
z
" style="fill:#ffffff;opacity:0.8;stroke:#cccccc;stroke-linejoin:miter;"/>
    </g>
    <g id="text_36">
     <!-- Replicate -->
     <g style="fill:#262626;" transform="translate(923.282813 984.798824)scale(0.25 -0.25)">
      <use xlink:href="#DejaVuSans-82"/>
      <use x="64.982422" xlink:href="#DejaVuSans-101"/>
      <use x="126.505859" xlink:href="#DejaVuSans-112"/>
      <use x="189.982422" xlink:href="#DejaVuSans-108"/>
      <use x="217.765625" xlink:href="#DejaVuSans-105"/>
      <use x="245.548828" xlink:href="#DejaVuSans-99"/>
      <use x="300.529297" xlink:href="#DejaVuSans-97"/>
      <use x="361.808594" xlink:href="#DejaVuSans-116"/>
      <use x="401.017578" xlink:href="#DejaVuSans-101"/>
     </g>
    </g>
    <g id="line2d_61">
     <path d="M 917.665625 1012.744136 
L 967.665625 1012.744136 
" style="fill:none;stroke:#1b9e77;stroke-linecap:round;stroke-width:5;"/>
    </g>
    <g id="line2d_62"/>
    <g id="text_37">
     <!-- rep1 -->
     <g style="fill:#262626;" transform="translate(987.665625 1021.494136)scale(0.25 -0.25)">
      <use xlink:href="#DejaVuSans-114"/>
      <use x="38.863281" xlink:href="#DejaVuSans-101"/>
      <use x="100.386719" xlink:href="#DejaVuSans-112"/>
      <use x="163.863281" xlink:href="#DejaVuSans-49"/>
     </g>
    </g>
    <g id="line2d_63">
     <path d="M 917.665625 1049.439449 
L 967.665625 1049.439449 
" style="fill:none;stroke:#d95f02;stroke-linecap:round;stroke-width:5;"/>
    </g>
    <g id="line2d_64"/>
    <g id="text_38">
     <!-- rep2 -->
     <g style="fill:#262626;" transform="translate(987.665625 1058.189449)scale(0.25 -0.25)">
      <use xlink:href="#DejaVuSans-114"/>
      <use x="38.863281" xlink:href="#DejaVuSans-101"/>
      <use x="100.386719" xlink:href="#DejaVuSans-112"/>
      <use x="163.863281" xlink:href="#DejaVuSans-50"/>
     </g>
    </g>
    <g id="line2d_65">
     <path d="M 917.665625 1086.134761 
L 967.665625 1086.134761 
" style="fill:none;stroke:#7570b3;stroke-linecap:round;stroke-width:5;"/>
    </g>
    <g id="line2d_66"/>
    <g id="text_39">
     <!-- rep3 -->
     <g style="fill:#262626;" transform="translate(987.665625 1094.884761)scale(0.25 -0.25)">
      <use xlink:href="#DejaVuSans-114"/>
      <use x="38.863281" xlink:href="#DejaVuSans-101"/>
      <use x="100.386719" xlink:href="#DejaVuSans-112"/>
      <use x="163.863281" xlink:href="#DejaVuSans-51"/>
     </g>
    </g>
   </g>
  </g>
  <g id="axes_4">
   <g id="patch_19">
    <path d="M 113.965625 1684.575458 
L 895.165625 1684.575458 
L 895.165625 1339.797445 
L 113.965625 1339.797445 
z
" style="fill:none;"/>
   </g>
   <g id="matplotlib.axis_7">
    <g id="xtick_22">
     <g id="line2d_67">
      <path clip-path="url(#pe7911dd1b1)" d="M 149.474716 1684.575458 
L 149.474716 1339.797445 
" style="fill:none;stroke:#cccccc;stroke-linecap:round;stroke-width:0.8;"/>
     </g>
     <g id="text_40">
      <!-- 0 -->
      <g style="fill:#262626;" transform="translate(141.521591 1710.571551)scale(0.25 -0.25)">
       <use xlink:href="#DejaVuSans-48"/>
      </g>
     </g>
    </g>
    <g id="xtick_23">
     <g id="line2d_68">
      <path clip-path="url(#pe7911dd1b1)" d="M 267.838352 1684.575458 
L 267.838352 1339.797445 
" style="fill:none;stroke:#cccccc;stroke-linecap:round;stroke-width:0.8;"/>
     </g>
     <g id="text_41">
      <!-- 2 -->
      <g style="fill:#262626;" transform="translate(259.885227 1710.571551)scale(0.25 -0.25)">
       <use xlink:href="#DejaVuSans-50"/>
      </g>
     </g>
    </g>
    <g id="xtick_24">
     <g id="line2d_69">
      <path clip-path="url(#pe7911dd1b1)" d="M 386.201989 1684.575458 
L 386.201989 1339.797445 
" style="fill:none;stroke:#cccccc;stroke-linecap:round;stroke-width:0.8;"/>
     </g>
     <g id="text_42">
      <!-- 4 -->
      <g style="fill:#262626;" transform="translate(378.248864 1710.571551)scale(0.25 -0.25)">
       <use xlink:href="#DejaVuSans-52"/>
      </g>
     </g>
    </g>
    <g id="xtick_25">
     <g id="line2d_70">
      <path clip-path="url(#pe7911dd1b1)" d="M 504.565625 1684.575458 
L 504.565625 1339.797445 
" style="fill:none;stroke:#cccccc;stroke-linecap:round;stroke-width:0.8;"/>
     </g>
     <g id="text_43">
      <!-- 6 -->
      <g style="fill:#262626;" transform="translate(496.6125 1710.571551)scale(0.25 -0.25)">
       <use xlink:href="#DejaVuSans-54"/>
      </g>
     </g>
    </g>
    <g id="xtick_26">
     <g id="line2d_71">
      <path clip-path="url(#pe7911dd1b1)" d="M 622.929261 1684.575458 
L 622.929261 1339.797445 
" style="fill:none;stroke:#cccccc;stroke-linecap:round;stroke-width:0.8;"/>
     </g>
     <g id="text_44">
      <!-- 8 -->
      <g style="fill:#262626;" transform="translate(614.976136 1710.571551)scale(0.25 -0.25)">
       <use xlink:href="#DejaVuSans-56"/>
      </g>
     </g>
    </g>
    <g id="xtick_27">
     <g id="line2d_72">
      <path clip-path="url(#pe7911dd1b1)" d="M 741.292898 1684.575458 
L 741.292898 1339.797445 
" style="fill:none;stroke:#cccccc;stroke-linecap:round;stroke-width:0.8;"/>
     </g>
     <g id="text_45">
      <!-- 10 -->
      <g style="fill:#262626;" transform="translate(725.386648 1710.571551)scale(0.25 -0.25)">
       <use xlink:href="#DejaVuSans-49"/>
       <use x="63.623047" xlink:href="#DejaVuSans-48"/>
      </g>
     </g>
    </g>
    <g id="xtick_28">
     <g id="line2d_73">
      <path clip-path="url(#pe7911dd1b1)" d="M 859.656534 1684.575458 
L 859.656534 1339.797445 
" style="fill:none;stroke:#cccccc;stroke-linecap:round;stroke-width:0.8;"/>
     </g>
     <g id="text_46">
      <!-- 12 -->
      <g style="fill:#262626;" transform="translate(843.750284 1710.571551)scale(0.25 -0.25)">
       <use xlink:href="#DejaVuSans-49"/>
       <use x="63.623047" xlink:href="#DejaVuSans-50"/>
      </g>
     </g>
    </g>
    <g id="text_47">
     <!-- Time (h) -->
     <g style="fill:#262626;" transform="translate(452.333203 1738.766864)scale(0.25 -0.25)">
      <use xlink:href="#DejaVuSans-84"/>
      <use x="57.958984" xlink:href="#DejaVuSans-105"/>
      <use x="85.742188" xlink:href="#DejaVuSans-109"/>
      <use x="183.154297" xlink:href="#DejaVuSans-101"/>
      <use x="244.677734" xlink:href="#DejaVuSans-32"/>
      <use x="276.464844" xlink:href="#DejaVuSans-40"/>
      <use x="315.478516" xlink:href="#DejaVuSans-104"/>
      <use x="378.857422" xlink:href="#DejaVuSans-41"/>
     </g>
    </g>
   </g>
   <g id="matplotlib.axis_8">
    <g id="ytick_16">
     <g id="line2d_74">
      <path clip-path="url(#pe7911dd1b1)" d="M 113.965625 1668.90373 
L 895.165625 1668.90373 
" style="fill:none;stroke:#cccccc;stroke-linecap:round;stroke-width:0.8;"/>
     </g>
     <g id="text_48">
      <!-- 0.001 -->
      <g style="fill:#262626;" transform="translate(35.395313 1678.401777)scale(0.25 -0.25)">
       <use xlink:href="#DejaVuSans-48"/>
       <use x="63.623047" xlink:href="#DejaVuSans-46"/>
       <use x="95.410156" xlink:href="#DejaVuSans-48"/>
       <use x="159.033203" xlink:href="#DejaVuSans-48"/>
       <use x="222.65625" xlink:href="#DejaVuSans-49"/>
      </g>
     </g>
    </g>
    <g id="ytick_17">
     <g id="line2d_75">
      <path clip-path="url(#pe7911dd1b1)" d="M 113.965625 1578.775725 
L 895.165625 1578.775725 
" style="fill:none;stroke:#cccccc;stroke-linecap:round;stroke-width:0.8;"/>
     </g>
     <g id="text_49">
      <!-- 0.002 -->
      <g style="fill:#262626;" transform="translate(35.395313 1588.273772)scale(0.25 -0.25)">
       <use xlink:href="#DejaVuSans-48"/>
       <use x="63.623047" xlink:href="#DejaVuSans-46"/>
       <use x="95.410156" xlink:href="#DejaVuSans-48"/>
       <use x="159.033203" xlink:href="#DejaVuSans-48"/>
       <use x="222.65625" xlink:href="#DejaVuSans-50"/>
      </g>
     </g>
    </g>
    <g id="ytick_18">
     <g id="line2d_76">
      <path clip-path="url(#pe7911dd1b1)" d="M 113.965625 1488.64772 
L 895.165625 1488.64772 
" style="fill:none;stroke:#cccccc;stroke-linecap:round;stroke-width:0.8;"/>
     </g>
     <g id="text_50">
      <!-- 0.003 -->
      <g style="fill:#262626;" transform="translate(35.395313 1498.145767)scale(0.25 -0.25)">
       <use xlink:href="#DejaVuSans-48"/>
       <use x="63.623047" xlink:href="#DejaVuSans-46"/>
       <use x="95.410156" xlink:href="#DejaVuSans-48"/>
       <use x="159.033203" xlink:href="#DejaVuSans-48"/>
       <use x="222.65625" xlink:href="#DejaVuSans-51"/>
      </g>
     </g>
    </g>
    <g id="ytick_19">
     <g id="line2d_77">
      <path clip-path="url(#pe7911dd1b1)" d="M 113.965625 1398.519715 
L 895.165625 1398.519715 
" style="fill:none;stroke:#cccccc;stroke-linecap:round;stroke-width:0.8;"/>
     </g>
     <g id="text_51">
      <!-- 0.004 -->
      <g style="fill:#262626;" transform="translate(35.395313 1408.017762)scale(0.25 -0.25)">
       <use xlink:href="#DejaVuSans-48"/>
       <use x="63.623047" xlink:href="#DejaVuSans-46"/>
       <use x="95.410156" xlink:href="#DejaVuSans-48"/>
       <use x="159.033203" xlink:href="#DejaVuSans-48"/>
       <use x="222.65625" xlink:href="#DejaVuSans-52"/>
      </g>
     </g>
    </g>
    <g id="text_52">
     <!-- OD -->
     <g style="fill:#262626;" transform="translate(26.196094 1531.651295)rotate(-90)scale(0.25 -0.25)">
      <use xlink:href="#DejaVuSans-79"/>
      <use x="78.710938" xlink:href="#DejaVuSans-68"/>
     </g>
    </g>
   </g>
   <g id="line2d_78">
    <path clip-path="url(#pe7911dd1b1)" d="M 149.474716 1668.90373 
L 153.735807 1662.579448 
L 159.417261 1653.45579 
L 162.257989 1648.576259 
L 166.51908 1640.835165 
L 170.78017 1632.556908 
L 175.041261 1623.705437 
L 177.881989 1617.468579 
L 182.14308 1607.580635 
L 186.7782 1596.060474 
L 191.687923 1582.936034 
L 195.263274 1572.750668 
L 198.516558 1563.004225 
L 203.356921 1547.632894 
L 208.02607 1531.798305 
L 212.61994 1515.254408 
L 216.999395 1498.623989 
L 221.367605 1481.277052 
L 227.238441 1457.021803 
L 238.732142 1409.068297 
L 242.08716 1396.054715 
L 244.956886 1385.784628 
L 247.80945 1376.664576 
L 249.238099 1372.600704 
L 250.666156 1368.923481 
L 252.093621 1365.667156 
L 253.52523 1362.84615 
L 254.956838 1360.492006 
L 256.387854 1358.611936 
L 257.823605 1357.195124 
L 259.248111 1356.232557 
L 260.679128 1355.673763 
L 262.126123 1355.471877 
L 322.764998 1355.469173 
L 859.656534 1355.469173 
L 859.656534 1355.469173 
" style="fill:none;stroke:#1b9e77;stroke-linecap:round;stroke-width:3;"/>
   </g>
   <g id="line2d_79">
    <path clip-path="url(#pe7911dd1b1)" d="M 149.474716 1668.90373 
L 153.735807 1662.579448 
L 159.417261 1653.45579 
L 162.257989 1648.576259 
L 166.51908 1640.835165 
L 170.78017 1632.556908 
L 175.041261 1623.705437 
L 177.881989 1617.468579 
L 182.14308 1607.580635 
L 186.7782 1596.060474 
L 191.656202 1583.023458 
L 195.238891 1572.821869 
L 198.497324 1563.062809 
L 203.343309 1547.677057 
L 208.016364 1531.832554 
L 212.461333 1515.841142 
L 216.770361 1499.512651 
L 221.198937 1481.959321 
L 226.957328 1458.199776 
L 238.944605 1408.221094 
L 241.81729 1397.065951 
L 244.68169 1386.725565 
L 247.527744 1377.507272 
L 248.951659 1373.38662 
L 250.372022 1369.64811 
L 251.804222 1366.291743 
L 253.236422 1363.377905 
L 254.662112 1360.937239 
L 256.097271 1358.955324 
L 257.527696 1357.449285 
L 258.958712 1356.393886 
L 260.389137 1355.75578 
L 261.830214 1355.486297 
L 270.671978 1355.469173 
L 859.656534 1355.469173 
L 859.656534 1355.469173 
" style="fill:none;stroke:#d95f02;stroke-linecap:round;stroke-width:3;"/>
   </g>
   <g id="line2d_80">
    <path clip-path="url(#pe7911dd1b1)" d="M 149.474716 1668.90373 
L 153.735807 1662.579448 
L 159.417261 1653.45579 
L 162.257989 1648.576259 
L 166.51908 1640.835165 
L 170.78017 1632.556908 
L 175.041261 1623.705437 
L 177.881989 1617.468579 
L 182.14308 1607.580635 
L 186.7782 1596.060474 
L 191.656202 1583.023458 
L 195.238891 1572.821869 
L 198.497324 1563.062809 
L 203.343309 1547.677057 
L 208.016364 1531.832554 
L 212.461333 1515.841142 
L 216.770361 1499.512651 
L 221.198937 1481.959321 
L 227.001122 1458.016816 
L 238.570576 1409.715416 
L 241.428466 1398.53684 
L 244.282805 1388.10903 
L 247.13596 1378.70237 
L 248.559875 1374.484379 
L 249.99385 1370.606171 
L 251.417765 1367.15517 
L 252.85174 1364.115152 
L 254.288675 1361.532084 
L 255.72561 1359.423088 
L 257.14834 1357.804389 
L 258.577581 1356.632725 
L 260.018067 1355.883762 
L 261.465062 1355.522348 
L 265.795396 1355.469173 
L 859.656534 1355.469173 
L 859.656534 1355.469173 
" style="fill:none;stroke:#7570b3;stroke-linecap:round;stroke-width:3;"/>
   </g>
   <g id="line2d_81"/>
   <g id="line2d_82"/>
   <g id="line2d_83"/>
   <g id="patch_20">
    <path d="M 113.965625 1684.575458 
L 113.965625 1339.797445 
" style="fill:none;stroke:#cccccc;stroke-linecap:square;stroke-linejoin:miter;stroke-width:0.8;"/>
   </g>
   <g id="patch_21">
    <path d="M 895.165625 1684.575458 
L 895.165625 1339.797445 
" style="fill:none;stroke:#cccccc;stroke-linecap:square;stroke-linejoin:miter;stroke-width:0.8;"/>
   </g>
   <g id="patch_22">
    <path d="M 113.965625 1684.575458 
L 895.165625 1684.575458 
" style="fill:none;stroke:#cccccc;stroke-linecap:square;stroke-linejoin:miter;stroke-width:0.8;"/>
   </g>
   <g id="patch_23">
    <path d="M 113.965625 1339.797445 
L 895.165625 1339.797445 
" style="fill:none;stroke:#cccccc;stroke-linecap:square;stroke-linejoin:miter;stroke-width:0.8;"/>
   </g>
   <g id="text_53">
    <!-- V_a (setA_16) -->
    <g style="fill:#262626;" transform="translate(401.367969 1333.797445)scale(0.3 -0.3)">
     <use xlink:href="#DejaVuSans-86"/>
     <use x="68.408203" xlink:href="#DejaVuSans-95"/>
     <use x="118.408203" xlink:href="#DejaVuSans-97"/>
     <use x="179.6875" xlink:href="#DejaVuSans-32"/>
     <use x="211.474609" xlink:href="#DejaVuSans-40"/>
     <use x="250.488281" xlink:href="#DejaVuSans-115"/>
     <use x="302.587891" xlink:href="#DejaVuSans-101"/>
     <use x="364.111328" xlink:href="#DejaVuSans-116"/>
     <use x="403.320312" xlink:href="#DejaVuSans-65"/>
     <use x="471.728516" xlink:href="#DejaVuSans-95"/>
     <use x="521.728516" xlink:href="#DejaVuSans-49"/>
     <use x="585.351562" xlink:href="#DejaVuSans-54"/>
     <use x="648.974609" xlink:href="#DejaVuSans-41"/>
    </g>
   </g>
  </g>
 </g>
 <defs>
  <clipPath id="p2614aa0372">
   <rect height="344.778013" width="781.2" x="113.965625" y="53.775458"/>
  </clipPath>
  <clipPath id="pbfd069c91a">
   <rect height="344.778013" width="781.2" x="113.965625" y="450.270172"/>
  </clipPath>
  <clipPath id="pe5f2121ba5">
   <rect height="344.778013" width="781.2" x="113.965625" y="943.30273"/>
  </clipPath>
  <clipPath id="pe7911dd1b1">
   <rect height="344.778013" width="781.2" x="113.965625" y="1339.797445"/>
  </clipPath>
 </defs>
</svg>
