<?xml version="1.0" encoding="utf-8" standalone="no"?>
<!DOCTYPE svg PUBLIC "-//W3C//DTD SVG 1.1//EN"
  "http://www.w3.org/Graphics/SVG/1.1/DTD/svg11.dtd">
<!-- Created with matplotlib (https://matplotlib.org/) -->
<svg height="1751.166083pt" version="1.1" viewBox="0 0 1045.834375 1751.166083" width="1045.834375pt" xmlns="http://www.w3.org/2000/svg" xmlns:xlink="http://www.w3.org/1999/xlink">
 <metadata>
  <rdf:RDF xmlns:cc="http://creativecommons.org/ns#" xmlns:dc="http://purl.org/dc/elements/1.1/" xmlns:rdf="http://www.w3.org/1999/02/22-rdf-syntax-ns#">
   <cc:Work>
    <dc:type rdf:resource="http://purl.org/dc/dcmitype/StillImage"/>
    <dc:date>2021-05-03T15:59:45.135666</dc:date>
    <dc:format>image/svg+xml</dc:format>
    <dc:creator>
     <cc:Agent>
      <dc:title>Matplotlib v3.3.4, https://matplotlib.org/</dc:title>
     </cc:Agent>
    </dc:creator>
   </cc:Work>
  </rdf:RDF>
 </metadata>
 <defs>
  <style type="text/css">*{stroke-linecap:butt;stroke-linejoin:round;}</style>
 </defs>
 <g id="figure_1">
  <g id="patch_1">
   <path d="M 0 1751.166083 
L 1045.834375 1751.166083 
L 1045.834375 0 
L 0 0 
z
" style="fill:none;"/>
  </g>
  <g id="axes_1">
   <g id="patch_2">
    <path d="M 98.059375 398.55347 
L 879.259375 398.55347 
L 879.259375 53.775458 
L 98.059375 53.775458 
z
" style="fill:none;"/>
   </g>
   <g id="matplotlib.axis_1">
    <g id="xtick_1">
     <g id="line2d_1">
      <path clip-path="url(#pc54de17e17)" d="M 133.568466 398.55347 
L 133.568466 53.775458 
" style="fill:none;stroke:#cccccc;stroke-linecap:round;stroke-width:0.8;"/>
     </g>
    </g>
    <g id="xtick_2">
     <g id="line2d_2">
      <path clip-path="url(#pc54de17e17)" d="M 251.932102 398.55347 
L 251.932102 53.775458 
" style="fill:none;stroke:#cccccc;stroke-linecap:round;stroke-width:0.8;"/>
     </g>
    </g>
    <g id="xtick_3">
     <g id="line2d_3">
      <path clip-path="url(#pc54de17e17)" d="M 370.295739 398.55347 
L 370.295739 53.775458 
" style="fill:none;stroke:#cccccc;stroke-linecap:round;stroke-width:0.8;"/>
     </g>
    </g>
    <g id="xtick_4">
     <g id="line2d_4">
      <path clip-path="url(#pc54de17e17)" d="M 488.659375 398.55347 
L 488.659375 53.775458 
" style="fill:none;stroke:#cccccc;stroke-linecap:round;stroke-width:0.8;"/>
     </g>
    </g>
    <g id="xtick_5">
     <g id="line2d_5">
      <path clip-path="url(#pc54de17e17)" d="M 607.023011 398.55347 
L 607.023011 53.775458 
" style="fill:none;stroke:#cccccc;stroke-linecap:round;stroke-width:0.8;"/>
     </g>
    </g>
    <g id="xtick_6">
     <g id="line2d_6">
      <path clip-path="url(#pc54de17e17)" d="M 725.386648 398.55347 
L 725.386648 53.775458 
" style="fill:none;stroke:#cccccc;stroke-linecap:round;stroke-width:0.8;"/>
     </g>
    </g>
    <g id="xtick_7">
     <g id="line2d_7">
      <path clip-path="url(#pc54de17e17)" d="M 843.750284 398.55347 
L 843.750284 53.775458 
" style="fill:none;stroke:#cccccc;stroke-linecap:round;stroke-width:0.8;"/>
     </g>
    </g>
   </g>
   <g id="matplotlib.axis_2">
    <g id="ytick_1">
     <g id="line2d_8">
      <path clip-path="url(#pc54de17e17)" d="M 98.059375 385.114468 
L 879.259375 385.114468 
" style="fill:none;stroke:#cccccc;stroke-linecap:round;stroke-width:0.8;"/>
     </g>
     <g id="text_1">
      <!-- 0.00 -->
      <g style="fill:#262626;" transform="translate(35.395313 394.612515)scale(0.25 -0.25)">
       <defs>
        <path d="M 31.78125 66.40625 
Q 24.171875 66.40625 20.328125 58.90625 
Q 16.5 51.421875 16.5 36.375 
Q 16.5 21.390625 20.328125 13.890625 
Q 24.171875 6.390625 31.78125 6.390625 
Q 39.453125 6.390625 43.28125 13.890625 
Q 47.125 21.390625 47.125 36.375 
Q 47.125 51.421875 43.28125 58.90625 
Q 39.453125 66.40625 31.78125 66.40625 
z
M 31.78125 74.21875 
Q 44.046875 74.21875 50.515625 64.515625 
Q 56.984375 54.828125 56.984375 36.375 
Q 56.984375 17.96875 50.515625 8.265625 
Q 44.046875 -1.421875 31.78125 -1.421875 
Q 19.53125 -1.421875 13.0625 8.265625 
Q 6.59375 17.96875 6.59375 36.375 
Q 6.59375 54.828125 13.0625 64.515625 
Q 19.53125 74.21875 31.78125 74.21875 
z
" id="DejaVuSans-48"/>
        <path d="M 10.6875 12.40625 
L 21 12.40625 
L 21 0 
L 10.6875 0 
z
" id="DejaVuSans-46"/>
       </defs>
       <use xlink:href="#DejaVuSans-48"/>
       <use x="63.623047" xlink:href="#DejaVuSans-46"/>
       <use x="95.410156" xlink:href="#DejaVuSans-48"/>
       <use x="159.033203" xlink:href="#DejaVuSans-48"/>
      </g>
     </g>
    </g>
    <g id="ytick_2">
     <g id="line2d_9">
      <path clip-path="url(#pc54de17e17)" d="M 98.059375 273.478163 
L 879.259375 273.478163 
" style="fill:none;stroke:#cccccc;stroke-linecap:round;stroke-width:0.8;"/>
     </g>
     <g id="text_2">
      <!-- 0.05 -->
      <g style="fill:#262626;" transform="translate(35.395313 282.97621)scale(0.25 -0.25)">
       <defs>
        <path d="M 10.796875 72.90625 
L 49.515625 72.90625 
L 49.515625 64.59375 
L 19.828125 64.59375 
L 19.828125 46.734375 
Q 21.96875 47.46875 24.109375 47.828125 
Q 26.265625 48.1875 28.421875 48.1875 
Q 40.625 48.1875 47.75 41.5 
Q 54.890625 34.8125 54.890625 23.390625 
Q 54.890625 11.625 47.5625 5.09375 
Q 40.234375 -1.421875 26.90625 -1.421875 
Q 22.3125 -1.421875 17.546875 -0.640625 
Q 12.796875 0.140625 7.71875 1.703125 
L 7.71875 11.625 
Q 12.109375 9.234375 16.796875 8.0625 
Q 21.484375 6.890625 26.703125 6.890625 
Q 35.15625 6.890625 40.078125 11.328125 
Q 45.015625 15.765625 45.015625 23.390625 
Q 45.015625 31 40.078125 35.4375 
Q 35.15625 39.890625 26.703125 39.890625 
Q 22.75 39.890625 18.8125 39.015625 
Q 14.890625 38.140625 10.796875 36.28125 
z
" id="DejaVuSans-53"/>
       </defs>
       <use xlink:href="#DejaVuSans-48"/>
       <use x="63.623047" xlink:href="#DejaVuSans-46"/>
       <use x="95.410156" xlink:href="#DejaVuSans-48"/>
       <use x="159.033203" xlink:href="#DejaVuSans-53"/>
      </g>
     </g>
    </g>
    <g id="ytick_3">
     <g id="line2d_10">
      <path clip-path="url(#pc54de17e17)" d="M 98.059375 161.841857 
L 879.259375 161.841857 
" style="fill:none;stroke:#cccccc;stroke-linecap:round;stroke-width:0.8;"/>
     </g>
     <g id="text_3">
      <!-- 0.10 -->
      <g style="fill:#262626;" transform="translate(35.395313 171.339904)scale(0.25 -0.25)">
       <defs>
        <path d="M 12.40625 8.296875 
L 28.515625 8.296875 
L 28.515625 63.921875 
L 10.984375 60.40625 
L 10.984375 69.390625 
L 28.421875 72.90625 
L 38.28125 72.90625 
L 38.28125 8.296875 
L 54.390625 8.296875 
L 54.390625 0 
L 12.40625 0 
z
" id="DejaVuSans-49"/>
       </defs>
       <use xlink:href="#DejaVuSans-48"/>
       <use x="63.623047" xlink:href="#DejaVuSans-46"/>
       <use x="95.410156" xlink:href="#DejaVuSans-49"/>
       <use x="159.033203" xlink:href="#DejaVuSans-48"/>
      </g>
     </g>
    </g>
    <g id="text_4">
     <!-- OD -->
     <g style="fill:#262626;" transform="translate(26.196094 245.629308)rotate(-90)scale(0.25 -0.25)">
      <defs>
       <path d="M 39.40625 66.21875 
Q 28.65625 66.21875 22.328125 58.203125 
Q 16.015625 50.203125 16.015625 36.375 
Q 16.015625 22.609375 22.328125 14.59375 
Q 28.65625 6.59375 39.40625 6.59375 
Q 50.140625 6.59375 56.421875 14.59375 
Q 62.703125 22.609375 62.703125 36.375 
Q 62.703125 50.203125 56.421875 58.203125 
Q 50.140625 66.21875 39.40625 66.21875 
z
M 39.40625 74.21875 
Q 54.734375 74.21875 63.90625 63.9375 
Q 73.09375 53.65625 73.09375 36.375 
Q 73.09375 19.140625 63.90625 8.859375 
Q 54.734375 -1.421875 39.40625 -1.421875 
Q 24.03125 -1.421875 14.8125 8.828125 
Q 5.609375 19.09375 5.609375 36.375 
Q 5.609375 53.65625 14.8125 63.9375 
Q 24.03125 74.21875 39.40625 74.21875 
z
" id="DejaVuSans-79"/>
       <path d="M 19.671875 64.796875 
L 19.671875 8.109375 
L 31.59375 8.109375 
Q 46.6875 8.109375 53.6875 14.9375 
Q 60.6875 21.78125 60.6875 36.53125 
Q 60.6875 51.171875 53.6875 57.984375 
Q 46.6875 64.796875 31.59375 64.796875 
z
M 9.8125 72.90625 
L 30.078125 72.90625 
Q 51.265625 72.90625 61.171875 64.09375 
Q 71.09375 55.28125 71.09375 36.53125 
Q 71.09375 17.671875 61.125 8.828125 
Q 51.171875 0 30.078125 0 
L 9.8125 0 
z
" id="DejaVuSans-68"/>
      </defs>
      <use xlink:href="#DejaVuSans-79"/>
      <use x="78.710938" xlink:href="#DejaVuSans-68"/>
     </g>
    </g>
   </g>
   <g id="line2d_11">
    <path clip-path="url(#pc54de17e17)" d="M 133.568466 382.881742 
L 138.506366 382.242781 
L 144.187815 381.278288 
L 149.869269 379.989849 
L 153.665369 378.895924 
L 157.059623 377.721466 
L 160.507793 376.30105 
L 163.677512 374.75578 
L 166.751652 372.998848 
L 169.742524 371.003907 
L 172.744462 368.671401 
L 175.633482 366.063376 
L 178.551797 363.008917 
L 181.477864 359.455087 
L 184.350964 355.410727 
L 187.219388 350.738301 
L 190.085386 345.337113 
L 192.941441 339.112496 
L 195.799331 331.91441 
L 198.648936 323.620726 
L 201.495581 314.053271 
L 204.339268 303.029186 
L 207.182954 290.318053 
L 210.024865 275.688785 
L 212.866184 258.873232 
L 215.708095 239.589399 
L 218.549414 217.558421 
L 221.391325 192.554345 
L 224.232052 164.507509 
L 227.073371 133.807748 
L 229.91469 102.317379 
L 231.335054 88.041328 
L 232.75601 76.953611 
L 234.176373 71.02349 
L 235.599104 69.478444 
L 241.377617 69.447185 
L 843.750284 69.447185 
L 843.750284 69.447185 
" style="fill:none;stroke:#1b9e77;stroke-linecap:round;stroke-width:3;"/>
   </g>
   <g id="line2d_12">
    <path clip-path="url(#pc54de17e17)" d="M 133.568466 382.881742 
L 140.670284 381.907917 
L 146.351739 380.830961 
L 150.61283 379.791917 
L 155.00921 378.455073 
L 158.603973 377.116062 
L 161.994677 375.607208 
L 165.036267 374.013064 
L 168.150947 372.103257 
L 171.065474 370.019789 
L 174.033975 367.554546 
L 176.915242 364.777526 
L 179.837285 361.512544 
L 182.713758 357.787687 
L 185.597037 353.464459 
L 188.471675 348.47454 
L 191.318439 342.760101 
L 194.173607 336.137165 
L 197.02262 328.500126 
L 199.872224 319.677062 
L 202.719461 309.500296 
L 205.566107 297.765311 
L 208.409793 284.25129 
L 211.252296 268.70839 
L 214.094207 250.86154 
L 216.936118 230.42004 
L 219.778029 207.122213 
L 222.619348 180.798595 
L 225.460075 151.508801 
L 231.524436 86.324362 
L 232.945391 75.841713 
L 234.366939 70.621599 
L 235.79618 69.451651 
L 272.936321 69.447185 
L 843.750284 69.447185 
L 843.750284 69.447185 
" style="fill:none;stroke:#d95f02;stroke-linecap:round;stroke-width:3;"/>
   </g>
   <g id="line2d_13">
    <path clip-path="url(#pc54de17e17)" d="M 133.568466 382.881742 
L 140.670284 381.907917 
L 146.351739 380.830961 
L 150.61283 379.791917 
L 155.119111 378.417674 
L 158.677062 377.086211 
L 162.044626 375.582961 
L 165.071776 373.992925 
L 168.176099 372.086556 
L 171.083643 370.005789 
L 174.055872 367.534988 
L 176.992652 364.697148 
L 179.893389 361.445116 
L 182.754653 357.730529 
L 185.626805 353.416456 
L 188.493395 348.434128 
L 191.349924 342.692226 
L 194.207932 336.051205 
L 197.055761 328.403449 
L 199.908917 319.554485 
L 202.755562 309.36209 
L 205.599249 297.618844 
L 208.444119 284.077807 
L 211.286621 268.508561 
L 214.129716 250.619736 
L 216.971627 230.145191 
L 219.813538 206.814766 
L 222.654857 180.449173 
L 225.495584 151.127005 
L 231.17763 89.503764 
L 232.598586 77.949406 
L 234.01895 71.418683 
L 235.442272 69.523098 
L 238.334488 69.447185 
L 843.750284 69.447185 
L 843.750284 69.447185 
" style="fill:none;stroke:#7570b3;stroke-linecap:round;stroke-width:3;"/>
   </g>
   <g id="line2d_14"/>
   <g id="line2d_15"/>
   <g id="line2d_16"/>
   <g id="patch_3">
    <path d="M 98.059375 398.55347 
L 98.059375 53.775458 
" style="fill:none;stroke:#cccccc;stroke-linecap:square;stroke-linejoin:miter;stroke-width:0.8;"/>
   </g>
   <g id="patch_4">
    <path d="M 879.259375 398.55347 
L 879.259375 53.775458 
" style="fill:none;stroke:#cccccc;stroke-linecap:square;stroke-linejoin:miter;stroke-width:0.8;"/>
   </g>
   <g id="patch_5">
    <path d="M 98.059375 398.55347 
L 879.259375 398.55347 
" style="fill:none;stroke:#cccccc;stroke-linecap:square;stroke-linejoin:miter;stroke-width:0.8;"/>
   </g>
   <g id="patch_6">
    <path d="M 98.059375 53.775458 
L 879.259375 53.775458 
" style="fill:none;stroke:#cccccc;stroke-linecap:square;stroke-linejoin:miter;stroke-width:0.8;"/>
   </g>
   <g id="text_5">
    <!-- EU_avg -->
    <g style="fill:#262626;" transform="translate(47.588672 25.500781)scale(0.25 -0.25)">
     <defs>
      <path d="M 9.1875 72.90625 
L 59.90625 72.90625 
L 59.90625 58.6875 
L 27.984375 58.6875 
L 27.984375 45.125 
L 58.015625 45.125 
L 58.015625 30.90625 
L 27.984375 30.90625 
L 27.984375 14.203125 
L 60.984375 14.203125 
L 60.984375 0 
L 9.1875 0 
z
" id="DejaVuSans-Bold-69"/>
      <path d="M 9.1875 72.90625 
L 27.984375 72.90625 
L 27.984375 29.203125 
Q 27.984375 20.171875 30.9375 16.28125 
Q 33.890625 12.40625 40.578125 12.40625 
Q 47.3125 12.40625 50.265625 16.28125 
Q 53.21875 20.171875 53.21875 29.203125 
L 53.21875 72.90625 
L 72.015625 72.90625 
L 72.015625 29.203125 
Q 72.015625 13.71875 64.25 6.140625 
Q 56.5 -1.421875 40.578125 -1.421875 
Q 24.703125 -1.421875 16.9375 6.140625 
Q 9.1875 13.71875 9.1875 29.203125 
z
" id="DejaVuSans-Bold-85"/>
      <path d="M 50 -14.3125 
L 50 -23.578125 
L 0 -23.578125 
L 0 -14.3125 
z
" id="DejaVuSans-Bold-95"/>
      <path d="M 32.90625 24.609375 
Q 27.4375 24.609375 24.671875 22.75 
Q 21.921875 20.90625 21.921875 17.28125 
Q 21.921875 13.96875 24.140625 12.078125 
Q 26.375 10.203125 30.328125 10.203125 
Q 35.25 10.203125 38.625 13.734375 
Q 42 17.28125 42 22.609375 
L 42 24.609375 
z
M 59.625 31.203125 
L 59.625 0 
L 42 0 
L 42 8.109375 
Q 38.484375 3.125 34.078125 0.84375 
Q 29.6875 -1.421875 23.390625 -1.421875 
Q 14.890625 -1.421875 9.59375 3.53125 
Q 4.296875 8.5 4.296875 16.40625 
Q 4.296875 26.03125 10.90625 30.515625 
Q 17.53125 35.015625 31.6875 35.015625 
L 42 35.015625 
L 42 36.375 
Q 42 40.53125 38.71875 42.453125 
Q 35.453125 44.390625 28.515625 44.390625 
Q 22.90625 44.390625 18.0625 43.265625 
Q 13.234375 42.140625 9.078125 39.890625 
L 9.078125 53.21875 
Q 14.703125 54.59375 20.359375 55.296875 
Q 26.03125 56 31.6875 56 
Q 46.484375 56 53.046875 50.171875 
Q 59.625 44.34375 59.625 31.203125 
z
" id="DejaVuSans-Bold-97"/>
      <path d="M 1.515625 54.6875 
L 19 54.6875 
L 32.625 16.890625 
L 46.1875 54.6875 
L 63.71875 54.6875 
L 42.1875 0 
L 23 0 
z
" id="DejaVuSans-Bold-118"/>
      <path d="M 45.609375 9.28125 
Q 42 4.5 37.640625 2.25 
Q 33.296875 0 27.59375 0 
Q 17.578125 0 11.03125 7.875 
Q 4.5 15.765625 4.5 27.984375 
Q 4.5 40.234375 11.03125 48.0625 
Q 17.578125 55.90625 27.59375 55.90625 
Q 33.296875 55.90625 37.640625 53.65625 
Q 42 51.421875 45.609375 46.578125 
L 45.609375 54.6875 
L 63.1875 54.6875 
L 63.1875 5.515625 
Q 63.1875 -7.671875 54.859375 -14.625 
Q 46.53125 -21.578125 30.71875 -21.578125 
Q 25.59375 -21.578125 20.796875 -20.796875 
Q 16.015625 -20.015625 11.1875 -18.40625 
L 11.1875 -4.78125 
Q 15.765625 -7.421875 20.15625 -8.71875 
Q 24.5625 -10.015625 29 -10.015625 
Q 37.59375 -10.015625 41.59375 -6.25 
Q 45.609375 -2.484375 45.609375 5.515625 
z
M 34.078125 43.3125 
Q 28.65625 43.3125 25.625 39.296875 
Q 22.609375 35.296875 22.609375 27.984375 
Q 22.609375 20.453125 25.53125 16.578125 
Q 28.46875 12.703125 34.078125 12.703125 
Q 39.546875 12.703125 42.578125 16.703125 
Q 45.609375 20.703125 45.609375 27.984375 
Q 45.609375 35.296875 42.578125 39.296875 
Q 39.546875 43.3125 34.078125 43.3125 
z
" id="DejaVuSans-Bold-103"/>
     </defs>
     <use xlink:href="#DejaVuSans-Bold-69"/>
     <use x="68.310547" xlink:href="#DejaVuSans-Bold-85"/>
     <use x="149.511719" xlink:href="#DejaVuSans-Bold-95"/>
     <use x="199.511719" xlink:href="#DejaVuSans-Bold-97"/>
     <use x="266.992188" xlink:href="#DejaVuSans-Bold-118"/>
     <use x="332.177734" xlink:href="#DejaVuSans-Bold-103"/>
    </g>
   </g>
   <g id="text_6">
    <!-- II_b (setA_24) -->
    <g style="fill:#262626;" transform="translate(386.542188 47.775458)scale(0.3 -0.3)">
     <defs>
      <path d="M 9.8125 72.90625 
L 19.671875 72.90625 
L 19.671875 0 
L 9.8125 0 
z
" id="DejaVuSans-73"/>
      <path d="M 50.984375 -16.609375 
L 50.984375 -23.578125 
L -0.984375 -23.578125 
L -0.984375 -16.609375 
z
" id="DejaVuSans-95"/>
      <path d="M 48.6875 27.296875 
Q 48.6875 37.203125 44.609375 42.84375 
Q 40.53125 48.484375 33.40625 48.484375 
Q 26.265625 48.484375 22.1875 42.84375 
Q 18.109375 37.203125 18.109375 27.296875 
Q 18.109375 17.390625 22.1875 11.75 
Q 26.265625 6.109375 33.40625 6.109375 
Q 40.53125 6.109375 44.609375 11.75 
Q 48.6875 17.390625 48.6875 27.296875 
z
M 18.109375 46.390625 
Q 20.953125 51.265625 25.265625 53.625 
Q 29.59375 56 35.59375 56 
Q 45.5625 56 51.78125 48.09375 
Q 58.015625 40.1875 58.015625 27.296875 
Q 58.015625 14.40625 51.78125 6.484375 
Q 45.5625 -1.421875 35.59375 -1.421875 
Q 29.59375 -1.421875 25.265625 0.953125 
Q 20.953125 3.328125 18.109375 8.203125 
L 18.109375 0 
L 9.078125 0 
L 9.078125 75.984375 
L 18.109375 75.984375 
z
" id="DejaVuSans-98"/>
      <path id="DejaVuSans-32"/>
      <path d="M 31 75.875 
Q 24.46875 64.65625 21.28125 53.65625 
Q 18.109375 42.671875 18.109375 31.390625 
Q 18.109375 20.125 21.3125 9.0625 
Q 24.515625 -2 31 -13.1875 
L 23.1875 -13.1875 
Q 15.875 -1.703125 12.234375 9.375 
Q 8.59375 20.453125 8.59375 31.390625 
Q 8.59375 42.28125 12.203125 53.3125 
Q 15.828125 64.359375 23.1875 75.875 
z
" id="DejaVuSans-40"/>
      <path d="M 44.28125 53.078125 
L 44.28125 44.578125 
Q 40.484375 46.53125 36.375 47.5 
Q 32.28125 48.484375 27.875 48.484375 
Q 21.1875 48.484375 17.84375 46.4375 
Q 14.5 44.390625 14.5 40.28125 
Q 14.5 37.15625 16.890625 35.375 
Q 19.28125 33.59375 26.515625 31.984375 
L 29.59375 31.296875 
Q 39.15625 29.25 43.1875 25.515625 
Q 47.21875 21.78125 47.21875 15.09375 
Q 47.21875 7.46875 41.1875 3.015625 
Q 35.15625 -1.421875 24.609375 -1.421875 
Q 20.21875 -1.421875 15.453125 -0.5625 
Q 10.6875 0.296875 5.421875 2 
L 5.421875 11.28125 
Q 10.40625 8.6875 15.234375 7.390625 
Q 20.0625 6.109375 24.8125 6.109375 
Q 31.15625 6.109375 34.5625 8.28125 
Q 37.984375 10.453125 37.984375 14.40625 
Q 37.984375 18.0625 35.515625 20.015625 
Q 33.0625 21.96875 24.703125 23.78125 
L 21.578125 24.515625 
Q 13.234375 26.265625 9.515625 29.90625 
Q 5.8125 33.546875 5.8125 39.890625 
Q 5.8125 47.609375 11.28125 51.796875 
Q 16.75 56 26.8125 56 
Q 31.78125 56 36.171875 55.265625 
Q 40.578125 54.546875 44.28125 53.078125 
z
" id="DejaVuSans-115"/>
      <path d="M 56.203125 29.59375 
L 56.203125 25.203125 
L 14.890625 25.203125 
Q 15.484375 15.921875 20.484375 11.0625 
Q 25.484375 6.203125 34.421875 6.203125 
Q 39.59375 6.203125 44.453125 7.46875 
Q 49.3125 8.734375 54.109375 11.28125 
L 54.109375 2.78125 
Q 49.265625 0.734375 44.1875 -0.34375 
Q 39.109375 -1.421875 33.890625 -1.421875 
Q 20.796875 -1.421875 13.15625 6.1875 
Q 5.515625 13.8125 5.515625 26.8125 
Q 5.515625 40.234375 12.765625 48.109375 
Q 20.015625 56 32.328125 56 
Q 43.359375 56 49.78125 48.890625 
Q 56.203125 41.796875 56.203125 29.59375 
z
M 47.21875 32.234375 
Q 47.125 39.59375 43.09375 43.984375 
Q 39.0625 48.390625 32.421875 48.390625 
Q 24.90625 48.390625 20.390625 44.140625 
Q 15.875 39.890625 15.1875 32.171875 
z
" id="DejaVuSans-101"/>
      <path d="M 18.3125 70.21875 
L 18.3125 54.6875 
L 36.8125 54.6875 
L 36.8125 47.703125 
L 18.3125 47.703125 
L 18.3125 18.015625 
Q 18.3125 11.328125 20.140625 9.421875 
Q 21.96875 7.515625 27.59375 7.515625 
L 36.8125 7.515625 
L 36.8125 0 
L 27.59375 0 
Q 17.1875 0 13.234375 3.875 
Q 9.28125 7.765625 9.28125 18.015625 
L 9.28125 47.703125 
L 2.6875 47.703125 
L 2.6875 54.6875 
L 9.28125 54.6875 
L 9.28125 70.21875 
z
" id="DejaVuSans-116"/>
      <path d="M 34.1875 63.1875 
L 20.796875 26.90625 
L 47.609375 26.90625 
z
M 28.609375 72.90625 
L 39.796875 72.90625 
L 67.578125 0 
L 57.328125 0 
L 50.6875 18.703125 
L 17.828125 18.703125 
L 11.1875 0 
L 0.78125 0 
z
" id="DejaVuSans-65"/>
      <path d="M 19.1875 8.296875 
L 53.609375 8.296875 
L 53.609375 0 
L 7.328125 0 
L 7.328125 8.296875 
Q 12.9375 14.109375 22.625 23.890625 
Q 32.328125 33.6875 34.8125 36.53125 
Q 39.546875 41.84375 41.421875 45.53125 
Q 43.3125 49.21875 43.3125 52.78125 
Q 43.3125 58.59375 39.234375 62.25 
Q 35.15625 65.921875 28.609375 65.921875 
Q 23.96875 65.921875 18.8125 64.3125 
Q 13.671875 62.703125 7.8125 59.421875 
L 7.8125 69.390625 
Q 13.765625 71.78125 18.9375 73 
Q 24.125 74.21875 28.421875 74.21875 
Q 39.75 74.21875 46.484375 68.546875 
Q 53.21875 62.890625 53.21875 53.421875 
Q 53.21875 48.921875 51.53125 44.890625 
Q 49.859375 40.875 45.40625 35.40625 
Q 44.1875 33.984375 37.640625 27.21875 
Q 31.109375 20.453125 19.1875 8.296875 
z
" id="DejaVuSans-50"/>
      <path d="M 37.796875 64.3125 
L 12.890625 25.390625 
L 37.796875 25.390625 
z
M 35.203125 72.90625 
L 47.609375 72.90625 
L 47.609375 25.390625 
L 58.015625 25.390625 
L 58.015625 17.1875 
L 47.609375 17.1875 
L 47.609375 0 
L 37.796875 0 
L 37.796875 17.1875 
L 4.890625 17.1875 
L 4.890625 26.703125 
z
" id="DejaVuSans-52"/>
      <path d="M 8.015625 75.875 
L 15.828125 75.875 
Q 23.140625 64.359375 26.78125 53.3125 
Q 30.421875 42.28125 30.421875 31.390625 
Q 30.421875 20.453125 26.78125 9.375 
Q 23.140625 -1.703125 15.828125 -13.1875 
L 8.015625 -13.1875 
Q 14.5 -2 17.703125 9.0625 
Q 20.90625 20.125 20.90625 31.390625 
Q 20.90625 42.671875 17.703125 53.65625 
Q 14.5 64.65625 8.015625 75.875 
z
" id="DejaVuSans-41"/>
     </defs>
     <use xlink:href="#DejaVuSans-73"/>
     <use x="29.492188" xlink:href="#DejaVuSans-73"/>
     <use x="58.984375" xlink:href="#DejaVuSans-95"/>
     <use x="108.984375" xlink:href="#DejaVuSans-98"/>
     <use x="172.460938" xlink:href="#DejaVuSans-32"/>
     <use x="204.248047" xlink:href="#DejaVuSans-40"/>
     <use x="243.261719" xlink:href="#DejaVuSans-115"/>
     <use x="295.361328" xlink:href="#DejaVuSans-101"/>
     <use x="356.884766" xlink:href="#DejaVuSans-116"/>
     <use x="396.09375" xlink:href="#DejaVuSans-65"/>
     <use x="464.501953" xlink:href="#DejaVuSans-95"/>
     <use x="514.501953" xlink:href="#DejaVuSans-50"/>
     <use x="578.125" xlink:href="#DejaVuSans-52"/>
     <use x="641.748047" xlink:href="#DejaVuSans-41"/>
    </g>
   </g>
   <g id="legend_1">
    <g id="patch_7">
     <path d="M 896.759375 220.556708 
L 1033.634375 220.556708 
Q 1038.634375 220.556708 1038.634375 215.556708 
L 1038.634375 71.275458 
Q 1038.634375 66.275458 1033.634375 66.275458 
L 896.759375 66.275458 
Q 891.759375 66.275458 891.759375 71.275458 
L 891.759375 215.556708 
Q 891.759375 220.556708 896.759375 220.556708 
z
" style="fill:#ffffff;opacity:0.8;stroke:#cccccc;stroke-linejoin:miter;"/>
    </g>
    <g id="text_7">
     <!-- Replicate -->
     <g style="fill:#262626;" transform="translate(907.376563 95.271551)scale(0.25 -0.25)">
      <defs>
       <path d="M 44.390625 34.1875 
Q 47.5625 33.109375 50.5625 29.59375 
Q 53.5625 26.078125 56.59375 19.921875 
L 66.609375 0 
L 56 0 
L 46.6875 18.703125 
Q 43.0625 26.03125 39.671875 28.421875 
Q 36.28125 30.8125 30.421875 30.8125 
L 19.671875 30.8125 
L 19.671875 0 
L 9.8125 0 
L 9.8125 72.90625 
L 32.078125 72.90625 
Q 44.578125 72.90625 50.734375 67.671875 
Q 56.890625 62.453125 56.890625 51.90625 
Q 56.890625 45.015625 53.6875 40.46875 
Q 50.484375 35.9375 44.390625 34.1875 
z
M 19.671875 64.796875 
L 19.671875 38.921875 
L 32.078125 38.921875 
Q 39.203125 38.921875 42.84375 42.21875 
Q 46.484375 45.515625 46.484375 51.90625 
Q 46.484375 58.296875 42.84375 61.546875 
Q 39.203125 64.796875 32.078125 64.796875 
z
" id="DejaVuSans-82"/>
       <path d="M 18.109375 8.203125 
L 18.109375 -20.796875 
L 9.078125 -20.796875 
L 9.078125 54.6875 
L 18.109375 54.6875 
L 18.109375 46.390625 
Q 20.953125 51.265625 25.265625 53.625 
Q 29.59375 56 35.59375 56 
Q 45.5625 56 51.78125 48.09375 
Q 58.015625 40.1875 58.015625 27.296875 
Q 58.015625 14.40625 51.78125 6.484375 
Q 45.5625 -1.421875 35.59375 -1.421875 
Q 29.59375 -1.421875 25.265625 0.953125 
Q 20.953125 3.328125 18.109375 8.203125 
z
M 48.6875 27.296875 
Q 48.6875 37.203125 44.609375 42.84375 
Q 40.53125 48.484375 33.40625 48.484375 
Q 26.265625 48.484375 22.1875 42.84375 
Q 18.109375 37.203125 18.109375 27.296875 
Q 18.109375 17.390625 22.1875 11.75 
Q 26.265625 6.109375 33.40625 6.109375 
Q 40.53125 6.109375 44.609375 11.75 
Q 48.6875 17.390625 48.6875 27.296875 
z
" id="DejaVuSans-112"/>
       <path d="M 9.421875 75.984375 
L 18.40625 75.984375 
L 18.40625 0 
L 9.421875 0 
z
" id="DejaVuSans-108"/>
       <path d="M 9.421875 54.6875 
L 18.40625 54.6875 
L 18.40625 0 
L 9.421875 0 
z
M 9.421875 75.984375 
L 18.40625 75.984375 
L 18.40625 64.59375 
L 9.421875 64.59375 
z
" id="DejaVuSans-105"/>
       <path d="M 48.78125 52.59375 
L 48.78125 44.1875 
Q 44.96875 46.296875 41.140625 47.34375 
Q 37.3125 48.390625 33.40625 48.390625 
Q 24.65625 48.390625 19.8125 42.84375 
Q 14.984375 37.3125 14.984375 27.296875 
Q 14.984375 17.28125 19.8125 11.734375 
Q 24.65625 6.203125 33.40625 6.203125 
Q 37.3125 6.203125 41.140625 7.25 
Q 44.96875 8.296875 48.78125 10.40625 
L 48.78125 2.09375 
Q 45.015625 0.34375 40.984375 -0.53125 
Q 36.96875 -1.421875 32.421875 -1.421875 
Q 20.0625 -1.421875 12.78125 6.34375 
Q 5.515625 14.109375 5.515625 27.296875 
Q 5.515625 40.671875 12.859375 48.328125 
Q 20.21875 56 33.015625 56 
Q 37.15625 56 41.109375 55.140625 
Q 45.0625 54.296875 48.78125 52.59375 
z
" id="DejaVuSans-99"/>
       <path d="M 34.28125 27.484375 
Q 23.390625 27.484375 19.1875 25 
Q 14.984375 22.515625 14.984375 16.5 
Q 14.984375 11.71875 18.140625 8.90625 
Q 21.296875 6.109375 26.703125 6.109375 
Q 34.1875 6.109375 38.703125 11.40625 
Q 43.21875 16.703125 43.21875 25.484375 
L 43.21875 27.484375 
z
M 52.203125 31.203125 
L 52.203125 0 
L 43.21875 0 
L 43.21875 8.296875 
Q 40.140625 3.328125 35.546875 0.953125 
Q 30.953125 -1.421875 24.3125 -1.421875 
Q 15.921875 -1.421875 10.953125 3.296875 
Q 6 8.015625 6 15.921875 
Q 6 25.140625 12.171875 29.828125 
Q 18.359375 34.515625 30.609375 34.515625 
L 43.21875 34.515625 
L 43.21875 35.40625 
Q 43.21875 41.609375 39.140625 45 
Q 35.0625 48.390625 27.6875 48.390625 
Q 23 48.390625 18.546875 47.265625 
Q 14.109375 46.140625 10.015625 43.890625 
L 10.015625 52.203125 
Q 14.9375 54.109375 19.578125 55.046875 
Q 24.21875 56 28.609375 56 
Q 40.484375 56 46.34375 49.84375 
Q 52.203125 43.703125 52.203125 31.203125 
z
" id="DejaVuSans-97"/>
      </defs>
      <use xlink:href="#DejaVuSans-82"/>
      <use x="64.982422" xlink:href="#DejaVuSans-101"/>
      <use x="126.505859" xlink:href="#DejaVuSans-112"/>
      <use x="189.982422" xlink:href="#DejaVuSans-108"/>
      <use x="217.765625" xlink:href="#DejaVuSans-105"/>
      <use x="245.548828" xlink:href="#DejaVuSans-99"/>
      <use x="300.529297" xlink:href="#DejaVuSans-97"/>
      <use x="361.808594" xlink:href="#DejaVuSans-116"/>
      <use x="401.017578" xlink:href="#DejaVuSans-101"/>
     </g>
    </g>
    <g id="line2d_17">
     <path d="M 901.759375 123.216864 
L 951.759375 123.216864 
" style="fill:none;stroke:#1b9e77;stroke-linecap:round;stroke-width:5;"/>
    </g>
    <g id="line2d_18"/>
    <g id="text_8">
     <!-- rep1 -->
     <g style="fill:#262626;" transform="translate(971.759375 131.966864)scale(0.25 -0.25)">
      <defs>
       <path d="M 41.109375 46.296875 
Q 39.59375 47.171875 37.8125 47.578125 
Q 36.03125 48 33.890625 48 
Q 26.265625 48 22.1875 43.046875 
Q 18.109375 38.09375 18.109375 28.8125 
L 18.109375 0 
L 9.078125 0 
L 9.078125 54.6875 
L 18.109375 54.6875 
L 18.109375 46.1875 
Q 20.953125 51.171875 25.484375 53.578125 
Q 30.03125 56 36.53125 56 
Q 37.453125 56 38.578125 55.875 
Q 39.703125 55.765625 41.0625 55.515625 
z
" id="DejaVuSans-114"/>
      </defs>
      <use xlink:href="#DejaVuSans-114"/>
      <use x="38.863281" xlink:href="#DejaVuSans-101"/>
      <use x="100.386719" xlink:href="#DejaVuSans-112"/>
      <use x="163.863281" xlink:href="#DejaVuSans-49"/>
     </g>
    </g>
    <g id="line2d_19">
     <path d="M 901.759375 159.912176 
L 951.759375 159.912176 
" style="fill:none;stroke:#d95f02;stroke-linecap:round;stroke-width:5;"/>
    </g>
    <g id="line2d_20"/>
    <g id="text_9">
     <!-- rep2 -->
     <g style="fill:#262626;" transform="translate(971.759375 168.662176)scale(0.25 -0.25)">
      <use xlink:href="#DejaVuSans-114"/>
      <use x="38.863281" xlink:href="#DejaVuSans-101"/>
      <use x="100.386719" xlink:href="#DejaVuSans-112"/>
      <use x="163.863281" xlink:href="#DejaVuSans-50"/>
     </g>
    </g>
    <g id="line2d_21">
     <path d="M 901.759375 196.607489 
L 951.759375 196.607489 
" style="fill:none;stroke:#7570b3;stroke-linecap:round;stroke-width:5;"/>
    </g>
    <g id="line2d_22"/>
    <g id="text_10">
     <!-- rep3 -->
     <g style="fill:#262626;" transform="translate(971.759375 205.357489)scale(0.25 -0.25)">
      <defs>
       <path d="M 40.578125 39.3125 
Q 47.65625 37.796875 51.625 33 
Q 55.609375 28.21875 55.609375 21.1875 
Q 55.609375 10.40625 48.1875 4.484375 
Q 40.765625 -1.421875 27.09375 -1.421875 
Q 22.515625 -1.421875 17.65625 -0.515625 
Q 12.796875 0.390625 7.625 2.203125 
L 7.625 11.71875 
Q 11.71875 9.328125 16.59375 8.109375 
Q 21.484375 6.890625 26.8125 6.890625 
Q 36.078125 6.890625 40.9375 10.546875 
Q 45.796875 14.203125 45.796875 21.1875 
Q 45.796875 27.640625 41.28125 31.265625 
Q 36.765625 34.90625 28.71875 34.90625 
L 20.21875 34.90625 
L 20.21875 43.015625 
L 29.109375 43.015625 
Q 36.375 43.015625 40.234375 45.921875 
Q 44.09375 48.828125 44.09375 54.296875 
Q 44.09375 59.90625 40.109375 62.90625 
Q 36.140625 65.921875 28.71875 65.921875 
Q 24.65625 65.921875 20.015625 65.03125 
Q 15.375 64.15625 9.8125 62.3125 
L 9.8125 71.09375 
Q 15.4375 72.65625 20.34375 73.4375 
Q 25.25 74.21875 29.59375 74.21875 
Q 40.828125 74.21875 47.359375 69.109375 
Q 53.90625 64.015625 53.90625 55.328125 
Q 53.90625 49.265625 50.4375 45.09375 
Q 46.96875 40.921875 40.578125 39.3125 
z
" id="DejaVuSans-51"/>
      </defs>
      <use xlink:href="#DejaVuSans-114"/>
      <use x="38.863281" xlink:href="#DejaVuSans-101"/>
      <use x="100.386719" xlink:href="#DejaVuSans-112"/>
      <use x="163.863281" xlink:href="#DejaVuSans-51"/>
     </g>
    </g>
   </g>
  </g>
  <g id="axes_2">
   <g id="patch_8">
    <path d="M 98.059375 795.048185 
L 879.259375 795.048185 
L 879.259375 450.270172 
L 98.059375 450.270172 
z
" style="fill:none;"/>
   </g>
   <g id="matplotlib.axis_3">
    <g id="xtick_8">
     <g id="line2d_23">
      <path clip-path="url(#pb960988baf)" d="M 133.568466 795.048185 
L 133.568466 450.270172 
" style="fill:none;stroke:#cccccc;stroke-linecap:round;stroke-width:0.8;"/>
     </g>
     <g id="text_11">
      <!-- 0 -->
      <g style="fill:#262626;" transform="translate(125.615341 821.044279)scale(0.25 -0.25)">
       <use xlink:href="#DejaVuSans-48"/>
      </g>
     </g>
    </g>
    <g id="xtick_9">
     <g id="line2d_24">
      <path clip-path="url(#pb960988baf)" d="M 251.932102 795.048185 
L 251.932102 450.270172 
" style="fill:none;stroke:#cccccc;stroke-linecap:round;stroke-width:0.8;"/>
     </g>
     <g id="text_12">
      <!-- 2 -->
      <g style="fill:#262626;" transform="translate(243.978977 821.044279)scale(0.25 -0.25)">
       <use xlink:href="#DejaVuSans-50"/>
      </g>
     </g>
    </g>
    <g id="xtick_10">
     <g id="line2d_25">
      <path clip-path="url(#pb960988baf)" d="M 370.295739 795.048185 
L 370.295739 450.270172 
" style="fill:none;stroke:#cccccc;stroke-linecap:round;stroke-width:0.8;"/>
     </g>
     <g id="text_13">
      <!-- 4 -->
      <g style="fill:#262626;" transform="translate(362.342614 821.044279)scale(0.25 -0.25)">
       <use xlink:href="#DejaVuSans-52"/>
      </g>
     </g>
    </g>
    <g id="xtick_11">
     <g id="line2d_26">
      <path clip-path="url(#pb960988baf)" d="M 488.659375 795.048185 
L 488.659375 450.270172 
" style="fill:none;stroke:#cccccc;stroke-linecap:round;stroke-width:0.8;"/>
     </g>
     <g id="text_14">
      <!-- 6 -->
      <g style="fill:#262626;" transform="translate(480.70625 821.044279)scale(0.25 -0.25)">
       <defs>
        <path d="M 33.015625 40.375 
Q 26.375 40.375 22.484375 35.828125 
Q 18.609375 31.296875 18.609375 23.390625 
Q 18.609375 15.53125 22.484375 10.953125 
Q 26.375 6.390625 33.015625 6.390625 
Q 39.65625 6.390625 43.53125 10.953125 
Q 47.40625 15.53125 47.40625 23.390625 
Q 47.40625 31.296875 43.53125 35.828125 
Q 39.65625 40.375 33.015625 40.375 
z
M 52.59375 71.296875 
L 52.59375 62.3125 
Q 48.875 64.0625 45.09375 64.984375 
Q 41.3125 65.921875 37.59375 65.921875 
Q 27.828125 65.921875 22.671875 59.328125 
Q 17.53125 52.734375 16.796875 39.40625 
Q 19.671875 43.65625 24.015625 45.921875 
Q 28.375 48.1875 33.59375 48.1875 
Q 44.578125 48.1875 50.953125 41.515625 
Q 57.328125 34.859375 57.328125 23.390625 
Q 57.328125 12.15625 50.6875 5.359375 
Q 44.046875 -1.421875 33.015625 -1.421875 
Q 20.359375 -1.421875 13.671875 8.265625 
Q 6.984375 17.96875 6.984375 36.375 
Q 6.984375 53.65625 15.1875 63.9375 
Q 23.390625 74.21875 37.203125 74.21875 
Q 40.921875 74.21875 44.703125 73.484375 
Q 48.484375 72.75 52.59375 71.296875 
z
" id="DejaVuSans-54"/>
       </defs>
       <use xlink:href="#DejaVuSans-54"/>
      </g>
     </g>
    </g>
    <g id="xtick_12">
     <g id="line2d_27">
      <path clip-path="url(#pb960988baf)" d="M 607.023011 795.048185 
L 607.023011 450.270172 
" style="fill:none;stroke:#cccccc;stroke-linecap:round;stroke-width:0.8;"/>
     </g>
     <g id="text_15">
      <!-- 8 -->
      <g style="fill:#262626;" transform="translate(599.069886 821.044279)scale(0.25 -0.25)">
       <defs>
        <path d="M 31.78125 34.625 
Q 24.75 34.625 20.71875 30.859375 
Q 16.703125 27.09375 16.703125 20.515625 
Q 16.703125 13.921875 20.71875 10.15625 
Q 24.75 6.390625 31.78125 6.390625 
Q 38.8125 6.390625 42.859375 10.171875 
Q 46.921875 13.96875 46.921875 20.515625 
Q 46.921875 27.09375 42.890625 30.859375 
Q 38.875 34.625 31.78125 34.625 
z
M 21.921875 38.8125 
Q 15.578125 40.375 12.03125 44.71875 
Q 8.5 49.078125 8.5 55.328125 
Q 8.5 64.0625 14.71875 69.140625 
Q 20.953125 74.21875 31.78125 74.21875 
Q 42.671875 74.21875 48.875 69.140625 
Q 55.078125 64.0625 55.078125 55.328125 
Q 55.078125 49.078125 51.53125 44.71875 
Q 48 40.375 41.703125 38.8125 
Q 48.828125 37.15625 52.796875 32.3125 
Q 56.78125 27.484375 56.78125 20.515625 
Q 56.78125 9.90625 50.3125 4.234375 
Q 43.84375 -1.421875 31.78125 -1.421875 
Q 19.734375 -1.421875 13.25 4.234375 
Q 6.78125 9.90625 6.78125 20.515625 
Q 6.78125 27.484375 10.78125 32.3125 
Q 14.796875 37.15625 21.921875 38.8125 
z
M 18.3125 54.390625 
Q 18.3125 48.734375 21.84375 45.5625 
Q 25.390625 42.390625 31.78125 42.390625 
Q 38.140625 42.390625 41.71875 45.5625 
Q 45.3125 48.734375 45.3125 54.390625 
Q 45.3125 60.0625 41.71875 63.234375 
Q 38.140625 66.40625 31.78125 66.40625 
Q 25.390625 66.40625 21.84375 63.234375 
Q 18.3125 60.0625 18.3125 54.390625 
z
" id="DejaVuSans-56"/>
       </defs>
       <use xlink:href="#DejaVuSans-56"/>
      </g>
     </g>
    </g>
    <g id="xtick_13">
     <g id="line2d_28">
      <path clip-path="url(#pb960988baf)" d="M 725.386648 795.048185 
L 725.386648 450.270172 
" style="fill:none;stroke:#cccccc;stroke-linecap:round;stroke-width:0.8;"/>
     </g>
     <g id="text_16">
      <!-- 10 -->
      <g style="fill:#262626;" transform="translate(709.480398 821.044279)scale(0.25 -0.25)">
       <use xlink:href="#DejaVuSans-49"/>
       <use x="63.623047" xlink:href="#DejaVuSans-48"/>
      </g>
     </g>
    </g>
    <g id="xtick_14">
     <g id="line2d_29">
      <path clip-path="url(#pb960988baf)" d="M 843.750284 795.048185 
L 843.750284 450.270172 
" style="fill:none;stroke:#cccccc;stroke-linecap:round;stroke-width:0.8;"/>
     </g>
     <g id="text_17">
      <!-- 12 -->
      <g style="fill:#262626;" transform="translate(827.844034 821.044279)scale(0.25 -0.25)">
       <use xlink:href="#DejaVuSans-49"/>
       <use x="63.623047" xlink:href="#DejaVuSans-50"/>
      </g>
     </g>
    </g>
    <g id="text_18">
     <!-- Time (h) -->
     <g style="fill:#262626;" transform="translate(436.426953 849.239591)scale(0.25 -0.25)">
      <defs>
       <path d="M -0.296875 72.90625 
L 61.375 72.90625 
L 61.375 64.59375 
L 35.5 64.59375 
L 35.5 0 
L 25.59375 0 
L 25.59375 64.59375 
L -0.296875 64.59375 
z
" id="DejaVuSans-84"/>
       <path d="M 52 44.1875 
Q 55.375 50.25 60.0625 53.125 
Q 64.75 56 71.09375 56 
Q 79.640625 56 84.28125 50.015625 
Q 88.921875 44.046875 88.921875 33.015625 
L 88.921875 0 
L 79.890625 0 
L 79.890625 32.71875 
Q 79.890625 40.578125 77.09375 44.375 
Q 74.3125 48.1875 68.609375 48.1875 
Q 61.625 48.1875 57.5625 43.546875 
Q 53.515625 38.921875 53.515625 30.90625 
L 53.515625 0 
L 44.484375 0 
L 44.484375 32.71875 
Q 44.484375 40.625 41.703125 44.40625 
Q 38.921875 48.1875 33.109375 48.1875 
Q 26.21875 48.1875 22.15625 43.53125 
Q 18.109375 38.875 18.109375 30.90625 
L 18.109375 0 
L 9.078125 0 
L 9.078125 54.6875 
L 18.109375 54.6875 
L 18.109375 46.1875 
Q 21.1875 51.21875 25.484375 53.609375 
Q 29.78125 56 35.6875 56 
Q 41.65625 56 45.828125 52.96875 
Q 50 49.953125 52 44.1875 
z
" id="DejaVuSans-109"/>
       <path d="M 54.890625 33.015625 
L 54.890625 0 
L 45.90625 0 
L 45.90625 32.71875 
Q 45.90625 40.484375 42.875 44.328125 
Q 39.84375 48.1875 33.796875 48.1875 
Q 26.515625 48.1875 22.3125 43.546875 
Q 18.109375 38.921875 18.109375 30.90625 
L 18.109375 0 
L 9.078125 0 
L 9.078125 75.984375 
L 18.109375 75.984375 
L 18.109375 46.1875 
Q 21.34375 51.125 25.703125 53.5625 
Q 30.078125 56 35.796875 56 
Q 45.21875 56 50.046875 50.171875 
Q 54.890625 44.34375 54.890625 33.015625 
z
" id="DejaVuSans-104"/>
      </defs>
      <use xlink:href="#DejaVuSans-84"/>
      <use x="57.958984" xlink:href="#DejaVuSans-105"/>
      <use x="85.742188" xlink:href="#DejaVuSans-109"/>
      <use x="183.154297" xlink:href="#DejaVuSans-101"/>
      <use x="244.677734" xlink:href="#DejaVuSans-32"/>
      <use x="276.464844" xlink:href="#DejaVuSans-40"/>
      <use x="315.478516" xlink:href="#DejaVuSans-104"/>
      <use x="378.857422" xlink:href="#DejaVuSans-41"/>
     </g>
    </g>
   </g>
   <g id="matplotlib.axis_4">
    <g id="ytick_4">
     <g id="line2d_30">
      <path clip-path="url(#pb960988baf)" d="M 98.059375 779.383818 
L 879.259375 779.383818 
" style="fill:none;stroke:#cccccc;stroke-linecap:round;stroke-width:0.8;"/>
     </g>
     <g id="text_19">
      <!-- 0 -->
      <g style="fill:#262626;" transform="translate(75.153125 788.881865)scale(0.25 -0.25)">
       <use xlink:href="#DejaVuSans-48"/>
      </g>
     </g>
    </g>
    <g id="ytick_5">
     <g id="line2d_31">
      <path clip-path="url(#pb960988baf)" d="M 98.059375 705.771862 
L 879.259375 705.771862 
" style="fill:none;stroke:#cccccc;stroke-linecap:round;stroke-width:0.8;"/>
     </g>
     <g id="text_20">
      <!-- 10 -->
      <g style="fill:#262626;" transform="translate(59.246875 715.269909)scale(0.25 -0.25)">
       <use xlink:href="#DejaVuSans-49"/>
       <use x="63.623047" xlink:href="#DejaVuSans-48"/>
      </g>
     </g>
    </g>
    <g id="ytick_6">
     <g id="line2d_32">
      <path clip-path="url(#pb960988baf)" d="M 98.059375 632.159906 
L 879.259375 632.159906 
" style="fill:none;stroke:#cccccc;stroke-linecap:round;stroke-width:0.8;"/>
     </g>
     <g id="text_21">
      <!-- 20 -->
      <g style="fill:#262626;" transform="translate(59.246875 641.657952)scale(0.25 -0.25)">
       <use xlink:href="#DejaVuSans-50"/>
       <use x="63.623047" xlink:href="#DejaVuSans-48"/>
      </g>
     </g>
    </g>
    <g id="ytick_7">
     <g id="line2d_33">
      <path clip-path="url(#pb960988baf)" d="M 98.059375 558.547949 
L 879.259375 558.547949 
" style="fill:none;stroke:#cccccc;stroke-linecap:round;stroke-width:0.8;"/>
     </g>
     <g id="text_22">
      <!-- 30 -->
      <g style="fill:#262626;" transform="translate(59.246875 568.045996)scale(0.25 -0.25)">
       <use xlink:href="#DejaVuSans-51"/>
       <use x="63.623047" xlink:href="#DejaVuSans-48"/>
      </g>
     </g>
    </g>
    <g id="ytick_8">
     <g id="line2d_34">
      <path clip-path="url(#pb960988baf)" d="M 98.059375 484.935993 
L 879.259375 484.935993 
" style="fill:none;stroke:#cccccc;stroke-linecap:round;stroke-width:0.8;"/>
     </g>
     <g id="text_23">
      <!-- 40 -->
      <g style="fill:#262626;" transform="translate(59.246875 494.43404)scale(0.25 -0.25)">
       <use xlink:href="#DejaVuSans-52"/>
       <use x="63.623047" xlink:href="#DejaVuSans-48"/>
      </g>
     </g>
    </g>
    <g id="text_24">
     <!-- OD -->
     <g style="fill:#262626;" transform="translate(50.047656 642.124022)rotate(-90)scale(0.25 -0.25)">
      <use xlink:href="#DejaVuSans-79"/>
      <use x="78.710938" xlink:href="#DejaVuSans-68"/>
     </g>
    </g>
   </g>
   <g id="line2d_35">
    <path clip-path="url(#pb960988baf)" d="M 133.568466 779.376457 
L 158.950897 779.263021 
L 168.27156 779.046359 
L 174.201045 778.73515 
L 178.551797 778.336143 
L 182.929594 777.686834 
L 185.78346 777.060139 
L 188.650049 776.197878 
L 191.51078 775.019086 
L 192.941441 774.275104 
L 194.370682 773.405983 
L 195.799331 772.389637 
L 197.22443 771.203984 
L 198.648936 769.819564 
L 200.075218 768.199586 
L 201.495581 766.314678 
L 202.917129 764.113165 
L 204.339268 761.543592 
L 205.760223 758.547071 
L 207.182954 755.049987 
L 208.60391 750.978805 
L 210.024865 746.237679 
L 211.445229 740.723628 
L 212.866184 734.311585 
L 214.28714 726.868901 
L 215.708095 718.241138 
L 217.128459 708.258842 
L 218.549414 696.730841 
L 219.97037 683.465231 
L 221.391325 668.249639 
L 222.811689 650.891204 
L 224.232052 631.214728 
L 225.653008 609.123044 
L 227.073371 584.676513 
L 231.335054 504.145033 
L 232.75601 482.482507 
L 234.176373 470.16281 
L 235.599104 466.32689 
L 237.088119 465.9419 
L 843.750284 465.9419 
L 843.750284 465.9419 
" style="fill:none;stroke:#1b9e77;stroke-linecap:round;stroke-width:3;"/>
   </g>
   <g id="line2d_36">
    <path clip-path="url(#pb960988baf)" d="M 133.568466 779.376457 
L 160.217743 779.244918 
L 169.640258 778.991413 
L 175.49109 778.636061 
L 179.837285 778.176744 
L 182.713758 777.72671 
L 185.597037 777.107368 
L 188.471675 776.259822 
L 191.318439 775.110482 
L 194.173607 773.534185 
L 195.601664 772.539916 
L 197.02262 771.383744 
L 198.447126 770.028769 
L 199.872224 768.445597 
L 201.296139 766.597421 
L 202.719461 764.440076 
L 204.142784 761.922105 
L 205.566107 758.984473 
L 206.987654 755.561002 
L 208.409793 751.570718 
L 209.83134 746.925362 
L 211.252296 741.521729 
L 212.67266 735.242114 
L 214.094207 727.946728 
L 215.515162 719.488199 
L 216.936118 709.697367 
L 218.357073 698.390055 
L 219.778029 685.367364 
L 221.198392 670.431498 
L 222.619348 653.374871 
L 224.039711 634.022288 
L 225.460075 612.261858 
L 226.88103 588.124497 
L 231.524436 500.86194 
L 232.945391 480.237342 
L 234.366939 469.26548 
L 235.79618 466.16568 
L 237.235481 465.9419 
L 843.750284 465.9419 
L 843.750284 465.9419 
" style="fill:none;stroke:#d95f02;stroke-linecap:round;stroke-width:3;"/>
   </g>
   <g id="line2d_37">
    <path clip-path="url(#pb960988baf)" d="M 133.568466 779.376457 
L 160.2787 779.243981 
L 169.661563 778.99049 
L 175.509674 778.634529 
L 179.893389 778.169258 
L 182.754653 777.719231 
L 185.626805 777.099889 
L 188.493395 776.252351 
L 191.349924 775.095642 
L 194.207932 773.511984 
L 195.631255 772.517722 
L 197.055761 771.354152 
L 198.483227 769.991816 
L 199.908917 768.401282 
L 201.332831 766.545819 
L 202.755562 764.381113 
L 204.177701 761.855707 
L 205.599249 758.910714 
L 207.02198 755.47252 
L 208.444119 751.467588 
L 209.865074 746.807436 
L 211.286621 741.381719 
L 212.708169 735.072733 
L 214.129716 727.747828 
L 215.550671 719.259928 
L 216.971627 709.432216 
L 218.392582 698.088246 
L 219.813538 685.021388 
L 221.233901 670.033993 
L 222.654857 652.918477 
L 224.07522 633.507004 
L 225.495584 611.687684 
L 226.91654 587.491434 
L 231.17763 506.930509 
L 232.598586 484.479599 
L 234.01895 471.027014 
L 235.442272 466.49767 
L 236.908206 465.9419 
L 843.750284 465.9419 
L 843.750284 465.9419 
" style="fill:none;stroke:#7570b3;stroke-linecap:round;stroke-width:3;"/>
   </g>
   <g id="line2d_38"/>
   <g id="line2d_39"/>
   <g id="line2d_40"/>
   <g id="patch_9">
    <path d="M 98.059375 795.048185 
L 98.059375 450.270172 
" style="fill:none;stroke:#cccccc;stroke-linecap:square;stroke-linejoin:miter;stroke-width:0.8;"/>
   </g>
   <g id="patch_10">
    <path d="M 879.259375 795.048185 
L 879.259375 450.270172 
" style="fill:none;stroke:#cccccc;stroke-linecap:square;stroke-linejoin:miter;stroke-width:0.8;"/>
   </g>
   <g id="patch_11">
    <path d="M 98.059375 795.048185 
L 879.259375 795.048185 
" style="fill:none;stroke:#cccccc;stroke-linecap:square;stroke-linejoin:miter;stroke-width:0.8;"/>
   </g>
   <g id="patch_12">
    <path d="M 98.059375 450.270172 
L 879.259375 450.270172 
" style="fill:none;stroke:#cccccc;stroke-linecap:square;stroke-linejoin:miter;stroke-width:0.8;"/>
   </g>
   <g id="text_25">
    <!-- V_a (setA_16) -->
    <g style="fill:#262626;" transform="translate(385.461719 444.270172)scale(0.3 -0.3)">
     <defs>
      <path d="M 28.609375 0 
L 0.78125 72.90625 
L 11.078125 72.90625 
L 34.1875 11.53125 
L 57.328125 72.90625 
L 67.578125 72.90625 
L 39.796875 0 
z
" id="DejaVuSans-86"/>
     </defs>
     <use xlink:href="#DejaVuSans-86"/>
     <use x="68.408203" xlink:href="#DejaVuSans-95"/>
     <use x="118.408203" xlink:href="#DejaVuSans-97"/>
     <use x="179.6875" xlink:href="#DejaVuSans-32"/>
     <use x="211.474609" xlink:href="#DejaVuSans-40"/>
     <use x="250.488281" xlink:href="#DejaVuSans-115"/>
     <use x="302.587891" xlink:href="#DejaVuSans-101"/>
     <use x="364.111328" xlink:href="#DejaVuSans-116"/>
     <use x="403.320312" xlink:href="#DejaVuSans-65"/>
     <use x="471.728516" xlink:href="#DejaVuSans-95"/>
     <use x="521.728516" xlink:href="#DejaVuSans-49"/>
     <use x="585.351562" xlink:href="#DejaVuSans-54"/>
     <use x="648.974609" xlink:href="#DejaVuSans-41"/>
    </g>
   </g>
  </g>
  <g id="axes_3">
   <g id="patch_13">
    <path d="M 98.059375 1288.080743 
L 879.259375 1288.080743 
L 879.259375 943.30273 
L 98.059375 943.30273 
z
" style="fill:none;"/>
   </g>
   <g id="matplotlib.axis_5">
    <g id="xtick_15">
     <g id="line2d_41">
      <path clip-path="url(#pe0b4722ca1)" d="M 133.568466 1288.080743 
L 133.568466 943.30273 
" style="fill:none;stroke:#cccccc;stroke-linecap:round;stroke-width:0.8;"/>
     </g>
    </g>
    <g id="xtick_16">
     <g id="line2d_42">
      <path clip-path="url(#pe0b4722ca1)" d="M 251.932102 1288.080743 
L 251.932102 943.30273 
" style="fill:none;stroke:#cccccc;stroke-linecap:round;stroke-width:0.8;"/>
     </g>
    </g>
    <g id="xtick_17">
     <g id="line2d_43">
      <path clip-path="url(#pe0b4722ca1)" d="M 370.295739 1288.080743 
L 370.295739 943.30273 
" style="fill:none;stroke:#cccccc;stroke-linecap:round;stroke-width:0.8;"/>
     </g>
    </g>
    <g id="xtick_18">
     <g id="line2d_44">
      <path clip-path="url(#pe0b4722ca1)" d="M 488.659375 1288.080743 
L 488.659375 943.30273 
" style="fill:none;stroke:#cccccc;stroke-linecap:round;stroke-width:0.8;"/>
     </g>
    </g>
    <g id="xtick_19">
     <g id="line2d_45">
      <path clip-path="url(#pe0b4722ca1)" d="M 607.023011 1288.080743 
L 607.023011 943.30273 
" style="fill:none;stroke:#cccccc;stroke-linecap:round;stroke-width:0.8;"/>
     </g>
    </g>
    <g id="xtick_20">
     <g id="line2d_46">
      <path clip-path="url(#pe0b4722ca1)" d="M 725.386648 1288.080743 
L 725.386648 943.30273 
" style="fill:none;stroke:#cccccc;stroke-linecap:round;stroke-width:0.8;"/>
     </g>
    </g>
    <g id="xtick_21">
     <g id="line2d_47">
      <path clip-path="url(#pe0b4722ca1)" d="M 843.750284 1288.080743 
L 843.750284 943.30273 
" style="fill:none;stroke:#cccccc;stroke-linecap:round;stroke-width:0.8;"/>
     </g>
    </g>
   </g>
   <g id="matplotlib.axis_6">
    <g id="ytick_9">
     <g id="line2d_48">
      <path clip-path="url(#pe0b4722ca1)" d="M 98.059375 1272.425767 
L 879.259375 1272.425767 
" style="fill:none;stroke:#cccccc;stroke-linecap:round;stroke-width:0.8;"/>
     </g>
     <g id="text_26">
      <!-- 0 -->
      <g style="fill:#262626;" transform="translate(75.153125 1281.923814)scale(0.25 -0.25)">
       <use xlink:href="#DejaVuSans-48"/>
      </g>
     </g>
    </g>
    <g id="ytick_10">
     <g id="line2d_49">
      <path clip-path="url(#pe0b4722ca1)" d="M 98.059375 1188.666766 
L 879.259375 1188.666766 
" style="fill:none;stroke:#cccccc;stroke-linecap:round;stroke-width:0.8;"/>
     </g>
     <g id="text_27">
      <!-- 5 -->
      <g style="fill:#262626;" transform="translate(75.153125 1198.164813)scale(0.25 -0.25)">
       <use xlink:href="#DejaVuSans-53"/>
      </g>
     </g>
    </g>
    <g id="ytick_11">
     <g id="line2d_50">
      <path clip-path="url(#pe0b4722ca1)" d="M 98.059375 1104.907765 
L 879.259375 1104.907765 
" style="fill:none;stroke:#cccccc;stroke-linecap:round;stroke-width:0.8;"/>
     </g>
     <g id="text_28">
      <!-- 10 -->
      <g style="fill:#262626;" transform="translate(59.246875 1114.405812)scale(0.25 -0.25)">
       <use xlink:href="#DejaVuSans-49"/>
       <use x="63.623047" xlink:href="#DejaVuSans-48"/>
      </g>
     </g>
    </g>
    <g id="ytick_12">
     <g id="line2d_51">
      <path clip-path="url(#pe0b4722ca1)" d="M 98.059375 1021.148764 
L 879.259375 1021.148764 
" style="fill:none;stroke:#cccccc;stroke-linecap:round;stroke-width:0.8;"/>
     </g>
     <g id="text_29">
      <!-- 15 -->
      <g style="fill:#262626;" transform="translate(59.246875 1030.646811)scale(0.25 -0.25)">
       <use xlink:href="#DejaVuSans-49"/>
       <use x="63.623047" xlink:href="#DejaVuSans-53"/>
      </g>
     </g>
    </g>
    <g id="text_30">
     <!-- OD -->
     <g style="fill:#262626;" transform="translate(50.047656 1135.15658)rotate(-90)scale(0.25 -0.25)">
      <use xlink:href="#DejaVuSans-79"/>
      <use x="78.710938" xlink:href="#DejaVuSans-68"/>
     </g>
    </g>
   </g>
   <g id="line2d_52">
    <path clip-path="url(#pe0b4722ca1)" d="M 133.568466 1272.409015 
L 186.27023 1272.266304 
L 208.822882 1272.007573 
L 224.25395 1271.617017 
L 235.422742 1271.122363 
L 244.568109 1270.49941 
L 252.17889 1269.759701 
L 258.02783 1269.00386 
L 263.898074 1268.030229 
L 269.734585 1266.788585 
L 274.061368 1265.647972 
L 278.401762 1264.272833 
L 282.760503 1262.612897 
L 287.084919 1260.634694 
L 289.950502 1259.110615 
L 292.827922 1257.384191 
L 295.700016 1255.439944 
L 298.555539 1253.261372 
L 301.403368 1250.814605 
L 304.261258 1248.049552 
L 307.109679 1244.949464 
L 309.957508 1241.464085 
L 312.808296 1237.543326 
L 315.661451 1233.136597 
L 318.513423 1228.193811 
L 321.360069 1222.66488 
L 324.211449 1216.465708 
L 327.058094 1209.546377 
L 329.905331 1201.82296 
L 332.74961 1193.228281 
L 335.598622 1183.662166 
L 338.444084 1173.07419 
L 341.285403 1161.397516 
L 344.132049 1148.531296 
L 346.97751 1134.459113 
L 349.821197 1119.171421 
L 352.662516 1102.703228 
L 355.507386 1085.13059 
L 359.169557 1061.245873 
L 366.279069 1014.206818 
L 369.122755 997.255672 
L 370.544302 989.683858 
L 371.96585 982.884302 
L 373.386805 976.95584 
L 375.326193 970.372383 
L 376.74774 966.656834 
L 378.172839 963.810703 
L 379.596753 961.753582 
L 381.035463 960.349781 
L 382.465888 959.500465 
L 383.91821 959.073294 
L 389.483076 958.974458 
L 843.750284 958.974458 
L 843.750284 958.974458 
" style="fill:none;stroke:#1b9e77;stroke-linecap:round;stroke-width:3;"/>
   </g>
   <g id="line2d_53">
    <path clip-path="url(#pe0b4722ca1)" d="M 133.568466 1272.409015 
L 186.594606 1272.264077 
L 208.935328 1272.005553 
L 224.346273 1271.613824 
L 235.987337 1271.090531 
L 245.246924 1270.442756 
L 252.671283 1269.703114 
L 258.63681 1268.913718 
L 264.461485 1267.923369 
L 268.76282 1267.017281 
L 273.13458 1265.910154 
L 277.48326 1264.585254 
L 281.790513 1263.009111 
L 286.106051 1261.114667 
L 288.963941 1259.656272 
L 291.846096 1257.996855 
L 294.710496 1256.136434 
L 297.571937 1254.041504 
L 300.416807 1251.695247 
L 303.28535 1249.030705 
L 306.1533 1246.031128 
L 309.00113 1242.67993 
L 311.851918 1238.90977 
L 314.705073 1234.67056 
L 317.55882 1229.912211 
L 320.399548 1224.600885 
L 323.249152 1218.636407 
L 326.090471 1211.984937 
L 328.936525 1204.5463 
L 331.78317 1196.253154 
L 334.62804 1187.034303 
L 337.471727 1176.814867 
L 340.316597 1165.506565 
L 343.160283 1153.05914 
L 346.001602 1139.422504 
L 348.847064 1124.546236 
L 351.691342 1108.463837 
L 354.536212 1091.243322 
L 358.800262 1063.701687 
L 365.906815 1016.562122 
L 368.749318 999.359698 
L 370.170865 991.603614 
L 371.593004 984.586285 
L 373.01396 978.423298 
L 374.439058 973.164908 
L 375.862972 968.861371 
L 377.286887 965.479182 
L 378.718495 962.936259 
L 380.143593 961.147167 
L 381.565732 959.977891 
L 383.00385 959.297768 
L 384.4325 959.006287 
L 390.289132 958.974458 
L 843.750284 958.974458 
L 843.750284 958.974458 
" style="fill:none;stroke:#d95f02;stroke-linecap:round;stroke-width:3;"/>
   </g>
   <g id="line2d_54">
    <path clip-path="url(#pe0b4722ca1)" d="M 133.568466 1272.409015 
L 186.725457 1272.26317 
L 208.813413 1272.007746 
L 224.248623 1271.617188 
L 235.35705 1271.126022 
L 244.523722 1270.503062 
L 252.169421 1269.760824 
L 258.020136 1269.004966 
L 263.892156 1268.031351 
L 269.749972 1266.784933 
L 274.073796 1265.64432 
L 278.412415 1264.269181 
L 282.76938 1262.609245 
L 287.09202 1260.631042 
L 289.95938 1259.105657 
L 292.835616 1257.379132 
L 295.707118 1255.434919 
L 298.562049 1253.256179 
L 301.42704 1250.79266 
L 304.282563 1248.027775 
L 307.14282 1244.910935 
L 309.987099 1241.425556 
L 312.846172 1237.487877 
L 315.695185 1233.081316 
L 318.543606 1228.13853 
L 321.395578 1222.592847 
L 324.242815 1216.393676 
L 327.093011 1209.457593 
L 329.936106 1201.734008 
L 332.782751 1193.122745 
L 335.628805 1183.556629 
L 338.471308 1172.968654 
L 341.317953 1161.258308 
L 344.16164 1148.392256 
L 347.004734 1134.319906 
L 349.850196 1119.008258 
L 352.695658 1102.507232 
L 355.53816 1084.934594 
L 359.801619 1057.02442 
L 366.153011 1015.004204 
L 368.998473 997.952547 
L 370.420612 990.313726 
L 371.840976 983.447163 
L 373.263707 977.433267 
L 374.688213 972.342395 
L 376.110944 968.20805 
L 377.536634 964.976628 
L 378.959957 962.584471 
L 380.714698 960.611109 
L 382.15755 959.64453 
L 383.614607 959.131925 
L 385.372899 958.974458 
L 843.750284 958.974458 
L 843.750284 958.974458 
" style="fill:none;stroke:#7570b3;stroke-linecap:round;stroke-width:3;"/>
   </g>
   <g id="line2d_55"/>
   <g id="line2d_56"/>
   <g id="line2d_57"/>
   <g id="patch_14">
    <path d="M 98.059375 1288.080743 
L 98.059375 943.30273 
" style="fill:none;stroke:#cccccc;stroke-linecap:square;stroke-linejoin:miter;stroke-width:0.8;"/>
   </g>
   <g id="patch_15">
    <path d="M 879.259375 1288.080743 
L 879.259375 943.30273 
" style="fill:none;stroke:#cccccc;stroke-linecap:square;stroke-linejoin:miter;stroke-width:0.8;"/>
   </g>
   <g id="patch_16">
    <path d="M 98.059375 1288.080743 
L 879.259375 1288.080743 
" style="fill:none;stroke:#cccccc;stroke-linecap:square;stroke-linejoin:miter;stroke-width:0.8;"/>
   </g>
   <g id="patch_17">
    <path d="M 98.059375 943.30273 
L 879.259375 943.30273 
" style="fill:none;stroke:#cccccc;stroke-linecap:square;stroke-linejoin:miter;stroke-width:0.8;"/>
   </g>
   <g id="text_31">
    <!-- high_fat -->
    <g style="fill:#262626;" transform="translate(40.932422 915.37571)scale(0.25 -0.25)">
     <defs>
      <path d="M 63.375 33.296875 
L 63.375 0 
L 45.796875 0 
L 45.796875 5.421875 
L 45.796875 25.390625 
Q 45.796875 32.5625 45.484375 35.25 
Q 45.171875 37.9375 44.390625 39.203125 
Q 43.359375 40.921875 41.59375 41.875 
Q 39.84375 42.828125 37.59375 42.828125 
Q 32.125 42.828125 29 38.59375 
Q 25.875 34.375 25.875 26.90625 
L 25.875 0 
L 8.40625 0 
L 8.40625 75.984375 
L 25.875 75.984375 
L 25.875 46.6875 
Q 29.828125 51.46875 34.265625 53.734375 
Q 38.71875 56 44.09375 56 
Q 53.5625 56 58.46875 50.1875 
Q 63.375 44.390625 63.375 33.296875 
z
" id="DejaVuSans-Bold-104"/>
      <path d="M 8.40625 54.6875 
L 25.875 54.6875 
L 25.875 0 
L 8.40625 0 
z
M 8.40625 75.984375 
L 25.875 75.984375 
L 25.875 61.71875 
L 8.40625 61.71875 
z
" id="DejaVuSans-Bold-105"/>
      <path d="M 44.390625 75.984375 
L 44.390625 64.5 
L 34.71875 64.5 
Q 31 64.5 29.53125 63.15625 
Q 28.078125 61.8125 28.078125 58.5 
L 28.078125 54.6875 
L 43.015625 54.6875 
L 43.015625 42.1875 
L 28.078125 42.1875 
L 28.078125 0 
L 10.59375 0 
L 10.59375 42.1875 
L 1.90625 42.1875 
L 1.90625 54.6875 
L 10.59375 54.6875 
L 10.59375 58.5 
Q 10.59375 67.4375 15.578125 71.703125 
Q 20.5625 75.984375 31 75.984375 
z
" id="DejaVuSans-Bold-102"/>
      <path d="M 27.484375 70.21875 
L 27.484375 54.6875 
L 45.515625 54.6875 
L 45.515625 42.1875 
L 27.484375 42.1875 
L 27.484375 19 
Q 27.484375 15.1875 29 13.84375 
Q 30.515625 12.5 35.015625 12.5 
L 44 12.5 
L 44 0 
L 29 0 
Q 18.65625 0 14.328125 4.3125 
Q 10.015625 8.640625 10.015625 19 
L 10.015625 42.1875 
L 1.3125 42.1875 
L 1.3125 54.6875 
L 10.015625 54.6875 
L 10.015625 70.21875 
z
" id="DejaVuSans-Bold-116"/>
     </defs>
     <use xlink:href="#DejaVuSans-Bold-104"/>
     <use x="71.191406" xlink:href="#DejaVuSans-Bold-105"/>
     <use x="105.46875" xlink:href="#DejaVuSans-Bold-103"/>
     <use x="177.050781" xlink:href="#DejaVuSans-Bold-104"/>
     <use x="248.242188" xlink:href="#DejaVuSans-Bold-95"/>
     <use x="298.242188" xlink:href="#DejaVuSans-Bold-102"/>
     <use x="341.748047" xlink:href="#DejaVuSans-Bold-97"/>
     <use x="409.228516" xlink:href="#DejaVuSans-Bold-116"/>
    </g>
   </g>
   <g id="text_32">
    <!-- II_b (setA_24) -->
    <g style="fill:#262626;" transform="translate(386.542188 937.30273)scale(0.3 -0.3)">
     <use xlink:href="#DejaVuSans-73"/>
     <use x="29.492188" xlink:href="#DejaVuSans-73"/>
     <use x="58.984375" xlink:href="#DejaVuSans-95"/>
     <use x="108.984375" xlink:href="#DejaVuSans-98"/>
     <use x="172.460938" xlink:href="#DejaVuSans-32"/>
     <use x="204.248047" xlink:href="#DejaVuSans-40"/>
     <use x="243.261719" xlink:href="#DejaVuSans-115"/>
     <use x="295.361328" xlink:href="#DejaVuSans-101"/>
     <use x="356.884766" xlink:href="#DejaVuSans-116"/>
     <use x="396.09375" xlink:href="#DejaVuSans-65"/>
     <use x="464.501953" xlink:href="#DejaVuSans-95"/>
     <use x="514.501953" xlink:href="#DejaVuSans-50"/>
     <use x="578.125" xlink:href="#DejaVuSans-52"/>
     <use x="641.748047" xlink:href="#DejaVuSans-41"/>
    </g>
   </g>
   <g id="legend_2">
    <g id="patch_18">
     <path d="M 896.759375 1110.08398 
L 1033.634375 1110.08398 
Q 1038.634375 1110.08398 1038.634375 1105.08398 
L 1038.634375 960.80273 
Q 1038.634375 955.80273 1033.634375 955.80273 
L 896.759375 955.80273 
Q 891.759375 955.80273 891.759375 960.80273 
L 891.759375 1105.08398 
Q 891.759375 1110.08398 896.759375 1110.08398 
z
" style="fill:#ffffff;opacity:0.8;stroke:#cccccc;stroke-linejoin:miter;"/>
    </g>
    <g id="text_33">
     <!-- Replicate -->
     <g style="fill:#262626;" transform="translate(907.376563 984.798824)scale(0.25 -0.25)">
      <use xlink:href="#DejaVuSans-82"/>
      <use x="64.982422" xlink:href="#DejaVuSans-101"/>
      <use x="126.505859" xlink:href="#DejaVuSans-112"/>
      <use x="189.982422" xlink:href="#DejaVuSans-108"/>
      <use x="217.765625" xlink:href="#DejaVuSans-105"/>
      <use x="245.548828" xlink:href="#DejaVuSans-99"/>
      <use x="300.529297" xlink:href="#DejaVuSans-97"/>
      <use x="361.808594" xlink:href="#DejaVuSans-116"/>
      <use x="401.017578" xlink:href="#DejaVuSans-101"/>
     </g>
    </g>
    <g id="line2d_58">
     <path d="M 901.759375 1012.744136 
L 951.759375 1012.744136 
" style="fill:none;stroke:#1b9e77;stroke-linecap:round;stroke-width:5;"/>
    </g>
    <g id="line2d_59"/>
    <g id="text_34">
     <!-- rep1 -->
     <g style="fill:#262626;" transform="translate(971.759375 1021.494136)scale(0.25 -0.25)">
      <use xlink:href="#DejaVuSans-114"/>
      <use x="38.863281" xlink:href="#DejaVuSans-101"/>
      <use x="100.386719" xlink:href="#DejaVuSans-112"/>
      <use x="163.863281" xlink:href="#DejaVuSans-49"/>
     </g>
    </g>
    <g id="line2d_60">
     <path d="M 901.759375 1049.439449 
L 951.759375 1049.439449 
" style="fill:none;stroke:#d95f02;stroke-linecap:round;stroke-width:5;"/>
    </g>
    <g id="line2d_61"/>
    <g id="text_35">
     <!-- rep2 -->
     <g style="fill:#262626;" transform="translate(971.759375 1058.189449)scale(0.25 -0.25)">
      <use xlink:href="#DejaVuSans-114"/>
      <use x="38.863281" xlink:href="#DejaVuSans-101"/>
      <use x="100.386719" xlink:href="#DejaVuSans-112"/>
      <use x="163.863281" xlink:href="#DejaVuSans-50"/>
     </g>
    </g>
    <g id="line2d_62">
     <path d="M 901.759375 1086.134761 
L 951.759375 1086.134761 
" style="fill:none;stroke:#7570b3;stroke-linecap:round;stroke-width:5;"/>
    </g>
    <g id="line2d_63"/>
    <g id="text_36">
     <!-- rep3 -->
     <g style="fill:#262626;" transform="translate(971.759375 1094.884761)scale(0.25 -0.25)">
      <use xlink:href="#DejaVuSans-114"/>
      <use x="38.863281" xlink:href="#DejaVuSans-101"/>
      <use x="100.386719" xlink:href="#DejaVuSans-112"/>
      <use x="163.863281" xlink:href="#DejaVuSans-51"/>
     </g>
    </g>
   </g>
  </g>
  <g id="axes_4">
   <g id="patch_19">
    <path d="M 98.059375 1684.575458 
L 879.259375 1684.575458 
L 879.259375 1339.797445 
L 98.059375 1339.797445 
z
" style="fill:none;"/>
   </g>
   <g id="matplotlib.axis_7">
    <g id="xtick_22">
     <g id="line2d_64">
      <path clip-path="url(#pdbaa283f39)" d="M 133.568466 1684.575458 
L 133.568466 1339.797445 
" style="fill:none;stroke:#cccccc;stroke-linecap:round;stroke-width:0.8;"/>
     </g>
     <g id="text_37">
      <!-- 0 -->
      <g style="fill:#262626;" transform="translate(125.615341 1710.571551)scale(0.25 -0.25)">
       <use xlink:href="#DejaVuSans-48"/>
      </g>
     </g>
    </g>
    <g id="xtick_23">
     <g id="line2d_65">
      <path clip-path="url(#pdbaa283f39)" d="M 251.932102 1684.575458 
L 251.932102 1339.797445 
" style="fill:none;stroke:#cccccc;stroke-linecap:round;stroke-width:0.8;"/>
     </g>
     <g id="text_38">
      <!-- 2 -->
      <g style="fill:#262626;" transform="translate(243.978977 1710.571551)scale(0.25 -0.25)">
       <use xlink:href="#DejaVuSans-50"/>
      </g>
     </g>
    </g>
    <g id="xtick_24">
     <g id="line2d_66">
      <path clip-path="url(#pdbaa283f39)" d="M 370.295739 1684.575458 
L 370.295739 1339.797445 
" style="fill:none;stroke:#cccccc;stroke-linecap:round;stroke-width:0.8;"/>
     </g>
     <g id="text_39">
      <!-- 4 -->
      <g style="fill:#262626;" transform="translate(362.342614 1710.571551)scale(0.25 -0.25)">
       <use xlink:href="#DejaVuSans-52"/>
      </g>
     </g>
    </g>
    <g id="xtick_25">
     <g id="line2d_67">
      <path clip-path="url(#pdbaa283f39)" d="M 488.659375 1684.575458 
L 488.659375 1339.797445 
" style="fill:none;stroke:#cccccc;stroke-linecap:round;stroke-width:0.8;"/>
     </g>
     <g id="text_40">
      <!-- 6 -->
      <g style="fill:#262626;" transform="translate(480.70625 1710.571551)scale(0.25 -0.25)">
       <use xlink:href="#DejaVuSans-54"/>
      </g>
     </g>
    </g>
    <g id="xtick_26">
     <g id="line2d_68">
      <path clip-path="url(#pdbaa283f39)" d="M 607.023011 1684.575458 
L 607.023011 1339.797445 
" style="fill:none;stroke:#cccccc;stroke-linecap:round;stroke-width:0.8;"/>
     </g>
     <g id="text_41">
      <!-- 8 -->
      <g style="fill:#262626;" transform="translate(599.069886 1710.571551)scale(0.25 -0.25)">
       <use xlink:href="#DejaVuSans-56"/>
      </g>
     </g>
    </g>
    <g id="xtick_27">
     <g id="line2d_69">
      <path clip-path="url(#pdbaa283f39)" d="M 725.386648 1684.575458 
L 725.386648 1339.797445 
" style="fill:none;stroke:#cccccc;stroke-linecap:round;stroke-width:0.8;"/>
     </g>
     <g id="text_42">
      <!-- 10 -->
      <g style="fill:#262626;" transform="translate(709.480398 1710.571551)scale(0.25 -0.25)">
       <use xlink:href="#DejaVuSans-49"/>
       <use x="63.623047" xlink:href="#DejaVuSans-48"/>
      </g>
     </g>
    </g>
    <g id="xtick_28">
     <g id="line2d_70">
      <path clip-path="url(#pdbaa283f39)" d="M 843.750284 1684.575458 
L 843.750284 1339.797445 
" style="fill:none;stroke:#cccccc;stroke-linecap:round;stroke-width:0.8;"/>
     </g>
     <g id="text_43">
      <!-- 12 -->
      <g style="fill:#262626;" transform="translate(827.844034 1710.571551)scale(0.25 -0.25)">
       <use xlink:href="#DejaVuSans-49"/>
       <use x="63.623047" xlink:href="#DejaVuSans-50"/>
      </g>
     </g>
    </g>
    <g id="text_44">
     <!-- Time (h) -->
     <g style="fill:#262626;" transform="translate(436.426953 1738.766864)scale(0.25 -0.25)">
      <use xlink:href="#DejaVuSans-84"/>
      <use x="57.958984" xlink:href="#DejaVuSans-105"/>
      <use x="85.742188" xlink:href="#DejaVuSans-109"/>
      <use x="183.154297" xlink:href="#DejaVuSans-101"/>
      <use x="244.677734" xlink:href="#DejaVuSans-32"/>
      <use x="276.464844" xlink:href="#DejaVuSans-40"/>
      <use x="315.478516" xlink:href="#DejaVuSans-104"/>
      <use x="378.857422" xlink:href="#DejaVuSans-41"/>
     </g>
    </g>
   </g>
   <g id="matplotlib.axis_8">
    <g id="ytick_13">
     <g id="line2d_71">
      <path clip-path="url(#pdbaa283f39)" d="M 98.059375 1674.466445 
L 879.259375 1674.466445 
" style="fill:none;stroke:#cccccc;stroke-linecap:round;stroke-width:0.8;"/>
     </g>
     <g id="text_45">
      <!-- 0.00 -->
      <g style="fill:#262626;" transform="translate(35.395313 1683.964492)scale(0.25 -0.25)">
       <use xlink:href="#DejaVuSans-48"/>
       <use x="63.623047" xlink:href="#DejaVuSans-46"/>
       <use x="95.410156" xlink:href="#DejaVuSans-48"/>
       <use x="159.033203" xlink:href="#DejaVuSans-48"/>
      </g>
     </g>
    </g>
    <g id="ytick_14">
     <g id="line2d_72">
      <path clip-path="url(#pdbaa283f39)" d="M 98.059375 1563.21213 
L 879.259375 1563.21213 
" style="fill:none;stroke:#cccccc;stroke-linecap:round;stroke-width:0.8;"/>
     </g>
     <g id="text_46">
      <!-- 0.02 -->
      <g style="fill:#262626;" transform="translate(35.395313 1572.710177)scale(0.25 -0.25)">
       <use xlink:href="#DejaVuSans-48"/>
       <use x="63.623047" xlink:href="#DejaVuSans-46"/>
       <use x="95.410156" xlink:href="#DejaVuSans-48"/>
       <use x="159.033203" xlink:href="#DejaVuSans-50"/>
      </g>
     </g>
    </g>
    <g id="ytick_15">
     <g id="line2d_73">
      <path clip-path="url(#pdbaa283f39)" d="M 98.059375 1451.957815 
L 879.259375 1451.957815 
" style="fill:none;stroke:#cccccc;stroke-linecap:round;stroke-width:0.8;"/>
     </g>
     <g id="text_47">
      <!-- 0.04 -->
      <g style="fill:#262626;" transform="translate(35.395313 1461.455862)scale(0.25 -0.25)">
       <use xlink:href="#DejaVuSans-48"/>
       <use x="63.623047" xlink:href="#DejaVuSans-46"/>
       <use x="95.410156" xlink:href="#DejaVuSans-48"/>
       <use x="159.033203" xlink:href="#DejaVuSans-52"/>
      </g>
     </g>
    </g>
    <g id="ytick_16">
     <g id="line2d_74">
      <path clip-path="url(#pdbaa283f39)" d="M 98.059375 1340.7035 
L 879.259375 1340.7035 
" style="fill:none;stroke:#cccccc;stroke-linecap:round;stroke-width:0.8;"/>
     </g>
     <g id="text_48">
      <!-- 0.06 -->
      <g style="fill:#262626;" transform="translate(35.395313 1350.201547)scale(0.25 -0.25)">
       <use xlink:href="#DejaVuSans-48"/>
       <use x="63.623047" xlink:href="#DejaVuSans-46"/>
       <use x="95.410156" xlink:href="#DejaVuSans-48"/>
       <use x="159.033203" xlink:href="#DejaVuSans-54"/>
      </g>
     </g>
    </g>
    <g id="text_49">
     <!-- OD -->
     <g style="fill:#262626;" transform="translate(26.196094 1531.651295)rotate(-90)scale(0.25 -0.25)">
      <use xlink:href="#DejaVuSans-79"/>
      <use x="78.710938" xlink:href="#DejaVuSans-68"/>
     </g>
    </g>
   </g>
   <g id="line2d_75">
    <path clip-path="url(#pdbaa283f39)" d="M 133.568466 1668.90373 
L 146.351739 1667.648725 
L 157.707842 1666.298654 
L 167.650387 1664.899353 
L 177.748048 1663.233264 
L 186.27023 1661.604 
L 193.841597 1659.959884 
L 202.226477 1657.893891 
L 210.65811 1655.520726 
L 217.478223 1653.355995 
L 224.25395 1650.961913 
L 230.74442 1648.415691 
L 236.888676 1645.753487 
L 243.09093 1642.792231 
L 249.1908 1639.584546 
L 255.090636 1636.176103 
L 260.943718 1632.469054 
L 265.372885 1629.429642 
L 269.734585 1626.223793 
L 274.061368 1622.821636 
L 278.401762 1619.170269 
L 282.760503 1615.247442 
L 287.084919 1611.084862 
L 291.390988 1606.654715 
L 295.700016 1601.915838 
L 299.982412 1596.884918 
L 304.261258 1591.517453 
L 308.534185 1585.795087 
L 312.808296 1579.685557 
L 317.084774 1573.161604 
L 321.360069 1566.203759 
L 325.635955 1558.781427 
L 329.905331 1550.880146 
L 334.174116 1542.459307 
L 338.444084 1533.484421 
L 342.708726 1523.938244 
L 346.97751 1513.76515 
L 351.242152 1502.95123 
L 355.507386 1491.450872 
L 359.169557 1481.001867 
L 363.43479 1468.132524 
L 367.700024 1454.47995 
L 371.96585 1440.024121 
L 376.74774 1422.884281 
L 383.91821 1395.896766 
L 388.030754 1380.879658 
L 389.483076 1376.012838 
L 390.945459 1371.503145 
L 392.403107 1367.494095 
L 393.82998 1364.120865 
L 395.260405 1361.335056 
L 396.714502 1359.124433 
L 398.137825 1357.535722 
L 399.57476 1356.447098 
L 400.998082 1355.802936 
L 402.446853 1355.506443 
L 406.773636 1355.469173 
L 843.750284 1355.469173 
L 843.750284 1355.469173 
" style="fill:none;stroke:#1b9e77;stroke-linecap:round;stroke-width:3;"/>
   </g>
   <g id="line2d_76">
    <path clip-path="url(#pdbaa283f39)" d="M 133.568466 1668.90373 
L 146.351739 1667.648725 
L 157.921192 1666.270896 
L 168.129878 1664.826148 
L 178.072424 1663.175189 
L 186.594606 1661.537526 
L 195.116965 1659.663113 
L 202.376799 1657.85434 
L 210.76227 1655.489408 
L 217.555751 1653.330072 
L 224.346273 1650.927536 
L 231.071103 1648.280517 
L 237.419537 1645.51123 
L 243.81354 1642.428207 
L 249.749477 1639.275315 
L 255.653455 1635.834275 
L 260.155416 1632.988222 
L 265.902562 1629.051989 
L 270.24414 1625.835237 
L 274.59933 1622.38207 
L 278.945051 1618.69577 
L 283.213244 1614.824676 
L 287.528782 1610.64207 
L 291.846096 1606.168534 
L 296.149798 1601.403512 
L 300.416807 1596.35646 
L 304.721692 1590.918349 
L 309.00113 1585.146475 
L 313.280567 1578.985767 
L 317.55882 1572.412306 
L 321.824646 1565.420528 
L 326.090471 1557.964821 
L 330.36044 1550.007356 
L 334.62804 1541.531446 
L 338.893274 1532.506496 
L 343.160283 1522.891898 
L 347.424925 1512.662063 
L 351.691342 1501.77416 
L 355.957168 1490.19648 
L 360.220626 1477.901209 
L 364.48586 1464.841621 
L 368.749318 1451.000472 
L 373.01396 1436.348835 
L 377.286887 1420.893385 
L 388.861667 1378.054911 
L 390.289132 1373.47179 
L 391.733169 1369.269714 
L 393.16596 1365.618348 
L 394.594018 1362.557185 
L 396.03332 1360.084002 
L 397.46907 1358.214929 
L 398.91429 1356.888221 
L 400.34294 1356.051033 
L 401.79467 1355.600453 
L 403.240481 1355.469173 
L 843.750284 1355.469173 
L 843.750284 1355.469173 
" style="fill:none;stroke:#d95f02;stroke-linecap:round;stroke-width:3;"/>
   </g>
   <g id="line2d_77">
    <path clip-path="url(#pdbaa283f39)" d="M 133.568466 1668.90373 
L 145.528697 1667.737451 
L 156.89782 1666.403233 
L 166.840366 1665.021788 
L 176.782911 1663.404318 
L 185.305093 1661.799752 
L 192.406911 1660.286749 
L 199.508848 1658.593737 
L 206.81721 1656.641001 
L 213.93264 1654.510481 
L 221.107252 1652.105496 
L 227.445625 1649.742399 
L 233.787549 1647.12948 
L 240.01821 1644.295499 
L 246.107428 1641.244238 
L 252.169421 1637.903215 
L 258.020136 1634.36327 
L 262.413202 1631.483786 
L 266.857165 1628.363325 
L 271.172111 1625.118926 
L 275.537954 1621.607073 
L 279.864737 1617.883057 
L 284.211641 1613.881796 
L 288.521853 1609.639112 
L 292.835616 1605.100492 
L 297.1334 1600.269274 
L 301.42704 1595.11208 
L 305.708845 1589.620567 
L 309.987099 1583.762471 
L 314.27423 1577.497184 
L 318.543606 1570.837501 
L 322.820676 1563.722231 
L 327.093011 1556.142475 
L 331.358837 1548.072643 
L 335.628805 1539.465453 
L 339.89463 1530.304773 
L 344.16164 1520.546657 
L 348.427465 1510.162735 
L 352.695658 1499.111288 
L 356.958524 1487.374514 
L 361.223166 1474.901793 
L 364.732056 1464.06451 
L 368.998473 1450.166064 
L 373.263707 1435.467144 
L 377.536634 1419.968306 
L 388.333765 1379.837205 
L 389.768332 1375.09944 
L 391.191655 1370.787779 
L 392.62859 1366.923361 
L 394.079136 1363.592407 
L 395.500091 1360.928422 
L 396.94827 1358.825715 
L 398.401184 1357.299306 
L 399.83516 1356.299686 
L 401.256707 1355.725614 
L 402.704294 1355.485861 
L 412.810181 1355.469173 
L 843.750284 1355.469173 
L 843.750284 1355.469173 
" style="fill:none;stroke:#7570b3;stroke-linecap:round;stroke-width:3;"/>
   </g>
   <g id="line2d_78"/>
   <g id="line2d_79"/>
   <g id="line2d_80"/>
   <g id="patch_20">
    <path d="M 98.059375 1684.575458 
L 98.059375 1339.797445 
" style="fill:none;stroke:#cccccc;stroke-linecap:square;stroke-linejoin:miter;stroke-width:0.8;"/>
   </g>
   <g id="patch_21">
    <path d="M 879.259375 1684.575458 
L 879.259375 1339.797445 
" style="fill:none;stroke:#cccccc;stroke-linecap:square;stroke-linejoin:miter;stroke-width:0.8;"/>
   </g>
   <g id="patch_22">
    <path d="M 98.059375 1684.575458 
L 879.259375 1684.575458 
" style="fill:none;stroke:#cccccc;stroke-linecap:square;stroke-linejoin:miter;stroke-width:0.8;"/>
   </g>
   <g id="patch_23">
    <path d="M 98.059375 1339.797445 
L 879.259375 1339.797445 
" style="fill:none;stroke:#cccccc;stroke-linecap:square;stroke-linejoin:miter;stroke-width:0.8;"/>
   </g>
   <g id="text_50">
    <!-- V_a (setA_16) -->
    <g style="fill:#262626;" transform="translate(385.461719 1333.797445)scale(0.3 -0.3)">
     <use xlink:href="#DejaVuSans-86"/>
     <use x="68.408203" xlink:href="#DejaVuSans-95"/>
     <use x="118.408203" xlink:href="#DejaVuSans-97"/>
     <use x="179.6875" xlink:href="#DejaVuSans-32"/>
     <use x="211.474609" xlink:href="#DejaVuSans-40"/>
     <use x="250.488281" xlink:href="#DejaVuSans-115"/>
     <use x="302.587891" xlink:href="#DejaVuSans-101"/>
     <use x="364.111328" xlink:href="#DejaVuSans-116"/>
     <use x="403.320312" xlink:href="#DejaVuSans-65"/>
     <use x="471.728516" xlink:href="#DejaVuSans-95"/>
     <use x="521.728516" xlink:href="#DejaVuSans-49"/>
     <use x="585.351562" xlink:href="#DejaVuSans-54"/>
     <use x="648.974609" xlink:href="#DejaVuSans-41"/>
    </g>
   </g>
  </g>
 </g>
 <defs>
  <clipPath id="pc54de17e17">
   <rect height="344.778013" width="781.2" x="98.059375" y="53.775458"/>
  </clipPath>
  <clipPath id="pb960988baf">
   <rect height="344.778013" width="781.2" x="98.059375" y="450.270172"/>
  </clipPath>
  <clipPath id="pe0b4722ca1">
   <rect height="344.778013" width="781.2" x="98.059375" y="943.30273"/>
  </clipPath>
  <clipPath id="pdbaa283f39">
   <rect height="344.778013" width="781.2" x="98.059375" y="1339.797445"/>
  </clipPath>
 </defs>
</svg>
