<?xml version="1.0" encoding="utf-8" standalone="no"?>
<!DOCTYPE svg PUBLIC "-//W3C//DTD SVG 1.1//EN"
  "http://www.w3.org/Graphics/SVG/1.1/DTD/svg11.dtd">
<!-- Created with matplotlib (https://matplotlib.org/) -->
<svg height="404.411563pt" version="1.1" viewBox="0 0 400.165625 404.411563" width="400.165625pt" xmlns="http://www.w3.org/2000/svg" xmlns:xlink="http://www.w3.org/1999/xlink">
 <metadata>
  <rdf:RDF xmlns:cc="http://creativecommons.org/ns#" xmlns:dc="http://purl.org/dc/elements/1.1/" xmlns:rdf="http://www.w3.org/1999/02/22-rdf-syntax-ns#">
   <cc:Work>
    <dc:type rdf:resource="http://purl.org/dc/dcmitype/StillImage"/>
    <dc:date>2021-07-20T18:29:57.255774</dc:date>
    <dc:format>image/svg+xml</dc:format>
    <dc:creator>
     <cc:Agent>
      <dc:title>Matplotlib v3.3.4, https://matplotlib.org/</dc:title>
     </cc:Agent>
    </dc:creator>
   </cc:Work>
  </rdf:RDF>
 </metadata>
 <defs>
  <style type="text/css">*{stroke-linecap:butt;stroke-linejoin:round;}</style>
 </defs>
 <g id="figure_1">
  <g id="patch_1">
   <path d="M 0 404.411563 
L 400.165625 404.411563 
L 400.165625 0 
L 0 0 
z
" style="fill:none;"/>
  </g>
  <g id="axes_1">
   <g id="patch_2">
    <path d="M 113.965625 361.320938 
L 392.965625 361.320938 
L 392.965625 35.160937 
L 113.965625 35.160937 
z
" style="fill:none;"/>
   </g>
   <g id="matplotlib.axis_1">
    <g id="xtick_1"/>
    <g id="text_1">
     <!-- high_fat -->
     <g style="fill:#262626;" transform="translate(203.002734 391.317031)scale(0.25 -0.25)">
      <defs>
       <path d="M 54.890625 33.015625 
L 54.890625 0 
L 45.90625 0 
L 45.90625 32.71875 
Q 45.90625 40.484375 42.875 44.328125 
Q 39.84375 48.1875 33.796875 48.1875 
Q 26.515625 48.1875 22.3125 43.546875 
Q 18.109375 38.921875 18.109375 30.90625 
L 18.109375 0 
L 9.078125 0 
L 9.078125 75.984375 
L 18.109375 75.984375 
L 18.109375 46.1875 
Q 21.34375 51.125 25.703125 53.5625 
Q 30.078125 56 35.796875 56 
Q 45.21875 56 50.046875 50.171875 
Q 54.890625 44.34375 54.890625 33.015625 
z
" id="DejaVuSans-104"/>
       <path d="M 9.421875 54.6875 
L 18.40625 54.6875 
L 18.40625 0 
L 9.421875 0 
z
M 9.421875 75.984375 
L 18.40625 75.984375 
L 18.40625 64.59375 
L 9.421875 64.59375 
z
" id="DejaVuSans-105"/>
       <path d="M 45.40625 27.984375 
Q 45.40625 37.75 41.375 43.109375 
Q 37.359375 48.484375 30.078125 48.484375 
Q 22.859375 48.484375 18.828125 43.109375 
Q 14.796875 37.75 14.796875 27.984375 
Q 14.796875 18.265625 18.828125 12.890625 
Q 22.859375 7.515625 30.078125 7.515625 
Q 37.359375 7.515625 41.375 12.890625 
Q 45.40625 18.265625 45.40625 27.984375 
z
M 54.390625 6.78125 
Q 54.390625 -7.171875 48.1875 -13.984375 
Q 42 -20.796875 29.203125 -20.796875 
Q 24.46875 -20.796875 20.265625 -20.09375 
Q 16.0625 -19.390625 12.109375 -17.921875 
L 12.109375 -9.1875 
Q 16.0625 -11.328125 19.921875 -12.34375 
Q 23.78125 -13.375 27.78125 -13.375 
Q 36.625 -13.375 41.015625 -8.765625 
Q 45.40625 -4.15625 45.40625 5.171875 
L 45.40625 9.625 
Q 42.625 4.78125 38.28125 2.390625 
Q 33.9375 0 27.875 0 
Q 17.828125 0 11.671875 7.65625 
Q 5.515625 15.328125 5.515625 27.984375 
Q 5.515625 40.671875 11.671875 48.328125 
Q 17.828125 56 27.875 56 
Q 33.9375 56 38.28125 53.609375 
Q 42.625 51.21875 45.40625 46.390625 
L 45.40625 54.6875 
L 54.390625 54.6875 
z
" id="DejaVuSans-103"/>
       <path d="M 50.984375 -16.609375 
L 50.984375 -23.578125 
L -0.984375 -23.578125 
L -0.984375 -16.609375 
z
" id="DejaVuSans-95"/>
       <path d="M 37.109375 75.984375 
L 37.109375 68.5 
L 28.515625 68.5 
Q 23.6875 68.5 21.796875 66.546875 
Q 19.921875 64.59375 19.921875 59.515625 
L 19.921875 54.6875 
L 34.71875 54.6875 
L 34.71875 47.703125 
L 19.921875 47.703125 
L 19.921875 0 
L 10.890625 0 
L 10.890625 47.703125 
L 2.296875 47.703125 
L 2.296875 54.6875 
L 10.890625 54.6875 
L 10.890625 58.5 
Q 10.890625 67.625 15.140625 71.796875 
Q 19.390625 75.984375 28.609375 75.984375 
z
" id="DejaVuSans-102"/>
       <path d="M 34.28125 27.484375 
Q 23.390625 27.484375 19.1875 25 
Q 14.984375 22.515625 14.984375 16.5 
Q 14.984375 11.71875 18.140625 8.90625 
Q 21.296875 6.109375 26.703125 6.109375 
Q 34.1875 6.109375 38.703125 11.40625 
Q 43.21875 16.703125 43.21875 25.484375 
L 43.21875 27.484375 
z
M 52.203125 31.203125 
L 52.203125 0 
L 43.21875 0 
L 43.21875 8.296875 
Q 40.140625 3.328125 35.546875 0.953125 
Q 30.953125 -1.421875 24.3125 -1.421875 
Q 15.921875 -1.421875 10.953125 3.296875 
Q 6 8.015625 6 15.921875 
Q 6 25.140625 12.171875 29.828125 
Q 18.359375 34.515625 30.609375 34.515625 
L 43.21875 34.515625 
L 43.21875 35.40625 
Q 43.21875 41.609375 39.140625 45 
Q 35.0625 48.390625 27.6875 48.390625 
Q 23 48.390625 18.546875 47.265625 
Q 14.109375 46.140625 10.015625 43.890625 
L 10.015625 52.203125 
Q 14.9375 54.109375 19.578125 55.046875 
Q 24.21875 56 28.609375 56 
Q 40.484375 56 46.34375 49.84375 
Q 52.203125 43.703125 52.203125 31.203125 
z
" id="DejaVuSans-97"/>
       <path d="M 18.3125 70.21875 
L 18.3125 54.6875 
L 36.8125 54.6875 
L 36.8125 47.703125 
L 18.3125 47.703125 
L 18.3125 18.015625 
Q 18.3125 11.328125 20.140625 9.421875 
Q 21.96875 7.515625 27.59375 7.515625 
L 36.8125 7.515625 
L 36.8125 0 
L 27.59375 0 
Q 17.1875 0 13.234375 3.875 
Q 9.28125 7.765625 9.28125 18.015625 
L 9.28125 47.703125 
L 2.6875 47.703125 
L 2.6875 54.6875 
L 9.28125 54.6875 
L 9.28125 70.21875 
z
" id="DejaVuSans-116"/>
      </defs>
      <use xlink:href="#DejaVuSans-104"/>
      <use x="63.378906" xlink:href="#DejaVuSans-105"/>
      <use x="91.162109" xlink:href="#DejaVuSans-103"/>
      <use x="154.638672" xlink:href="#DejaVuSans-104"/>
      <use x="218.017578" xlink:href="#DejaVuSans-95"/>
      <use x="268.017578" xlink:href="#DejaVuSans-102"/>
      <use x="303.222656" xlink:href="#DejaVuSans-97"/>
      <use x="364.501953" xlink:href="#DejaVuSans-116"/>
     </g>
    </g>
   </g>
   <g id="matplotlib.axis_2">
    <g id="ytick_1">
     <g id="line2d_1">
      <path clip-path="url(#p7b04f47941)" d="M 113.965625 283.349694 
L 392.965625 283.349694 
" style="fill:none;stroke:#cccccc;stroke-linecap:round;stroke-width:0.8;"/>
     </g>
     <g id="text_2">
      <!-- 10.00 -->
      <g style="fill:#262626;" transform="translate(35.395312 292.847741)scale(0.25 -0.25)">
       <defs>
        <path d="M 12.40625 8.296875 
L 28.515625 8.296875 
L 28.515625 63.921875 
L 10.984375 60.40625 
L 10.984375 69.390625 
L 28.421875 72.90625 
L 38.28125 72.90625 
L 38.28125 8.296875 
L 54.390625 8.296875 
L 54.390625 0 
L 12.40625 0 
z
" id="DejaVuSans-49"/>
        <path d="M 31.78125 66.40625 
Q 24.171875 66.40625 20.328125 58.90625 
Q 16.5 51.421875 16.5 36.375 
Q 16.5 21.390625 20.328125 13.890625 
Q 24.171875 6.390625 31.78125 6.390625 
Q 39.453125 6.390625 43.28125 13.890625 
Q 47.125 21.390625 47.125 36.375 
Q 47.125 51.421875 43.28125 58.90625 
Q 39.453125 66.40625 31.78125 66.40625 
z
M 31.78125 74.21875 
Q 44.046875 74.21875 50.515625 64.515625 
Q 56.984375 54.828125 56.984375 36.375 
Q 56.984375 17.96875 50.515625 8.265625 
Q 44.046875 -1.421875 31.78125 -1.421875 
Q 19.53125 -1.421875 13.0625 8.265625 
Q 6.59375 17.96875 6.59375 36.375 
Q 6.59375 54.828125 13.0625 64.515625 
Q 19.53125 74.21875 31.78125 74.21875 
z
" id="DejaVuSans-48"/>
        <path d="M 10.6875 12.40625 
L 21 12.40625 
L 21 0 
L 10.6875 0 
z
" id="DejaVuSans-46"/>
       </defs>
       <use xlink:href="#DejaVuSans-49"/>
       <use x="63.623047" xlink:href="#DejaVuSans-48"/>
       <use x="127.246094" xlink:href="#DejaVuSans-46"/>
       <use x="159.033203" xlink:href="#DejaVuSans-48"/>
       <use x="222.65625" xlink:href="#DejaVuSans-48"/>
      </g>
     </g>
    </g>
    <g id="ytick_2">
     <g id="line2d_2">
      <path clip-path="url(#p7b04f47941)" d="M 113.965625 178.878753 
L 392.965625 178.878753 
" style="fill:none;stroke:#cccccc;stroke-linecap:round;stroke-width:0.8;"/>
     </g>
     <g id="text_3">
      <!-- 15.00 -->
      <g style="fill:#262626;" transform="translate(35.395312 188.3768)scale(0.25 -0.25)">
       <defs>
        <path d="M 10.796875 72.90625 
L 49.515625 72.90625 
L 49.515625 64.59375 
L 19.828125 64.59375 
L 19.828125 46.734375 
Q 21.96875 47.46875 24.109375 47.828125 
Q 26.265625 48.1875 28.421875 48.1875 
Q 40.625 48.1875 47.75 41.5 
Q 54.890625 34.8125 54.890625 23.390625 
Q 54.890625 11.625 47.5625 5.09375 
Q 40.234375 -1.421875 26.90625 -1.421875 
Q 22.3125 -1.421875 17.546875 -0.640625 
Q 12.796875 0.140625 7.71875 1.703125 
L 7.71875 11.625 
Q 12.109375 9.234375 16.796875 8.0625 
Q 21.484375 6.890625 26.703125 6.890625 
Q 35.15625 6.890625 40.078125 11.328125 
Q 45.015625 15.765625 45.015625 23.390625 
Q 45.015625 31 40.078125 35.4375 
Q 35.15625 39.890625 26.703125 39.890625 
Q 22.75 39.890625 18.8125 39.015625 
Q 14.890625 38.140625 10.796875 36.28125 
z
" id="DejaVuSans-53"/>
       </defs>
       <use xlink:href="#DejaVuSans-49"/>
       <use x="63.623047" xlink:href="#DejaVuSans-53"/>
       <use x="127.246094" xlink:href="#DejaVuSans-46"/>
       <use x="159.033203" xlink:href="#DejaVuSans-48"/>
       <use x="222.65625" xlink:href="#DejaVuSans-48"/>
      </g>
     </g>
    </g>
    <g id="ytick_3">
     <g id="line2d_3">
      <path clip-path="url(#p7b04f47941)" d="M 113.965625 74.407812 
L 392.965625 74.407812 
" style="fill:none;stroke:#cccccc;stroke-linecap:round;stroke-width:0.8;"/>
     </g>
     <g id="text_4">
      <!-- 20.00 -->
      <g style="fill:#262626;" transform="translate(35.395312 83.905859)scale(0.25 -0.25)">
       <defs>
        <path d="M 19.1875 8.296875 
L 53.609375 8.296875 
L 53.609375 0 
L 7.328125 0 
L 7.328125 8.296875 
Q 12.9375 14.109375 22.625 23.890625 
Q 32.328125 33.6875 34.8125 36.53125 
Q 39.546875 41.84375 41.421875 45.53125 
Q 43.3125 49.21875 43.3125 52.78125 
Q 43.3125 58.59375 39.234375 62.25 
Q 35.15625 65.921875 28.609375 65.921875 
Q 23.96875 65.921875 18.8125 64.3125 
Q 13.671875 62.703125 7.8125 59.421875 
L 7.8125 69.390625 
Q 13.765625 71.78125 18.9375 73 
Q 24.125 74.21875 28.421875 74.21875 
Q 39.75 74.21875 46.484375 68.546875 
Q 53.21875 62.890625 53.21875 53.421875 
Q 53.21875 48.921875 51.53125 44.890625 
Q 49.859375 40.875 45.40625 35.40625 
Q 44.1875 33.984375 37.640625 27.21875 
Q 31.109375 20.453125 19.1875 8.296875 
z
" id="DejaVuSans-50"/>
       </defs>
       <use xlink:href="#DejaVuSans-50"/>
       <use x="63.623047" xlink:href="#DejaVuSans-48"/>
       <use x="127.246094" xlink:href="#DejaVuSans-46"/>
       <use x="159.033203" xlink:href="#DejaVuSans-48"/>
       <use x="222.65625" xlink:href="#DejaVuSans-48"/>
      </g>
     </g>
    </g>
    <g id="text_5">
     <!-- $\rho$ -->
     <g style="fill:#262626;" transform="translate(26.145312 206.240937)rotate(-90)scale(0.25 -0.25)">
      <defs>
       <path d="M 18.796875 44.921875 
Q 22.703125 49.90625 30.953125 54.296875 
Q 34.1875 56 43.0625 56 
Q 53.03125 56 57.71875 48.09375 
Q 62.40625 40.1875 59.90625 27.296875 
Q 57.375 14.40625 49.609375 6.484375 
Q 41.84375 -1.421875 31.890625 -1.421875 
Q 25.875 -1.421875 22.015625 0.984375 
Q 18.171875 3.328125 16.3125 8.203125 
L 10.640625 -20.796875 
L 1.609375 -20.796875 
L 10.890625 26.8125 
Q 13.09375 38.09375 18.796875 44.921875 
z
M 50.59375 27.296875 
Q 52.484375 37.203125 49.515625 42.875 
Q 46.53125 48.484375 39.40625 48.484375 
Q 32.28125 48.484375 27.09375 42.875 
Q 21.921875 37.203125 20.015625 27.296875 
Q 18.0625 17.390625 21.046875 11.71875 
Q 24.03125 6.109375 31.15625 6.109375 
Q 38.28125 6.109375 43.453125 11.71875 
Q 48.640625 17.390625 50.59375 27.296875 
z
" id="DejaVuSans-Oblique-961"/>
      </defs>
      <use xlink:href="#DejaVuSans-Oblique-961"/>
     </g>
    </g>
   </g>
   <g id="PolyCollection_1">
    <defs>
     <path d="M 261.294331 -127.474002 
L 245.636919 -127.474002 
L 244.374547 -129.766438 
L 242.963524 -132.058874 
L 241.396564 -134.35131 
L 239.667868 -136.643746 
L 237.773475 -138.936182 
L 235.711605 -141.228618 
L 233.482996 -143.521054 
L 231.09121 -145.81349 
L 228.542898 -148.105926 
L 225.848025 -150.398362 
L 223.020009 -152.690798 
L 220.075796 -154.983234 
L 217.03584 -157.27567 
L 213.92398 -159.568106 
L 210.767213 -161.860543 
L 207.595365 -164.152979 
L 204.440644 -166.445415 
L 201.337097 -168.737851 
L 198.319969 -171.030287 
L 195.424988 -173.322723 
L 192.687574 -175.615159 
L 190.142011 -177.907595 
L 187.820598 -180.200031 
L 185.752796 -182.492467 
L 183.964404 -184.784903 
L 182.476795 -187.077339 
L 181.30622 -189.369775 
L 180.463217 -191.662211 
L 179.952141 -193.954647 
L 179.770831 -196.247083 
L 179.910425 -198.539519 
L 180.355336 -200.831955 
L 181.083385 -203.124391 
L 182.066106 -205.416827 
L 183.269189 -207.709263 
L 184.653085 -210.0017 
L 186.173736 -212.294136 
L 187.783417 -214.586572 
L 189.431689 -216.879008 
L 191.066411 -219.171444 
L 192.634822 -221.46388 
L 194.084645 -223.756316 
L 195.365206 -226.048752 
L 196.428539 -228.341188 
L 197.230457 -230.633624 
L 197.731563 -232.92606 
L 197.898193 -235.218496 
L 197.703257 -237.510932 
L 197.12697 -239.803368 
L 196.15745 -242.095804 
L 194.79118 -244.38824 
L 193.033295 -246.680676 
L 190.897712 -248.973112 
L 188.407074 -251.265548 
L 185.592506 -253.557984 
L 182.493188 -255.85042 
L 179.155729 -258.142856 
L 175.633367 -260.435293 
L 171.984995 -262.727729 
L 168.274029 -265.020165 
L 164.567141 -267.312601 
L 160.932885 -269.605037 
L 157.440247 -271.897473 
L 154.157151 -274.189909 
L 151.148963 -276.482345 
L 148.477039 -278.774781 
L 146.197339 -281.067217 
L 144.359179 -283.359653 
L 143.004123 -285.652089 
L 142.165084 -287.944525 
L 141.865625 -290.236961 
L 142.119522 -292.529397 
L 142.930564 -294.821833 
L 144.292619 -297.114269 
L 146.189955 -299.406705 
L 148.597799 -301.699141 
L 151.483118 -303.991577 
L 154.805591 -306.284013 
L 158.518736 -308.57645 
L 162.571155 -310.868886 
L 166.907858 -313.161322 
L 171.47161 -315.453758 
L 176.204276 -317.746194 
L 181.04811 -320.03863 
L 185.946957 -322.331066 
L 190.847336 -324.623502 
L 195.699384 -326.915938 
L 200.457626 -329.208374 
L 205.081584 -331.50081 
L 209.536202 -333.793246 
L 213.792094 -336.085682 
L 217.825623 -338.378118 
L 221.618836 -340.670554 
L 225.159245 -342.96299 
L 228.439507 -345.255426 
L 231.457001 -347.547862 
L 234.213336 -349.840298 
L 236.713812 -352.132734 
L 238.966859 -354.42517 
L 267.964391 -354.42517 
L 267.964391 -354.42517 
L 270.217438 -352.132734 
L 272.717914 -349.840298 
L 275.474249 -347.547862 
L 278.491743 -345.255426 
L 281.772005 -342.96299 
L 285.312414 -340.670554 
L 289.105627 -338.378118 
L 293.139156 -336.085682 
L 297.395048 -333.793246 
L 301.849666 -331.50081 
L 306.473624 -329.208374 
L 311.231866 -326.915938 
L 316.083914 -324.623502 
L 320.984293 -322.331066 
L 325.88314 -320.03863 
L 330.726974 -317.746194 
L 335.45964 -315.453758 
L 340.023392 -313.161322 
L 344.360095 -310.868886 
L 348.412514 -308.57645 
L 352.125659 -306.284013 
L 355.448132 -303.991577 
L 358.333451 -301.699141 
L 360.741295 -299.406705 
L 362.638631 -297.114269 
L 364.000686 -294.821833 
L 364.811728 -292.529397 
L 365.065625 -290.236961 
L 364.766166 -287.944525 
L 363.927127 -285.652089 
L 362.572071 -283.359653 
L 360.733911 -281.067217 
L 358.454211 -278.774781 
L 355.782287 -276.482345 
L 352.774099 -274.189909 
L 349.491003 -271.897473 
L 345.998365 -269.605037 
L 342.364109 -267.312601 
L 338.657221 -265.020165 
L 334.946255 -262.727729 
L 331.297883 -260.435293 
L 327.775521 -258.142856 
L 324.438062 -255.85042 
L 321.338744 -253.557984 
L 318.524176 -251.265548 
L 316.033538 -248.973112 
L 313.897955 -246.680676 
L 312.14007 -244.38824 
L 310.7738 -242.095804 
L 309.80428 -239.803368 
L 309.227993 -237.510932 
L 309.033057 -235.218496 
L 309.199687 -232.92606 
L 309.700793 -230.633624 
L 310.502711 -228.341188 
L 311.566044 -226.048752 
L 312.846605 -223.756316 
L 314.296428 -221.46388 
L 315.864839 -219.171444 
L 317.499561 -216.879008 
L 319.147833 -214.586572 
L 320.757514 -212.294136 
L 322.278165 -210.0017 
L 323.662061 -207.709263 
L 324.865144 -205.416827 
L 325.847865 -203.124391 
L 326.575914 -200.831955 
L 327.020825 -198.539519 
L 327.160419 -196.247083 
L 326.979109 -193.954647 
L 326.468033 -191.662211 
L 325.62503 -189.369775 
L 324.454455 -187.077339 
L 322.966846 -184.784903 
L 321.178454 -182.492467 
L 319.110652 -180.200031 
L 316.789239 -177.907595 
L 314.243676 -175.615159 
L 311.506262 -173.322723 
L 308.611281 -171.030287 
L 305.594153 -168.737851 
L 302.490606 -166.445415 
L 299.335885 -164.152979 
L 296.164037 -161.860543 
L 293.00727 -159.568106 
L 289.89541 -157.27567 
L 286.855454 -154.983234 
L 283.911241 -152.690798 
L 281.083225 -150.398362 
L 278.388352 -148.105926 
L 275.84004 -145.81349 
L 273.448254 -143.521054 
L 271.219645 -141.228618 
L 269.157775 -138.936182 
L 267.263382 -136.643746 
L 265.534686 -134.35131 
L 263.967726 -132.058874 
L 262.556703 -129.766438 
L 261.294331 -127.474002 
z
" id="md3b7d99358" style="stroke:#545454;stroke-opacity:0.3;stroke-width:1.5;"/>
    </defs>
    <g clip-path="url(#p7b04f47941)">
     <use style="fill:#ffb219;fill-opacity:0.3;stroke:#545454;stroke-opacity:0.3;stroke-width:1.5;" x="0" xlink:href="#md3b7d99358" y="404.411563"/>
    </g>
   </g>
   <g id="line2d_4">
    <path clip-path="url(#p7b04f47941)" d="M 253.465625 214.083371 
L 253.465625 112.840582 
" style="fill:none;stroke:#545454;stroke-linecap:round;stroke-width:1.5;"/>
   </g>
   <g id="line2d_5">
    <path clip-path="url(#p7b04f47941)" d="M 253.465625 208.452387 
L 253.465625 113.362414 
" style="fill:none;stroke:#545454;stroke-linecap:round;stroke-width:4.5;"/>
   </g>
   <g id="line2d_6">
    <path clip-path="url(#p7b04f47941)" d="M 113.965625 151.829137 
L 392.965625 151.829137 
" style="fill:none;stroke:#ffb219;stroke-linecap:round;stroke-width:4;"/>
   </g>
   <g id="line2d_7">
    <path clip-path="url(#p7b04f47941)" d="M 113.965625 346.495483 
L 392.965625 346.495483 
" style="fill:none;stroke:#a1a9c5;stroke-linecap:round;stroke-width:4;"/>
   </g>
   <g id="patch_3">
    <path d="M 113.965625 361.320938 
L 113.965625 35.160937 
" style="fill:none;stroke:#cccccc;stroke-linecap:square;stroke-linejoin:miter;stroke-width:0.8;"/>
   </g>
   <g id="patch_4">
    <path d="M 392.965625 361.320938 
L 392.965625 35.160937 
" style="fill:none;stroke:#cccccc;stroke-linecap:square;stroke-linejoin:miter;stroke-width:0.8;"/>
   </g>
   <g id="patch_5">
    <path d="M 113.965625 361.320938 
L 392.965625 361.320938 
" style="fill:none;stroke:#cccccc;stroke-linecap:square;stroke-linejoin:miter;stroke-width:0.8;"/>
   </g>
   <g id="patch_6">
    <path d="M 113.965625 35.160937 
L 392.965625 35.160937 
" style="fill:none;stroke:#cccccc;stroke-linecap:square;stroke-linejoin:miter;stroke-width:0.8;"/>
   </g>
   <g id="PathCollection_1">
    <defs>
     <path d="M 0 1.5 
C 0.397805 1.5 0.77937 1.341951 1.06066 1.06066 
C 1.341951 0.77937 1.5 0.397805 1.5 0 
C 1.5 -0.397805 1.341951 -0.77937 1.06066 -1.06066 
C 0.77937 -1.341951 0.397805 -1.5 0 -1.5 
C -0.397805 -1.5 -0.77937 -1.341951 -1.06066 -1.06066 
C -1.341951 -0.77937 -1.5 -0.397805 -1.5 0 
C -1.5 0.397805 -1.341951 0.77937 -1.06066 1.06066 
C -0.77937 1.341951 -0.397805 1.5 0 1.5 
z
" id="m18d6d54788" style="stroke:#545454;"/>
    </defs>
    <g clip-path="url(#p7b04f47941)">
     <use style="fill:#ffffff;stroke:#545454;" x="253.465625" xlink:href="#m18d6d54788" y="113.611577"/>
    </g>
   </g>
   <g id="PathCollection_2">
    <defs>
     <path d="M 0 5 
C 1.326016 5 2.597899 4.473168 3.535534 3.535534 
C 4.473168 2.597899 5 1.326016 5 -0 
C 5 -1.326016 4.473168 -2.597899 3.535534 -3.535534 
C 2.597899 -4.473168 1.326016 -5 0 -5 
C -1.326016 -5 -2.597899 -4.473168 -3.535534 -3.535534 
C -4.473168 -2.597899 -5 -1.326016 -5 0 
C -5 1.326016 -4.473168 2.597899 -3.535534 3.535534 
C -2.597899 4.473168 -1.326016 5 0 5 
z
" id="C0_0_19bd5b9911"/>
    </defs>
    <g clip-path="url(#p7b04f47941)">
     <use style="fill:#ffb219;" x="253.465625" xlink:href="#C0_0_19bd5b9911" y="214.083371"/>
    </g>
    <g clip-path="url(#p7b04f47941)">
     <use style="fill:#ffb219;" x="243.061925" xlink:href="#C0_0_19bd5b9911" y="213.049109"/>
    </g>
    <g clip-path="url(#p7b04f47941)">
     <use style="fill:#ffb219;" x="263.31125" xlink:href="#C0_0_19bd5b9911" y="211.423541"/>
    </g>
    <g clip-path="url(#p7b04f47941)">
     <use style="fill:#ffb219;" x="253.465625" xlink:href="#C0_0_19bd5b9911" y="199.538926"/>
    </g>
    <g clip-path="url(#p7b04f47941)">
     <use style="fill:#ffb219;" x="253.465625" xlink:href="#C0_0_19bd5b9911" y="113.657545"/>
    </g>
    <g clip-path="url(#p7b04f47941)">
     <use style="fill:#ffb219;" x="242.966382" xlink:href="#C0_0_19bd5b9911" y="113.56561"/>
    </g>
    <g clip-path="url(#p7b04f47941)">
     <use style="fill:#ffb219;" x="263.963365" xlink:href="#C0_0_19bd5b9911" y="113.498749"/>
    </g>
    <g clip-path="url(#p7b04f47941)">
     <use style="fill:#ffb219;" x="232.471924" xlink:href="#C0_0_19bd5b9911" y="113.316969"/>
    </g>
    <g clip-path="url(#p7b04f47941)">
     <use style="fill:#ffb219;" x="274.460404" xlink:href="#C0_0_19bd5b9911" y="113.316969"/>
    </g>
    <g clip-path="url(#p7b04f47941)">
     <use style="fill:#ffb219;" x="221.992281" xlink:href="#C0_0_19bd5b9911" y="112.840582"/>
    </g>
   </g>
   <g id="text_6">
    <!-- setA_15 -->
    <g style="fill:#262626;" transform="translate(193.692969 29.160937)scale(0.3 -0.3)">
     <defs>
      <path d="M 44.28125 53.078125 
L 44.28125 44.578125 
Q 40.484375 46.53125 36.375 47.5 
Q 32.28125 48.484375 27.875 48.484375 
Q 21.1875 48.484375 17.84375 46.4375 
Q 14.5 44.390625 14.5 40.28125 
Q 14.5 37.15625 16.890625 35.375 
Q 19.28125 33.59375 26.515625 31.984375 
L 29.59375 31.296875 
Q 39.15625 29.25 43.1875 25.515625 
Q 47.21875 21.78125 47.21875 15.09375 
Q 47.21875 7.46875 41.1875 3.015625 
Q 35.15625 -1.421875 24.609375 -1.421875 
Q 20.21875 -1.421875 15.453125 -0.5625 
Q 10.6875 0.296875 5.421875 2 
L 5.421875 11.28125 
Q 10.40625 8.6875 15.234375 7.390625 
Q 20.0625 6.109375 24.8125 6.109375 
Q 31.15625 6.109375 34.5625 8.28125 
Q 37.984375 10.453125 37.984375 14.40625 
Q 37.984375 18.0625 35.515625 20.015625 
Q 33.0625 21.96875 24.703125 23.78125 
L 21.578125 24.515625 
Q 13.234375 26.265625 9.515625 29.90625 
Q 5.8125 33.546875 5.8125 39.890625 
Q 5.8125 47.609375 11.28125 51.796875 
Q 16.75 56 26.8125 56 
Q 31.78125 56 36.171875 55.265625 
Q 40.578125 54.546875 44.28125 53.078125 
z
" id="DejaVuSans-115"/>
      <path d="M 56.203125 29.59375 
L 56.203125 25.203125 
L 14.890625 25.203125 
Q 15.484375 15.921875 20.484375 11.0625 
Q 25.484375 6.203125 34.421875 6.203125 
Q 39.59375 6.203125 44.453125 7.46875 
Q 49.3125 8.734375 54.109375 11.28125 
L 54.109375 2.78125 
Q 49.265625 0.734375 44.1875 -0.34375 
Q 39.109375 -1.421875 33.890625 -1.421875 
Q 20.796875 -1.421875 13.15625 6.1875 
Q 5.515625 13.8125 5.515625 26.8125 
Q 5.515625 40.234375 12.765625 48.109375 
Q 20.015625 56 32.328125 56 
Q 43.359375 56 49.78125 48.890625 
Q 56.203125 41.796875 56.203125 29.59375 
z
M 47.21875 32.234375 
Q 47.125 39.59375 43.09375 43.984375 
Q 39.0625 48.390625 32.421875 48.390625 
Q 24.90625 48.390625 20.390625 44.140625 
Q 15.875 39.890625 15.1875 32.171875 
z
" id="DejaVuSans-101"/>
      <path d="M 34.1875 63.1875 
L 20.796875 26.90625 
L 47.609375 26.90625 
z
M 28.609375 72.90625 
L 39.796875 72.90625 
L 67.578125 0 
L 57.328125 0 
L 50.6875 18.703125 
L 17.828125 18.703125 
L 11.1875 0 
L 0.78125 0 
z
" id="DejaVuSans-65"/>
     </defs>
     <use xlink:href="#DejaVuSans-115"/>
     <use x="52.099609" xlink:href="#DejaVuSans-101"/>
     <use x="113.623047" xlink:href="#DejaVuSans-116"/>
     <use x="152.832031" xlink:href="#DejaVuSans-65"/>
     <use x="221.240234" xlink:href="#DejaVuSans-95"/>
     <use x="271.240234" xlink:href="#DejaVuSans-49"/>
     <use x="334.863281" xlink:href="#DejaVuSans-53"/>
    </g>
   </g>
  </g>
 </g>
 <defs>
  <clipPath id="p7b04f47941">
   <rect height="326.16" width="279" x="113.965625" y="35.160937"/>
  </clipPath>
 </defs>
</svg>
