species_ID	media	plastic	sfm	log_fold_change	culture_type
setA_11	DACH	3.901733	3.90173	1.109272927391944e-06	batch
setA_11	EU_avg	92.76565	32.8547	1.4974909229104478	batch
setA_11	diabetes2	144.92423	32.8556	2.1410876268387327	batch
setA_11	gluten_free	3.901788	3.901773333333333	5.423043752244275e-06	batch
setA_11	high_fat	1.919849	1.9198566666666668	-5.761203040399429e-06	batch
setA_11	high_fiber	5.885364	5.885236666666667	3.121389872109797e-05	batch
setA_11	high_protein	5.886043	5.885913333333334	3.178222067402212e-05	batch
setA_11	mediterranean	5.886173000000001	5.886030000000001	3.5049580925090383e-05	batch
setA_11	unhealthy	1.9199190000000002	1.91992	-7.514351724989891e-07	batch
setA_11	vegan	5.886001	5.8858733333333335	3.1292224445907224e-05	batch
setA_11	vegetarian	3.901155	3.9011533333333333	6.163539383954734e-07	batch
setA_13	DACH	20.5085	19.6953	0.05837058403918952	batch
setA_13	EU_avg	19.65335	19.692633333333333	-0.0028807966770404768	batch
setA_13	diabetes2	23.612779999999997	19.6966	0.26162128903205034	batch
setA_13	gluten_free	19.44391	19.4486	-0.0003479456468388468	batch
setA_13	high_fat	19.556659999999997	19.485033333333334	0.005293599939422726	batch
setA_13	high_fiber	19.66193	19.6973	-0.00259294388291661	batch
setA_13	high_protein	28.88059	19.6967	0.5521462755541879	batch
setA_13	mediterranean	19.81924	19.6972	0.008911079163830769	batch
setA_13	unhealthy	22.500179999999997	19.730999999999998	0.18947246685034022	batch
setA_13	vegan	25.91139	19.695466666666665	0.39572280930957077	batch
setA_13	vegetarian	22.435650000000003	19.7078	0.1870262460332865	batch
setA_14	DACH	52.30600999999999	52.28743333333333	0.0005124693155502205	batch
setA_14	EU_avg	42.88223000000001	42.8616	0.0006942260281083478	batch
setA_14	diabetes2	48.797129999999996	48.77773333333334	0.0005735795925795639	batch
setA_14	gluten_free	62.871680000000005	62.84856666666667	0.000530471306543266	batch
setA_14	high_fat	52.612919999999995	30.8231	0.7714051547560294	batch
setA_14	high_fiber	80.50564999999999	80.48503333333333	0.00036950663611580355	batch
setA_14	high_protein	61.713589999999996	61.694433333333336	0.0004479000226312284	batch
setA_14	mediterranean	71.09826000000001	71.0776	0.00041928467680186636	batch
setA_14	unhealthy	73.4022	73.3764	0.0005071792814248461	batch
setA_14	vegan	61.7168	61.697333333333326	0.00045512556685396656	batch
setA_14	vegetarian	21.776220000000002	21.7633	0.0008562161675368765	batch
setA_15	DACH	217.98359999999997	5.983786666666667	5.187017046342428	batch
setA_15	EU_avg	145.4254	6.0215966666666665	4.593989384194082	batch
setA_15	diabetes2	274.13650000000007	5.966553333333333	5.521852840612814	batch
setA_15	gluten_free	198.2259	6.001406666666667	5.045700972805318	batch
setA_15	high_fat	16.294599999999996	6.97783	1.2235435823450558	batch
setA_15	high_fiber	236.50039999999998	5.97158	5.307586113651911	batch
setA_15	high_protein	248.08369999999996	5.970143333333334	5.376917569172006	batch
setA_15	mediterranean	214.21589999999998	5.979836666666667	5.162815677525602	batch
setA_15	unhealthy	19.83682	6.780036666666667	1.5488157881335178	batch
setA_15	vegan	174.3483	5.979499999999999	4.865803634115558	batch
setA_15	vegetarian	135.7885	6.025480000000001	4.494141318458836	batch
setA_16	DACH	1.2956199999999998	1.2956166666666666	3.7117284818089163e-06	batch
setA_16	EU_avg	42.73078	42.7212	0.0003234803581991942	batch
setA_16	diabetes2	48.58219	48.573	0.0002729317387017812	batch
setA_16	gluten_free	1.2958300000000003	1.29583	3.2034265038149176e-16	batch
setA_16	high_fat	0.5569231	0.556923	2.590474648252155e-07	batch
setA_16	high_fiber	2.0508999999999995	2.0509066666666667	-4.689624705145709e-06	batch
setA_16	high_protein	2.050291	2.05029	7.036539655274651e-07	batch
setA_16	mediterranean	2.0505999999999998	2.0506	-3.2034265038149186e-16	batch
setA_16	unhealthy	0.559825	0.559825	0.0	batch
setA_16	vegan	2.0502209999999996	2.05022	7.036779899331555e-07	batch
setA_16	vegetarian	1.29241	1.2924133333333334	-3.7209378355574577e-06	batch
setA_17	DACH	277.9365	277.904	0.00016870878923842624	batch
setA_17	EU_avg	188.67530000000002	188.65	0.00019346799480043572	batch
setA_17	diabetes2	361.2543999999999	361.211	0.00017333138680346947	batch
setA_17	gluten_free	260.03360000000004	259.98900000000003	0.00024746693309638044	batch
setA_17	high_fat	185.68477	57.1054	1.7011564079696377	batch
setA_17	high_fiber	301.7559	301.716	0.00019077452393500473	batch
setA_17	high_protein	325.55449999999996	325.51599999999996	0.00017062287152914976	batch
setA_17	mediterranean	277.953	277.915	0.00019724974864214595	batch
setA_17	unhealthy	235.90189999999998	213.46200000000002	0.14420777082567401	batch
setA_17	vegan	349.30999999999995	349.267	0.00017760643948057882	batch
setA_17	vegetarian	200.55210000000002	200.52700000000002	0.00018057109220401716	batch
setA_18	DACH	604.9526000000002	586.4580000000001	0.0447943156212529	batch
setA_18	EU_avg	578.8068000000001	578.908	-0.0002522222891333256	batch
setA_18	diabetes2	685.6557	591.418	0.21330616011894563	batch
setA_18	gluten_free	613.0697	589.808	0.05580571262167834	batch
setA_18	high_fat	29.719579999999997	13.8892	1.097450223374309	batch
setA_18	high_fiber	663.5556	594.11	0.15948728350827504	batch
setA_18	high_protein	512.6224	512.62	6.7544379710776855e-06	batch
setA_18	mediterranean	614.6496	591.365	0.055715331974624846	batch
setA_18	unhealthy	32.56194	14.602399999999998	1.156981151181605	batch
setA_18	vegan	655.1972000000001	582.225	0.17035240332394186	batch
setA_18	vegetarian	604.1144	579.672	0.059584975309852115	batch
setA_19	DACH	3.951858	3.9516066666666667	9.175655716204055e-05	batch
setA_19	EU_avg	18.199770000000004	14.9459	0.2841704437848311	batch
setA_19	diabetes2	20.4454	14.9474	0.45188172934547977	batch
setA_19	gluten_free	3.9517879999999996	3.9516199999999997	6.133373524591095e-05	batch
setA_19	high_fat	1.9581879999999998	1.9580266666666668	0.00011886723270937765	batch
setA_19	high_fiber	5.943467	5.94313	8.180444393133592e-05	batch
setA_19	high_protein	5.943533	5.943153333333334	9.216079267462577e-05	batch
setA_19	mediterranean	5.943461	5.943146666666667	7.630219723036126e-05	batch
setA_19	unhealthy	1.958415	1.95827	0.00010682032434301066	batch
setA_19	vegan	5.943427999999999	5.943136666666667	7.071936545405619e-05	batch
setA_19	vegetarian	3.9517979999999993	3.9516000000000004	7.228627943411747e-05	batch
setA_20	DACH	1.4637399999999998	1.4637366666666667	3.285411989318159e-06	batch
setA_20	EU_avg	3.2688579999999994	3.268853333333333	2.0596127648166146e-06	batch
setA_20	diabetes2	3.2688829999999998	3.2688733333333335	4.266311361417047e-06	batch
setA_20	gluten_free	1.4637500000000003	1.46375	3.2034265038149176e-16	batch
setA_20	high_fat	0.7303088	0.7303066666666665	4.214318540299091e-06	batch
setA_20	high_fiber	2.1972300000000002	2.197226666666667	2.188658955772621e-06	batch
setA_20	high_protein	2.1972300000000002	2.1972233333333335	4.377321231900223e-06	batch
setA_20	mediterranean	2.1972300000000002	2.197226666666667	2.188658955772621e-06	batch
setA_20	unhealthy	0.7303143	0.730317	-5.333689084220192e-06	batch
setA_20	vegan	2.1972190000000005	2.1972133333333335	3.7207408278384506e-06	batch
setA_20	vegetarian	1.4637100000000003	1.4637066666666667	3.2854793271119767e-06	batch
setA_21	DACH	257.8966	114.68799999999999	1.1690783057487826	batch
setA_21	EU_avg	190.3832	124.015	0.6183915467894628	batch
setA_21	diabetes2	338.7161	110.711	1.6132779910376507	batch
setA_21	gluten_free	249.44430000000003	121.56599999999999	1.0369779157475036	batch
setA_21	high_fat	135.178	36.8794	1.873973284937597	batch
setA_21	high_fiber	303.5834	112.757	1.42887590671123	batch
setA_21	high_protein	317.21290000000005	112.021	1.501682229626581	batch
setA_21	mediterranean	279.74850000000004	114.46	1.289286883551165	batch
setA_21	unhealthy	224.2898	33.5275	2.741947195894719	batch
setA_21	vegan	303.39720000000005	113.42399999999999	1.4194818310065362	batch
setA_21	vegetarian	202.274	125.08200000000001	0.6934366973841896	batch
setA_22	DACH	989.0907000000001	226.687	2.12540116467517	batch
setA_22	EU_avg	1051.7925	226.67999999999998	2.2141211018926965	batch
setA_22	diabetes2	1362.0317	226.687	2.586986717922095	batch
setA_22	gluten_free	1445.6554999999996	226.687	2.6729502355420585	batch
setA_22	high_fat	425.45050000000003	52.1275	3.02887471204249	batch
setA_22	high_fiber	834.9522000000001	226.68999999999997	1.8809728566876822	batch
setA_22	high_protein	1312.5611999999996	226.688	2.5336047645914617	batch
setA_22	mediterranean	1346.9320000000002	226.689	2.5708907263859775	batch
setA_22	unhealthy	818.1912	226.649	1.851978224589911	batch
setA_22	vegan	863.8933999999999	226.67999999999998	1.9301961946672141	batch
setA_22	vegetarian	1025.4134	226.67099999999996	2.177533924540455	batch
setA_24	DACH	51.695960000000014	51.69583333333333	3.5349299200244152e-06	batch
setA_24	EU_avg	42.365	42.36496666666667	1.1351316797398894e-06	batch
setA_24	diabetes2	48.19958	48.1995	2.3945374430885074e-06	batch
setA_24	gluten_free	62.17564000000001	62.1754	5.56886069976311e-06	batch
setA_24	high_fat	51.93503	18.7128	1.472682514294809	batch
setA_24	high_fiber	79.70087000000001	79.70033333333333	9.714435304697701e-06	batch
setA_24	high_protein	61.02835	61.0282	3.545967113479036e-06	batch
setA_24	mediterranean	70.36177	70.36146666666667	6.219548471159559e-06	batch
setA_24	unhealthy	72.61296	72.61163333333333	2.6358833266860044e-05	batch
setA_24	vegan	61.017100000000006	61.016999999999996	2.3644129648611684e-06	batch
setA_24	vegetarian	21.411499999999997	21.4115	-1.6017132519074588e-16	batch
setA_26	DACH	3.9262750000000004	3.9260533333333334	8.145288562590503e-05	batch
setA_26	EU_avg	74.4813	57.0882	0.38368567933460873	batch
setA_26	diabetes2	60.35260000000001	56.947399999999995	0.08378594834891973	batch
setA_26	gluten_free	3.9219849999999994	3.9219166666666663	2.5136511220931775e-05	batch
setA_26	high_fat	1.937557	1.9375333333333333	1.762218668367871e-05	batch
setA_26	high_fiber	5.914294	5.914006666666666	7.009195772846507e-05	batch
setA_26	high_protein	5.916133	5.915776666666667	8.689727145365261e-05	batch
setA_26	mediterranean	5.915929	5.91562	7.535661944813153e-05	batch
setA_26	unhealthy	1.9415749999999998	1.9414733333333334	7.554579972519749e-05	batch
setA_26	vegan	5.913047999999999	5.912856666666666	4.668321941702089e-05	batch
setA_26	vegetarian	3.9223730000000003	3.922266666666667	3.91111839954514e-05	batch
setA_3	DACH	3.946146	3.9459066666666662	8.7501953625984e-05	batch
setA_3	EU_avg	167.26691999999997	17.97933333333333	3.2177407226672288	batch
setA_3	diabetes2	74.54055000000001	17.982	2.0514719743955028	batch
setA_3	gluten_free	3.946228	3.9459066666666662	0.00011748051099205006	batch
setA_3	high_fat	1.957968	1.9578233333333335	0.00010659908300015772	batch
setA_3	high_fiber	5.935534	5.9351400000000005	9.576909387248767e-05	batch
setA_3	high_protein	5.935457999999999	5.93515	7.486559621727872e-05	batch
setA_3	mediterranean	5.935566999999999	5.93516	9.892854614068905e-05	batch
setA_3	unhealthy	1.9579780000000002	1.9578433333333336	9.922972255937375e-05	batch
setA_3	vegan	5.935517000000001	5.9351400000000005	9.163705607846075e-05	batch
setA_3	vegetarian	3.946170000000001	3.9458733333333336	0.00010846355270047623	batch
setA_4	DACH	71.56406	30.8162	1.2155462656968619	batch
setA_4	EU_avg	45.40113000000001	30.8021	0.5596994924202953	batch
setA_4	diabetes2	34.275619999999996	30.8137	0.15361083616768562	batch
setA_4	gluten_free	108.74165	30.8133	1.8192795207481551	batch
setA_4	high_fat	27.21395	19.2943	0.4961716697696762	batch
setA_4	high_fiber	49.514610000000005	30.5911	0.6947422914884768	batch
setA_4	high_protein	119.98175	30.8109	1.9613022494121362	batch
setA_4	mediterranean	112.46238000000001	30.818966666666668	1.8675520880815242	batch
setA_4	unhealthy	72.46047999999999	21.432200000000005	1.7574144134387082	batch
setA_4	vegan	49.06587000000001	30.8044	0.671583405686632	batch
setA_4	vegetarian	34.234120000000004	30.789200000000005	0.15301054580034815	batch
setA_6	DACH	22.63225	20.8687	0.11703928651747901	batch
setA_6	EU_avg	21.62842	20.7587	0.05921217865491549	batch
setA_6	diabetes2	21.720679999999998	20.8607	0.05828170005263842	batch
setA_6	gluten_free	21.65139	20.7685	0.0600626260277714	batch
setA_6	high_fat	22.311860000000003	20.188	0.1443127952944523	batch
setA_6	high_fiber	23.53342	20.885	0.17224385230603748	batch
setA_6	high_protein	26.91959	20.7737	0.3738982398603055	batch
setA_6	mediterranean	20.798699999999997	20.873566666666665	-0.005183777777052681	batch
setA_6	unhealthy	20.425969999999996	20.5604	-0.009463740740957793	batch
setA_6	vegan	22.61123	20.8725	0.11543606419521003	batch
setA_6	vegetarian	22.610490000000002	20.8453	0.11727012240935288	batch
setA_8	DACH	107.15321000000002	21.415499999999998	2.322947803463159	batch
setA_8	EU_avg	122.21712	43.8182	1.4798442635311544	batch
setA_8	diabetes2	94.87230000000001	49.744	0.9314644012182991	batch
setA_8	gluten_free	152.07546	63.9535	1.249692146970133	batch
setA_8	high_fat	29.959876	9.57672	1.6454281260556791	batch
setA_8	high_fiber	56.44578	29.5331	0.9345329265017812	batch
setA_8	high_protein	138.99461000000002	62.7809	1.1466313224726694	batch
setA_8	mediterranean	154.35696000000002	72.2601	1.0949993795415922	batch
setA_8	unhealthy	90.70045999999999	10.6287	3.0931447164746544	batch
setA_8	vegan	72.52785	20.3464	1.8337615294640042	batch
setA_8	vegetarian	113.29359000000002	80.5404	0.49228169521980336	batch
setA_9	DACH	1.536224	1.5358600000000002	0.0003418793218809711	batch
setA_9	EU_avg	30.948610000000002	27.703533333333336	0.15980462427468592	batch
setA_9	diabetes2	36.29269999999999	27.704133333333335	0.38957815428073006	batch
setA_9	gluten_free	1.5361629999999997	1.53587	0.00027519863768490286	batch
setA_9	high_fat	0.7584364	0.7584406666666667	-8.11601543251787e-06	batch
setA_9	high_fiber	2.314303	2.3138500000000004	0.00028241972796028597	batch
setA_9	high_protein	2.31434	2.3138366666666665	0.00031379809332148737	batch
setA_9	mediterranean	2.3142560000000003	2.3138566666666667	0.0002489637839808855	batch
setA_9	unhealthy	0.7590117000000001	0.7588423333333334	0.00032196040691671515	batch
setA_9	vegan	2.3142400000000003	2.3138366666666665	0.0002514595341472697	batch
setA_9	vegetarian	1.5361439999999997	1.53575	0.00037007907774618524	batch
setA_11	DACH	2.01236	2.0123599999999997	3.2034265038149176e-16	continuous
setA_11	EU_avg	56.15889000000001	16.7603	1.7444664478517837	continuous
setA_11	diabetes2	63.7495	16.7603	1.9273660539688393	continuous
setA_11	gluten_free	2.01236	2.0123599999999997	3.2034265038149176e-16	continuous
setA_11	high_fat	1.0002700000000002	1.00027	3.2034265038149176e-16	continuous
setA_11	high_fiber	3.02444	3.0244400000000002	-1.6017132519074588e-16	continuous
setA_11	high_protein	3.02444	3.0244400000000002	-1.6017132519074588e-16	continuous
setA_11	mediterranean	3.02444	3.0244400000000002	-1.6017132519074588e-16	continuous
setA_11	unhealthy	1.0002700000000002	1.00027	3.2034265038149176e-16	continuous
setA_11	vegan	3.02444	3.0244400000000002	-1.6017132519074588e-16	continuous
setA_11	vegetarian	2.0123500000000005	2.01235	3.2034265038149176e-16	continuous
setA_13	DACH	522.2832	9.951706666666666	5.713744526167414	continuous
setA_13	EU_avg	420.919	9.950289999999999	5.40266024976372	continuous
setA_13	diabetes2	518.0442	9.952356666666667	5.701893196138801	continuous
setA_13	gluten_free	544.4649999999999	9.82704	5.791938572293439	continuous
setA_13	high_fat	214.7636	9.84805	4.446767596716979	continuous
setA_13	high_fiber	572.0505	9.952706666666666	5.844909777955993	continuous
setA_13	high_protein	540.4314999999999	9.95238	5.762926385660476	continuous
setA_13	mediterranean	707.6544000000001	9.95265	6.151820437486366	continuous
setA_13	unhealthy	560.0666	9.971119999999999	5.811699020833494	continuous
setA_13	vegan	533.8714	9.951786666666665	5.7453928950998	continuous
setA_13	vegetarian	206.54750000000004	9.95805666666667	4.3744655629160025	continuous
setA_14	DACH	26.98313	26.9825	3.3684323736997406e-05	continuous
setA_14	EU_avg	22.167350000000006	22.166700000000002	4.230390756767186e-05	continuous
setA_14	diabetes2	25.17735	25.1768	3.151606262920883e-05	continuous
setA_14	gluten_free	32.40069999999999	32.3999	3.562176994526503e-05	continuous
setA_14	high_fat	27.576839999999997	16.0188	0.7836910728179334	continuous
setA_14	high_fiber	41.42967	41.4291	1.9849104043521773e-05	continuous
setA_14	high_protein	31.798930000000002	31.7981	3.7657006435840544e-05	continuous
setA_14	mediterranean	36.55126999999999	36.6135	-0.002454157487109981	continuous
setA_14	unhealthy	37.817719999999994	37.8169	3.128223381214879e-05	continuous
setA_14	vegan	31.798930000000002	31.7981	3.7657006435840544e-05	continuous
setA_14	vegetarian	11.332400000000002	11.332	5.092374088147017e-05	continuous
setA_15	DACH	100.50708	3.19617	4.974809176911899	continuous
setA_15	EU_avg	71.68776	3.2165699999999995	4.4781318230428555	continuous
setA_15	diabetes2	137.582	3.1868700000000003	5.4320077534705815	continuous
setA_15	gluten_free	100.14505	3.20567	4.965321384358527	continuous
setA_15	high_fat	9.440056000000002	3.73564	1.3374399872962817	continuous
setA_15	high_fiber	114.47720000000001	3.18958	5.165550016302966	continuous
setA_15	high_protein	119.55010000000001	3.1888099999999997	5.2284533870556045	continuous
setA_15	mediterranean	111.2293	3.1940399999999998	5.1220106821381775	continuous
setA_15	unhealthy	10.177589999999999	3.62759	1.488312666315208	continuous
setA_15	vegan	129.5171	3.19385	5.34170221990795	continuous
setA_15	vegetarian	67.74746	3.21867	4.395630283122109	continuous
setA_16	DACH	0.7251120000000001	0.7251119999999999	3.2034265038149176e-16	continuous
setA_16	EU_avg	21.84226	21.8421	1.056813956044162e-05	continuous
setA_16	diabetes2	24.802919999999997	24.8026	1.861334839680294e-05	continuous
setA_16	gluten_free	0.7251310000000001	0.7251310000000001	0.0	continuous
setA_16	high_fat	0.32990930000000007	0.329886	0.00010189461630537991	continuous
setA_16	high_fiber	1.1198999999999997	1.1199	-3.2034265038149186e-16	continuous
setA_16	high_protein	1.1198700000000004	1.1198700000000001	3.2034265038149176e-16	continuous
setA_16	mediterranean	1.11989	1.11989	0.0	continuous
setA_16	unhealthy	0.33042000000000005	0.33042	3.2034265038149176e-16	continuous
setA_16	vegan	1.1198599999999999	1.11986	-3.2034265038149186e-16	continuous
setA_16	vegetarian	0.7248200000000001	0.7248199999999999	3.2034265038149176e-16	continuous
setA_17	DACH	142.4124	142.412	4.0521669936891764e-06	continuous
setA_17	EU_avg	96.86908000000001	96.86880000000001	4.170114914451931e-06	continuous
setA_17	diabetes2	184.92000000000002	184.92	3.2034265038149176e-16	continuous
setA_17	gluten_free	133.30390000000003	133.303	9.740374587927486e-06	continuous
setA_17	high_fat	102.9297	29.750199999999996	1.7906880545503472	continuous
setA_17	high_fiber	154.5578	154.55700000000002	7.467491253588555e-06	continuous
setA_17	high_protein	166.7029	166.702	7.788880948166773e-06	continuous
setA_17	mediterranean	142.41299999999998	142.412	1.013039614395951e-05	continuous
setA_17	unhealthy	121.15889999999999	109.84200000000003	0.14147058570987137	continuous
setA_17	vegan	178.8474	178.847	3.2266539052418994e-06	continuous
setA_17	vegetarian	102.94200000000001	102.94099999999999	1.4014707780024141e-05	continuous
setA_18	DACH	1045.568	299.303	1.8046082481317127	continuous
setA_18	EU_avg	1073.5138000000002	295.45	1.8613548331091603	continuous
setA_18	diabetes2	1062.8852	301.83299999999997	1.8161633305114213	continuous
setA_18	gluten_free	1086.1339	301.01099999999997	1.8513138572188248	continuous
setA_18	high_fat	408.1291	7.102426666666666	5.844569739084034	continuous
setA_18	high_fiber	1304.1078999999997	303.207	2.1046882751664584	continuous
setA_18	high_protein	1068.886	261.622	2.0305522249601236	continuous
setA_18	mediterranean	1436.7049	301.806	2.2510703693438776	continuous
setA_18	unhealthy	1013.7227999999999	7.465563333333333	7.085196362787762	continuous
setA_18	vegan	1051.9267000000002	297.142	1.8238097340629609	continuous
setA_18	vegetarian	1104.797	295.839	1.900897148821706	continuous
setA_19	DACH	2.01904	2.01904	0.0	continuous
setA_19	EU_avg	513.4141000000001	7.601166666666667	6.077758239367676	continuous
setA_19	diabetes2	710.7951999999999	7.60189	6.546931979224578	continuous
setA_19	gluten_free	2.01904	2.01904	0.0	continuous
setA_19	high_fat	1.00694	1.00694	0.0	continuous
setA_19	high_fiber	3.0311200000000005	3.03112	3.2034265038149176e-16	continuous
setA_19	high_protein	3.0311230000000005	3.03112	1.427882426793551e-06	continuous
setA_19	mediterranean	3.0311220000000008	3.03112	9.519217752073479e-07	continuous
setA_19	unhealthy	1.00694	1.00694	0.0	continuous
setA_19	vegan	3.0311210000000006	3.03112	4.7596096627619885e-07	continuous
setA_19	vegetarian	2.01904	2.01904	0.0	continuous
setA_20	DACH	0.7887880000000002	0.7887879999999999	3.2034265038149176e-16	continuous
setA_20	EU_avg	21.906000000000002	1.7595900000000002	3.638014862150899	continuous
setA_20	diabetes2	24.8663	1.7595900000000002	3.820880644163648	continuous
setA_20	gluten_free	0.7887880000000002	0.7887879999999999	3.2034265038149176e-16	continuous
setA_20	high_fat	0.39407300000000006	0.39407299999999995	3.2034265038149176e-16	continuous
setA_20	high_fiber	1.1835010000000001	1.1835	1.2190067019358847e-06	continuous
setA_20	high_protein	1.1835000000000002	1.1835	3.2034265038149176e-16	continuous
setA_20	mediterranean	1.1835000000000002	1.1835	3.2034265038149176e-16	continuous
setA_20	unhealthy	0.39407300000000006	0.39407299999999995	3.2034265038149176e-16	continuous
setA_20	vegan	1.1835000000000002	1.1835	3.2034265038149176e-16	continuous
setA_20	vegetarian	0.7887880000000002	0.7887879999999999	3.2034265038149176e-16	continuous
setA_21	DACH	142.636	58.4897	1.28608365608134	continuous
setA_21	EU_avg	97.09215000000002	63.251200000000004	0.6182618061478737	continuous
setA_21	diabetes2	185.1438	56.46110000000001	1.713317096697872	continuous
setA_21	gluten_free	133.52700000000002	61.9967	1.1068681634688717	continuous
setA_21	high_fat	103.16279999999999	18.9299	2.4461841408504155	continuous
setA_21	high_fiber	154.78099999999998	57.50469999999999	1.4284766046532016	continuous
setA_21	high_protein	166.92599999999996	57.129	1.546913501010571	continuous
setA_21	mediterranean	142.636	58.3731	1.2889625584795117	continuous
setA_21	unhealthy	121.38200000000003	17.197	2.8193256818419696	continuous
setA_21	vegan	179.07099999999997	57.8442	1.6302875025855532	continuous
setA_21	vegetarian	103.16489999999999	63.79330000000001	0.6934753876733557	continuous
setA_22	DACH	1147.1240000000003	115.601	3.3107955669969855	continuous
setA_22	EU_avg	1098.0610000000001	115.601	3.2477324188831496	continuous
setA_22	diabetes2	1455.526	115.601	3.6543148275338098	continuous
setA_22	gluten_free	1413.447	115.601	3.6119920045118064	continuous
setA_22	high_fat	549.3384000000001	26.8865	4.352741275992723	continuous
setA_22	high_fiber	1436.1809999999998	115.601	3.6350117986170916	continuous
setA_22	high_protein	1261.5099999999998	115.601	3.4479258596566718	continuous
setA_22	mediterranean	1355.374227156	115.601	3.551465460592215	continuous
setA_22	unhealthy	1013.6619999999999	115.601	3.132350890868593	continuous
setA_22	vegan	1454.255	115.601	3.653054481470935	continuous
setA_22	vegetarian	1115.9842	115.601	3.2710908188119836	continuous
setA_24	DACH	26.950899999999997	26.9509	-1.6017132519074588e-16	continuous
setA_24	EU_avg	22.1352	22.1352	0.0	continuous
setA_24	diabetes2	25.145000000000003	25.145	3.2034265038149176e-16	continuous
setA_24	gluten_free	32.3684	32.3684	0.0	continuous
setA_24	high_fat	27.547559999999997	9.92995	1.472066180535502	continuous
setA_24	high_fiber	41.39769999999999	41.3977	-3.2034265038149186e-16	continuous
setA_24	high_protein	31.7665	31.766499999999997	3.2034265038149176e-16	continuous
setA_24	mediterranean	36.58209999999999	36.5821	-3.2034265038149186e-16	continuous
setA_24	unhealthy	37.785700000000006	37.7857	3.2034265038149176e-16	continuous
setA_24	vegan	31.7665	31.766499999999997	3.2034265038149176e-16	continuous
setA_24	vegetarian	11.3001	11.3001	0.0	continuous
setA_26	DACH	2.0160400000000003	2.0160299999999998	7.156101163685732e-06	continuous
setA_26	EU_avg	1004.4290000000001	29.0521	5.111589326701975	continuous
setA_26	diabetes2	1047.3392	28.982	5.175427794624756	continuous
setA_26	gluten_free	2.0160190000000004	2.0160099999999996	6.4405565383534875e-06	continuous
setA_26	high_fat	1.0039200000000004	1.0039200000000001	3.2034265038149176e-16	continuous
setA_26	high_fiber	3.028125	3.02812	2.3821609612114927e-06	continuous
setA_26	high_protein	3.0281220000000006	3.02812	9.528648566203012e-07	continuous
setA_26	mediterranean	3.0281210000000005	3.02812	4.7643250697814774e-07	continuous
setA_26	unhealthy	1.0039599999999997	1.00395	1.4370116597571824e-05	continuous
setA_26	vegan	3.0281170000000004	3.02811	3.3350352578293098e-06	continuous
setA_26	vegetarian	2.0160150000000003	2.016	1.0734298168113298e-05	continuous
setA_3	DACH	2.018829	2.0188200000000003	6.431591932788578e-06	continuous
setA_3	EU_avg	930.001	9.152660000000001	6.666897368406771	continuous
setA_3	diabetes2	916.3291000000002	9.153966666666667	6.64532498721879	continuous
setA_3	gluten_free	2.0188230000000003	2.0188200000000003	2.143867163514875e-06	continuous
setA_3	high_fat	1.00675	1.00674	1.4330292585471168e-05	continuous
setA_3	high_fiber	3.030899	3.0309000000000004	-4.7599567114605246e-07	continuous
setA_3	high_protein	3.0309079999999993	3.0309000000000004	3.8079597129005283e-06	continuous
setA_3	mediterranean	3.0309079999999993	3.0309000000000004	3.8079597129005283e-06	continuous
setA_3	unhealthy	1.00675	1.00674	1.4330292585471168e-05	continuous
setA_3	vegan	3.0309049999999997	3.0309000000000004	2.379975998256344e-06	continuous
setA_3	vegetarian	2.0188300000000003	2.0188200000000003	7.146211489011721e-06	continuous
setA_4	DACH	395.20050000000003	15.6745	4.656093443768091	continuous
setA_4	EU_avg	386.94340000000005	15.6674	4.626284862121478	continuous
setA_4	diabetes2	358.48328000000004	15.6733	4.515524956711161	continuous
setA_4	gluten_free	407.14930000000004	15.6731	4.699195456528147	continuous
setA_4	high_fat	202.87309999999997	9.83845	4.366002729235775	continuous
setA_4	high_fiber	454.7409999999999	15.560700000000002	4.869066218370942	continuous
setA_4	high_protein	352.23758200000003	15.6718	4.490306049177207	continuous
setA_4	mediterranean	463.73393597000006	15.6759	4.886677126824564	continuous
setA_4	unhealthy	316.9121	10.9148	4.859725144106927	continuous
setA_4	vegan	451.27840000000003	15.6686	4.848069542108692	continuous
setA_4	vegetarian	390.37051	15.6609	4.639605041749474	continuous
setA_6	DACH	379.9343999999999	10.5337	5.172666160016762	continuous
setA_6	EU_avg	300.92536	10.4783	4.843929114549314	continuous
setA_6	diabetes2	312.39433	10.5297	4.890832030136426	continuous
setA_6	gluten_free	441.45179999999993	10.4832	5.396104853219223	continuous
setA_6	high_fat	214.33319999999998	10.1924	4.3942896319613824	continuous
setA_6	high_fiber	513.3711999999998	10.5419	5.605795546325144	continuous
setA_6	high_protein	411.92660000000006	10.4859	5.295864692968672	continuous
setA_6	mediterranean	537.3898	10.5362	5.672542396771591	continuous
setA_6	unhealthy	337.4059	10.3798	5.022634650378167	continuous
setA_6	vegan	501.7474	10.535666666666666	5.573607723973194	continuous
setA_6	vegetarian	380.78452	10.522	5.177493969783866	continuous
setA_8	DACH	113.16	10.8891	3.377407458601633	continuous
setA_8	EU_avg	77.68285000000002	22.2688	1.802572313159728	continuous
setA_8	diabetes2	148.2172	25.278499999999998	2.5517301130804633	continuous
setA_8	gluten_free	104.73289999999997	32.5019	1.688118747799291	continuous
setA_8	high_fat	80.65547999999998	4.87587	4.048040991602099	continuous
setA_8	high_fiber	121.58700000000002	15.0124	3.0177624439939468	continuous
setA_8	high_protein	131.21900000000002	31.899999999999995	2.0403483025998854	continuous
setA_8	mediterranean	113.16	36.7156	1.6238990002953149	continuous
setA_8	unhealthy	99.02129	5.409036666666666	4.19429516178554	continuous
setA_8	vegan	142.05400000000003	10.3459	3.7793083987199716	continuous
setA_8	vegetarian	80.65470000000002	40.9293	0.9786246130879125	continuous
setA_9	DACH	0.785698	0.7856869999999999	2.0198290616453715e-05	continuous
setA_9	EU_avg	21.902989999999996	14.0424	0.6413382979706825	continuous
setA_9	diabetes2	24.861110000000004	14.0424	0.8241011822403381	continuous
setA_9	gluten_free	0.7856920000000001	0.7856869999999999	9.181076245459779e-06	continuous
setA_9	high_fat	0.390975	0.390975	0.0	continuous
setA_9	high_fiber	1.1804080000000001	1.1804	9.777635730926658e-06	continuous
setA_9	high_protein	1.180409	1.1804	1.0999835537911607e-05	continuous
setA_9	mediterranean	1.180409	1.1804	1.0999835537911607e-05	continuous
setA_9	unhealthy	0.3909829999999999	0.390979	1.4759745776585758e-05	continuous
setA_9	vegan	1.18041	1.1804	1.2222034309493325e-05	continuous
setA_9	vegetarian	0.7856959999999998	0.785686	1.836211743407755e-05	continuous
