<?xml version="1.0" encoding="utf-8" standalone="no"?>
<!DOCTYPE svg PUBLIC "-//W3C//DTD SVG 1.1//EN"
  "http://www.w3.org/Graphics/SVG/1.1/DTD/svg11.dtd">
<!-- Created with matplotlib (https://matplotlib.org/) -->
<svg height="1751.166083pt" version="1.1" viewBox="0 0 1037.889062 1751.166083" width="1037.889062pt" xmlns="http://www.w3.org/2000/svg" xmlns:xlink="http://www.w3.org/1999/xlink">
 <metadata>
  <rdf:RDF xmlns:cc="http://creativecommons.org/ns#" xmlns:dc="http://purl.org/dc/elements/1.1/" xmlns:rdf="http://www.w3.org/1999/02/22-rdf-syntax-ns#">
   <cc:Work>
    <dc:type rdf:resource="http://purl.org/dc/dcmitype/StillImage"/>
    <dc:date>2021-05-03T16:24:26.438821</dc:date>
    <dc:format>image/svg+xml</dc:format>
    <dc:creator>
     <cc:Agent>
      <dc:title>Matplotlib v3.3.4, https://matplotlib.org/</dc:title>
     </cc:Agent>
    </dc:creator>
   </cc:Work>
  </rdf:RDF>
 </metadata>
 <defs>
  <style type="text/css">*{stroke-linecap:butt;stroke-linejoin:round;}</style>
 </defs>
 <g id="figure_1">
  <g id="patch_1">
   <path d="M 0 1751.166083 
L 1037.889062 1751.166083 
L 1037.889062 0 
L 0 0 
z
" style="fill:none;"/>
  </g>
  <g id="axes_1">
   <g id="patch_2">
    <path d="M 90.114063 398.55347 
L 871.314063 398.55347 
L 871.314063 53.775458 
L 90.114063 53.775458 
z
" style="fill:none;"/>
   </g>
   <g id="matplotlib.axis_1">
    <g id="xtick_1">
     <g id="line2d_1">
      <path clip-path="url(#p176c538448)" d="M 125.623153 398.55347 
L 125.623153 53.775458 
" style="fill:none;stroke:#cccccc;stroke-linecap:round;stroke-width:0.8;"/>
     </g>
    </g>
    <g id="xtick_2">
     <g id="line2d_2">
      <path clip-path="url(#p176c538448)" d="M 273.577699 398.55347 
L 273.577699 53.775458 
" style="fill:none;stroke:#cccccc;stroke-linecap:round;stroke-width:0.8;"/>
     </g>
    </g>
    <g id="xtick_3">
     <g id="line2d_3">
      <path clip-path="url(#p176c538448)" d="M 421.532244 398.55347 
L 421.532244 53.775458 
" style="fill:none;stroke:#cccccc;stroke-linecap:round;stroke-width:0.8;"/>
     </g>
    </g>
    <g id="xtick_4">
     <g id="line2d_4">
      <path clip-path="url(#p176c538448)" d="M 569.48679 398.55347 
L 569.48679 53.775458 
" style="fill:none;stroke:#cccccc;stroke-linecap:round;stroke-width:0.8;"/>
     </g>
    </g>
    <g id="xtick_5">
     <g id="line2d_5">
      <path clip-path="url(#p176c538448)" d="M 717.441335 398.55347 
L 717.441335 53.775458 
" style="fill:none;stroke:#cccccc;stroke-linecap:round;stroke-width:0.8;"/>
     </g>
    </g>
    <g id="xtick_6">
     <g id="line2d_6">
      <path clip-path="url(#p176c538448)" d="M 865.395881 398.55347 
L 865.395881 53.775458 
" style="fill:none;stroke:#cccccc;stroke-linecap:round;stroke-width:0.8;"/>
     </g>
    </g>
   </g>
   <g id="matplotlib.axis_2">
    <g id="ytick_1">
     <g id="line2d_7">
      <path clip-path="url(#p176c538448)" d="M 90.114063 382.884271 
L 871.314063 382.884271 
" style="fill:none;stroke:#cccccc;stroke-linecap:round;stroke-width:0.8;"/>
     </g>
     <g id="text_1">
      <!-- 0 -->
      <g style="fill:#262626;" transform="translate(67.207813 392.382318)scale(0.25 -0.25)">
       <defs>
        <path d="M 31.78125 66.40625 
Q 24.171875 66.40625 20.328125 58.90625 
Q 16.5 51.421875 16.5 36.375 
Q 16.5 21.390625 20.328125 13.890625 
Q 24.171875 6.390625 31.78125 6.390625 
Q 39.453125 6.390625 43.28125 13.890625 
Q 47.125 21.390625 47.125 36.375 
Q 47.125 51.421875 43.28125 58.90625 
Q 39.453125 66.40625 31.78125 66.40625 
z
M 31.78125 74.21875 
Q 44.046875 74.21875 50.515625 64.515625 
Q 56.984375 54.828125 56.984375 36.375 
Q 56.984375 17.96875 50.515625 8.265625 
Q 44.046875 -1.421875 31.78125 -1.421875 
Q 19.53125 -1.421875 13.0625 8.265625 
Q 6.59375 17.96875 6.59375 36.375 
Q 6.59375 54.828125 13.0625 64.515625 
Q 19.53125 74.21875 31.78125 74.21875 
z
" id="DejaVuSans-48"/>
       </defs>
       <use xlink:href="#DejaVuSans-48"/>
      </g>
     </g>
    </g>
    <g id="ytick_2">
     <g id="line2d_8">
      <path clip-path="url(#p176c538448)" d="M 90.114063 319.660718 
L 871.314063 319.660718 
" style="fill:none;stroke:#cccccc;stroke-linecap:round;stroke-width:0.8;"/>
     </g>
     <g id="text_2">
      <!-- 25 -->
      <g style="fill:#262626;" transform="translate(51.301563 329.158765)scale(0.25 -0.25)">
       <defs>
        <path d="M 19.1875 8.296875 
L 53.609375 8.296875 
L 53.609375 0 
L 7.328125 0 
L 7.328125 8.296875 
Q 12.9375 14.109375 22.625 23.890625 
Q 32.328125 33.6875 34.8125 36.53125 
Q 39.546875 41.84375 41.421875 45.53125 
Q 43.3125 49.21875 43.3125 52.78125 
Q 43.3125 58.59375 39.234375 62.25 
Q 35.15625 65.921875 28.609375 65.921875 
Q 23.96875 65.921875 18.8125 64.3125 
Q 13.671875 62.703125 7.8125 59.421875 
L 7.8125 69.390625 
Q 13.765625 71.78125 18.9375 73 
Q 24.125 74.21875 28.421875 74.21875 
Q 39.75 74.21875 46.484375 68.546875 
Q 53.21875 62.890625 53.21875 53.421875 
Q 53.21875 48.921875 51.53125 44.890625 
Q 49.859375 40.875 45.40625 35.40625 
Q 44.1875 33.984375 37.640625 27.21875 
Q 31.109375 20.453125 19.1875 8.296875 
z
" id="DejaVuSans-50"/>
        <path d="M 10.796875 72.90625 
L 49.515625 72.90625 
L 49.515625 64.59375 
L 19.828125 64.59375 
L 19.828125 46.734375 
Q 21.96875 47.46875 24.109375 47.828125 
Q 26.265625 48.1875 28.421875 48.1875 
Q 40.625 48.1875 47.75 41.5 
Q 54.890625 34.8125 54.890625 23.390625 
Q 54.890625 11.625 47.5625 5.09375 
Q 40.234375 -1.421875 26.90625 -1.421875 
Q 22.3125 -1.421875 17.546875 -0.640625 
Q 12.796875 0.140625 7.71875 1.703125 
L 7.71875 11.625 
Q 12.109375 9.234375 16.796875 8.0625 
Q 21.484375 6.890625 26.703125 6.890625 
Q 35.15625 6.890625 40.078125 11.328125 
Q 45.015625 15.765625 45.015625 23.390625 
Q 45.015625 31 40.078125 35.4375 
Q 35.15625 39.890625 26.703125 39.890625 
Q 22.75 39.890625 18.8125 39.015625 
Q 14.890625 38.140625 10.796875 36.28125 
z
" id="DejaVuSans-53"/>
       </defs>
       <use xlink:href="#DejaVuSans-50"/>
       <use x="63.623047" xlink:href="#DejaVuSans-53"/>
      </g>
     </g>
    </g>
    <g id="ytick_3">
     <g id="line2d_9">
      <path clip-path="url(#p176c538448)" d="M 90.114063 256.437165 
L 871.314063 256.437165 
" style="fill:none;stroke:#cccccc;stroke-linecap:round;stroke-width:0.8;"/>
     </g>
     <g id="text_3">
      <!-- 50 -->
      <g style="fill:#262626;" transform="translate(51.301563 265.935212)scale(0.25 -0.25)">
       <use xlink:href="#DejaVuSans-53"/>
       <use x="63.623047" xlink:href="#DejaVuSans-48"/>
      </g>
     </g>
    </g>
    <g id="ytick_4">
     <g id="line2d_10">
      <path clip-path="url(#p176c538448)" d="M 90.114063 193.213613 
L 871.314063 193.213613 
" style="fill:none;stroke:#cccccc;stroke-linecap:round;stroke-width:0.8;"/>
     </g>
     <g id="text_4">
      <!-- 75 -->
      <g style="fill:#262626;" transform="translate(51.301563 202.711659)scale(0.25 -0.25)">
       <defs>
        <path d="M 8.203125 72.90625 
L 55.078125 72.90625 
L 55.078125 68.703125 
L 28.609375 0 
L 18.3125 0 
L 43.21875 64.59375 
L 8.203125 64.59375 
z
" id="DejaVuSans-55"/>
       </defs>
       <use xlink:href="#DejaVuSans-55"/>
       <use x="63.623047" xlink:href="#DejaVuSans-53"/>
      </g>
     </g>
    </g>
    <g id="ytick_5">
     <g id="line2d_11">
      <path clip-path="url(#p176c538448)" d="M 90.114063 129.99006 
L 871.314063 129.99006 
" style="fill:none;stroke:#cccccc;stroke-linecap:round;stroke-width:0.8;"/>
     </g>
     <g id="text_5">
      <!-- 100 -->
      <g style="fill:#262626;" transform="translate(35.395313 139.488107)scale(0.25 -0.25)">
       <defs>
        <path d="M 12.40625 8.296875 
L 28.515625 8.296875 
L 28.515625 63.921875 
L 10.984375 60.40625 
L 10.984375 69.390625 
L 28.421875 72.90625 
L 38.28125 72.90625 
L 38.28125 8.296875 
L 54.390625 8.296875 
L 54.390625 0 
L 12.40625 0 
z
" id="DejaVuSans-49"/>
       </defs>
       <use xlink:href="#DejaVuSans-49"/>
       <use x="63.623047" xlink:href="#DejaVuSans-48"/>
       <use x="127.246094" xlink:href="#DejaVuSans-48"/>
      </g>
     </g>
    </g>
    <g id="ytick_6">
     <g id="line2d_12">
      <path clip-path="url(#p176c538448)" d="M 90.114063 66.766507 
L 871.314063 66.766507 
" style="fill:none;stroke:#cccccc;stroke-linecap:round;stroke-width:0.8;"/>
     </g>
     <g id="text_6">
      <!-- 125 -->
      <g style="fill:#262626;" transform="translate(35.395313 76.264554)scale(0.25 -0.25)">
       <use xlink:href="#DejaVuSans-49"/>
       <use x="63.623047" xlink:href="#DejaVuSans-50"/>
       <use x="127.246094" xlink:href="#DejaVuSans-53"/>
      </g>
     </g>
    </g>
    <g id="text_7">
     <!-- OD -->
     <g style="fill:#262626;" transform="translate(26.196094 245.629308)rotate(-90)scale(0.25 -0.25)">
      <defs>
       <path d="M 39.40625 66.21875 
Q 28.65625 66.21875 22.328125 58.203125 
Q 16.015625 50.203125 16.015625 36.375 
Q 16.015625 22.609375 22.328125 14.59375 
Q 28.65625 6.59375 39.40625 6.59375 
Q 50.140625 6.59375 56.421875 14.59375 
Q 62.703125 22.609375 62.703125 36.375 
Q 62.703125 50.203125 56.421875 58.203125 
Q 50.140625 66.21875 39.40625 66.21875 
z
M 39.40625 74.21875 
Q 54.734375 74.21875 63.90625 63.9375 
Q 73.09375 53.65625 73.09375 36.375 
Q 73.09375 19.140625 63.90625 8.859375 
Q 54.734375 -1.421875 39.40625 -1.421875 
Q 24.03125 -1.421875 14.8125 8.828125 
Q 5.609375 19.09375 5.609375 36.375 
Q 5.609375 53.65625 14.8125 63.9375 
Q 24.03125 74.21875 39.40625 74.21875 
z
" id="DejaVuSans-79"/>
       <path d="M 19.671875 64.796875 
L 19.671875 8.109375 
L 31.59375 8.109375 
Q 46.6875 8.109375 53.6875 14.9375 
Q 60.6875 21.78125 60.6875 36.53125 
Q 60.6875 51.171875 53.6875 57.984375 
Q 46.6875 64.796875 31.59375 64.796875 
z
M 9.8125 72.90625 
L 30.078125 72.90625 
Q 51.265625 72.90625 61.171875 64.09375 
Q 71.09375 55.28125 71.09375 36.53125 
Q 71.09375 17.671875 61.125 8.828125 
Q 51.171875 0 30.078125 0 
L 9.8125 0 
z
" id="DejaVuSans-68"/>
      </defs>
      <use xlink:href="#DejaVuSans-79"/>
      <use x="78.710938" xlink:href="#DejaVuSans-68"/>
     </g>
    </g>
   </g>
   <g id="PolyCollection_1">
    <defs>
     <path d="M 715.133244 -1528.240435 
L 715.133244 -1528.240435 
L 715.133244 -1528.240435 
L 715.133244 -1528.240435 
z
" id="mbc1e48e6b2" style="stroke:#1b9e77;stroke-opacity:0.2;"/>
    </defs>
    <g clip-path="url(#p176c538448)">
     <use style="fill:#1b9e77;fill-opacity:0.2;stroke:#1b9e77;stroke-opacity:0.2;" x="0" xlink:href="#mbc1e48e6b2" y="1751.166083"/>
    </g>
   </g>
   <g id="line2d_13">
    <path clip-path="url(#p176c538448)" d="M 125.623153 382.881742 
L 130.492079 382.763327 
L 131.800626 382.542305 
L 132.705737 382.1825 
L 133.42095 381.645815 
L 133.957507 380.987878 
L 134.491697 379.986002 
L 135.025147 378.458117 
L 135.558005 376.128556 
L 136.090937 372.574988 
L 136.623722 367.160093 
L 137.15658 358.912808 
L 137.68929 346.376463 
L 138.222001 327.36944 
L 138.754637 298.675557 
L 139.287348 255.731338 
L 139.819984 192.71971 
L 140.708081 69.540756 
L 140.886144 69.859403 
L 144.089582 82.554692 
L 147.113551 93.573293 
L 150.134265 103.71688 
L 153.153278 113.061321 
L 156.254479 121.899974 
L 159.376024 130.076044 
L 162.402508 137.372042 
L 165.429066 144.094981 
L 168.391412 150.163937 
L 171.419524 155.884657 
L 174.512736 161.264728 
L 177.694868 166.349419 
L 180.794664 170.899239 
L 184.009864 175.232328 
L 187.223289 179.202767 
L 190.61559 183.036138 
L 194.083645 186.608016 
L 197.577888 189.883502 
L 201.161347 192.935935 
L 204.743326 195.705885 
L 208.57165 198.384035 
L 212.419948 200.810808 
L 216.54714 203.147297 
L 220.765324 205.280713 
L 225.266841 207.303866 
L 229.963658 209.168203 
L 234.83802 210.86841 
L 240.259075 212.513487 
L 246.107718 214.037428 
L 252.196788 215.38763 
L 258.529982 216.574968 
L 265.889241 217.721843 
L 274.110335 218.759721 
L 282.579993 219.613239 
L 292.741511 220.409603 
L 304.46321 221.093682 
L 318.436037 221.670534 
L 335.492977 222.134595 
L 360.707391 222.525822 
L 389.248563 222.741035 
L 450.031989 222.88999 
L 551.417101 222.923372 
L 835.804972 222.925648 
L 835.804972 222.925648 
" style="fill:none;stroke:#1b9e77;stroke-linecap:round;stroke-width:3;"/>
   </g>
   <g id="line2d_14">
    <path clip-path="url(#p176c538448)" d="M 125.623153 382.881742 
L 130.495015 382.763045 
L 131.801661 382.542025 
L 132.706241 382.182219 
L 133.421246 381.645535 
L 133.957729 380.987598 
L 134.491845 379.985724 
L 135.025961 378.45531 
L 135.559485 376.120691 
L 136.092565 372.56204 
L 136.625349 367.139583 
L 137.158208 358.882183 
L 137.690992 346.32816 
L 138.223702 327.294836 
L 138.756413 298.560743 
L 139.289123 255.560634 
L 139.81917 192.835536 
L 140.707341 69.543285 
L 140.884961 69.854345 
L 144.089212 82.552163 
L 147.113255 93.573293 
L 150.134117 103.71688 
L 153.027812 112.689567 
L 155.92025 120.981968 
L 158.942369 128.981012 
L 161.969149 136.363752 
L 164.996003 143.166607 
L 168.024189 149.437625 
L 171.052227 155.215499 
L 174.082928 160.54398 
L 177.291174 165.728311 
L 180.415752 170.363356 
L 183.628289 174.737667 
L 186.864647 178.776388 
L 190.256135 182.646428 
L 193.637488 186.166968 
L 197.03667 189.396174 
L 200.618353 192.492611 
L 204.198114 195.301254 
L 207.843714 197.895696 
L 211.610636 200.321204 
L 215.560283 202.612173 
L 219.699311 204.76405 
L 224.043997 206.778352 
L 228.593599 208.648758 
L 233.467961 210.412695 
L 238.593107 212.033241 
L 244.219078 213.571597 
L 250.291133 214.988816 
L 256.935772 216.295014 
L 264.087155 217.461615 
L 271.538145 218.459536 
L 280.349578 219.407131 
L 290.20705 220.23106 
L 301.659472 220.949027 
L 314.16385 221.516521 
L 329.771575 222.002078 
L 349.476901 222.383948 
L 376.206369 222.662891 
L 416.123766 222.836376 
L 480.903444 222.910221 
L 835.804972 222.925648 
L 835.804972 222.925648 
" style="fill:none;stroke:#d95f02;stroke-linecap:round;stroke-width:3;"/>
   </g>
   <g id="line2d_15">
    <path clip-path="url(#p176c538448)" d="M 125.623153 382.881742 
L 130.358912 382.775467 
L 131.839604 382.531552 
L 132.747032 382.1591 
L 133.464522 381.602181 
L 133.99923 380.924015 
L 134.533494 379.888284 
L 135.067314 378.307291 
L 135.600542 375.896804 
L 136.133474 372.221821 
L 136.666555 366.617281 
L 137.199413 358.086755 
L 137.732197 345.12059 
L 138.264982 325.465146 
L 138.797618 295.810265 
L 139.330328 251.475128 
L 139.862965 186.592336 
L 140.57322 74.9097 
L 140.752467 69.447185 
L 141.285696 71.498157 
L 144.162894 82.832876 
L 147.168516 93.765493 
L 150.191228 103.901493 
L 152.998517 112.601054 
L 156.023818 121.267738 
L 159.052003 129.259195 
L 162.077378 136.616647 
L 165.103936 143.399017 
L 168.132048 149.651826 
L 171.160603 155.413768 
L 174.192414 160.728339 
L 177.401696 165.899015 
L 180.597514 170.621055 
L 183.821814 174.989297 
L 187.033537 178.977692 
L 190.426579 182.831546 
L 193.811779 186.339948 
L 197.206891 189.550187 
L 200.786282 192.630691 
L 204.522134 195.542515 
L 208.305332 198.206756 
L 212.340792 200.763263 
L 216.369594 203.051956 
L 220.500485 205.153507 
L 224.824457 207.115966 
L 229.516835 209.000787 
L 234.301685 210.69189 
L 239.483793 212.292458 
L 244.935178 213.750899 
L 250.874814 215.11324 
L 257.489122 216.393643 
L 264.680452 217.548611 
L 272.301591 218.550831 
L 281.15889 219.483252 
L 290.961618 220.285432 
L 302.474701 220.992271 
L 316.056928 221.587079 
L 332.382973 222.065049 
L 352.928681 222.432251 
L 381.177642 222.69602 
L 430.234931 222.8647 
L 549.212578 222.923119 
L 835.804972 222.925648 
L 835.804972 222.925648 
" style="fill:none;stroke:#7570b3;stroke-linecap:round;stroke-width:3;"/>
   </g>
   <g id="line2d_16"/>
   <g id="line2d_17"/>
   <g id="line2d_18"/>
   <g id="patch_3">
    <path d="M 90.114063 398.55347 
L 90.114063 53.775458 
" style="fill:none;stroke:#cccccc;stroke-linecap:square;stroke-linejoin:miter;stroke-width:0.8;"/>
   </g>
   <g id="patch_4">
    <path d="M 871.314063 398.55347 
L 871.314063 53.775458 
" style="fill:none;stroke:#cccccc;stroke-linecap:square;stroke-linejoin:miter;stroke-width:0.8;"/>
   </g>
   <g id="patch_5">
    <path d="M 90.114063 398.55347 
L 871.314063 398.55347 
" style="fill:none;stroke:#cccccc;stroke-linecap:square;stroke-linejoin:miter;stroke-width:0.8;"/>
   </g>
   <g id="patch_6">
    <path d="M 90.114063 53.775458 
L 871.314063 53.775458 
" style="fill:none;stroke:#cccccc;stroke-linecap:square;stroke-linejoin:miter;stroke-width:0.8;"/>
   </g>
   <g id="text_8">
    <!-- EU_avg -->
    <g style="fill:#262626;" transform="translate(39.643359 25.500781)scale(0.25 -0.25)">
     <defs>
      <path d="M 9.1875 72.90625 
L 59.90625 72.90625 
L 59.90625 58.6875 
L 27.984375 58.6875 
L 27.984375 45.125 
L 58.015625 45.125 
L 58.015625 30.90625 
L 27.984375 30.90625 
L 27.984375 14.203125 
L 60.984375 14.203125 
L 60.984375 0 
L 9.1875 0 
z
" id="DejaVuSans-Bold-69"/>
      <path d="M 9.1875 72.90625 
L 27.984375 72.90625 
L 27.984375 29.203125 
Q 27.984375 20.171875 30.9375 16.28125 
Q 33.890625 12.40625 40.578125 12.40625 
Q 47.3125 12.40625 50.265625 16.28125 
Q 53.21875 20.171875 53.21875 29.203125 
L 53.21875 72.90625 
L 72.015625 72.90625 
L 72.015625 29.203125 
Q 72.015625 13.71875 64.25 6.140625 
Q 56.5 -1.421875 40.578125 -1.421875 
Q 24.703125 -1.421875 16.9375 6.140625 
Q 9.1875 13.71875 9.1875 29.203125 
z
" id="DejaVuSans-Bold-85"/>
      <path d="M 50 -14.3125 
L 50 -23.578125 
L 0 -23.578125 
L 0 -14.3125 
z
" id="DejaVuSans-Bold-95"/>
      <path d="M 32.90625 24.609375 
Q 27.4375 24.609375 24.671875 22.75 
Q 21.921875 20.90625 21.921875 17.28125 
Q 21.921875 13.96875 24.140625 12.078125 
Q 26.375 10.203125 30.328125 10.203125 
Q 35.25 10.203125 38.625 13.734375 
Q 42 17.28125 42 22.609375 
L 42 24.609375 
z
M 59.625 31.203125 
L 59.625 0 
L 42 0 
L 42 8.109375 
Q 38.484375 3.125 34.078125 0.84375 
Q 29.6875 -1.421875 23.390625 -1.421875 
Q 14.890625 -1.421875 9.59375 3.53125 
Q 4.296875 8.5 4.296875 16.40625 
Q 4.296875 26.03125 10.90625 30.515625 
Q 17.53125 35.015625 31.6875 35.015625 
L 42 35.015625 
L 42 36.375 
Q 42 40.53125 38.71875 42.453125 
Q 35.453125 44.390625 28.515625 44.390625 
Q 22.90625 44.390625 18.0625 43.265625 
Q 13.234375 42.140625 9.078125 39.890625 
L 9.078125 53.21875 
Q 14.703125 54.59375 20.359375 55.296875 
Q 26.03125 56 31.6875 56 
Q 46.484375 56 53.046875 50.171875 
Q 59.625 44.34375 59.625 31.203125 
z
" id="DejaVuSans-Bold-97"/>
      <path d="M 1.515625 54.6875 
L 19 54.6875 
L 32.625 16.890625 
L 46.1875 54.6875 
L 63.71875 54.6875 
L 42.1875 0 
L 23 0 
z
" id="DejaVuSans-Bold-118"/>
      <path d="M 45.609375 9.28125 
Q 42 4.5 37.640625 2.25 
Q 33.296875 0 27.59375 0 
Q 17.578125 0 11.03125 7.875 
Q 4.5 15.765625 4.5 27.984375 
Q 4.5 40.234375 11.03125 48.0625 
Q 17.578125 55.90625 27.59375 55.90625 
Q 33.296875 55.90625 37.640625 53.65625 
Q 42 51.421875 45.609375 46.578125 
L 45.609375 54.6875 
L 63.1875 54.6875 
L 63.1875 5.515625 
Q 63.1875 -7.671875 54.859375 -14.625 
Q 46.53125 -21.578125 30.71875 -21.578125 
Q 25.59375 -21.578125 20.796875 -20.796875 
Q 16.015625 -20.015625 11.1875 -18.40625 
L 11.1875 -4.78125 
Q 15.765625 -7.421875 20.15625 -8.71875 
Q 24.5625 -10.015625 29 -10.015625 
Q 37.59375 -10.015625 41.59375 -6.25 
Q 45.609375 -2.484375 45.609375 5.515625 
z
M 34.078125 43.3125 
Q 28.65625 43.3125 25.625 39.296875 
Q 22.609375 35.296875 22.609375 27.984375 
Q 22.609375 20.453125 25.53125 16.578125 
Q 28.46875 12.703125 34.078125 12.703125 
Q 39.546875 12.703125 42.578125 16.703125 
Q 45.609375 20.703125 45.609375 27.984375 
Q 45.609375 35.296875 42.578125 39.296875 
Q 39.546875 43.3125 34.078125 43.3125 
z
" id="DejaVuSans-Bold-103"/>
     </defs>
     <use xlink:href="#DejaVuSans-Bold-69"/>
     <use x="68.310547" xlink:href="#DejaVuSans-Bold-85"/>
     <use x="149.511719" xlink:href="#DejaVuSans-Bold-95"/>
     <use x="199.511719" xlink:href="#DejaVuSans-Bold-97"/>
     <use x="266.992188" xlink:href="#DejaVuSans-Bold-118"/>
     <use x="332.177734" xlink:href="#DejaVuSans-Bold-103"/>
    </g>
   </g>
   <g id="text_9">
    <!-- I_b (setA_21) -->
    <g style="fill:#262626;" transform="translate(383.021875 47.775458)scale(0.3 -0.3)">
     <defs>
      <path d="M 9.8125 72.90625 
L 19.671875 72.90625 
L 19.671875 0 
L 9.8125 0 
z
" id="DejaVuSans-73"/>
      <path d="M 50.984375 -16.609375 
L 50.984375 -23.578125 
L -0.984375 -23.578125 
L -0.984375 -16.609375 
z
" id="DejaVuSans-95"/>
      <path d="M 48.6875 27.296875 
Q 48.6875 37.203125 44.609375 42.84375 
Q 40.53125 48.484375 33.40625 48.484375 
Q 26.265625 48.484375 22.1875 42.84375 
Q 18.109375 37.203125 18.109375 27.296875 
Q 18.109375 17.390625 22.1875 11.75 
Q 26.265625 6.109375 33.40625 6.109375 
Q 40.53125 6.109375 44.609375 11.75 
Q 48.6875 17.390625 48.6875 27.296875 
z
M 18.109375 46.390625 
Q 20.953125 51.265625 25.265625 53.625 
Q 29.59375 56 35.59375 56 
Q 45.5625 56 51.78125 48.09375 
Q 58.015625 40.1875 58.015625 27.296875 
Q 58.015625 14.40625 51.78125 6.484375 
Q 45.5625 -1.421875 35.59375 -1.421875 
Q 29.59375 -1.421875 25.265625 0.953125 
Q 20.953125 3.328125 18.109375 8.203125 
L 18.109375 0 
L 9.078125 0 
L 9.078125 75.984375 
L 18.109375 75.984375 
z
" id="DejaVuSans-98"/>
      <path id="DejaVuSans-32"/>
      <path d="M 31 75.875 
Q 24.46875 64.65625 21.28125 53.65625 
Q 18.109375 42.671875 18.109375 31.390625 
Q 18.109375 20.125 21.3125 9.0625 
Q 24.515625 -2 31 -13.1875 
L 23.1875 -13.1875 
Q 15.875 -1.703125 12.234375 9.375 
Q 8.59375 20.453125 8.59375 31.390625 
Q 8.59375 42.28125 12.203125 53.3125 
Q 15.828125 64.359375 23.1875 75.875 
z
" id="DejaVuSans-40"/>
      <path d="M 44.28125 53.078125 
L 44.28125 44.578125 
Q 40.484375 46.53125 36.375 47.5 
Q 32.28125 48.484375 27.875 48.484375 
Q 21.1875 48.484375 17.84375 46.4375 
Q 14.5 44.390625 14.5 40.28125 
Q 14.5 37.15625 16.890625 35.375 
Q 19.28125 33.59375 26.515625 31.984375 
L 29.59375 31.296875 
Q 39.15625 29.25 43.1875 25.515625 
Q 47.21875 21.78125 47.21875 15.09375 
Q 47.21875 7.46875 41.1875 3.015625 
Q 35.15625 -1.421875 24.609375 -1.421875 
Q 20.21875 -1.421875 15.453125 -0.5625 
Q 10.6875 0.296875 5.421875 2 
L 5.421875 11.28125 
Q 10.40625 8.6875 15.234375 7.390625 
Q 20.0625 6.109375 24.8125 6.109375 
Q 31.15625 6.109375 34.5625 8.28125 
Q 37.984375 10.453125 37.984375 14.40625 
Q 37.984375 18.0625 35.515625 20.015625 
Q 33.0625 21.96875 24.703125 23.78125 
L 21.578125 24.515625 
Q 13.234375 26.265625 9.515625 29.90625 
Q 5.8125 33.546875 5.8125 39.890625 
Q 5.8125 47.609375 11.28125 51.796875 
Q 16.75 56 26.8125 56 
Q 31.78125 56 36.171875 55.265625 
Q 40.578125 54.546875 44.28125 53.078125 
z
" id="DejaVuSans-115"/>
      <path d="M 56.203125 29.59375 
L 56.203125 25.203125 
L 14.890625 25.203125 
Q 15.484375 15.921875 20.484375 11.0625 
Q 25.484375 6.203125 34.421875 6.203125 
Q 39.59375 6.203125 44.453125 7.46875 
Q 49.3125 8.734375 54.109375 11.28125 
L 54.109375 2.78125 
Q 49.265625 0.734375 44.1875 -0.34375 
Q 39.109375 -1.421875 33.890625 -1.421875 
Q 20.796875 -1.421875 13.15625 6.1875 
Q 5.515625 13.8125 5.515625 26.8125 
Q 5.515625 40.234375 12.765625 48.109375 
Q 20.015625 56 32.328125 56 
Q 43.359375 56 49.78125 48.890625 
Q 56.203125 41.796875 56.203125 29.59375 
z
M 47.21875 32.234375 
Q 47.125 39.59375 43.09375 43.984375 
Q 39.0625 48.390625 32.421875 48.390625 
Q 24.90625 48.390625 20.390625 44.140625 
Q 15.875 39.890625 15.1875 32.171875 
z
" id="DejaVuSans-101"/>
      <path d="M 18.3125 70.21875 
L 18.3125 54.6875 
L 36.8125 54.6875 
L 36.8125 47.703125 
L 18.3125 47.703125 
L 18.3125 18.015625 
Q 18.3125 11.328125 20.140625 9.421875 
Q 21.96875 7.515625 27.59375 7.515625 
L 36.8125 7.515625 
L 36.8125 0 
L 27.59375 0 
Q 17.1875 0 13.234375 3.875 
Q 9.28125 7.765625 9.28125 18.015625 
L 9.28125 47.703125 
L 2.6875 47.703125 
L 2.6875 54.6875 
L 9.28125 54.6875 
L 9.28125 70.21875 
z
" id="DejaVuSans-116"/>
      <path d="M 34.1875 63.1875 
L 20.796875 26.90625 
L 47.609375 26.90625 
z
M 28.609375 72.90625 
L 39.796875 72.90625 
L 67.578125 0 
L 57.328125 0 
L 50.6875 18.703125 
L 17.828125 18.703125 
L 11.1875 0 
L 0.78125 0 
z
" id="DejaVuSans-65"/>
      <path d="M 8.015625 75.875 
L 15.828125 75.875 
Q 23.140625 64.359375 26.78125 53.3125 
Q 30.421875 42.28125 30.421875 31.390625 
Q 30.421875 20.453125 26.78125 9.375 
Q 23.140625 -1.703125 15.828125 -13.1875 
L 8.015625 -13.1875 
Q 14.5 -2 17.703125 9.0625 
Q 20.90625 20.125 20.90625 31.390625 
Q 20.90625 42.671875 17.703125 53.65625 
Q 14.5 64.65625 8.015625 75.875 
z
" id="DejaVuSans-41"/>
     </defs>
     <use xlink:href="#DejaVuSans-73"/>
     <use x="29.492188" xlink:href="#DejaVuSans-95"/>
     <use x="79.492188" xlink:href="#DejaVuSans-98"/>
     <use x="142.96875" xlink:href="#DejaVuSans-32"/>
     <use x="174.755859" xlink:href="#DejaVuSans-40"/>
     <use x="213.769531" xlink:href="#DejaVuSans-115"/>
     <use x="265.869141" xlink:href="#DejaVuSans-101"/>
     <use x="327.392578" xlink:href="#DejaVuSans-116"/>
     <use x="366.601562" xlink:href="#DejaVuSans-65"/>
     <use x="435.009766" xlink:href="#DejaVuSans-95"/>
     <use x="485.009766" xlink:href="#DejaVuSans-50"/>
     <use x="548.632812" xlink:href="#DejaVuSans-49"/>
     <use x="612.255859" xlink:href="#DejaVuSans-41"/>
    </g>
   </g>
   <g id="legend_1">
    <g id="patch_7">
     <path d="M 888.814063 220.556708 
L 1025.689063 220.556708 
Q 1030.689063 220.556708 1030.689063 215.556708 
L 1030.689063 71.275458 
Q 1030.689063 66.275458 1025.689063 66.275458 
L 888.814063 66.275458 
Q 883.814063 66.275458 883.814063 71.275458 
L 883.814063 215.556708 
Q 883.814063 220.556708 888.814063 220.556708 
z
" style="fill:#ffffff;opacity:0.8;stroke:#cccccc;stroke-linejoin:miter;"/>
    </g>
    <g id="text_10">
     <!-- Replicate -->
     <g style="fill:#262626;" transform="translate(899.43125 95.271551)scale(0.25 -0.25)">
      <defs>
       <path d="M 44.390625 34.1875 
Q 47.5625 33.109375 50.5625 29.59375 
Q 53.5625 26.078125 56.59375 19.921875 
L 66.609375 0 
L 56 0 
L 46.6875 18.703125 
Q 43.0625 26.03125 39.671875 28.421875 
Q 36.28125 30.8125 30.421875 30.8125 
L 19.671875 30.8125 
L 19.671875 0 
L 9.8125 0 
L 9.8125 72.90625 
L 32.078125 72.90625 
Q 44.578125 72.90625 50.734375 67.671875 
Q 56.890625 62.453125 56.890625 51.90625 
Q 56.890625 45.015625 53.6875 40.46875 
Q 50.484375 35.9375 44.390625 34.1875 
z
M 19.671875 64.796875 
L 19.671875 38.921875 
L 32.078125 38.921875 
Q 39.203125 38.921875 42.84375 42.21875 
Q 46.484375 45.515625 46.484375 51.90625 
Q 46.484375 58.296875 42.84375 61.546875 
Q 39.203125 64.796875 32.078125 64.796875 
z
" id="DejaVuSans-82"/>
       <path d="M 18.109375 8.203125 
L 18.109375 -20.796875 
L 9.078125 -20.796875 
L 9.078125 54.6875 
L 18.109375 54.6875 
L 18.109375 46.390625 
Q 20.953125 51.265625 25.265625 53.625 
Q 29.59375 56 35.59375 56 
Q 45.5625 56 51.78125 48.09375 
Q 58.015625 40.1875 58.015625 27.296875 
Q 58.015625 14.40625 51.78125 6.484375 
Q 45.5625 -1.421875 35.59375 -1.421875 
Q 29.59375 -1.421875 25.265625 0.953125 
Q 20.953125 3.328125 18.109375 8.203125 
z
M 48.6875 27.296875 
Q 48.6875 37.203125 44.609375 42.84375 
Q 40.53125 48.484375 33.40625 48.484375 
Q 26.265625 48.484375 22.1875 42.84375 
Q 18.109375 37.203125 18.109375 27.296875 
Q 18.109375 17.390625 22.1875 11.75 
Q 26.265625 6.109375 33.40625 6.109375 
Q 40.53125 6.109375 44.609375 11.75 
Q 48.6875 17.390625 48.6875 27.296875 
z
" id="DejaVuSans-112"/>
       <path d="M 9.421875 75.984375 
L 18.40625 75.984375 
L 18.40625 0 
L 9.421875 0 
z
" id="DejaVuSans-108"/>
       <path d="M 9.421875 54.6875 
L 18.40625 54.6875 
L 18.40625 0 
L 9.421875 0 
z
M 9.421875 75.984375 
L 18.40625 75.984375 
L 18.40625 64.59375 
L 9.421875 64.59375 
z
" id="DejaVuSans-105"/>
       <path d="M 48.78125 52.59375 
L 48.78125 44.1875 
Q 44.96875 46.296875 41.140625 47.34375 
Q 37.3125 48.390625 33.40625 48.390625 
Q 24.65625 48.390625 19.8125 42.84375 
Q 14.984375 37.3125 14.984375 27.296875 
Q 14.984375 17.28125 19.8125 11.734375 
Q 24.65625 6.203125 33.40625 6.203125 
Q 37.3125 6.203125 41.140625 7.25 
Q 44.96875 8.296875 48.78125 10.40625 
L 48.78125 2.09375 
Q 45.015625 0.34375 40.984375 -0.53125 
Q 36.96875 -1.421875 32.421875 -1.421875 
Q 20.0625 -1.421875 12.78125 6.34375 
Q 5.515625 14.109375 5.515625 27.296875 
Q 5.515625 40.671875 12.859375 48.328125 
Q 20.21875 56 33.015625 56 
Q 37.15625 56 41.109375 55.140625 
Q 45.0625 54.296875 48.78125 52.59375 
z
" id="DejaVuSans-99"/>
       <path d="M 34.28125 27.484375 
Q 23.390625 27.484375 19.1875 25 
Q 14.984375 22.515625 14.984375 16.5 
Q 14.984375 11.71875 18.140625 8.90625 
Q 21.296875 6.109375 26.703125 6.109375 
Q 34.1875 6.109375 38.703125 11.40625 
Q 43.21875 16.703125 43.21875 25.484375 
L 43.21875 27.484375 
z
M 52.203125 31.203125 
L 52.203125 0 
L 43.21875 0 
L 43.21875 8.296875 
Q 40.140625 3.328125 35.546875 0.953125 
Q 30.953125 -1.421875 24.3125 -1.421875 
Q 15.921875 -1.421875 10.953125 3.296875 
Q 6 8.015625 6 15.921875 
Q 6 25.140625 12.171875 29.828125 
Q 18.359375 34.515625 30.609375 34.515625 
L 43.21875 34.515625 
L 43.21875 35.40625 
Q 43.21875 41.609375 39.140625 45 
Q 35.0625 48.390625 27.6875 48.390625 
Q 23 48.390625 18.546875 47.265625 
Q 14.109375 46.140625 10.015625 43.890625 
L 10.015625 52.203125 
Q 14.9375 54.109375 19.578125 55.046875 
Q 24.21875 56 28.609375 56 
Q 40.484375 56 46.34375 49.84375 
Q 52.203125 43.703125 52.203125 31.203125 
z
" id="DejaVuSans-97"/>
      </defs>
      <use xlink:href="#DejaVuSans-82"/>
      <use x="64.982422" xlink:href="#DejaVuSans-101"/>
      <use x="126.505859" xlink:href="#DejaVuSans-112"/>
      <use x="189.982422" xlink:href="#DejaVuSans-108"/>
      <use x="217.765625" xlink:href="#DejaVuSans-105"/>
      <use x="245.548828" xlink:href="#DejaVuSans-99"/>
      <use x="300.529297" xlink:href="#DejaVuSans-97"/>
      <use x="361.808594" xlink:href="#DejaVuSans-116"/>
      <use x="401.017578" xlink:href="#DejaVuSans-101"/>
     </g>
    </g>
    <g id="line2d_19">
     <path d="M 893.814063 123.216864 
L 943.814063 123.216864 
" style="fill:none;stroke:#1b9e77;stroke-linecap:round;stroke-width:5;"/>
    </g>
    <g id="line2d_20"/>
    <g id="text_11">
     <!-- rep1 -->
     <g style="fill:#262626;" transform="translate(963.814063 131.966864)scale(0.25 -0.25)">
      <defs>
       <path d="M 41.109375 46.296875 
Q 39.59375 47.171875 37.8125 47.578125 
Q 36.03125 48 33.890625 48 
Q 26.265625 48 22.1875 43.046875 
Q 18.109375 38.09375 18.109375 28.8125 
L 18.109375 0 
L 9.078125 0 
L 9.078125 54.6875 
L 18.109375 54.6875 
L 18.109375 46.1875 
Q 20.953125 51.171875 25.484375 53.578125 
Q 30.03125 56 36.53125 56 
Q 37.453125 56 38.578125 55.875 
Q 39.703125 55.765625 41.0625 55.515625 
z
" id="DejaVuSans-114"/>
      </defs>
      <use xlink:href="#DejaVuSans-114"/>
      <use x="38.863281" xlink:href="#DejaVuSans-101"/>
      <use x="100.386719" xlink:href="#DejaVuSans-112"/>
      <use x="163.863281" xlink:href="#DejaVuSans-49"/>
     </g>
    </g>
    <g id="line2d_21">
     <path d="M 893.814063 159.912176 
L 943.814063 159.912176 
" style="fill:none;stroke:#d95f02;stroke-linecap:round;stroke-width:5;"/>
    </g>
    <g id="line2d_22"/>
    <g id="text_12">
     <!-- rep2 -->
     <g style="fill:#262626;" transform="translate(963.814063 168.662176)scale(0.25 -0.25)">
      <use xlink:href="#DejaVuSans-114"/>
      <use x="38.863281" xlink:href="#DejaVuSans-101"/>
      <use x="100.386719" xlink:href="#DejaVuSans-112"/>
      <use x="163.863281" xlink:href="#DejaVuSans-50"/>
     </g>
    </g>
    <g id="line2d_23">
     <path d="M 893.814063 196.607489 
L 943.814063 196.607489 
" style="fill:none;stroke:#7570b3;stroke-linecap:round;stroke-width:5;"/>
    </g>
    <g id="line2d_24"/>
    <g id="text_13">
     <!-- rep3 -->
     <g style="fill:#262626;" transform="translate(963.814063 205.357489)scale(0.25 -0.25)">
      <defs>
       <path d="M 40.578125 39.3125 
Q 47.65625 37.796875 51.625 33 
Q 55.609375 28.21875 55.609375 21.1875 
Q 55.609375 10.40625 48.1875 4.484375 
Q 40.765625 -1.421875 27.09375 -1.421875 
Q 22.515625 -1.421875 17.65625 -0.515625 
Q 12.796875 0.390625 7.625 2.203125 
L 7.625 11.71875 
Q 11.71875 9.328125 16.59375 8.109375 
Q 21.484375 6.890625 26.8125 6.890625 
Q 36.078125 6.890625 40.9375 10.546875 
Q 45.796875 14.203125 45.796875 21.1875 
Q 45.796875 27.640625 41.28125 31.265625 
Q 36.765625 34.90625 28.71875 34.90625 
L 20.21875 34.90625 
L 20.21875 43.015625 
L 29.109375 43.015625 
Q 36.375 43.015625 40.234375 45.921875 
Q 44.09375 48.828125 44.09375 54.296875 
Q 44.09375 59.90625 40.109375 62.90625 
Q 36.140625 65.921875 28.71875 65.921875 
Q 24.65625 65.921875 20.015625 65.03125 
Q 15.375 64.15625 9.8125 62.3125 
L 9.8125 71.09375 
Q 15.4375 72.65625 20.34375 73.4375 
Q 25.25 74.21875 29.59375 74.21875 
Q 40.828125 74.21875 47.359375 69.109375 
Q 53.90625 64.015625 53.90625 55.328125 
Q 53.90625 49.265625 50.4375 45.09375 
Q 46.96875 40.921875 40.578125 39.3125 
z
" id="DejaVuSans-51"/>
      </defs>
      <use xlink:href="#DejaVuSans-114"/>
      <use x="38.863281" xlink:href="#DejaVuSans-101"/>
      <use x="100.386719" xlink:href="#DejaVuSans-112"/>
      <use x="163.863281" xlink:href="#DejaVuSans-51"/>
     </g>
    </g>
   </g>
  </g>
  <g id="axes_2">
   <g id="patch_8">
    <path d="M 90.114063 795.048185 
L 871.314063 795.048185 
L 871.314063 450.270172 
L 90.114063 450.270172 
z
" style="fill:none;"/>
   </g>
   <g id="matplotlib.axis_3">
    <g id="xtick_7">
     <g id="line2d_25">
      <path clip-path="url(#p43bdd96bac)" d="M 125.623153 795.048185 
L 125.623153 450.270172 
" style="fill:none;stroke:#cccccc;stroke-linecap:round;stroke-width:0.8;"/>
     </g>
     <g id="text_14">
      <!-- 0 -->
      <g style="fill:#262626;" transform="translate(117.670028 821.044279)scale(0.25 -0.25)">
       <use xlink:href="#DejaVuSans-48"/>
      </g>
     </g>
    </g>
    <g id="xtick_8">
     <g id="line2d_26">
      <path clip-path="url(#p43bdd96bac)" d="M 273.577699 795.048185 
L 273.577699 450.270172 
" style="fill:none;stroke:#cccccc;stroke-linecap:round;stroke-width:0.8;"/>
     </g>
     <g id="text_15">
      <!-- 20 -->
      <g style="fill:#262626;" transform="translate(257.671449 821.044279)scale(0.25 -0.25)">
       <use xlink:href="#DejaVuSans-50"/>
       <use x="63.623047" xlink:href="#DejaVuSans-48"/>
      </g>
     </g>
    </g>
    <g id="xtick_9">
     <g id="line2d_27">
      <path clip-path="url(#p43bdd96bac)" d="M 421.532244 795.048185 
L 421.532244 450.270172 
" style="fill:none;stroke:#cccccc;stroke-linecap:round;stroke-width:0.8;"/>
     </g>
     <g id="text_16">
      <!-- 40 -->
      <g style="fill:#262626;" transform="translate(405.625994 821.044279)scale(0.25 -0.25)">
       <defs>
        <path d="M 37.796875 64.3125 
L 12.890625 25.390625 
L 37.796875 25.390625 
z
M 35.203125 72.90625 
L 47.609375 72.90625 
L 47.609375 25.390625 
L 58.015625 25.390625 
L 58.015625 17.1875 
L 47.609375 17.1875 
L 47.609375 0 
L 37.796875 0 
L 37.796875 17.1875 
L 4.890625 17.1875 
L 4.890625 26.703125 
z
" id="DejaVuSans-52"/>
       </defs>
       <use xlink:href="#DejaVuSans-52"/>
       <use x="63.623047" xlink:href="#DejaVuSans-48"/>
      </g>
     </g>
    </g>
    <g id="xtick_10">
     <g id="line2d_28">
      <path clip-path="url(#p43bdd96bac)" d="M 569.48679 795.048185 
L 569.48679 450.270172 
" style="fill:none;stroke:#cccccc;stroke-linecap:round;stroke-width:0.8;"/>
     </g>
     <g id="text_17">
      <!-- 60 -->
      <g style="fill:#262626;" transform="translate(553.58054 821.044279)scale(0.25 -0.25)">
       <defs>
        <path d="M 33.015625 40.375 
Q 26.375 40.375 22.484375 35.828125 
Q 18.609375 31.296875 18.609375 23.390625 
Q 18.609375 15.53125 22.484375 10.953125 
Q 26.375 6.390625 33.015625 6.390625 
Q 39.65625 6.390625 43.53125 10.953125 
Q 47.40625 15.53125 47.40625 23.390625 
Q 47.40625 31.296875 43.53125 35.828125 
Q 39.65625 40.375 33.015625 40.375 
z
M 52.59375 71.296875 
L 52.59375 62.3125 
Q 48.875 64.0625 45.09375 64.984375 
Q 41.3125 65.921875 37.59375 65.921875 
Q 27.828125 65.921875 22.671875 59.328125 
Q 17.53125 52.734375 16.796875 39.40625 
Q 19.671875 43.65625 24.015625 45.921875 
Q 28.375 48.1875 33.59375 48.1875 
Q 44.578125 48.1875 50.953125 41.515625 
Q 57.328125 34.859375 57.328125 23.390625 
Q 57.328125 12.15625 50.6875 5.359375 
Q 44.046875 -1.421875 33.015625 -1.421875 
Q 20.359375 -1.421875 13.671875 8.265625 
Q 6.984375 17.96875 6.984375 36.375 
Q 6.984375 53.65625 15.1875 63.9375 
Q 23.390625 74.21875 37.203125 74.21875 
Q 40.921875 74.21875 44.703125 73.484375 
Q 48.484375 72.75 52.59375 71.296875 
z
" id="DejaVuSans-54"/>
       </defs>
       <use xlink:href="#DejaVuSans-54"/>
       <use x="63.623047" xlink:href="#DejaVuSans-48"/>
      </g>
     </g>
    </g>
    <g id="xtick_11">
     <g id="line2d_29">
      <path clip-path="url(#p43bdd96bac)" d="M 717.441335 795.048185 
L 717.441335 450.270172 
" style="fill:none;stroke:#cccccc;stroke-linecap:round;stroke-width:0.8;"/>
     </g>
     <g id="text_18">
      <!-- 80 -->
      <g style="fill:#262626;" transform="translate(701.535085 821.044279)scale(0.25 -0.25)">
       <defs>
        <path d="M 31.78125 34.625 
Q 24.75 34.625 20.71875 30.859375 
Q 16.703125 27.09375 16.703125 20.515625 
Q 16.703125 13.921875 20.71875 10.15625 
Q 24.75 6.390625 31.78125 6.390625 
Q 38.8125 6.390625 42.859375 10.171875 
Q 46.921875 13.96875 46.921875 20.515625 
Q 46.921875 27.09375 42.890625 30.859375 
Q 38.875 34.625 31.78125 34.625 
z
M 21.921875 38.8125 
Q 15.578125 40.375 12.03125 44.71875 
Q 8.5 49.078125 8.5 55.328125 
Q 8.5 64.0625 14.71875 69.140625 
Q 20.953125 74.21875 31.78125 74.21875 
Q 42.671875 74.21875 48.875 69.140625 
Q 55.078125 64.0625 55.078125 55.328125 
Q 55.078125 49.078125 51.53125 44.71875 
Q 48 40.375 41.703125 38.8125 
Q 48.828125 37.15625 52.796875 32.3125 
Q 56.78125 27.484375 56.78125 20.515625 
Q 56.78125 9.90625 50.3125 4.234375 
Q 43.84375 -1.421875 31.78125 -1.421875 
Q 19.734375 -1.421875 13.25 4.234375 
Q 6.78125 9.90625 6.78125 20.515625 
Q 6.78125 27.484375 10.78125 32.3125 
Q 14.796875 37.15625 21.921875 38.8125 
z
M 18.3125 54.390625 
Q 18.3125 48.734375 21.84375 45.5625 
Q 25.390625 42.390625 31.78125 42.390625 
Q 38.140625 42.390625 41.71875 45.5625 
Q 45.3125 48.734375 45.3125 54.390625 
Q 45.3125 60.0625 41.71875 63.234375 
Q 38.140625 66.40625 31.78125 66.40625 
Q 25.390625 66.40625 21.84375 63.234375 
Q 18.3125 60.0625 18.3125 54.390625 
z
" id="DejaVuSans-56"/>
       </defs>
       <use xlink:href="#DejaVuSans-56"/>
       <use x="63.623047" xlink:href="#DejaVuSans-48"/>
      </g>
     </g>
    </g>
    <g id="xtick_12">
     <g id="line2d_30">
      <path clip-path="url(#p43bdd96bac)" d="M 865.395881 795.048185 
L 865.395881 450.270172 
" style="fill:none;stroke:#cccccc;stroke-linecap:round;stroke-width:0.8;"/>
     </g>
     <g id="text_19">
      <!-- 100 -->
      <g style="fill:#262626;" transform="translate(841.536506 821.044279)scale(0.25 -0.25)">
       <use xlink:href="#DejaVuSans-49"/>
       <use x="63.623047" xlink:href="#DejaVuSans-48"/>
       <use x="127.246094" xlink:href="#DejaVuSans-48"/>
      </g>
     </g>
    </g>
    <g id="text_20">
     <!-- Time (h) -->
     <g style="fill:#262626;" transform="translate(428.481641 849.239591)scale(0.25 -0.25)">
      <defs>
       <path d="M -0.296875 72.90625 
L 61.375 72.90625 
L 61.375 64.59375 
L 35.5 64.59375 
L 35.5 0 
L 25.59375 0 
L 25.59375 64.59375 
L -0.296875 64.59375 
z
" id="DejaVuSans-84"/>
       <path d="M 52 44.1875 
Q 55.375 50.25 60.0625 53.125 
Q 64.75 56 71.09375 56 
Q 79.640625 56 84.28125 50.015625 
Q 88.921875 44.046875 88.921875 33.015625 
L 88.921875 0 
L 79.890625 0 
L 79.890625 32.71875 
Q 79.890625 40.578125 77.09375 44.375 
Q 74.3125 48.1875 68.609375 48.1875 
Q 61.625 48.1875 57.5625 43.546875 
Q 53.515625 38.921875 53.515625 30.90625 
L 53.515625 0 
L 44.484375 0 
L 44.484375 32.71875 
Q 44.484375 40.625 41.703125 44.40625 
Q 38.921875 48.1875 33.109375 48.1875 
Q 26.21875 48.1875 22.15625 43.53125 
Q 18.109375 38.875 18.109375 30.90625 
L 18.109375 0 
L 9.078125 0 
L 9.078125 54.6875 
L 18.109375 54.6875 
L 18.109375 46.1875 
Q 21.1875 51.21875 25.484375 53.609375 
Q 29.78125 56 35.6875 56 
Q 41.65625 56 45.828125 52.96875 
Q 50 49.953125 52 44.1875 
z
" id="DejaVuSans-109"/>
       <path d="M 54.890625 33.015625 
L 54.890625 0 
L 45.90625 0 
L 45.90625 32.71875 
Q 45.90625 40.484375 42.875 44.328125 
Q 39.84375 48.1875 33.796875 48.1875 
Q 26.515625 48.1875 22.3125 43.546875 
Q 18.109375 38.921875 18.109375 30.90625 
L 18.109375 0 
L 9.078125 0 
L 9.078125 75.984375 
L 18.109375 75.984375 
L 18.109375 46.1875 
Q 21.34375 51.125 25.703125 53.5625 
Q 30.078125 56 35.796875 56 
Q 45.21875 56 50.046875 50.171875 
Q 54.890625 44.34375 54.890625 33.015625 
z
" id="DejaVuSans-104"/>
      </defs>
      <use xlink:href="#DejaVuSans-84"/>
      <use x="57.958984" xlink:href="#DejaVuSans-105"/>
      <use x="85.742188" xlink:href="#DejaVuSans-109"/>
      <use x="183.154297" xlink:href="#DejaVuSans-101"/>
      <use x="244.677734" xlink:href="#DejaVuSans-32"/>
      <use x="276.464844" xlink:href="#DejaVuSans-40"/>
      <use x="315.478516" xlink:href="#DejaVuSans-104"/>
      <use x="378.857422" xlink:href="#DejaVuSans-41"/>
     </g>
    </g>
   </g>
   <g id="matplotlib.axis_4">
    <g id="ytick_7">
     <g id="line2d_31">
      <path clip-path="url(#p43bdd96bac)" d="M 90.114063 779.383881 
L 871.314063 779.383881 
" style="fill:none;stroke:#cccccc;stroke-linecap:round;stroke-width:0.8;"/>
     </g>
     <g id="text_21">
      <!-- 0 -->
      <g style="fill:#262626;" transform="translate(67.207813 788.881928)scale(0.25 -0.25)">
       <use xlink:href="#DejaVuSans-48"/>
      </g>
     </g>
    </g>
    <g id="ytick_8">
     <g id="line2d_32">
      <path clip-path="url(#p43bdd96bac)" d="M 90.114063 705.139143 
L 871.314063 705.139143 
" style="fill:none;stroke:#cccccc;stroke-linecap:round;stroke-width:0.8;"/>
     </g>
     <g id="text_22">
      <!-- 10 -->
      <g style="fill:#262626;" transform="translate(51.301563 714.63719)scale(0.25 -0.25)">
       <use xlink:href="#DejaVuSans-49"/>
       <use x="63.623047" xlink:href="#DejaVuSans-48"/>
      </g>
     </g>
    </g>
    <g id="ytick_9">
     <g id="line2d_33">
      <path clip-path="url(#p43bdd96bac)" d="M 90.114063 630.894405 
L 871.314063 630.894405 
" style="fill:none;stroke:#cccccc;stroke-linecap:round;stroke-width:0.8;"/>
     </g>
     <g id="text_23">
      <!-- 20 -->
      <g style="fill:#262626;" transform="translate(51.301563 640.392452)scale(0.25 -0.25)">
       <use xlink:href="#DejaVuSans-50"/>
       <use x="63.623047" xlink:href="#DejaVuSans-48"/>
      </g>
     </g>
    </g>
    <g id="ytick_10">
     <g id="line2d_34">
      <path clip-path="url(#p43bdd96bac)" d="M 90.114063 556.649667 
L 871.314063 556.649667 
" style="fill:none;stroke:#cccccc;stroke-linecap:round;stroke-width:0.8;"/>
     </g>
     <g id="text_24">
      <!-- 30 -->
      <g style="fill:#262626;" transform="translate(51.301563 566.147713)scale(0.25 -0.25)">
       <use xlink:href="#DejaVuSans-51"/>
       <use x="63.623047" xlink:href="#DejaVuSans-48"/>
      </g>
     </g>
    </g>
    <g id="ytick_11">
     <g id="line2d_35">
      <path clip-path="url(#p43bdd96bac)" d="M 90.114063 482.404928 
L 871.314063 482.404928 
" style="fill:none;stroke:#cccccc;stroke-linecap:round;stroke-width:0.8;"/>
     </g>
     <g id="text_25">
      <!-- 40 -->
      <g style="fill:#262626;" transform="translate(51.301563 491.902975)scale(0.25 -0.25)">
       <use xlink:href="#DejaVuSans-52"/>
       <use x="63.623047" xlink:href="#DejaVuSans-48"/>
      </g>
     </g>
    </g>
    <g id="text_26">
     <!-- OD -->
     <g style="fill:#262626;" transform="translate(42.102344 642.124022)rotate(-90)scale(0.25 -0.25)">
      <use xlink:href="#DejaVuSans-79"/>
      <use x="78.710938" xlink:href="#DejaVuSans-68"/>
     </g>
    </g>
   </g>
   <g id="PolyCollection_2">
    <defs>
     <path d="M 715.133244 -1136.124414 
L 715.133244 -1136.124414 
L 715.133244 -1136.124414 
L 715.133244 -1136.124414 
z
" id="m4298f2b5cf" style="stroke:#1b9e77;stroke-opacity:0.2;"/>
    </defs>
    <g clip-path="url(#p43bdd96bac)">
     <use style="fill:#1b9e77;fill-opacity:0.2;stroke:#1b9e77;stroke-opacity:0.2;" x="0" xlink:href="#m4298f2b5cf" y="1751.166083"/>
    </g>
   </g>
   <g id="line2d_36">
    <path clip-path="url(#p43bdd96bac)" d="M 125.623153 779.376457 
L 133.063196 779.244408 
L 135.735551 778.983941 
L 137.334126 778.632918 
L 138.577092 778.158383 
L 139.642438 777.519581 
L 140.53024 776.740249 
L 141.420334 775.63274 
L 142.132218 774.421868 
L 142.843879 772.821582 
L 143.555688 770.705934 
L 144.267498 767.91099 
L 144.979381 764.22021 
L 145.690968 759.351983 
L 146.40226 752.938277 
L 147.113551 744.496353 
L 147.824695 733.410352 
L 148.535616 718.894837 
L 149.246168 699.973194 
L 149.956646 675.457582 
L 150.667049 644.039436 
L 151.554999 593.381508 
L 153.50859 471.474618 
L 153.864199 466.490569 
L 154.117645 465.9419 
L 154.295339 466.191362 
L 154.829529 467.939826 
L 159.376024 484.913658 
L 162.402508 495.140871 
L 165.429066 504.565498 
L 168.391412 513.074687 
L 171.419524 521.096089 
L 174.333933 528.221356 
L 177.363376 535.057812 
L 180.370774 541.312188 
L 183.474268 547.25548 
L 186.686953 552.904762 
L 189.901414 558.087045 
L 193.010087 562.687991 
L 196.230465 567.063976 
L 199.376497 570.986325 
L 202.770352 574.859673 
L 206.177745 578.406345 
L 209.648759 581.699099 
L 213.315813 584.856727 
L 216.907409 587.659466 
L 220.765324 590.382763 
L 224.725327 592.895948 
L 228.697907 595.160412 
L 232.671966 597.194718 
L 237.191977 599.257237 
L 242.077436 601.218783 
L 246.652931 602.835091 
L 251.840217 604.440262 
L 257.250175 605.890262 
L 263.513831 607.323185 
L 269.60438 608.501449 
L 276.558983 609.628484 
L 284.035126 610.624849 
L 292.540293 611.536574 
L 301.883623 612.323568 
L 313.853885 613.07938 
L 329.955039 613.775053 
L 344.199363 614.181914 
L 362.127755 614.513788 
L 381.864891 614.733553 
L 418.163319 614.926589 
L 464.41317 615.009001 
L 835.804972 615.041668 
L 835.804972 615.041668 
" style="fill:none;stroke:#1b9e77;stroke-linecap:round;stroke-width:3;"/>
   </g>
   <g id="line2d_37">
    <path clip-path="url(#p43bdd96bac)" d="M 125.623153 779.376457 
L 133.063566 779.244387 
L 135.737252 778.983676 
L 137.335753 778.632428 
L 138.578867 778.157544 
L 139.644214 777.518304 
L 140.529426 776.741088 
L 141.419225 775.634381 
L 142.1317 774.422848 
L 142.843361 772.822889 
L 143.555244 770.707716 
L 144.267128 767.912847 
L 144.978937 764.222512 
L 145.690598 759.354878 
L 146.40189 752.941766 
L 147.113255 744.500288 
L 147.824473 733.414658 
L 148.535394 718.899366 
L 149.245946 699.977649 
L 149.956498 675.462779 
L 150.666828 644.051315 
L 151.493893 597.287524 
L 153.426476 473.752446 
L 153.781936 467.07339 
L 153.96 466.103011 
L 154.137693 465.952294 
L 154.315683 466.238136 
L 154.854089 468.032632 
L 159.120654 484.012327 
L 162.146991 494.30933 
L 165.174215 503.801519 
L 168.202548 512.552004 
L 171.230882 520.615725 
L 174.260547 528.049108 
L 177.291174 534.901155 
L 180.415752 541.402025 
L 183.450152 547.210933 
L 186.507115 552.601101 
L 189.721797 557.809369 
L 192.923829 562.565487 
L 196.163072 566.976367 
L 199.364956 570.972961 
L 202.763694 574.852249 
L 206.279834 578.50806 
L 209.819647 581.852785 
L 213.22778 584.78471 
L 216.999881 587.728514 
L 220.800833 590.405779 
L 224.580332 592.809081 
L 228.771144 595.200504 
L 233.105473 597.404088 
L 237.86517 599.543079 
L 242.579002 601.406622 
L 247.866898 603.231558 
L 253.430728 604.889443 
L 259.682548 606.476053 
L 265.79381 607.787215 
L 272.689232 609.027844 
L 279.967856 610.108105 
L 288.374633 611.116349 
L 296.995205 611.936753 
L 306.185401 612.623517 
L 318.211147 613.298402 
L 331.453818 613.825539 
L 346.082824 614.224976 
L 364.51944 614.547198 
L 395.966439 614.831556 
L 465.007208 615.009743 
L 835.804972 615.041668 
L 835.804972 615.041668 
" style="fill:none;stroke:#d95f02;stroke-linecap:round;stroke-width:3;"/>
   </g>
   <g id="line2d_38">
    <path clip-path="url(#p43bdd96bac)" d="M 125.623153 779.376457 
L 133.10773 779.241941 
L 135.778162 778.977172 
L 137.377032 778.620126 
L 138.620073 778.137453 
L 139.685419 777.487775 
L 140.57322 776.695205 
L 141.463315 775.568801 
L 142.16203 774.363482 
L 142.873248 772.7454 
L 143.629518 770.450903 
L 144.341031 767.575701 
L 145.052618 763.778974 
L 145.763318 758.77718 
L 146.474314 752.184396 
L 147.168516 743.742695 
L 147.879734 732.420446 
L 148.590581 717.602533 
L 149.30313 698.229928 
L 150.013608 673.210193 
L 150.72416 641.175816 
L 151.514015 596.007545 
L 153.531745 470.918525 
L 153.88765 466.36955 
L 154.065343 465.943385 
L 154.243333 466.085935 
L 154.599311 467.098633 
L 156.55823 474.610716 
L 159.585675 485.649423 
L 162.61216 495.818725 
L 165.638348 505.189154 
L 168.66683 513.831241 
L 171.695681 521.795474 
L 174.726678 529.139764 
L 177.758488 535.908656 
L 180.77543 542.115517 
L 183.821814 547.890272 
L 186.855474 553.187634 
L 190.068602 558.344674 
L 193.284025 563.075549 
L 196.491013 567.40179 
L 199.713611 571.387247 
L 203.089934 575.206396 
L 206.492149 578.718173 
L 210.010508 582.024291 
L 213.513332 585.018581 
L 217.266939 587.926005 
L 221.040519 590.566148 
L 225.006441 593.064483 
L 228.975322 595.310387 
L 233.396203 597.542183 
L 237.67283 599.462152 
L 242.386661 601.334605 
L 247.122686 602.990262 
L 252.159799 604.532326 
L 257.670366 605.994204 
L 263.750558 607.372929 
L 270.789495 608.708592 
L 277.944577 609.828945 
L 286.080598 610.863917 
L 294.95935 611.760051 
L 305.711207 612.592334 
L 317.686648 613.273159 
L 330.846465 613.805493 
L 345.407411 614.210127 
L 369.475177 614.609564 
L 395.913915 614.830813 
L 422.070059 614.938468 
L 835.804972 615.041668 
L 835.804972 615.041668 
" style="fill:none;stroke:#7570b3;stroke-linecap:round;stroke-width:3;"/>
   </g>
   <g id="line2d_39"/>
   <g id="line2d_40"/>
   <g id="line2d_41"/>
   <g id="patch_9">
    <path d="M 90.114063 795.048185 
L 90.114063 450.270172 
" style="fill:none;stroke:#cccccc;stroke-linecap:square;stroke-linejoin:miter;stroke-width:0.8;"/>
   </g>
   <g id="patch_10">
    <path d="M 871.314063 795.048185 
L 871.314063 450.270172 
" style="fill:none;stroke:#cccccc;stroke-linecap:square;stroke-linejoin:miter;stroke-width:0.8;"/>
   </g>
   <g id="patch_11">
    <path d="M 90.114063 795.048185 
L 871.314063 795.048185 
" style="fill:none;stroke:#cccccc;stroke-linecap:square;stroke-linejoin:miter;stroke-width:0.8;"/>
   </g>
   <g id="patch_12">
    <path d="M 90.114063 450.270172 
L 871.314063 450.270172 
" style="fill:none;stroke:#cccccc;stroke-linecap:square;stroke-linejoin:miter;stroke-width:0.8;"/>
   </g>
   <g id="text_27">
    <!-- II_b (setA_24) -->
    <g style="fill:#262626;" transform="translate(378.596875 444.270172)scale(0.3 -0.3)">
     <use xlink:href="#DejaVuSans-73"/>
     <use x="29.492188" xlink:href="#DejaVuSans-73"/>
     <use x="58.984375" xlink:href="#DejaVuSans-95"/>
     <use x="108.984375" xlink:href="#DejaVuSans-98"/>
     <use x="172.460938" xlink:href="#DejaVuSans-32"/>
     <use x="204.248047" xlink:href="#DejaVuSans-40"/>
     <use x="243.261719" xlink:href="#DejaVuSans-115"/>
     <use x="295.361328" xlink:href="#DejaVuSans-101"/>
     <use x="356.884766" xlink:href="#DejaVuSans-116"/>
     <use x="396.09375" xlink:href="#DejaVuSans-65"/>
     <use x="464.501953" xlink:href="#DejaVuSans-95"/>
     <use x="514.501953" xlink:href="#DejaVuSans-50"/>
     <use x="578.125" xlink:href="#DejaVuSans-52"/>
     <use x="641.748047" xlink:href="#DejaVuSans-41"/>
    </g>
   </g>
  </g>
  <g id="axes_3">
   <g id="patch_13">
    <path d="M 90.114063 1288.080743 
L 871.314063 1288.080743 
L 871.314063 943.30273 
L 90.114063 943.30273 
z
" style="fill:none;"/>
   </g>
   <g id="matplotlib.axis_5">
    <g id="xtick_13">
     <g id="line2d_42">
      <path clip-path="url(#p71e6bd650e)" d="M 125.623153 1288.080743 
L 125.623153 943.30273 
" style="fill:none;stroke:#cccccc;stroke-linecap:round;stroke-width:0.8;"/>
     </g>
    </g>
    <g id="xtick_14">
     <g id="line2d_43">
      <path clip-path="url(#p71e6bd650e)" d="M 273.577699 1288.080743 
L 273.577699 943.30273 
" style="fill:none;stroke:#cccccc;stroke-linecap:round;stroke-width:0.8;"/>
     </g>
    </g>
    <g id="xtick_15">
     <g id="line2d_44">
      <path clip-path="url(#p71e6bd650e)" d="M 421.532244 1288.080743 
L 421.532244 943.30273 
" style="fill:none;stroke:#cccccc;stroke-linecap:round;stroke-width:0.8;"/>
     </g>
    </g>
    <g id="xtick_16">
     <g id="line2d_45">
      <path clip-path="url(#p71e6bd650e)" d="M 569.48679 1288.080743 
L 569.48679 943.30273 
" style="fill:none;stroke:#cccccc;stroke-linecap:round;stroke-width:0.8;"/>
     </g>
    </g>
    <g id="xtick_17">
     <g id="line2d_46">
      <path clip-path="url(#p71e6bd650e)" d="M 717.441335 1288.080743 
L 717.441335 943.30273 
" style="fill:none;stroke:#cccccc;stroke-linecap:round;stroke-width:0.8;"/>
     </g>
    </g>
    <g id="xtick_18">
     <g id="line2d_47">
      <path clip-path="url(#p71e6bd650e)" d="M 865.395881 1288.080743 
L 865.395881 943.30273 
" style="fill:none;stroke:#cccccc;stroke-linecap:round;stroke-width:0.8;"/>
     </g>
    </g>
   </g>
   <g id="matplotlib.axis_6">
    <g id="ytick_12">
     <g id="line2d_48">
      <path clip-path="url(#p71e6bd650e)" d="M 90.114063 1272.417531 
L 871.314063 1272.417531 
" style="fill:none;stroke:#cccccc;stroke-linecap:round;stroke-width:0.8;"/>
     </g>
     <g id="text_28">
      <!-- 0 -->
      <g style="fill:#262626;" transform="translate(67.207813 1281.915578)scale(0.25 -0.25)">
       <use xlink:href="#DejaVuSans-48"/>
      </g>
     </g>
    </g>
    <g id="ytick_13">
     <g id="line2d_49">
      <path clip-path="url(#p71e6bd650e)" d="M 90.114063 1187.259676 
L 871.314063 1187.259676 
" style="fill:none;stroke:#cccccc;stroke-linecap:round;stroke-width:0.8;"/>
     </g>
     <g id="text_29">
      <!-- 10 -->
      <g style="fill:#262626;" transform="translate(51.301563 1196.757722)scale(0.25 -0.25)">
       <use xlink:href="#DejaVuSans-49"/>
       <use x="63.623047" xlink:href="#DejaVuSans-48"/>
      </g>
     </g>
    </g>
    <g id="ytick_14">
     <g id="line2d_50">
      <path clip-path="url(#p71e6bd650e)" d="M 90.114063 1102.10182 
L 871.314063 1102.10182 
" style="fill:none;stroke:#cccccc;stroke-linecap:round;stroke-width:0.8;"/>
     </g>
     <g id="text_30">
      <!-- 20 -->
      <g style="fill:#262626;" transform="translate(51.301563 1111.599867)scale(0.25 -0.25)">
       <use xlink:href="#DejaVuSans-50"/>
       <use x="63.623047" xlink:href="#DejaVuSans-48"/>
      </g>
     </g>
    </g>
    <g id="ytick_15">
     <g id="line2d_51">
      <path clip-path="url(#p71e6bd650e)" d="M 90.114063 1016.943965 
L 871.314063 1016.943965 
" style="fill:none;stroke:#cccccc;stroke-linecap:round;stroke-width:0.8;"/>
     </g>
     <g id="text_31">
      <!-- 30 -->
      <g style="fill:#262626;" transform="translate(51.301563 1026.442012)scale(0.25 -0.25)">
       <use xlink:href="#DejaVuSans-51"/>
       <use x="63.623047" xlink:href="#DejaVuSans-48"/>
      </g>
     </g>
    </g>
    <g id="text_32">
     <!-- OD -->
     <g style="fill:#262626;" transform="translate(42.102344 1135.15658)rotate(-90)scale(0.25 -0.25)">
      <use xlink:href="#DejaVuSans-79"/>
      <use x="78.710938" xlink:href="#DejaVuSans-68"/>
     </g>
    </g>
   </g>
   <g id="PolyCollection_3">
    <defs>
     <path d="M 470.716034 -639.971958 
L 470.716034 -639.971958 
L 470.716034 -639.971958 
L 470.716034 -639.971958 
z
" id="mb6397b04d3" style="stroke:#7570b3;stroke-opacity:0.2;"/>
    </defs>
    <g clip-path="url(#p71e6bd650e)">
     <use style="fill:#7570b3;fill-opacity:0.2;stroke:#7570b3;stroke-opacity:0.2;" x="0" xlink:href="#mb6397b04d3" y="1751.166083"/>
    </g>
   </g>
   <g id="line2d_52">
    <path clip-path="url(#p71e6bd650e)" d="M 125.623153 1272.409015 
L 129.444716 1272.279091 
L 130.891393 1272.019735 
L 131.835476 1271.625457 
L 132.564086 1271.06995 
L 133.107286 1270.415061 
L 133.646359 1269.451304 
L 134.184469 1268.027686 
L 134.72258 1265.922797 
L 135.258249 1262.830119 
L 135.792439 1258.289672 
L 136.325445 1251.637396 
L 136.858452 1241.902406 
L 137.39168 1227.705143 
L 137.924686 1207.161577 
L 138.457544 1177.763723 
L 138.990329 1136.54647 
L 139.700659 1059.681286 
L 140.411062 976.161016 
L 140.766449 960.201583 
L 140.945474 958.996599 
L 141.124721 959.165212 
L 141.66039 961.141726 
L 144.792958 973.32526 
L 147.828763 984.192254 
L 150.856431 994.177012 
L 153.912728 1003.462625 
L 156.874334 1011.757 
L 159.917759 1019.61707 
L 162.954305 1026.840159 
L 165.999801 1033.51398 
L 169.043744 1039.657268 
L 172.05595 1045.258952 
L 175.105146 1050.484238 
L 178.166029 1055.312688 
L 181.227949 1059.759631 
L 184.466156 1064.078838 
L 187.848249 1068.203884 
L 191.203636 1071.939759 
L 194.644467 1075.434638 
L 198.199592 1078.720028 
L 202.010606 1081.907486 
L 205.648808 1084.658937 
L 209.630265 1087.374621 
L 213.767814 1089.902957 
L 217.795136 1092.106843 
L 221.975592 1094.154038 
L 226.535551 1096.138216 
L 231.51792 1098.043197 
L 236.810994 1099.804261 
L 242.653719 1101.47591 
L 248.586697 1102.923594 
L 255.197306 1104.284416 
L 262.589855 1105.543049 
L 269.599201 1106.525771 
L 278.779781 1107.559587 
L 289.714361 1108.497175 
L 300.289413 1109.175032 
L 312.652494 1109.755808 
L 327.709089 1110.245466 
L 351.546045 1110.707022 
L 376.609545 1110.957386 
L 444.822509 1111.173687 
L 835.804972 1111.214562 
L 835.804972 1111.214562 
" style="fill:none;stroke:#1b9e77;stroke-linecap:round;stroke-width:3;"/>
   </g>
   <g id="line2d_53">
    <path clip-path="url(#p71e6bd650e)" d="M 125.623153 1272.409015 
L 129.372595 1272.286189 
L 130.80191 1272.044875 
L 131.712785 1271.693268 
L 132.446906 1271.180323 
L 132.993694 1270.574212 
L 133.532655 1269.687089 
L 134.07158 1268.374176 
L 134.606658 1266.448136 
L 135.141291 1263.610931 
L 135.675629 1259.436664 
L 136.209227 1253.312366 
L 136.742529 1244.343796 
L 137.275314 1231.270618 
L 137.80832 1212.304516 
L 138.341252 1185.081338 
L 138.874036 1146.699841 
L 139.584366 1073.888171 
L 140.472241 971.548867 
L 140.649861 962.772498 
L 140.827406 959.525429 
L 141.01738 958.977013 
L 141.376466 960.015939 
L 145.8424 977.182911 
L 148.876504 987.73993 
L 151.806373 997.145615 
L 154.768054 1005.926242 
L 157.790765 1014.191663 
L 160.832858 1021.856722 
L 163.876727 1028.920566 
L 166.979482 1035.546698 
L 169.930361 1041.353613 
L 172.984587 1046.896537 
L 176.219391 1052.287881 
L 179.272877 1056.963047 
L 182.511306 1061.516438 
L 185.576037 1065.474575 
L 189.006437 1069.532347 
L 192.434618 1073.227346 
L 195.697977 1076.441204 
L 199.136737 1079.534137 
L 202.795505 1082.524029 
L 206.439625 1085.22183 
L 210.357461 1087.839583 
L 214.207978 1090.155876 
L 218.233822 1092.333363 
L 222.500091 1094.395034 
L 227.108875 1096.370697 
L 232.180017 1098.277381 
L 237.072874 1099.885161 
L 243.057635 1101.582357 
L 248.971378 1103.009603 
L 255.585686 1104.3568 
L 262.886503 1105.589034 
L 271.019565 1106.702899 
L 280.348099 1107.711168 
L 289.405136 1108.474183 
L 299.77601 1109.146078 
L 312.039223 1109.731964 
L 326.754042 1110.219919 
L 351.875984 1110.711279 
L 376.667248 1110.957386 
L 401.286144 1111.082568 
L 443.026341 1111.171983 
L 835.804972 1111.214562 
L 835.804972 1111.214562 
" style="fill:none;stroke:#d95f02;stroke-linecap:round;stroke-width:3;"/>
   </g>
   <g id="line2d_54">
    <path clip-path="url(#p71e6bd650e)" d="M 125.623153 1272.409015 
L 129.429107 1272.28066 
L 130.886074 1272.021275 
L 131.83282 1271.62699 
L 132.562532 1271.071483 
L 133.10196 1270.422802 
L 133.638813 1269.467561 
L 134.173964 1268.060983 
L 134.709856 1265.98245 
L 135.244711 1262.923793 
L 135.779049 1258.42601 
L 136.312943 1251.824829 
L 136.84595 1242.174911 
L 137.3794 1228.09687 
L 137.912332 1207.725748 
L 138.44519 1178.56591 
L 138.977901 1137.663741 
L 139.68823 1061.225198 
L 140.39856 977.201645 
L 140.640984 963.056074 
L 140.819269 959.59611 
L 141.013681 958.974458 
L 141.371435 959.996352 
L 145.837739 977.165879 
L 148.872139 987.725453 
L 151.898031 997.428339 
L 154.919855 1006.357992 
L 157.870143 1014.4003 
L 160.911792 1022.046624 
L 163.955957 1029.095991 
L 166.9999 1035.588426 
L 169.969273 1041.4277 
L 173.017729 1046.953593 
L 176.066924 1052.04433 
L 179.30306 1057.00733 
L 182.437329 1061.416803 
L 185.495697 1065.37494 
L 188.924248 1069.438673 
L 192.215497 1073.001678 
L 195.65692 1076.402883 
L 199.300596 1079.674647 
L 202.927924 1082.62707 
L 206.626788 1085.352973 
L 210.554981 1087.964765 
L 214.782782 1090.481179 
L 218.820461 1092.630564 
L 223.248741 1094.733111 
L 228.060223 1096.748797 
L 233.140982 1098.610348 
L 238.757336 1100.390147 
L 244.143622 1101.861675 
L 250.131342 1103.263373 
L 256.591777 1104.541593 
L 263.94068 1105.747428 
L 271.109817 1106.71397 
L 280.262285 1107.703504 
L 291.264185 1108.609584 
L 304.759859 1109.408364 
L 320.923893 1110.049603 
L 343.042358 1110.575027 
L 362.178799 1110.833907 
L 398.625922 1111.0732 
L 455.728978 1111.183906 
L 481.979814 1111.199234 
L 835.804972 1111.214562 
L 835.804972 1111.214562 
" style="fill:none;stroke:#7570b3;stroke-linecap:round;stroke-width:3;"/>
   </g>
   <g id="line2d_55"/>
   <g id="line2d_56"/>
   <g id="line2d_57"/>
   <g id="patch_14">
    <path d="M 90.114063 1288.080743 
L 90.114063 943.30273 
" style="fill:none;stroke:#cccccc;stroke-linecap:square;stroke-linejoin:miter;stroke-width:0.8;"/>
   </g>
   <g id="patch_15">
    <path d="M 871.314063 1288.080743 
L 871.314063 943.30273 
" style="fill:none;stroke:#cccccc;stroke-linecap:square;stroke-linejoin:miter;stroke-width:0.8;"/>
   </g>
   <g id="patch_16">
    <path d="M 90.114063 1288.080743 
L 871.314063 1288.080743 
" style="fill:none;stroke:#cccccc;stroke-linecap:square;stroke-linejoin:miter;stroke-width:0.8;"/>
   </g>
   <g id="patch_17">
    <path d="M 90.114063 943.30273 
L 871.314063 943.30273 
" style="fill:none;stroke:#cccccc;stroke-linecap:square;stroke-linejoin:miter;stroke-width:0.8;"/>
   </g>
   <g id="text_33">
    <!-- high_fat -->
    <g style="fill:#262626;" transform="translate(32.987109 915.37571)scale(0.25 -0.25)">
     <defs>
      <path d="M 63.375 33.296875 
L 63.375 0 
L 45.796875 0 
L 45.796875 5.421875 
L 45.796875 25.390625 
Q 45.796875 32.5625 45.484375 35.25 
Q 45.171875 37.9375 44.390625 39.203125 
Q 43.359375 40.921875 41.59375 41.875 
Q 39.84375 42.828125 37.59375 42.828125 
Q 32.125 42.828125 29 38.59375 
Q 25.875 34.375 25.875 26.90625 
L 25.875 0 
L 8.40625 0 
L 8.40625 75.984375 
L 25.875 75.984375 
L 25.875 46.6875 
Q 29.828125 51.46875 34.265625 53.734375 
Q 38.71875 56 44.09375 56 
Q 53.5625 56 58.46875 50.1875 
Q 63.375 44.390625 63.375 33.296875 
z
" id="DejaVuSans-Bold-104"/>
      <path d="M 8.40625 54.6875 
L 25.875 54.6875 
L 25.875 0 
L 8.40625 0 
z
M 8.40625 75.984375 
L 25.875 75.984375 
L 25.875 61.71875 
L 8.40625 61.71875 
z
" id="DejaVuSans-Bold-105"/>
      <path d="M 44.390625 75.984375 
L 44.390625 64.5 
L 34.71875 64.5 
Q 31 64.5 29.53125 63.15625 
Q 28.078125 61.8125 28.078125 58.5 
L 28.078125 54.6875 
L 43.015625 54.6875 
L 43.015625 42.1875 
L 28.078125 42.1875 
L 28.078125 0 
L 10.59375 0 
L 10.59375 42.1875 
L 1.90625 42.1875 
L 1.90625 54.6875 
L 10.59375 54.6875 
L 10.59375 58.5 
Q 10.59375 67.4375 15.578125 71.703125 
Q 20.5625 75.984375 31 75.984375 
z
" id="DejaVuSans-Bold-102"/>
      <path d="M 27.484375 70.21875 
L 27.484375 54.6875 
L 45.515625 54.6875 
L 45.515625 42.1875 
L 27.484375 42.1875 
L 27.484375 19 
Q 27.484375 15.1875 29 13.84375 
Q 30.515625 12.5 35.015625 12.5 
L 44 12.5 
L 44 0 
L 29 0 
Q 18.65625 0 14.328125 4.3125 
Q 10.015625 8.640625 10.015625 19 
L 10.015625 42.1875 
L 1.3125 42.1875 
L 1.3125 54.6875 
L 10.015625 54.6875 
L 10.015625 70.21875 
z
" id="DejaVuSans-Bold-116"/>
     </defs>
     <use xlink:href="#DejaVuSans-Bold-104"/>
     <use x="71.191406" xlink:href="#DejaVuSans-Bold-105"/>
     <use x="105.46875" xlink:href="#DejaVuSans-Bold-103"/>
     <use x="177.050781" xlink:href="#DejaVuSans-Bold-104"/>
     <use x="248.242188" xlink:href="#DejaVuSans-Bold-95"/>
     <use x="298.242188" xlink:href="#DejaVuSans-Bold-102"/>
     <use x="341.748047" xlink:href="#DejaVuSans-Bold-97"/>
     <use x="409.228516" xlink:href="#DejaVuSans-Bold-116"/>
    </g>
   </g>
   <g id="text_34">
    <!-- I_b (setA_21) -->
    <g style="fill:#262626;" transform="translate(383.021875 937.30273)scale(0.3 -0.3)">
     <use xlink:href="#DejaVuSans-73"/>
     <use x="29.492188" xlink:href="#DejaVuSans-95"/>
     <use x="79.492188" xlink:href="#DejaVuSans-98"/>
     <use x="142.96875" xlink:href="#DejaVuSans-32"/>
     <use x="174.755859" xlink:href="#DejaVuSans-40"/>
     <use x="213.769531" xlink:href="#DejaVuSans-115"/>
     <use x="265.869141" xlink:href="#DejaVuSans-101"/>
     <use x="327.392578" xlink:href="#DejaVuSans-116"/>
     <use x="366.601562" xlink:href="#DejaVuSans-65"/>
     <use x="435.009766" xlink:href="#DejaVuSans-95"/>
     <use x="485.009766" xlink:href="#DejaVuSans-50"/>
     <use x="548.632812" xlink:href="#DejaVuSans-49"/>
     <use x="612.255859" xlink:href="#DejaVuSans-41"/>
    </g>
   </g>
   <g id="legend_2">
    <g id="patch_18">
     <path d="M 888.814063 1110.08398 
L 1025.689063 1110.08398 
Q 1030.689063 1110.08398 1030.689063 1105.08398 
L 1030.689063 960.80273 
Q 1030.689063 955.80273 1025.689063 955.80273 
L 888.814063 955.80273 
Q 883.814063 955.80273 883.814063 960.80273 
L 883.814063 1105.08398 
Q 883.814063 1110.08398 888.814063 1110.08398 
z
" style="fill:#ffffff;opacity:0.8;stroke:#cccccc;stroke-linejoin:miter;"/>
    </g>
    <g id="text_35">
     <!-- Replicate -->
     <g style="fill:#262626;" transform="translate(899.43125 984.798824)scale(0.25 -0.25)">
      <use xlink:href="#DejaVuSans-82"/>
      <use x="64.982422" xlink:href="#DejaVuSans-101"/>
      <use x="126.505859" xlink:href="#DejaVuSans-112"/>
      <use x="189.982422" xlink:href="#DejaVuSans-108"/>
      <use x="217.765625" xlink:href="#DejaVuSans-105"/>
      <use x="245.548828" xlink:href="#DejaVuSans-99"/>
      <use x="300.529297" xlink:href="#DejaVuSans-97"/>
      <use x="361.808594" xlink:href="#DejaVuSans-116"/>
      <use x="401.017578" xlink:href="#DejaVuSans-101"/>
     </g>
    </g>
    <g id="line2d_58">
     <path d="M 893.814063 1012.744136 
L 943.814063 1012.744136 
" style="fill:none;stroke:#1b9e77;stroke-linecap:round;stroke-width:5;"/>
    </g>
    <g id="line2d_59"/>
    <g id="text_36">
     <!-- rep1 -->
     <g style="fill:#262626;" transform="translate(963.814063 1021.494136)scale(0.25 -0.25)">
      <use xlink:href="#DejaVuSans-114"/>
      <use x="38.863281" xlink:href="#DejaVuSans-101"/>
      <use x="100.386719" xlink:href="#DejaVuSans-112"/>
      <use x="163.863281" xlink:href="#DejaVuSans-49"/>
     </g>
    </g>
    <g id="line2d_60">
     <path d="M 893.814063 1049.439449 
L 943.814063 1049.439449 
" style="fill:none;stroke:#d95f02;stroke-linecap:round;stroke-width:5;"/>
    </g>
    <g id="line2d_61"/>
    <g id="text_37">
     <!-- rep2 -->
     <g style="fill:#262626;" transform="translate(963.814063 1058.189449)scale(0.25 -0.25)">
      <use xlink:href="#DejaVuSans-114"/>
      <use x="38.863281" xlink:href="#DejaVuSans-101"/>
      <use x="100.386719" xlink:href="#DejaVuSans-112"/>
      <use x="163.863281" xlink:href="#DejaVuSans-50"/>
     </g>
    </g>
    <g id="line2d_62">
     <path d="M 893.814063 1086.134761 
L 943.814063 1086.134761 
" style="fill:none;stroke:#7570b3;stroke-linecap:round;stroke-width:5;"/>
    </g>
    <g id="line2d_63"/>
    <g id="text_38">
     <!-- rep3 -->
     <g style="fill:#262626;" transform="translate(963.814063 1094.884761)scale(0.25 -0.25)">
      <use xlink:href="#DejaVuSans-114"/>
      <use x="38.863281" xlink:href="#DejaVuSans-101"/>
      <use x="100.386719" xlink:href="#DejaVuSans-112"/>
      <use x="163.863281" xlink:href="#DejaVuSans-51"/>
     </g>
    </g>
   </g>
  </g>
  <g id="axes_4">
   <g id="patch_19">
    <path d="M 90.114063 1684.575458 
L 871.314063 1684.575458 
L 871.314063 1339.797445 
L 90.114063 1339.797445 
z
" style="fill:none;"/>
   </g>
   <g id="matplotlib.axis_7">
    <g id="xtick_19">
     <g id="line2d_64">
      <path clip-path="url(#pd135ac31c3)" d="M 125.623153 1684.575458 
L 125.623153 1339.797445 
" style="fill:none;stroke:#cccccc;stroke-linecap:round;stroke-width:0.8;"/>
     </g>
     <g id="text_39">
      <!-- 0 -->
      <g style="fill:#262626;" transform="translate(117.670028 1710.571551)scale(0.25 -0.25)">
       <use xlink:href="#DejaVuSans-48"/>
      </g>
     </g>
    </g>
    <g id="xtick_20">
     <g id="line2d_65">
      <path clip-path="url(#pd135ac31c3)" d="M 273.577699 1684.575458 
L 273.577699 1339.797445 
" style="fill:none;stroke:#cccccc;stroke-linecap:round;stroke-width:0.8;"/>
     </g>
     <g id="text_40">
      <!-- 20 -->
      <g style="fill:#262626;" transform="translate(257.671449 1710.571551)scale(0.25 -0.25)">
       <use xlink:href="#DejaVuSans-50"/>
       <use x="63.623047" xlink:href="#DejaVuSans-48"/>
      </g>
     </g>
    </g>
    <g id="xtick_21">
     <g id="line2d_66">
      <path clip-path="url(#pd135ac31c3)" d="M 421.532244 1684.575458 
L 421.532244 1339.797445 
" style="fill:none;stroke:#cccccc;stroke-linecap:round;stroke-width:0.8;"/>
     </g>
     <g id="text_41">
      <!-- 40 -->
      <g style="fill:#262626;" transform="translate(405.625994 1710.571551)scale(0.25 -0.25)">
       <use xlink:href="#DejaVuSans-52"/>
       <use x="63.623047" xlink:href="#DejaVuSans-48"/>
      </g>
     </g>
    </g>
    <g id="xtick_22">
     <g id="line2d_67">
      <path clip-path="url(#pd135ac31c3)" d="M 569.48679 1684.575458 
L 569.48679 1339.797445 
" style="fill:none;stroke:#cccccc;stroke-linecap:round;stroke-width:0.8;"/>
     </g>
     <g id="text_42">
      <!-- 60 -->
      <g style="fill:#262626;" transform="translate(553.58054 1710.571551)scale(0.25 -0.25)">
       <use xlink:href="#DejaVuSans-54"/>
       <use x="63.623047" xlink:href="#DejaVuSans-48"/>
      </g>
     </g>
    </g>
    <g id="xtick_23">
     <g id="line2d_68">
      <path clip-path="url(#pd135ac31c3)" d="M 717.441335 1684.575458 
L 717.441335 1339.797445 
" style="fill:none;stroke:#cccccc;stroke-linecap:round;stroke-width:0.8;"/>
     </g>
     <g id="text_43">
      <!-- 80 -->
      <g style="fill:#262626;" transform="translate(701.535085 1710.571551)scale(0.25 -0.25)">
       <use xlink:href="#DejaVuSans-56"/>
       <use x="63.623047" xlink:href="#DejaVuSans-48"/>
      </g>
     </g>
    </g>
    <g id="xtick_24">
     <g id="line2d_69">
      <path clip-path="url(#pd135ac31c3)" d="M 865.395881 1684.575458 
L 865.395881 1339.797445 
" style="fill:none;stroke:#cccccc;stroke-linecap:round;stroke-width:0.8;"/>
     </g>
     <g id="text_44">
      <!-- 100 -->
      <g style="fill:#262626;" transform="translate(841.536506 1710.571551)scale(0.25 -0.25)">
       <use xlink:href="#DejaVuSans-49"/>
       <use x="63.623047" xlink:href="#DejaVuSans-48"/>
       <use x="127.246094" xlink:href="#DejaVuSans-48"/>
      </g>
     </g>
    </g>
    <g id="text_45">
     <!-- Time (h) -->
     <g style="fill:#262626;" transform="translate(428.481641 1738.766864)scale(0.25 -0.25)">
      <use xlink:href="#DejaVuSans-84"/>
      <use x="57.958984" xlink:href="#DejaVuSans-105"/>
      <use x="85.742188" xlink:href="#DejaVuSans-109"/>
      <use x="183.154297" xlink:href="#DejaVuSans-101"/>
      <use x="244.677734" xlink:href="#DejaVuSans-32"/>
      <use x="276.464844" xlink:href="#DejaVuSans-40"/>
      <use x="315.478516" xlink:href="#DejaVuSans-104"/>
      <use x="378.857422" xlink:href="#DejaVuSans-41"/>
     </g>
    </g>
   </g>
   <g id="matplotlib.axis_8">
    <g id="ytick_16">
     <g id="line2d_70">
      <path clip-path="url(#pd135ac31c3)" d="M 90.114063 1668.920607 
L 871.314063 1668.920607 
" style="fill:none;stroke:#cccccc;stroke-linecap:round;stroke-width:0.8;"/>
     </g>
     <g id="text_46">
      <!-- 0 -->
      <g style="fill:#262626;" transform="translate(67.207813 1678.418654)scale(0.25 -0.25)">
       <use xlink:href="#DejaVuSans-48"/>
      </g>
     </g>
    </g>
    <g id="ytick_17">
     <g id="line2d_71">
      <path clip-path="url(#pd135ac31c3)" d="M 90.114063 1584.532887 
L 871.314063 1584.532887 
" style="fill:none;stroke:#cccccc;stroke-linecap:round;stroke-width:0.8;"/>
     </g>
     <g id="text_47">
      <!-- 5 -->
      <g style="fill:#262626;" transform="translate(67.207813 1594.030934)scale(0.25 -0.25)">
       <use xlink:href="#DejaVuSans-53"/>
      </g>
     </g>
    </g>
    <g id="ytick_18">
     <g id="line2d_72">
      <path clip-path="url(#pd135ac31c3)" d="M 90.114063 1500.145167 
L 871.314063 1500.145167 
" style="fill:none;stroke:#cccccc;stroke-linecap:round;stroke-width:0.8;"/>
     </g>
     <g id="text_48">
      <!-- 10 -->
      <g style="fill:#262626;" transform="translate(51.301563 1509.643214)scale(0.25 -0.25)">
       <use xlink:href="#DejaVuSans-49"/>
       <use x="63.623047" xlink:href="#DejaVuSans-48"/>
      </g>
     </g>
    </g>
    <g id="ytick_19">
     <g id="line2d_73">
      <path clip-path="url(#pd135ac31c3)" d="M 90.114063 1415.757448 
L 871.314063 1415.757448 
" style="fill:none;stroke:#cccccc;stroke-linecap:round;stroke-width:0.8;"/>
     </g>
     <g id="text_49">
      <!-- 15 -->
      <g style="fill:#262626;" transform="translate(51.301563 1425.255494)scale(0.25 -0.25)">
       <use xlink:href="#DejaVuSans-49"/>
       <use x="63.623047" xlink:href="#DejaVuSans-53"/>
      </g>
     </g>
    </g>
    <g id="text_50">
     <!-- OD -->
     <g style="fill:#262626;" transform="translate(42.102344 1531.651295)rotate(-90)scale(0.25 -0.25)">
      <use xlink:href="#DejaVuSans-79"/>
      <use x="78.710938" xlink:href="#DejaVuSans-68"/>
     </g>
    </g>
   </g>
   <g id="PolyCollection_4">
    <defs>
     <path d="M 470.716034 -249.867166 
L 470.716034 -249.867166 
L 470.716034 -249.867166 
L 470.716034 -249.867166 
z
" id="m6a72520467" style="stroke:#7570b3;stroke-opacity:0.2;"/>
    </defs>
    <g clip-path="url(#pd135ac31c3)">
     <use style="fill:#7570b3;fill-opacity:0.2;stroke:#7570b3;stroke-opacity:0.2;" x="0" xlink:href="#m6a72520467" y="1751.166083"/>
    </g>
   </g>
   <g id="line2d_74">
    <path clip-path="url(#pd135ac31c3)" d="M 125.623153 1668.90373 
L 132.564086 1668.755552 
L 135.435869 1668.49666 
L 137.39168 1668.11476 
L 138.812709 1667.635804 
L 140.055897 1666.988854 
L 141.124721 1666.178344 
L 142.062161 1665.19256 
L 143.002412 1663.848956 
L 143.897241 1662.124864 
L 144.792958 1659.815679 
L 145.685124 1656.741991 
L 146.579953 1652.628106 
L 147.473229 1647.156677 
L 148.363027 1639.918067 
L 149.254158 1630.324027 
L 150.14477 1617.691354 
L 151.034643 1601.174483 
L 151.779668 1583.635677 
L 152.668579 1557.379451 
L 153.557046 1524.529843 
L 154.623872 1476.276945 
L 156.696789 1378.999844 
L 157.230239 1364.861526 
L 157.587327 1359.433708 
L 157.946043 1356.586466 
L 158.305647 1355.541746 
L 158.486003 1355.469173 
L 158.666138 1355.604193 
L 159.021673 1356.280983 
L 159.739104 1358.483502 
L 162.597808 1368.900322 
L 165.641381 1379.367775 
L 168.685694 1389.013291 
L 171.697383 1397.809867 
L 174.748279 1406.020792 
L 177.625625 1413.17012 
L 180.68392 1420.184427 
L 183.74399 1426.648527 
L 186.766257 1432.528663 
L 189.941362 1438.211332 
L 193.194882 1443.549699 
L 196.258133 1448.16402 
L 199.287798 1452.368216 
L 202.554339 1456.530218 
L 205.648808 1460.150451 
L 209.258899 1464.005283 
L 212.67147 1467.318344 
L 216.149142 1470.393433 
L 219.608319 1473.178228 
L 223.092649 1475.7318 
L 226.872148 1478.239803 
L 230.959392 1480.678608 
L 234.893503 1482.783238 
L 239.434968 1484.946939 
L 243.552543 1486.692077 
L 248.586697 1488.575611 
L 255.01902 1490.632984 
L 260.266228 1492.064199 
L 265.79307 1493.365458 
L 271.549242 1494.526633 
L 277.778128 1495.594982 
L 286.23743 1496.781473 
L 295.398035 1497.79075 
L 305.839927 1498.671758 
L 317.766543 1499.412682 
L 327.709089 1499.870063 
L 345.331955 1500.429216 
L 364.882668 1500.802379 
L 391.997558 1501.078158 
L 439.141055 1501.259254 
L 530.481533 1501.322039 
L 835.804972 1501.327608 
L 835.804972 1501.327608 
" style="fill:none;stroke:#1b9e77;stroke-linecap:round;stroke-width:3;"/>
   </g>
   <g id="line2d_75">
    <path clip-path="url(#pd135ac31c3)" d="M 125.623153 1668.90373 
L 132.63253 1668.7518 
L 135.49727 1668.488027 
L 137.452933 1668.098391 
L 138.874036 1667.609695 
L 140.117077 1666.949715 
L 141.196923 1666.11269 
L 142.089089 1665.159514 
L 142.981181 1663.884011 
L 143.875936 1662.172037 
L 144.771801 1659.87821 
L 145.664706 1656.822767 
L 146.555097 1652.759177 
L 147.44926 1647.324946 
L 148.34076 1640.124648 
L 149.233444 1630.57854 
L 150.124204 1618.022998 
L 151.013781 1601.613637 
L 151.806373 1582.93509 
L 152.694914 1556.505363 
L 153.584195 1523.416769 
L 154.59036 1477.915754 
L 156.723125 1378.127275 
L 157.256797 1364.351824 
L 157.61285 1359.153541 
L 157.97053 1356.466636 
L 158.329393 1355.518118 
L 158.506939 1355.475924 
L 158.686556 1355.629509 
L 159.046751 1356.343429 
L 159.765292 1358.574641 
L 167.337828 1384.841162 
L 170.28634 1393.777822 
L 173.344191 1402.326298 
L 176.400414 1410.192921 
L 179.272877 1417.019888 
L 182.332577 1423.733775 
L 185.398047 1429.926146 
L 188.640545 1435.941302 
L 191.892068 1441.46701 
L 194.96612 1446.263608 
L 198.04535 1450.685525 
L 201.31374 1454.992674 
L 204.432622 1458.763117 
L 207.72609 1462.41373 
L 211.266642 1465.991769 
L 214.762808 1469.203566 
L 218.602228 1472.39511 
L 221.931945 1474.908176 
L 225.832767 1477.576516 
L 229.92593 1480.087894 
L 234.423008 1482.543577 
L 239.158293 1484.823733 
L 243.966816 1486.855789 
L 248.049622 1488.386583 
L 253.179206 1490.081088 
L 258.393864 1491.576438 
L 263.865963 1492.933393 
L 269.515607 1494.13845 
L 277.103456 1495.486965 
L 283.353795 1496.406791 
L 290.136032 1497.24223 
L 300.016436 1498.212689 
L 311.022035 1499.024499 
L 323.735769 1499.702976 
L 346.383172 1500.454702 
L 366.853423 1500.830058 
L 395.60469 1501.101618 
L 434.504159 1501.249971 
L 530.81665 1501.322207 
L 835.804972 1501.327608 
L 835.804972 1501.327608 
" style="fill:none;stroke:#d95f02;stroke-linecap:round;stroke-width:3;"/>
   </g>
   <g id="line2d_76">
    <path clip-path="url(#pd135ac31c3)" d="M 125.623153 1668.90373 
L 132.562532 1668.755637 
L 135.422923 1668.498463 
L 137.3794 1668.118016 
L 138.800281 1667.641029 
L 140.043321 1666.996787 
L 141.013681 1666.276318 
L 141.906143 1665.378298 
L 142.797791 1664.177393 
L 143.693434 1662.562803 
L 144.588485 1660.403338 
L 145.480503 1657.527202 
L 146.372373 1653.690666 
L 147.267276 1648.560044 
L 148.158702 1641.764808 
L 149.050646 1632.755575 
L 149.940371 1620.901801 
L 150.831057 1605.346443 
L 151.720116 1585.177778 
L 152.609027 1559.337077 
L 153.497864 1526.933712 
L 154.564246 1479.191697 
L 156.696863 1378.996469 
L 157.230387 1364.85815 
L 157.691413 1358.373798 
L 158.049611 1356.134148 
L 158.408845 1355.47086 
L 158.586834 1355.523181 
L 158.947769 1356.105456 
L 159.484253 1357.626123 
L 160.911792 1362.748457 
L 164.313489 1374.905352 
L 167.358468 1384.905297 
L 170.325696 1393.892589 
L 173.373781 1402.405622 
L 176.428377 1410.262119 
L 179.30306 1417.089086 
L 182.25897 1423.578501 
L 185.318078 1429.770872 
L 188.377926 1435.473794 
L 191.630855 1441.041696 
L 194.745298 1445.932808 
L 197.820533 1450.374978 
L 201.114741 1454.742886 
L 204.447417 1458.779995 
L 207.644715 1462.327655 
L 211.284397 1466.008647 
L 214.782782 1469.220444 
L 218.634778 1472.420426 
L 222.141301 1475.058386 
L 226.228545 1477.831367 
L 230.132326 1480.206037 
L 234.053861 1482.352861 
L 238.757336 1484.641456 
L 243.411247 1486.634693 
L 248.425426 1488.518227 
L 253.468457 1490.168851 
L 258.640948 1491.642261 
L 264.303908 1493.034658 
L 271.552201 1494.528321 
L 279.633478 1495.878524 
L 285.995524 1496.751093 
L 295.151691 1497.767121 
L 305.592843 1498.653193 
L 314.436086 1499.230405 
L 327.263006 1499.853186 
L 345.172903 1500.425335 
L 364.841981 1500.801704 
L 391.975365 1501.077989 
L 434.456074 1501.249803 
L 495.448856 1501.313093 
L 835.804972 1501.327608 
L 835.804972 1501.327608 
" style="fill:none;stroke:#7570b3;stroke-linecap:round;stroke-width:3;"/>
   </g>
   <g id="line2d_77"/>
   <g id="line2d_78"/>
   <g id="line2d_79"/>
   <g id="patch_20">
    <path d="M 90.114063 1684.575458 
L 90.114063 1339.797445 
" style="fill:none;stroke:#cccccc;stroke-linecap:square;stroke-linejoin:miter;stroke-width:0.8;"/>
   </g>
   <g id="patch_21">
    <path d="M 871.314063 1684.575458 
L 871.314063 1339.797445 
" style="fill:none;stroke:#cccccc;stroke-linecap:square;stroke-linejoin:miter;stroke-width:0.8;"/>
   </g>
   <g id="patch_22">
    <path d="M 90.114063 1684.575458 
L 871.314063 1684.575458 
" style="fill:none;stroke:#cccccc;stroke-linecap:square;stroke-linejoin:miter;stroke-width:0.8;"/>
   </g>
   <g id="patch_23">
    <path d="M 90.114063 1339.797445 
L 871.314063 1339.797445 
" style="fill:none;stroke:#cccccc;stroke-linecap:square;stroke-linejoin:miter;stroke-width:0.8;"/>
   </g>
   <g id="text_51">
    <!-- II_b (setA_24) -->
    <g style="fill:#262626;" transform="translate(378.596875 1333.797445)scale(0.3 -0.3)">
     <use xlink:href="#DejaVuSans-73"/>
     <use x="29.492188" xlink:href="#DejaVuSans-73"/>
     <use x="58.984375" xlink:href="#DejaVuSans-95"/>
     <use x="108.984375" xlink:href="#DejaVuSans-98"/>
     <use x="172.460938" xlink:href="#DejaVuSans-32"/>
     <use x="204.248047" xlink:href="#DejaVuSans-40"/>
     <use x="243.261719" xlink:href="#DejaVuSans-115"/>
     <use x="295.361328" xlink:href="#DejaVuSans-101"/>
     <use x="356.884766" xlink:href="#DejaVuSans-116"/>
     <use x="396.09375" xlink:href="#DejaVuSans-65"/>
     <use x="464.501953" xlink:href="#DejaVuSans-95"/>
     <use x="514.501953" xlink:href="#DejaVuSans-50"/>
     <use x="578.125" xlink:href="#DejaVuSans-52"/>
     <use x="641.748047" xlink:href="#DejaVuSans-41"/>
    </g>
   </g>
  </g>
 </g>
 <defs>
  <clipPath id="p176c538448">
   <rect height="344.778013" width="781.2" x="90.114063" y="53.775458"/>
  </clipPath>
  <clipPath id="p43bdd96bac">
   <rect height="344.778013" width="781.2" x="90.114063" y="450.270172"/>
  </clipPath>
  <clipPath id="p71e6bd650e">
   <rect height="344.778013" width="781.2" x="90.114063" y="943.30273"/>
  </clipPath>
  <clipPath id="pd135ac31c3">
   <rect height="344.778013" width="781.2" x="90.114063" y="1339.797445"/>
  </clipPath>
 </defs>
</svg>
