<?xml version="1.0" encoding="utf-8" standalone="no"?>
<!DOCTYPE svg PUBLIC "-//W3C//DTD SVG 1.1//EN"
  "http://www.w3.org/Graphics/SVG/1.1/DTD/svg11.dtd">
<!-- Created with matplotlib (https://matplotlib.org/) -->
<svg height="847.691971pt" version="1.1" viewBox="0 0 1044.044176 847.691971" width="1044.044176pt" xmlns="http://www.w3.org/2000/svg" xmlns:xlink="http://www.w3.org/1999/xlink">
 <metadata>
  <rdf:RDF xmlns:cc="http://creativecommons.org/ns#" xmlns:dc="http://purl.org/dc/elements/1.1/" xmlns:rdf="http://www.w3.org/1999/02/22-rdf-syntax-ns#">
   <cc:Work>
    <dc:type rdf:resource="http://purl.org/dc/dcmitype/StillImage"/>
    <dc:date>2021-03-18T20:04:04.342460</dc:date>
    <dc:format>image/svg+xml</dc:format>
    <dc:creator>
     <cc:Agent>
      <dc:title>Matplotlib v3.3.4, https://matplotlib.org/</dc:title>
     </cc:Agent>
    </dc:creator>
   </cc:Work>
  </rdf:RDF>
 </metadata>
 <defs>
  <style type="text/css">*{stroke-linecap:butt;stroke-linejoin:round;}</style>
 </defs>
 <g id="figure_1">
  <g id="patch_1">
   <path d="M 0 847.691971 
L 1044.044176 847.691971 
L 1044.044176 -0 
L 0 -0 
z
" style="fill:none;"/>
  </g>
  <g id="axes_1">
   <g id="patch_2">
    <path d="M 106.020313 340.325 
L 1036.844176 340.325 
L 1036.844176 109.908333 
L 106.020313 109.908333 
z
" style="fill:none;"/>
   </g>
   <g id="matplotlib.axis_1">
    <g id="xtick_1"/>
    <g id="xtick_2"/>
    <g id="xtick_3"/>
    <g id="xtick_4"/>
    <g id="xtick_5"/>
    <g id="xtick_6"/>
    <g id="xtick_7"/>
    <g id="xtick_8"/>
    <g id="xtick_9"/>
    <g id="xtick_10"/>
    <g id="xtick_11"/>
   </g>
   <g id="matplotlib.axis_2">
    <g id="ytick_1">
     <g id="line2d_1">
      <path clip-path="url(#p4ca3f64da5)" d="M 106.020313 340.325 
L 1036.844176 340.325 
" style="fill:none;stroke:#cccccc;stroke-linecap:round;stroke-width:0.8;"/>
     </g>
     <g id="text_1">
      <!-- 0 -->
      <g style="fill:#262626;" transform="translate(83.114063 349.823047)scale(0.25 -0.25)">
       <defs>
        <path d="M 31.78125 66.40625 
Q 24.171875 66.40625 20.328125 58.90625 
Q 16.5 51.421875 16.5 36.375 
Q 16.5 21.390625 20.328125 13.890625 
Q 24.171875 6.390625 31.78125 6.390625 
Q 39.453125 6.390625 43.28125 13.890625 
Q 47.125 21.390625 47.125 36.375 
Q 47.125 51.421875 43.28125 58.90625 
Q 39.453125 66.40625 31.78125 66.40625 
z
M 31.78125 74.21875 
Q 44.046875 74.21875 50.515625 64.515625 
Q 56.984375 54.828125 56.984375 36.375 
Q 56.984375 17.96875 50.515625 8.265625 
Q 44.046875 -1.421875 31.78125 -1.421875 
Q 19.53125 -1.421875 13.0625 8.265625 
Q 6.59375 17.96875 6.59375 36.375 
Q 6.59375 54.828125 13.0625 64.515625 
Q 19.53125 74.21875 31.78125 74.21875 
z
" id="DejaVuSans-48"/>
       </defs>
       <use xlink:href="#DejaVuSans-48"/>
      </g>
     </g>
    </g>
    <g id="ytick_2">
     <g id="line2d_2">
      <path clip-path="url(#p4ca3f64da5)" d="M 106.020313 238.629689 
L 1036.844176 238.629689 
" style="fill:none;stroke:#cccccc;stroke-linecap:round;stroke-width:0.8;"/>
     </g>
     <g id="text_2">
      <!-- 1000 -->
      <g style="fill:#262626;" transform="translate(35.395313 248.127736)scale(0.25 -0.25)">
       <defs>
        <path d="M 12.40625 8.296875 
L 28.515625 8.296875 
L 28.515625 63.921875 
L 10.984375 60.40625 
L 10.984375 69.390625 
L 28.421875 72.90625 
L 38.28125 72.90625 
L 38.28125 8.296875 
L 54.390625 8.296875 
L 54.390625 0 
L 12.40625 0 
z
" id="DejaVuSans-49"/>
       </defs>
       <use xlink:href="#DejaVuSans-49"/>
       <use x="63.623047" xlink:href="#DejaVuSans-48"/>
       <use x="127.246094" xlink:href="#DejaVuSans-48"/>
       <use x="190.869141" xlink:href="#DejaVuSans-48"/>
      </g>
     </g>
    </g>
    <g id="ytick_3">
     <g id="line2d_3">
      <path clip-path="url(#p4ca3f64da5)" d="M 106.020313 136.934378 
L 1036.844176 136.934378 
" style="fill:none;stroke:#cccccc;stroke-linecap:round;stroke-width:0.8;"/>
     </g>
     <g id="text_3">
      <!-- 2000 -->
      <g style="fill:#262626;" transform="translate(35.395313 146.432425)scale(0.25 -0.25)">
       <defs>
        <path d="M 19.1875 8.296875 
L 53.609375 8.296875 
L 53.609375 0 
L 7.328125 0 
L 7.328125 8.296875 
Q 12.9375 14.109375 22.625 23.890625 
Q 32.328125 33.6875 34.8125 36.53125 
Q 39.546875 41.84375 41.421875 45.53125 
Q 43.3125 49.21875 43.3125 52.78125 
Q 43.3125 58.59375 39.234375 62.25 
Q 35.15625 65.921875 28.609375 65.921875 
Q 23.96875 65.921875 18.8125 64.3125 
Q 13.671875 62.703125 7.8125 59.421875 
L 7.8125 69.390625 
Q 13.765625 71.78125 18.9375 73 
Q 24.125 74.21875 28.421875 74.21875 
Q 39.75 74.21875 46.484375 68.546875 
Q 53.21875 62.890625 53.21875 53.421875 
Q 53.21875 48.921875 51.53125 44.890625 
Q 49.859375 40.875 45.40625 35.40625 
Q 44.1875 33.984375 37.640625 27.21875 
Q 31.109375 20.453125 19.1875 8.296875 
z
" id="DejaVuSans-50"/>
       </defs>
       <use xlink:href="#DejaVuSans-50"/>
       <use x="63.623047" xlink:href="#DejaVuSans-48"/>
       <use x="127.246094" xlink:href="#DejaVuSans-48"/>
       <use x="190.869141" xlink:href="#DejaVuSans-48"/>
      </g>
     </g>
    </g>
    <g id="text_4">
     <!-- OD at final time point -->
     <g style="fill:#262626;" transform="translate(26.196094 360.079557)rotate(-90)scale(0.25 -0.25)">
      <defs>
       <path d="M 39.40625 66.21875 
Q 28.65625 66.21875 22.328125 58.203125 
Q 16.015625 50.203125 16.015625 36.375 
Q 16.015625 22.609375 22.328125 14.59375 
Q 28.65625 6.59375 39.40625 6.59375 
Q 50.140625 6.59375 56.421875 14.59375 
Q 62.703125 22.609375 62.703125 36.375 
Q 62.703125 50.203125 56.421875 58.203125 
Q 50.140625 66.21875 39.40625 66.21875 
z
M 39.40625 74.21875 
Q 54.734375 74.21875 63.90625 63.9375 
Q 73.09375 53.65625 73.09375 36.375 
Q 73.09375 19.140625 63.90625 8.859375 
Q 54.734375 -1.421875 39.40625 -1.421875 
Q 24.03125 -1.421875 14.8125 8.828125 
Q 5.609375 19.09375 5.609375 36.375 
Q 5.609375 53.65625 14.8125 63.9375 
Q 24.03125 74.21875 39.40625 74.21875 
z
" id="DejaVuSans-79"/>
       <path d="M 19.671875 64.796875 
L 19.671875 8.109375 
L 31.59375 8.109375 
Q 46.6875 8.109375 53.6875 14.9375 
Q 60.6875 21.78125 60.6875 36.53125 
Q 60.6875 51.171875 53.6875 57.984375 
Q 46.6875 64.796875 31.59375 64.796875 
z
M 9.8125 72.90625 
L 30.078125 72.90625 
Q 51.265625 72.90625 61.171875 64.09375 
Q 71.09375 55.28125 71.09375 36.53125 
Q 71.09375 17.671875 61.125 8.828125 
Q 51.171875 0 30.078125 0 
L 9.8125 0 
z
" id="DejaVuSans-68"/>
       <path id="DejaVuSans-32"/>
       <path d="M 34.28125 27.484375 
Q 23.390625 27.484375 19.1875 25 
Q 14.984375 22.515625 14.984375 16.5 
Q 14.984375 11.71875 18.140625 8.90625 
Q 21.296875 6.109375 26.703125 6.109375 
Q 34.1875 6.109375 38.703125 11.40625 
Q 43.21875 16.703125 43.21875 25.484375 
L 43.21875 27.484375 
z
M 52.203125 31.203125 
L 52.203125 0 
L 43.21875 0 
L 43.21875 8.296875 
Q 40.140625 3.328125 35.546875 0.953125 
Q 30.953125 -1.421875 24.3125 -1.421875 
Q 15.921875 -1.421875 10.953125 3.296875 
Q 6 8.015625 6 15.921875 
Q 6 25.140625 12.171875 29.828125 
Q 18.359375 34.515625 30.609375 34.515625 
L 43.21875 34.515625 
L 43.21875 35.40625 
Q 43.21875 41.609375 39.140625 45 
Q 35.0625 48.390625 27.6875 48.390625 
Q 23 48.390625 18.546875 47.265625 
Q 14.109375 46.140625 10.015625 43.890625 
L 10.015625 52.203125 
Q 14.9375 54.109375 19.578125 55.046875 
Q 24.21875 56 28.609375 56 
Q 40.484375 56 46.34375 49.84375 
Q 52.203125 43.703125 52.203125 31.203125 
z
" id="DejaVuSans-97"/>
       <path d="M 18.3125 70.21875 
L 18.3125 54.6875 
L 36.8125 54.6875 
L 36.8125 47.703125 
L 18.3125 47.703125 
L 18.3125 18.015625 
Q 18.3125 11.328125 20.140625 9.421875 
Q 21.96875 7.515625 27.59375 7.515625 
L 36.8125 7.515625 
L 36.8125 0 
L 27.59375 0 
Q 17.1875 0 13.234375 3.875 
Q 9.28125 7.765625 9.28125 18.015625 
L 9.28125 47.703125 
L 2.6875 47.703125 
L 2.6875 54.6875 
L 9.28125 54.6875 
L 9.28125 70.21875 
z
" id="DejaVuSans-116"/>
       <path d="M 37.109375 75.984375 
L 37.109375 68.5 
L 28.515625 68.5 
Q 23.6875 68.5 21.796875 66.546875 
Q 19.921875 64.59375 19.921875 59.515625 
L 19.921875 54.6875 
L 34.71875 54.6875 
L 34.71875 47.703125 
L 19.921875 47.703125 
L 19.921875 0 
L 10.890625 0 
L 10.890625 47.703125 
L 2.296875 47.703125 
L 2.296875 54.6875 
L 10.890625 54.6875 
L 10.890625 58.5 
Q 10.890625 67.625 15.140625 71.796875 
Q 19.390625 75.984375 28.609375 75.984375 
z
" id="DejaVuSans-102"/>
       <path d="M 9.421875 54.6875 
L 18.40625 54.6875 
L 18.40625 0 
L 9.421875 0 
z
M 9.421875 75.984375 
L 18.40625 75.984375 
L 18.40625 64.59375 
L 9.421875 64.59375 
z
" id="DejaVuSans-105"/>
       <path d="M 54.890625 33.015625 
L 54.890625 0 
L 45.90625 0 
L 45.90625 32.71875 
Q 45.90625 40.484375 42.875 44.328125 
Q 39.84375 48.1875 33.796875 48.1875 
Q 26.515625 48.1875 22.3125 43.546875 
Q 18.109375 38.921875 18.109375 30.90625 
L 18.109375 0 
L 9.078125 0 
L 9.078125 54.6875 
L 18.109375 54.6875 
L 18.109375 46.1875 
Q 21.34375 51.125 25.703125 53.5625 
Q 30.078125 56 35.796875 56 
Q 45.21875 56 50.046875 50.171875 
Q 54.890625 44.34375 54.890625 33.015625 
z
" id="DejaVuSans-110"/>
       <path d="M 9.421875 75.984375 
L 18.40625 75.984375 
L 18.40625 0 
L 9.421875 0 
z
" id="DejaVuSans-108"/>
       <path d="M 52 44.1875 
Q 55.375 50.25 60.0625 53.125 
Q 64.75 56 71.09375 56 
Q 79.640625 56 84.28125 50.015625 
Q 88.921875 44.046875 88.921875 33.015625 
L 88.921875 0 
L 79.890625 0 
L 79.890625 32.71875 
Q 79.890625 40.578125 77.09375 44.375 
Q 74.3125 48.1875 68.609375 48.1875 
Q 61.625 48.1875 57.5625 43.546875 
Q 53.515625 38.921875 53.515625 30.90625 
L 53.515625 0 
L 44.484375 0 
L 44.484375 32.71875 
Q 44.484375 40.625 41.703125 44.40625 
Q 38.921875 48.1875 33.109375 48.1875 
Q 26.21875 48.1875 22.15625 43.53125 
Q 18.109375 38.875 18.109375 30.90625 
L 18.109375 0 
L 9.078125 0 
L 9.078125 54.6875 
L 18.109375 54.6875 
L 18.109375 46.1875 
Q 21.1875 51.21875 25.484375 53.609375 
Q 29.78125 56 35.6875 56 
Q 41.65625 56 45.828125 52.96875 
Q 50 49.953125 52 44.1875 
z
" id="DejaVuSans-109"/>
       <path d="M 56.203125 29.59375 
L 56.203125 25.203125 
L 14.890625 25.203125 
Q 15.484375 15.921875 20.484375 11.0625 
Q 25.484375 6.203125 34.421875 6.203125 
Q 39.59375 6.203125 44.453125 7.46875 
Q 49.3125 8.734375 54.109375 11.28125 
L 54.109375 2.78125 
Q 49.265625 0.734375 44.1875 -0.34375 
Q 39.109375 -1.421875 33.890625 -1.421875 
Q 20.796875 -1.421875 13.15625 6.1875 
Q 5.515625 13.8125 5.515625 26.8125 
Q 5.515625 40.234375 12.765625 48.109375 
Q 20.015625 56 32.328125 56 
Q 43.359375 56 49.78125 48.890625 
Q 56.203125 41.796875 56.203125 29.59375 
z
M 47.21875 32.234375 
Q 47.125 39.59375 43.09375 43.984375 
Q 39.0625 48.390625 32.421875 48.390625 
Q 24.90625 48.390625 20.390625 44.140625 
Q 15.875 39.890625 15.1875 32.171875 
z
" id="DejaVuSans-101"/>
       <path d="M 18.109375 8.203125 
L 18.109375 -20.796875 
L 9.078125 -20.796875 
L 9.078125 54.6875 
L 18.109375 54.6875 
L 18.109375 46.390625 
Q 20.953125 51.265625 25.265625 53.625 
Q 29.59375 56 35.59375 56 
Q 45.5625 56 51.78125 48.09375 
Q 58.015625 40.1875 58.015625 27.296875 
Q 58.015625 14.40625 51.78125 6.484375 
Q 45.5625 -1.421875 35.59375 -1.421875 
Q 29.59375 -1.421875 25.265625 0.953125 
Q 20.953125 3.328125 18.109375 8.203125 
z
M 48.6875 27.296875 
Q 48.6875 37.203125 44.609375 42.84375 
Q 40.53125 48.484375 33.40625 48.484375 
Q 26.265625 48.484375 22.1875 42.84375 
Q 18.109375 37.203125 18.109375 27.296875 
Q 18.109375 17.390625 22.1875 11.75 
Q 26.265625 6.109375 33.40625 6.109375 
Q 40.53125 6.109375 44.609375 11.75 
Q 48.6875 17.390625 48.6875 27.296875 
z
" id="DejaVuSans-112"/>
       <path d="M 30.609375 48.390625 
Q 23.390625 48.390625 19.1875 42.75 
Q 14.984375 37.109375 14.984375 27.296875 
Q 14.984375 17.484375 19.15625 11.84375 
Q 23.34375 6.203125 30.609375 6.203125 
Q 37.796875 6.203125 41.984375 11.859375 
Q 46.1875 17.53125 46.1875 27.296875 
Q 46.1875 37.015625 41.984375 42.703125 
Q 37.796875 48.390625 30.609375 48.390625 
z
M 30.609375 56 
Q 42.328125 56 49.015625 48.375 
Q 55.71875 40.765625 55.71875 27.296875 
Q 55.71875 13.875 49.015625 6.21875 
Q 42.328125 -1.421875 30.609375 -1.421875 
Q 18.84375 -1.421875 12.171875 6.21875 
Q 5.515625 13.875 5.515625 27.296875 
Q 5.515625 40.765625 12.171875 48.375 
Q 18.84375 56 30.609375 56 
z
" id="DejaVuSans-111"/>
      </defs>
      <use xlink:href="#DejaVuSans-79"/>
      <use x="78.710938" xlink:href="#DejaVuSans-68"/>
      <use x="155.712891" xlink:href="#DejaVuSans-32"/>
      <use x="187.5" xlink:href="#DejaVuSans-97"/>
      <use x="248.779297" xlink:href="#DejaVuSans-116"/>
      <use x="287.988281" xlink:href="#DejaVuSans-32"/>
      <use x="319.775391" xlink:href="#DejaVuSans-102"/>
      <use x="354.980469" xlink:href="#DejaVuSans-105"/>
      <use x="382.763672" xlink:href="#DejaVuSans-110"/>
      <use x="446.142578" xlink:href="#DejaVuSans-97"/>
      <use x="507.421875" xlink:href="#DejaVuSans-108"/>
      <use x="535.205078" xlink:href="#DejaVuSans-32"/>
      <use x="566.992188" xlink:href="#DejaVuSans-116"/>
      <use x="606.201172" xlink:href="#DejaVuSans-105"/>
      <use x="633.984375" xlink:href="#DejaVuSans-109"/>
      <use x="731.396484" xlink:href="#DejaVuSans-101"/>
      <use x="792.919922" xlink:href="#DejaVuSans-32"/>
      <use x="824.707031" xlink:href="#DejaVuSans-112"/>
      <use x="888.183594" xlink:href="#DejaVuSans-111"/>
      <use x="949.365234" xlink:href="#DejaVuSans-105"/>
      <use x="977.148438" xlink:href="#DejaVuSans-110"/>
      <use x="1040.527344" xlink:href="#DejaVuSans-116"/>
     </g>
    </g>
   </g>
   <g id="patch_3">
    <path clip-path="url(#p4ca3f64da5)" d="M 114.482348 340.325 
L 148.330488 340.325 
L 148.330488 260.673368 
L 114.482348 260.673368 
z
" style="fill:#e2a936;stroke:#ffffff;stroke-linejoin:miter;"/>
   </g>
   <g id="patch_4">
    <path clip-path="url(#p4ca3f64da5)" d="M 199.102699 340.325 
L 232.950839 340.325 
L 232.950839 230.398301 
L 199.102699 230.398301 
z
" style="fill:#e2a936;stroke:#ffffff;stroke-linejoin:miter;"/>
   </g>
   <g id="patch_5">
    <path clip-path="url(#p4ca3f64da5)" d="M 283.72305 340.325 
L 317.571191 340.325 
L 317.571191 232.930006 
L 283.72305 232.930006 
z
" style="fill:#e2a936;stroke:#ffffff;stroke-linejoin:miter;"/>
   </g>
   <g id="patch_6">
    <path clip-path="url(#p4ca3f64da5)" d="M 368.343401 340.325 
L 402.191542 340.325 
L 402.191542 217.017232 
L 368.343401 217.017232 
z
" style="fill:#e2a936;stroke:#ffffff;stroke-linejoin:miter;"/>
   </g>
   <g id="patch_7">
    <path clip-path="url(#p4ca3f64da5)" d="M 452.963753 340.325 
L 486.811893 340.325 
L 486.811893 295.745267 
L 452.963753 295.745267 
z
" style="fill:#e2a936;stroke:#ffffff;stroke-linejoin:miter;"/>
   </g>
   <g id="patch_8">
    <path clip-path="url(#p4ca3f64da5)" d="M 537.584104 340.325 
L 571.432244 340.325 
L 571.432244 287.131776 
L 537.584104 287.131776 
z
" style="fill:#e2a936;stroke:#ffffff;stroke-linejoin:miter;"/>
   </g>
   <g id="patch_9">
    <path clip-path="url(#p4ca3f64da5)" d="M 622.204455 340.325 
L 656.052596 340.325 
L 656.052596 205.347526 
L 622.204455 205.347526 
z
" style="fill:#e2a936;stroke:#ffffff;stroke-linejoin:miter;"/>
   </g>
   <g id="patch_10">
    <path clip-path="url(#p4ca3f64da5)" d="M 706.824806 340.325 
L 740.672947 340.325 
L 740.672947 220.840976 
L 706.824806 220.840976 
z
" style="fill:#e2a936;stroke:#ffffff;stroke-linejoin:miter;"/>
   </g>
   <g id="patch_11">
    <path clip-path="url(#p4ca3f64da5)" d="M 791.445158 340.325 
L 825.293298 340.325 
L 825.293298 296.996696 
L 791.445158 296.996696 
z
" style="fill:#e2a936;stroke:#ffffff;stroke-linejoin:miter;"/>
   </g>
   <g id="patch_12">
    <path clip-path="url(#p4ca3f64da5)" d="M 876.065509 340.325 
L 909.913649 340.325 
L 909.913649 232.764581 
L 876.065509 232.764581 
z
" style="fill:#e2a936;stroke:#ffffff;stroke-linejoin:miter;"/>
   </g>
   <g id="patch_13">
    <path clip-path="url(#p4ca3f64da5)" d="M 960.68586 340.325 
L 994.534001 340.325 
L 994.534001 255.515043 
L 960.68586 255.515043 
z
" style="fill:#e2a936;stroke:#ffffff;stroke-linejoin:miter;"/>
   </g>
   <g id="patch_14">
    <path clip-path="url(#p4ca3f64da5)" d="M 148.330488 340.325 
L 182.178629 340.325 
L 182.178629 317.272707 
L 148.330488 317.272707 
z
" style="fill:#a5abc1;stroke:#ffffff;stroke-linejoin:miter;"/>
   </g>
   <g id="patch_15">
    <path clip-path="url(#p4ca3f64da5)" d="M 232.950839 340.325 
L 266.79898 340.325 
L 266.79898 317.271995 
L 232.950839 317.271995 
z
" style="fill:#a5abc1;stroke:#ffffff;stroke-linejoin:miter;"/>
   </g>
   <g id="patch_16">
    <path clip-path="url(#p4ca3f64da5)" d="M 317.571191 340.325 
L 351.419331 340.325 
L 351.419331 317.271995 
L 317.571191 317.271995 
z
" style="fill:#a5abc1;stroke:#ffffff;stroke-linejoin:miter;"/>
   </g>
   <g id="patch_17">
    <path clip-path="url(#p4ca3f64da5)" d="M 402.191542 340.325 
L 436.039682 340.325 
L 436.039682 317.271995 
L 402.191542 317.271995 
z
" style="fill:#a5abc1;stroke:#ffffff;stroke-linejoin:miter;"/>
   </g>
   <g id="patch_18">
    <path clip-path="url(#p4ca3f64da5)" d="M 486.811893 340.325 
L 520.660034 340.325 
L 520.660034 335.023878 
L 486.811893 335.023878 
z
" style="fill:#a5abc1;stroke:#ffffff;stroke-linejoin:miter;"/>
   </g>
   <g id="patch_19">
    <path clip-path="url(#p4ca3f64da5)" d="M 571.432244 340.325 
L 605.280385 340.325 
L 605.280385 317.27169 
L 571.432244 317.27169 
z
" style="fill:#a5abc1;stroke:#ffffff;stroke-linejoin:miter;"/>
   </g>
   <g id="patch_20">
    <path clip-path="url(#p4ca3f64da5)" d="M 656.052596 340.325 
L 689.900736 340.325 
L 689.900736 317.271893 
L 656.052596 317.271893 
z
" style="fill:#a5abc1;stroke:#ffffff;stroke-linejoin:miter;"/>
   </g>
   <g id="patch_21">
    <path clip-path="url(#p4ca3f64da5)" d="M 740.672947 340.325 
L 774.521087 340.325 
L 774.521087 317.271792 
L 740.672947 317.271792 
z
" style="fill:#a5abc1;stroke:#ffffff;stroke-linejoin:miter;"/>
   </g>
   <g id="patch_22">
    <path clip-path="url(#p4ca3f64da5)" d="M 825.293298 340.325 
L 859.141439 340.325 
L 859.141439 317.275859 
L 825.293298 317.275859 
z
" style="fill:#a5abc1;stroke:#ffffff;stroke-linejoin:miter;"/>
   </g>
   <g id="patch_23">
    <path clip-path="url(#p4ca3f64da5)" d="M 909.913649 340.325 
L 943.76179 340.325 
L 943.76179 317.272707 
L 909.913649 317.272707 
z
" style="fill:#a5abc1;stroke:#ffffff;stroke-linejoin:miter;"/>
   </g>
   <g id="patch_24">
    <path clip-path="url(#p4ca3f64da5)" d="M 994.534001 340.325 
L 1028.382141 340.325 
L 1028.382141 317.273622 
L 994.534001 317.273622 
z
" style="fill:#a5abc1;stroke:#ffffff;stroke-linejoin:miter;"/>
   </g>
   <g id="line2d_4">
    <path clip-path="url(#p4ca3f64da5)" d="M 131.406418 299.672305 
L 131.406418 221.674432 
" style="fill:none;stroke:#424242;stroke-linecap:round;stroke-width:2.7;"/>
   </g>
   <g id="line2d_5">
    <path clip-path="url(#p4ca3f64da5)" d="M 216.026769 296.68082 
L 216.026769 164.115782 
" style="fill:none;stroke:#424242;stroke-linecap:round;stroke-width:2.7;"/>
   </g>
   <g id="line2d_6">
    <path clip-path="url(#p4ca3f64da5)" d="M 300.64712 233.135957 
L 300.64712 232.724054 
" style="fill:none;stroke:#424242;stroke-linecap:round;stroke-width:2.7;"/>
   </g>
   <g id="line2d_7">
    <path clip-path="url(#p4ca3f64da5)" d="M 385.267472 304.909866 
L 385.267472 129.124598 
" style="fill:none;stroke:#424242;stroke-linecap:round;stroke-width:2.7;"/>
   </g>
   <g id="line2d_8">
    <path clip-path="url(#p4ca3f64da5)" d="M 469.887823 328.955904 
L 469.887823 262.534631 
" style="fill:none;stroke:#424242;stroke-linecap:round;stroke-width:2.7;"/>
   </g>
   <g id="line2d_9">
    <path clip-path="url(#p4ca3f64da5)" d="M 554.508174 325.354735 
L 554.508174 248.908817 
" style="fill:none;stroke:#424242;stroke-linecap:round;stroke-width:2.7;"/>
   </g>
   <g id="line2d_10">
    <path clip-path="url(#p4ca3f64da5)" d="M 639.128525 244.55591 
L 639.128525 166.139141 
" style="fill:none;stroke:#424242;stroke-linecap:round;stroke-width:2.7;"/>
   </g>
   <g id="line2d_11">
    <path clip-path="url(#p4ca3f64da5)" d="M 723.748877 303.209828 
L 723.748877 138.472123 
" style="fill:none;stroke:#424242;stroke-linecap:round;stroke-width:2.7;"/>
   </g>
   <g id="line2d_12">
    <path clip-path="url(#p4ca3f64da5)" d="M 808.369228 310.618117 
L 808.369228 283.375274 
" style="fill:none;stroke:#424242;stroke-linecap:round;stroke-width:2.7;"/>
   </g>
   <g id="line2d_13">
    <path clip-path="url(#p4ca3f64da5)" d="M 892.989579 233.014576 
L 892.989579 232.514587 
" style="fill:none;stroke:#424242;stroke-linecap:round;stroke-width:2.7;"/>
   </g>
   <g id="line2d_14">
    <path clip-path="url(#p4ca3f64da5)" d="M 977.60993 299.027692 
L 977.60993 212.002394 
" style="fill:none;stroke:#424242;stroke-linecap:round;stroke-width:2.7;"/>
   </g>
   <g id="line2d_15">
    <path clip-path="url(#p4ca3f64da5)" d="M 165.254558 317.272707 
L 165.254558 317.272707 
" style="fill:none;stroke:#424242;stroke-linecap:round;stroke-width:2.7;"/>
   </g>
   <g id="line2d_16">
    <path clip-path="url(#p4ca3f64da5)" d="M 249.87491 317.271995 
L 249.87491 317.271995 
" style="fill:none;stroke:#424242;stroke-linecap:round;stroke-width:2.7;"/>
   </g>
   <g id="line2d_17">
    <path clip-path="url(#p4ca3f64da5)" d="M 334.495261 317.271995 
L 334.495261 317.271995 
" style="fill:none;stroke:#424242;stroke-linecap:round;stroke-width:2.7;"/>
   </g>
   <g id="line2d_18">
    <path clip-path="url(#p4ca3f64da5)" d="M 419.115612 317.271995 
L 419.115612 317.271995 
" style="fill:none;stroke:#424242;stroke-linecap:round;stroke-width:2.7;"/>
   </g>
   <g id="line2d_19">
    <path clip-path="url(#p4ca3f64da5)" d="M 503.735963 335.023878 
L 503.735963 335.023878 
" style="fill:none;stroke:#424242;stroke-linecap:round;stroke-width:2.7;"/>
   </g>
   <g id="line2d_20">
    <path clip-path="url(#p4ca3f64da5)" d="M 588.356315 317.27169 
L 588.356315 317.27169 
" style="fill:none;stroke:#424242;stroke-linecap:round;stroke-width:2.7;"/>
   </g>
   <g id="line2d_21">
    <path clip-path="url(#p4ca3f64da5)" d="M 672.976666 317.271893 
L 672.976666 317.271893 
" style="fill:none;stroke:#424242;stroke-linecap:round;stroke-width:2.7;"/>
   </g>
   <g id="line2d_22">
    <path clip-path="url(#p4ca3f64da5)" d="M 757.597017 317.271792 
L 757.597017 317.271792 
" style="fill:none;stroke:#424242;stroke-linecap:round;stroke-width:2.7;"/>
   </g>
   <g id="line2d_23">
    <path clip-path="url(#p4ca3f64da5)" d="M 842.217368 317.275859 
L 842.217368 317.275859 
" style="fill:none;stroke:#424242;stroke-linecap:round;stroke-width:2.7;"/>
   </g>
   <g id="line2d_24">
    <path clip-path="url(#p4ca3f64da5)" d="M 926.83772 317.272707 
L 926.83772 317.272707 
" style="fill:none;stroke:#424242;stroke-linecap:round;stroke-width:2.7;"/>
   </g>
   <g id="line2d_25">
    <path clip-path="url(#p4ca3f64da5)" d="M 1011.458071 317.273622 
L 1011.458071 317.273622 
" style="fill:none;stroke:#424242;stroke-linecap:round;stroke-width:2.7;"/>
   </g>
   <g id="patch_25">
    <path d="M 106.020313 340.325 
L 106.020313 109.908333 
" style="fill:none;stroke:#cccccc;stroke-linecap:square;stroke-linejoin:miter;stroke-width:0.8;"/>
   </g>
   <g id="patch_26">
    <path d="M 106.020313 340.325 
L 1036.844176 340.325 
" style="fill:none;stroke:#cccccc;stroke-linecap:square;stroke-linejoin:miter;stroke-width:0.8;"/>
   </g>
   <g id="text_5">
    <!-- Batch culture -->
    <g style="fill:#262626;" transform="translate(471.180682 103.908333)scale(0.3 -0.3)">
     <defs>
      <path d="M 19.671875 34.8125 
L 19.671875 8.109375 
L 35.5 8.109375 
Q 43.453125 8.109375 47.28125 11.40625 
Q 51.125 14.703125 51.125 21.484375 
Q 51.125 28.328125 47.28125 31.5625 
Q 43.453125 34.8125 35.5 34.8125 
z
M 19.671875 64.796875 
L 19.671875 42.828125 
L 34.28125 42.828125 
Q 41.5 42.828125 45.03125 45.53125 
Q 48.578125 48.25 48.578125 53.8125 
Q 48.578125 59.328125 45.03125 62.0625 
Q 41.5 64.796875 34.28125 64.796875 
z
M 9.8125 72.90625 
L 35.015625 72.90625 
Q 46.296875 72.90625 52.390625 68.21875 
Q 58.5 63.53125 58.5 54.890625 
Q 58.5 48.1875 55.375 44.234375 
Q 52.25 40.28125 46.1875 39.3125 
Q 53.46875 37.75 57.5 32.78125 
Q 61.53125 27.828125 61.53125 20.40625 
Q 61.53125 10.640625 54.890625 5.3125 
Q 48.25 0 35.984375 0 
L 9.8125 0 
z
" id="DejaVuSans-66"/>
      <path d="M 48.78125 52.59375 
L 48.78125 44.1875 
Q 44.96875 46.296875 41.140625 47.34375 
Q 37.3125 48.390625 33.40625 48.390625 
Q 24.65625 48.390625 19.8125 42.84375 
Q 14.984375 37.3125 14.984375 27.296875 
Q 14.984375 17.28125 19.8125 11.734375 
Q 24.65625 6.203125 33.40625 6.203125 
Q 37.3125 6.203125 41.140625 7.25 
Q 44.96875 8.296875 48.78125 10.40625 
L 48.78125 2.09375 
Q 45.015625 0.34375 40.984375 -0.53125 
Q 36.96875 -1.421875 32.421875 -1.421875 
Q 20.0625 -1.421875 12.78125 6.34375 
Q 5.515625 14.109375 5.515625 27.296875 
Q 5.515625 40.671875 12.859375 48.328125 
Q 20.21875 56 33.015625 56 
Q 37.15625 56 41.109375 55.140625 
Q 45.0625 54.296875 48.78125 52.59375 
z
" id="DejaVuSans-99"/>
      <path d="M 54.890625 33.015625 
L 54.890625 0 
L 45.90625 0 
L 45.90625 32.71875 
Q 45.90625 40.484375 42.875 44.328125 
Q 39.84375 48.1875 33.796875 48.1875 
Q 26.515625 48.1875 22.3125 43.546875 
Q 18.109375 38.921875 18.109375 30.90625 
L 18.109375 0 
L 9.078125 0 
L 9.078125 75.984375 
L 18.109375 75.984375 
L 18.109375 46.1875 
Q 21.34375 51.125 25.703125 53.5625 
Q 30.078125 56 35.796875 56 
Q 45.21875 56 50.046875 50.171875 
Q 54.890625 44.34375 54.890625 33.015625 
z
" id="DejaVuSans-104"/>
      <path d="M 8.5 21.578125 
L 8.5 54.6875 
L 17.484375 54.6875 
L 17.484375 21.921875 
Q 17.484375 14.15625 20.5 10.265625 
Q 23.53125 6.390625 29.59375 6.390625 
Q 36.859375 6.390625 41.078125 11.03125 
Q 45.3125 15.671875 45.3125 23.6875 
L 45.3125 54.6875 
L 54.296875 54.6875 
L 54.296875 0 
L 45.3125 0 
L 45.3125 8.40625 
Q 42.046875 3.421875 37.71875 1 
Q 33.40625 -1.421875 27.6875 -1.421875 
Q 18.265625 -1.421875 13.375 4.4375 
Q 8.5 10.296875 8.5 21.578125 
z
M 31.109375 56 
z
" id="DejaVuSans-117"/>
      <path d="M 41.109375 46.296875 
Q 39.59375 47.171875 37.8125 47.578125 
Q 36.03125 48 33.890625 48 
Q 26.265625 48 22.1875 43.046875 
Q 18.109375 38.09375 18.109375 28.8125 
L 18.109375 0 
L 9.078125 0 
L 9.078125 54.6875 
L 18.109375 54.6875 
L 18.109375 46.1875 
Q 20.953125 51.171875 25.484375 53.578125 
Q 30.03125 56 36.53125 56 
Q 37.453125 56 38.578125 55.875 
Q 39.703125 55.765625 41.0625 55.515625 
z
" id="DejaVuSans-114"/>
     </defs>
     <use xlink:href="#DejaVuSans-66"/>
     <use x="68.603516" xlink:href="#DejaVuSans-97"/>
     <use x="129.882812" xlink:href="#DejaVuSans-116"/>
     <use x="169.091797" xlink:href="#DejaVuSans-99"/>
     <use x="224.072266" xlink:href="#DejaVuSans-104"/>
     <use x="287.451172" xlink:href="#DejaVuSans-32"/>
     <use x="319.238281" xlink:href="#DejaVuSans-99"/>
     <use x="374.21875" xlink:href="#DejaVuSans-117"/>
     <use x="437.597656" xlink:href="#DejaVuSans-108"/>
     <use x="465.380859" xlink:href="#DejaVuSans-116"/>
     <use x="504.589844" xlink:href="#DejaVuSans-117"/>
     <use x="567.96875" xlink:href="#DejaVuSans-114"/>
     <use x="606.832031" xlink:href="#DejaVuSans-101"/>
    </g>
   </g>
   <g id="legend_1">
    <g id="patch_27">
     <path d="M 890.906676 124.785937 
L 1019.344176 124.785937 
Q 1024.344176 124.785937 1024.344176 119.785937 
L 1024.344176 12.2 
Q 1024.344176 7.2 1019.344176 7.2 
L 890.906676 7.2 
Q 885.906676 7.2 885.906676 12.2 
L 885.906676 119.785937 
Q 885.906676 124.785937 890.906676 124.785937 
z
" style="fill:#ffffff;opacity:0.8;stroke:#cccccc;stroke-linejoin:miter;"/>
    </g>
    <g id="text_6">
     <!-- Plasticity -->
     <g style="fill:#262626;" transform="translate(898.926207 36.196094)scale(0.25 -0.25)">
      <defs>
       <path d="M 19.671875 64.796875 
L 19.671875 37.40625 
L 32.078125 37.40625 
Q 38.96875 37.40625 42.71875 40.96875 
Q 46.484375 44.53125 46.484375 51.125 
Q 46.484375 57.671875 42.71875 61.234375 
Q 38.96875 64.796875 32.078125 64.796875 
z
M 9.8125 72.90625 
L 32.078125 72.90625 
Q 44.34375 72.90625 50.609375 67.359375 
Q 56.890625 61.8125 56.890625 51.125 
Q 56.890625 40.328125 50.609375 34.8125 
Q 44.34375 29.296875 32.078125 29.296875 
L 19.671875 29.296875 
L 19.671875 0 
L 9.8125 0 
z
" id="DejaVuSans-80"/>
       <path d="M 44.28125 53.078125 
L 44.28125 44.578125 
Q 40.484375 46.53125 36.375 47.5 
Q 32.28125 48.484375 27.875 48.484375 
Q 21.1875 48.484375 17.84375 46.4375 
Q 14.5 44.390625 14.5 40.28125 
Q 14.5 37.15625 16.890625 35.375 
Q 19.28125 33.59375 26.515625 31.984375 
L 29.59375 31.296875 
Q 39.15625 29.25 43.1875 25.515625 
Q 47.21875 21.78125 47.21875 15.09375 
Q 47.21875 7.46875 41.1875 3.015625 
Q 35.15625 -1.421875 24.609375 -1.421875 
Q 20.21875 -1.421875 15.453125 -0.5625 
Q 10.6875 0.296875 5.421875 2 
L 5.421875 11.28125 
Q 10.40625 8.6875 15.234375 7.390625 
Q 20.0625 6.109375 24.8125 6.109375 
Q 31.15625 6.109375 34.5625 8.28125 
Q 37.984375 10.453125 37.984375 14.40625 
Q 37.984375 18.0625 35.515625 20.015625 
Q 33.0625 21.96875 24.703125 23.78125 
L 21.578125 24.515625 
Q 13.234375 26.265625 9.515625 29.90625 
Q 5.8125 33.546875 5.8125 39.890625 
Q 5.8125 47.609375 11.28125 51.796875 
Q 16.75 56 26.8125 56 
Q 31.78125 56 36.171875 55.265625 
Q 40.578125 54.546875 44.28125 53.078125 
z
" id="DejaVuSans-115"/>
       <path d="M 32.171875 -5.078125 
Q 28.375 -14.84375 24.75 -17.8125 
Q 21.140625 -20.796875 15.09375 -20.796875 
L 7.90625 -20.796875 
L 7.90625 -13.28125 
L 13.1875 -13.28125 
Q 16.890625 -13.28125 18.9375 -11.515625 
Q 21 -9.765625 23.484375 -3.21875 
L 25.09375 0.875 
L 2.984375 54.6875 
L 12.5 54.6875 
L 29.59375 11.921875 
L 46.6875 54.6875 
L 56.203125 54.6875 
z
" id="DejaVuSans-121"/>
      </defs>
      <use xlink:href="#DejaVuSans-80"/>
      <use x="60.302734" xlink:href="#DejaVuSans-108"/>
      <use x="88.085938" xlink:href="#DejaVuSans-97"/>
      <use x="149.365234" xlink:href="#DejaVuSans-115"/>
      <use x="201.464844" xlink:href="#DejaVuSans-116"/>
      <use x="240.673828" xlink:href="#DejaVuSans-105"/>
      <use x="268.457031" xlink:href="#DejaVuSans-99"/>
      <use x="323.4375" xlink:href="#DejaVuSans-105"/>
      <use x="351.220703" xlink:href="#DejaVuSans-116"/>
      <use x="390.429688" xlink:href="#DejaVuSans-121"/>
     </g>
    </g>
    <g id="patch_28">
     <path d="M 895.906676 72.891406 
L 945.906676 72.891406 
L 945.906676 55.391406 
L 895.906676 55.391406 
z
" style="fill:#e2a936;stroke:#ffffff;stroke-linejoin:miter;"/>
    </g>
    <g id="text_7">
     <!-- ON -->
     <g style="fill:#262626;" transform="translate(965.906676 72.891406)scale(0.25 -0.25)">
      <defs>
       <path d="M 9.8125 72.90625 
L 23.09375 72.90625 
L 55.421875 11.921875 
L 55.421875 72.90625 
L 64.984375 72.90625 
L 64.984375 0 
L 51.703125 0 
L 19.390625 60.984375 
L 19.390625 0 
L 9.8125 0 
z
" id="DejaVuSans-78"/>
      </defs>
      <use xlink:href="#DejaVuSans-79"/>
      <use x="78.710938" xlink:href="#DejaVuSans-78"/>
     </g>
    </g>
    <g id="patch_29">
     <path d="M 895.906676 109.586719 
L 945.906676 109.586719 
L 945.906676 92.086719 
L 895.906676 92.086719 
z
" style="fill:#a5abc1;stroke:#ffffff;stroke-linejoin:miter;"/>
    </g>
    <g id="text_8">
     <!-- OFF -->
     <g style="fill:#262626;" transform="translate(965.906676 109.586719)scale(0.25 -0.25)">
      <defs>
       <path d="M 9.8125 72.90625 
L 51.703125 72.90625 
L 51.703125 64.59375 
L 19.671875 64.59375 
L 19.671875 43.109375 
L 48.578125 43.109375 
L 48.578125 34.8125 
L 19.671875 34.8125 
L 19.671875 0 
L 9.8125 0 
z
" id="DejaVuSans-70"/>
      </defs>
      <use xlink:href="#DejaVuSans-79"/>
      <use x="78.710938" xlink:href="#DejaVuSans-70"/>
      <use x="136.230469" xlink:href="#DejaVuSans-70"/>
     </g>
    </g>
   </g>
  </g>
  <g id="axes_2">
   <g id="patch_30">
    <path d="M 106.020313 662.908333 
L 1036.844176 662.908333 
L 1036.844176 432.491667 
L 106.020313 432.491667 
z
" style="fill:none;"/>
   </g>
   <g id="matplotlib.axis_3">
    <g id="xtick_12">
     <g id="text_9">
      <!-- EU_avg -->
      <g style="fill:#262626;" transform="translate(81.482381 745.178082)rotate(-45)scale(0.24 -0.24)">
       <defs>
        <path d="M 9.8125 72.90625 
L 55.90625 72.90625 
L 55.90625 64.59375 
L 19.671875 64.59375 
L 19.671875 43.015625 
L 54.390625 43.015625 
L 54.390625 34.71875 
L 19.671875 34.71875 
L 19.671875 8.296875 
L 56.78125 8.296875 
L 56.78125 0 
L 9.8125 0 
z
" id="DejaVuSans-69"/>
        <path d="M 8.6875 72.90625 
L 18.609375 72.90625 
L 18.609375 28.609375 
Q 18.609375 16.890625 22.84375 11.734375 
Q 27.09375 6.59375 36.625 6.59375 
Q 46.09375 6.59375 50.34375 11.734375 
Q 54.59375 16.890625 54.59375 28.609375 
L 54.59375 72.90625 
L 64.5 72.90625 
L 64.5 27.390625 
Q 64.5 13.140625 57.4375 5.859375 
Q 50.390625 -1.421875 36.625 -1.421875 
Q 22.796875 -1.421875 15.734375 5.859375 
Q 8.6875 13.140625 8.6875 27.390625 
z
" id="DejaVuSans-85"/>
        <path d="M 50.984375 -16.609375 
L 50.984375 -23.578125 
L -0.984375 -23.578125 
L -0.984375 -16.609375 
z
" id="DejaVuSans-95"/>
        <path d="M 2.984375 54.6875 
L 12.5 54.6875 
L 29.59375 8.796875 
L 46.6875 54.6875 
L 56.203125 54.6875 
L 35.6875 0 
L 23.484375 0 
z
" id="DejaVuSans-118"/>
        <path d="M 45.40625 27.984375 
Q 45.40625 37.75 41.375 43.109375 
Q 37.359375 48.484375 30.078125 48.484375 
Q 22.859375 48.484375 18.828125 43.109375 
Q 14.796875 37.75 14.796875 27.984375 
Q 14.796875 18.265625 18.828125 12.890625 
Q 22.859375 7.515625 30.078125 7.515625 
Q 37.359375 7.515625 41.375 12.890625 
Q 45.40625 18.265625 45.40625 27.984375 
z
M 54.390625 6.78125 
Q 54.390625 -7.171875 48.1875 -13.984375 
Q 42 -20.796875 29.203125 -20.796875 
Q 24.46875 -20.796875 20.265625 -20.09375 
Q 16.0625 -19.390625 12.109375 -17.921875 
L 12.109375 -9.1875 
Q 16.0625 -11.328125 19.921875 -12.34375 
Q 23.78125 -13.375 27.78125 -13.375 
Q 36.625 -13.375 41.015625 -8.765625 
Q 45.40625 -4.15625 45.40625 5.171875 
L 45.40625 9.625 
Q 42.625 4.78125 38.28125 2.390625 
Q 33.9375 0 27.875 0 
Q 17.828125 0 11.671875 7.65625 
Q 5.515625 15.328125 5.515625 27.984375 
Q 5.515625 40.671875 11.671875 48.328125 
Q 17.828125 56 27.875 56 
Q 33.9375 56 38.28125 53.609375 
Q 42.625 51.21875 45.40625 46.390625 
L 45.40625 54.6875 
L 54.390625 54.6875 
z
" id="DejaVuSans-103"/>
       </defs>
       <use xlink:href="#DejaVuSans-69"/>
       <use x="63.183594" xlink:href="#DejaVuSans-85"/>
       <use x="136.376953" xlink:href="#DejaVuSans-95"/>
       <use x="186.376953" xlink:href="#DejaVuSans-97"/>
       <use x="247.65625" xlink:href="#DejaVuSans-118"/>
       <use x="306.835938" xlink:href="#DejaVuSans-103"/>
      </g>
     </g>
    </g>
    <g id="xtick_13">
     <g id="text_10">
      <!-- DACH -->
      <g style="fill:#262626;" transform="translate(180.726584 731.498218)rotate(-45)scale(0.24 -0.24)">
       <defs>
        <path d="M 34.1875 63.1875 
L 20.796875 26.90625 
L 47.609375 26.90625 
z
M 28.609375 72.90625 
L 39.796875 72.90625 
L 67.578125 0 
L 57.328125 0 
L 50.6875 18.703125 
L 17.828125 18.703125 
L 11.1875 0 
L 0.78125 0 
z
" id="DejaVuSans-65"/>
        <path d="M 64.40625 67.28125 
L 64.40625 56.890625 
Q 59.421875 61.53125 53.78125 63.8125 
Q 48.140625 66.109375 41.796875 66.109375 
Q 29.296875 66.109375 22.65625 58.46875 
Q 16.015625 50.828125 16.015625 36.375 
Q 16.015625 21.96875 22.65625 14.328125 
Q 29.296875 6.6875 41.796875 6.6875 
Q 48.140625 6.6875 53.78125 8.984375 
Q 59.421875 11.28125 64.40625 15.921875 
L 64.40625 5.609375 
Q 59.234375 2.09375 53.4375 0.328125 
Q 47.65625 -1.421875 41.21875 -1.421875 
Q 24.65625 -1.421875 15.125 8.703125 
Q 5.609375 18.84375 5.609375 36.375 
Q 5.609375 53.953125 15.125 64.078125 
Q 24.65625 74.21875 41.21875 74.21875 
Q 47.75 74.21875 53.53125 72.484375 
Q 59.328125 70.75 64.40625 67.28125 
z
" id="DejaVuSans-67"/>
        <path d="M 9.8125 72.90625 
L 19.671875 72.90625 
L 19.671875 43.015625 
L 55.515625 43.015625 
L 55.515625 72.90625 
L 65.375 72.90625 
L 65.375 0 
L 55.515625 0 
L 55.515625 34.71875 
L 19.671875 34.71875 
L 19.671875 0 
L 9.8125 0 
z
" id="DejaVuSans-72"/>
       </defs>
       <use xlink:href="#DejaVuSans-68"/>
       <use x="75.251953" xlink:href="#DejaVuSans-65"/>
       <use x="141.910156" xlink:href="#DejaVuSans-67"/>
       <use x="211.734375" xlink:href="#DejaVuSans-72"/>
      </g>
     </g>
    </g>
    <g id="xtick_14">
     <g id="text_11">
      <!-- diabetes2 -->
      <g style="fill:#262626;" transform="translate(230.204612 766.640541)rotate(-45)scale(0.24 -0.24)">
       <defs>
        <path d="M 45.40625 46.390625 
L 45.40625 75.984375 
L 54.390625 75.984375 
L 54.390625 0 
L 45.40625 0 
L 45.40625 8.203125 
Q 42.578125 3.328125 38.25 0.953125 
Q 33.9375 -1.421875 27.875 -1.421875 
Q 17.96875 -1.421875 11.734375 6.484375 
Q 5.515625 14.40625 5.515625 27.296875 
Q 5.515625 40.1875 11.734375 48.09375 
Q 17.96875 56 27.875 56 
Q 33.9375 56 38.25 53.625 
Q 42.578125 51.265625 45.40625 46.390625 
z
M 14.796875 27.296875 
Q 14.796875 17.390625 18.875 11.75 
Q 22.953125 6.109375 30.078125 6.109375 
Q 37.203125 6.109375 41.296875 11.75 
Q 45.40625 17.390625 45.40625 27.296875 
Q 45.40625 37.203125 41.296875 42.84375 
Q 37.203125 48.484375 30.078125 48.484375 
Q 22.953125 48.484375 18.875 42.84375 
Q 14.796875 37.203125 14.796875 27.296875 
z
" id="DejaVuSans-100"/>
        <path d="M 48.6875 27.296875 
Q 48.6875 37.203125 44.609375 42.84375 
Q 40.53125 48.484375 33.40625 48.484375 
Q 26.265625 48.484375 22.1875 42.84375 
Q 18.109375 37.203125 18.109375 27.296875 
Q 18.109375 17.390625 22.1875 11.75 
Q 26.265625 6.109375 33.40625 6.109375 
Q 40.53125 6.109375 44.609375 11.75 
Q 48.6875 17.390625 48.6875 27.296875 
z
M 18.109375 46.390625 
Q 20.953125 51.265625 25.265625 53.625 
Q 29.59375 56 35.59375 56 
Q 45.5625 56 51.78125 48.09375 
Q 58.015625 40.1875 58.015625 27.296875 
Q 58.015625 14.40625 51.78125 6.484375 
Q 45.5625 -1.421875 35.59375 -1.421875 
Q 29.59375 -1.421875 25.265625 0.953125 
Q 20.953125 3.328125 18.109375 8.203125 
L 18.109375 0 
L 9.078125 0 
L 9.078125 75.984375 
L 18.109375 75.984375 
z
" id="DejaVuSans-98"/>
       </defs>
       <use xlink:href="#DejaVuSans-100"/>
       <use x="63.476562" xlink:href="#DejaVuSans-105"/>
       <use x="91.259766" xlink:href="#DejaVuSans-97"/>
       <use x="152.539062" xlink:href="#DejaVuSans-98"/>
       <use x="216.015625" xlink:href="#DejaVuSans-101"/>
       <use x="277.539062" xlink:href="#DejaVuSans-116"/>
       <use x="316.748047" xlink:href="#DejaVuSans-101"/>
       <use x="378.271484" xlink:href="#DejaVuSans-115"/>
       <use x="430.371094" xlink:href="#DejaVuSans-50"/>
      </g>
     </g>
    </g>
    <g id="xtick_15">
     <g id="text_12">
      <!-- gluten_free -->
      <g style="fill:#262626;" transform="translate(302.158029 778.835481)rotate(-45)scale(0.24 -0.24)">
       <use xlink:href="#DejaVuSans-103"/>
       <use x="63.476562" xlink:href="#DejaVuSans-108"/>
       <use x="91.259766" xlink:href="#DejaVuSans-117"/>
       <use x="154.638672" xlink:href="#DejaVuSans-116"/>
       <use x="193.847656" xlink:href="#DejaVuSans-101"/>
       <use x="255.371094" xlink:href="#DejaVuSans-110"/>
       <use x="318.75" xlink:href="#DejaVuSans-95"/>
       <use x="368.75" xlink:href="#DejaVuSans-102"/>
       <use x="403.955078" xlink:href="#DejaVuSans-114"/>
       <use x="442.818359" xlink:href="#DejaVuSans-101"/>
       <use x="504.341797" xlink:href="#DejaVuSans-101"/>
      </g>
     </g>
    </g>
    <g id="xtick_16">
     <g id="text_13">
      <!-- high_fat -->
      <g style="fill:#262626;" transform="translate(414.29986 751.314002)rotate(-45)scale(0.24 -0.24)">
       <use xlink:href="#DejaVuSans-104"/>
       <use x="63.378906" xlink:href="#DejaVuSans-105"/>
       <use x="91.162109" xlink:href="#DejaVuSans-103"/>
       <use x="154.638672" xlink:href="#DejaVuSans-104"/>
       <use x="218.017578" xlink:href="#DejaVuSans-95"/>
       <use x="268.017578" xlink:href="#DejaVuSans-102"/>
       <use x="303.222656" xlink:href="#DejaVuSans-97"/>
       <use x="364.501953" xlink:href="#DejaVuSans-116"/>
      </g>
     </g>
    </g>
    <g id="xtick_17">
     <g id="text_14">
      <!-- high_fiber -->
      <g style="fill:#262626;" transform="translate(483.065994 767.168219)rotate(-45)scale(0.24 -0.24)">
       <use xlink:href="#DejaVuSans-104"/>
       <use x="63.378906" xlink:href="#DejaVuSans-105"/>
       <use x="91.162109" xlink:href="#DejaVuSans-103"/>
       <use x="154.638672" xlink:href="#DejaVuSans-104"/>
       <use x="218.017578" xlink:href="#DejaVuSans-95"/>
       <use x="268.017578" xlink:href="#DejaVuSans-102"/>
       <use x="303.222656" xlink:href="#DejaVuSans-105"/>
       <use x="331.005859" xlink:href="#DejaVuSans-98"/>
       <use x="394.482422" xlink:href="#DejaVuSans-101"/>
       <use x="456.005859" xlink:href="#DejaVuSans-114"/>
      </g>
     </g>
    </g>
    <g id="xtick_18">
     <g id="text_15">
      <!-- high_protein -->
      <g style="fill:#262626;" transform="translate(546.250403 788.604162)rotate(-45)scale(0.24 -0.24)">
       <use xlink:href="#DejaVuSans-104"/>
       <use x="63.378906" xlink:href="#DejaVuSans-105"/>
       <use x="91.162109" xlink:href="#DejaVuSans-103"/>
       <use x="154.638672" xlink:href="#DejaVuSans-104"/>
       <use x="218.017578" xlink:href="#DejaVuSans-95"/>
       <use x="268.017578" xlink:href="#DejaVuSans-112"/>
       <use x="331.494141" xlink:href="#DejaVuSans-114"/>
       <use x="370.357422" xlink:href="#DejaVuSans-111"/>
       <use x="431.539062" xlink:href="#DejaVuSans-116"/>
       <use x="470.748047" xlink:href="#DejaVuSans-101"/>
       <use x="532.271484" xlink:href="#DejaVuSans-105"/>
       <use x="560.054688" xlink:href="#DejaVuSans-110"/>
      </g>
     </g>
    </g>
    <g id="xtick_19">
     <g id="text_16">
      <!-- mediterranean -->
      <g style="fill:#262626;" transform="translate(611.179598 808.767311)rotate(-45)scale(0.24 -0.24)">
       <use xlink:href="#DejaVuSans-109"/>
       <use x="97.412109" xlink:href="#DejaVuSans-101"/>
       <use x="158.935547" xlink:href="#DejaVuSans-100"/>
       <use x="222.412109" xlink:href="#DejaVuSans-105"/>
       <use x="250.195312" xlink:href="#DejaVuSans-116"/>
       <use x="289.404297" xlink:href="#DejaVuSans-101"/>
       <use x="350.927734" xlink:href="#DejaVuSans-114"/>
       <use x="390.291016" xlink:href="#DejaVuSans-114"/>
       <use x="431.404297" xlink:href="#DejaVuSans-97"/>
       <use x="492.683594" xlink:href="#DejaVuSans-110"/>
       <use x="556.0625" xlink:href="#DejaVuSans-101"/>
       <use x="617.585938" xlink:href="#DejaVuSans-97"/>
       <use x="678.865234" xlink:href="#DejaVuSans-110"/>
      </g>
     </g>
    </g>
    <g id="xtick_20">
     <g id="text_17">
      <!-- unhealthy -->
      <g style="fill:#262626;" transform="translate(736.489525 768.077736)rotate(-45)scale(0.24 -0.24)">
       <use xlink:href="#DejaVuSans-117"/>
       <use x="63.378906" xlink:href="#DejaVuSans-110"/>
       <use x="126.757812" xlink:href="#DejaVuSans-104"/>
       <use x="190.136719" xlink:href="#DejaVuSans-101"/>
       <use x="251.660156" xlink:href="#DejaVuSans-97"/>
       <use x="312.939453" xlink:href="#DejaVuSans-108"/>
       <use x="340.722656" xlink:href="#DejaVuSans-116"/>
       <use x="379.931641" xlink:href="#DejaVuSans-104"/>
       <use x="443.310547" xlink:href="#DejaVuSans-121"/>
      </g>
     </g>
    </g>
    <g id="xtick_21">
     <g id="text_18">
      <!-- vegan -->
      <g style="fill:#262626;" transform="translate(853.969129 735.218483)rotate(-45)scale(0.24 -0.24)">
       <use xlink:href="#DejaVuSans-118"/>
       <use x="59.179688" xlink:href="#DejaVuSans-101"/>
       <use x="120.703125" xlink:href="#DejaVuSans-103"/>
       <use x="184.179688" xlink:href="#DejaVuSans-97"/>
       <use x="245.458984" xlink:href="#DejaVuSans-110"/>
      </g>
     </g>
    </g>
    <g id="xtick_22">
     <g id="text_19">
      <!-- vegetarian -->
      <g style="fill:#262626;" transform="translate(899.40339 774.404573)rotate(-45)scale(0.24 -0.24)">
       <use xlink:href="#DejaVuSans-118"/>
       <use x="59.179688" xlink:href="#DejaVuSans-101"/>
       <use x="120.703125" xlink:href="#DejaVuSans-103"/>
       <use x="184.179688" xlink:href="#DejaVuSans-101"/>
       <use x="245.703125" xlink:href="#DejaVuSans-116"/>
       <use x="284.912109" xlink:href="#DejaVuSans-97"/>
       <use x="346.191406" xlink:href="#DejaVuSans-114"/>
       <use x="387.304688" xlink:href="#DejaVuSans-105"/>
       <use x="415.087891" xlink:href="#DejaVuSans-97"/>
       <use x="476.367188" xlink:href="#DejaVuSans-110"/>
      </g>
     </g>
    </g>
    <g id="text_20">
     <!-- Media -->
     <g style="fill:#262626;" transform="translate(533.887322 835.292752)scale(0.25 -0.25)">
      <defs>
       <path d="M 9.8125 72.90625 
L 24.515625 72.90625 
L 43.109375 23.296875 
L 61.8125 72.90625 
L 76.515625 72.90625 
L 76.515625 0 
L 66.890625 0 
L 66.890625 64.015625 
L 48.09375 14.015625 
L 38.1875 14.015625 
L 19.390625 64.015625 
L 19.390625 0 
L 9.8125 0 
z
" id="DejaVuSans-77"/>
      </defs>
      <use xlink:href="#DejaVuSans-77"/>
      <use x="86.279297" xlink:href="#DejaVuSans-101"/>
      <use x="147.802734" xlink:href="#DejaVuSans-100"/>
      <use x="211.279297" xlink:href="#DejaVuSans-105"/>
      <use x="239.0625" xlink:href="#DejaVuSans-97"/>
     </g>
    </g>
   </g>
   <g id="matplotlib.axis_4">
    <g id="ytick_4">
     <g id="line2d_26">
      <path clip-path="url(#p6e9f71d07a)" d="M 106.020313 662.908333 
L 1036.844176 662.908333 
" style="fill:none;stroke:#cccccc;stroke-linecap:round;stroke-width:0.8;"/>
     </g>
     <g id="text_21">
      <!-- 0 -->
      <g style="fill:#262626;" transform="translate(83.114063 672.40638)scale(0.25 -0.25)">
       <use xlink:href="#DejaVuSans-48"/>
      </g>
     </g>
    </g>
    <g id="ytick_5">
     <g id="line2d_27">
      <path clip-path="url(#p6e9f71d07a)" d="M 106.020313 561.213022 
L 1036.844176 561.213022 
" style="fill:none;stroke:#cccccc;stroke-linecap:round;stroke-width:0.8;"/>
     </g>
     <g id="text_22">
      <!-- 1000 -->
      <g style="fill:#262626;" transform="translate(35.395313 570.711069)scale(0.25 -0.25)">
       <use xlink:href="#DejaVuSans-49"/>
       <use x="63.623047" xlink:href="#DejaVuSans-48"/>
       <use x="127.246094" xlink:href="#DejaVuSans-48"/>
       <use x="190.869141" xlink:href="#DejaVuSans-48"/>
      </g>
     </g>
    </g>
    <g id="ytick_6">
     <g id="line2d_28">
      <path clip-path="url(#p6e9f71d07a)" d="M 106.020313 459.517711 
L 1036.844176 459.517711 
" style="fill:none;stroke:#cccccc;stroke-linecap:round;stroke-width:0.8;"/>
     </g>
     <g id="text_23">
      <!-- 2000 -->
      <g style="fill:#262626;" transform="translate(35.395313 469.015758)scale(0.25 -0.25)">
       <use xlink:href="#DejaVuSans-50"/>
       <use x="63.623047" xlink:href="#DejaVuSans-48"/>
       <use x="127.246094" xlink:href="#DejaVuSans-48"/>
       <use x="190.869141" xlink:href="#DejaVuSans-48"/>
      </g>
     </g>
    </g>
    <g id="text_24">
     <!-- OD at final time point -->
     <g style="fill:#262626;" transform="translate(26.196094 682.662891)rotate(-90)scale(0.25 -0.25)">
      <use xlink:href="#DejaVuSans-79"/>
      <use x="78.710938" xlink:href="#DejaVuSans-68"/>
      <use x="155.712891" xlink:href="#DejaVuSans-32"/>
      <use x="187.5" xlink:href="#DejaVuSans-97"/>
      <use x="248.779297" xlink:href="#DejaVuSans-116"/>
      <use x="287.988281" xlink:href="#DejaVuSans-32"/>
      <use x="319.775391" xlink:href="#DejaVuSans-102"/>
      <use x="354.980469" xlink:href="#DejaVuSans-105"/>
      <use x="382.763672" xlink:href="#DejaVuSans-110"/>
      <use x="446.142578" xlink:href="#DejaVuSans-97"/>
      <use x="507.421875" xlink:href="#DejaVuSans-108"/>
      <use x="535.205078" xlink:href="#DejaVuSans-32"/>
      <use x="566.992188" xlink:href="#DejaVuSans-116"/>
      <use x="606.201172" xlink:href="#DejaVuSans-105"/>
      <use x="633.984375" xlink:href="#DejaVuSans-109"/>
      <use x="731.396484" xlink:href="#DejaVuSans-101"/>
      <use x="792.919922" xlink:href="#DejaVuSans-32"/>
      <use x="824.707031" xlink:href="#DejaVuSans-112"/>
      <use x="888.183594" xlink:href="#DejaVuSans-111"/>
      <use x="949.365234" xlink:href="#DejaVuSans-105"/>
      <use x="977.148438" xlink:href="#DejaVuSans-110"/>
      <use x="1040.527344" xlink:href="#DejaVuSans-116"/>
     </g>
    </g>
   </g>
   <g id="patch_31">
    <path clip-path="url(#p6e9f71d07a)" d="M 114.482348 662.908333 
L 148.330488 662.908333 
L 148.330488 547.884835 
L 114.482348 547.884835 
z
" style="fill:#e2a936;stroke:#ffffff;stroke-linejoin:miter;"/>
   </g>
   <g id="patch_32">
    <path clip-path="url(#p6e9f71d07a)" d="M 199.102699 662.908333 
L 232.950839 662.908333 
L 232.950839 550.840779 
L 199.102699 550.840779 
z
" style="fill:#e2a936;stroke:#ffffff;stroke-linejoin:miter;"/>
   </g>
   <g id="patch_33">
    <path clip-path="url(#p6e9f71d07a)" d="M 283.72305 662.908333 
L 317.571191 662.908333 
L 317.571191 543.863124 
L 283.72305 543.863124 
z
" style="fill:#e2a936;stroke:#ffffff;stroke-linejoin:miter;"/>
   </g>
   <g id="patch_34">
    <path clip-path="url(#p6e9f71d07a)" d="M 368.343401 662.908333 
L 402.191542 662.908333 
L 402.191542 500.903974 
L 368.343401 500.903974 
z
" style="fill:#e2a936;stroke:#ffffff;stroke-linejoin:miter;"/>
   </g>
   <g id="patch_35">
    <path clip-path="url(#p6e9f71d07a)" d="M 452.963753 662.908333 
L 486.811893 662.908333 
L 486.811893 607.043404 
L 452.963753 607.043404 
z
" style="fill:#e2a936;stroke:#ffffff;stroke-linejoin:miter;"/>
   </g>
   <g id="patch_36">
    <path clip-path="url(#p6e9f71d07a)" d="M 537.584104 662.908333 
L 571.432244 662.908333 
L 571.432244 516.82946 
L 537.584104 516.82946 
z
" style="fill:#e2a936;stroke:#ffffff;stroke-linejoin:miter;"/>
   </g>
   <g id="patch_37">
    <path clip-path="url(#p6e9f71d07a)" d="M 622.204455 662.908333 
L 656.052596 662.908333 
L 656.052596 543.729564 
L 622.204455 543.729564 
z
" style="fill:#e2a936;stroke:#ffffff;stroke-linejoin:miter;"/>
   </g>
   <g id="patch_38">
    <path clip-path="url(#p6e9f71d07a)" d="M 706.824806 662.908333 
L 740.672947 662.908333 
L 740.672947 509.725703 
L 706.824806 509.725703 
z
" style="fill:#e2a936;stroke:#ffffff;stroke-linejoin:miter;"/>
   </g>
   <g id="patch_39">
    <path clip-path="url(#p6e9f71d07a)" d="M 791.445158 662.908333 
L 825.293298 662.908333 
L 825.293298 561.030988 
L 791.445158 561.030988 
z
" style="fill:#e2a936;stroke:#ffffff;stroke-linejoin:miter;"/>
   </g>
   <g id="patch_40">
    <path clip-path="url(#p6e9f71d07a)" d="M 876.065509 662.908333 
L 909.913649 662.908333 
L 909.913649 527.992215 
L 876.065509 527.992215 
z
" style="fill:#e2a936;stroke:#ffffff;stroke-linejoin:miter;"/>
   </g>
   <g id="patch_41">
    <path clip-path="url(#p6e9f71d07a)" d="M 960.68586 662.908333 
L 994.534001 662.908333 
L 994.534001 547.444494 
L 960.68586 547.444494 
z
" style="fill:#e2a936;stroke:#ffffff;stroke-linejoin:miter;"/>
   </g>
   <g id="patch_42">
    <path clip-path="url(#p6e9f71d07a)" d="M 148.330488 662.908333 
L 182.178629 662.908333 
L 182.178629 651.152254 
L 148.330488 651.152254 
z
" style="fill:#a5abc1;stroke:#ffffff;stroke-linejoin:miter;"/>
   </g>
   <g id="patch_43">
    <path clip-path="url(#p6e9f71d07a)" d="M 232.950839 662.908333 
L 266.79898 662.908333 
L 266.79898 651.152254 
L 232.950839 651.152254 
z
" style="fill:#a5abc1;stroke:#ffffff;stroke-linejoin:miter;"/>
   </g>
   <g id="patch_44">
    <path clip-path="url(#p6e9f71d07a)" d="M 317.571191 662.908333 
L 351.419331 662.908333 
L 351.419331 651.152254 
L 317.571191 651.152254 
z
" style="fill:#a5abc1;stroke:#ffffff;stroke-linejoin:miter;"/>
   </g>
   <g id="patch_45">
    <path clip-path="url(#p6e9f71d07a)" d="M 402.191542 662.908333 
L 436.039682 662.908333 
L 436.039682 651.152254 
L 402.191542 651.152254 
z
" style="fill:#a5abc1;stroke:#ffffff;stroke-linejoin:miter;"/>
   </g>
   <g id="patch_46">
    <path clip-path="url(#p6e9f71d07a)" d="M 486.811893 662.908333 
L 520.660034 662.908333 
L 520.660034 660.174102 
L 486.811893 660.174102 
z
" style="fill:#a5abc1;stroke:#ffffff;stroke-linejoin:miter;"/>
   </g>
   <g id="patch_47">
    <path clip-path="url(#p6e9f71d07a)" d="M 571.432244 662.908333 
L 605.280385 662.908333 
L 605.280385 651.152254 
L 571.432244 651.152254 
z
" style="fill:#a5abc1;stroke:#ffffff;stroke-linejoin:miter;"/>
   </g>
   <g id="patch_48">
    <path clip-path="url(#p6e9f71d07a)" d="M 656.052596 662.908333 
L 689.900736 662.908333 
L 689.900736 651.152254 
L 656.052596 651.152254 
z
" style="fill:#a5abc1;stroke:#ffffff;stroke-linejoin:miter;"/>
   </g>
   <g id="patch_49">
    <path clip-path="url(#p6e9f71d07a)" d="M 740.672947 662.908333 
L 774.521087 662.908333 
L 774.521087 651.152254 
L 740.672947 651.152254 
z
" style="fill:#a5abc1;stroke:#ffffff;stroke-linejoin:miter;"/>
   </g>
   <g id="patch_50">
    <path clip-path="url(#p6e9f71d07a)" d="M 825.293298 662.908333 
L 859.141439 662.908333 
L 859.141439 651.152254 
L 825.293298 651.152254 
z
" style="fill:#a5abc1;stroke:#ffffff;stroke-linejoin:miter;"/>
   </g>
   <g id="patch_51">
    <path clip-path="url(#p6e9f71d07a)" d="M 909.913649 662.908333 
L 943.76179 662.908333 
L 943.76179 651.152254 
L 909.913649 651.152254 
z
" style="fill:#a5abc1;stroke:#ffffff;stroke-linejoin:miter;"/>
   </g>
   <g id="patch_52">
    <path clip-path="url(#p6e9f71d07a)" d="M 994.534001 662.908333 
L 1028.382141 662.908333 
L 1028.382141 651.152254 
L 994.534001 651.152254 
z
" style="fill:#a5abc1;stroke:#ffffff;stroke-linejoin:miter;"/>
   </g>
   <g id="line2d_29">
    <path clip-path="url(#p6e9f71d07a)" d="M 131.406418 551.161032 
L 131.406418 544.608638 
" style="fill:none;stroke:#424242;stroke-linecap:round;stroke-width:2.7;"/>
   </g>
   <g id="line2d_30">
    <path clip-path="url(#p6e9f71d07a)" d="M 216.026769 550.841258 
L 216.026769 550.840299 
" style="fill:none;stroke:#424242;stroke-linecap:round;stroke-width:2.7;"/>
   </g>
   <g id="line2d_31">
    <path clip-path="url(#p6e9f71d07a)" d="M 300.64712 548.492175 
L 300.64712 539.234074 
" style="fill:none;stroke:#424242;stroke-linecap:round;stroke-width:2.7;"/>
   </g>
   <g id="line2d_32">
    <path clip-path="url(#p6e9f71d07a)" d="M 385.267472 558.344059 
L 385.267472 443.463889 
" style="fill:none;stroke:#424242;stroke-linecap:round;stroke-width:2.7;"/>
   </g>
   <g id="line2d_33">
    <path clip-path="url(#p6e9f71d07a)" d="M 469.887823 607.043452 
L 469.887823 607.043356 
" style="fill:none;stroke:#424242;stroke-linecap:round;stroke-width:2.7;"/>
   </g>
   <g id="line2d_34">
    <path clip-path="url(#p6e9f71d07a)" d="M 554.508174 516.895137 
L 554.508174 516.763783 
" style="fill:none;stroke:#424242;stroke-linecap:round;stroke-width:2.7;"/>
   </g>
   <g id="line2d_35">
    <path clip-path="url(#p6e9f71d07a)" d="M 639.128525 543.743946 
L 639.128525 543.715183 
" style="fill:none;stroke:#424242;stroke-linecap:round;stroke-width:2.7;"/>
   </g>
   <g id="line2d_36">
    <path clip-path="url(#p6e9f71d07a)" d="M 723.748877 509.794736 
L 723.748877 509.65667 
" style="fill:none;stroke:#424242;stroke-linecap:round;stroke-width:2.7;"/>
   </g>
   <g id="line2d_37">
    <path clip-path="url(#p6e9f71d07a)" d="M 808.369228 561.030988 
L 808.369228 561.030988 
" style="fill:none;stroke:#424242;stroke-linecap:round;stroke-width:2.7;"/>
   </g>
   <g id="line2d_38">
    <path clip-path="url(#p6e9f71d07a)" d="M 892.989579 527.992215 
L 892.989579 527.992215 
" style="fill:none;stroke:#424242;stroke-linecap:round;stroke-width:2.7;"/>
   </g>
   <g id="line2d_39">
    <path clip-path="url(#p6e9f71d07a)" d="M 977.60993 547.444494 
L 977.60993 547.444494 
" style="fill:none;stroke:#424242;stroke-linecap:round;stroke-width:2.7;"/>
   </g>
   <g id="line2d_40">
    <path clip-path="url(#p6e9f71d07a)" d="M 165.254558 651.152254 
L 165.254558 651.152254 
" style="fill:none;stroke:#424242;stroke-linecap:round;stroke-width:2.7;"/>
   </g>
   <g id="line2d_41">
    <path clip-path="url(#p6e9f71d07a)" d="M 249.87491 651.152254 
L 249.87491 651.152254 
" style="fill:none;stroke:#424242;stroke-linecap:round;stroke-width:2.7;"/>
   </g>
   <g id="line2d_42">
    <path clip-path="url(#p6e9f71d07a)" d="M 334.495261 651.152254 
L 334.495261 651.152254 
" style="fill:none;stroke:#424242;stroke-linecap:round;stroke-width:2.7;"/>
   </g>
   <g id="line2d_43">
    <path clip-path="url(#p6e9f71d07a)" d="M 419.115612 651.152254 
L 419.115612 651.152254 
" style="fill:none;stroke:#424242;stroke-linecap:round;stroke-width:2.7;"/>
   </g>
   <g id="line2d_44">
    <path clip-path="url(#p6e9f71d07a)" d="M 503.735963 660.174102 
L 503.735963 660.174102 
" style="fill:none;stroke:#424242;stroke-linecap:round;stroke-width:2.7;"/>
   </g>
   <g id="line2d_45">
    <path clip-path="url(#p6e9f71d07a)" d="M 588.356315 651.152254 
L 588.356315 651.152254 
" style="fill:none;stroke:#424242;stroke-linecap:round;stroke-width:2.7;"/>
   </g>
   <g id="line2d_46">
    <path clip-path="url(#p6e9f71d07a)" d="M 672.976666 651.152254 
L 672.976666 651.152254 
" style="fill:none;stroke:#424242;stroke-linecap:round;stroke-width:2.7;"/>
   </g>
   <g id="line2d_47">
    <path clip-path="url(#p6e9f71d07a)" d="M 757.597017 651.152254 
L 757.597017 651.152254 
" style="fill:none;stroke:#424242;stroke-linecap:round;stroke-width:2.7;"/>
   </g>
   <g id="line2d_48">
    <path clip-path="url(#p6e9f71d07a)" d="M 842.217368 651.152254 
L 842.217368 651.152254 
" style="fill:none;stroke:#424242;stroke-linecap:round;stroke-width:2.7;"/>
   </g>
   <g id="line2d_49">
    <path clip-path="url(#p6e9f71d07a)" d="M 926.83772 651.152254 
L 926.83772 651.152254 
" style="fill:none;stroke:#424242;stroke-linecap:round;stroke-width:2.7;"/>
   </g>
   <g id="line2d_50">
    <path clip-path="url(#p6e9f71d07a)" d="M 1011.458071 651.152254 
L 1011.458071 651.152254 
" style="fill:none;stroke:#424242;stroke-linecap:round;stroke-width:2.7;"/>
   </g>
   <g id="patch_53">
    <path d="M 106.020313 662.908333 
L 106.020313 432.491667 
" style="fill:none;stroke:#cccccc;stroke-linecap:square;stroke-linejoin:miter;stroke-width:0.8;"/>
   </g>
   <g id="patch_54">
    <path d="M 106.020313 662.908333 
L 1036.844176 662.908333 
" style="fill:none;stroke:#cccccc;stroke-linecap:square;stroke-linejoin:miter;stroke-width:0.8;"/>
   </g>
   <g id="text_25">
    <!-- Continuous culture -->
    <g style="fill:#262626;" transform="translate(429.581463 426.491667)scale(0.3 -0.3)">
     <use xlink:href="#DejaVuSans-67"/>
     <use x="69.824219" xlink:href="#DejaVuSans-111"/>
     <use x="131.005859" xlink:href="#DejaVuSans-110"/>
     <use x="194.384766" xlink:href="#DejaVuSans-116"/>
     <use x="233.59375" xlink:href="#DejaVuSans-105"/>
     <use x="261.376953" xlink:href="#DejaVuSans-110"/>
     <use x="324.755859" xlink:href="#DejaVuSans-117"/>
     <use x="388.134766" xlink:href="#DejaVuSans-111"/>
     <use x="449.316406" xlink:href="#DejaVuSans-117"/>
     <use x="512.695312" xlink:href="#DejaVuSans-115"/>
     <use x="564.794922" xlink:href="#DejaVuSans-32"/>
     <use x="596.582031" xlink:href="#DejaVuSans-99"/>
     <use x="651.5625" xlink:href="#DejaVuSans-117"/>
     <use x="714.941406" xlink:href="#DejaVuSans-108"/>
     <use x="742.724609" xlink:href="#DejaVuSans-116"/>
     <use x="781.933594" xlink:href="#DejaVuSans-117"/>
     <use x="845.3125" xlink:href="#DejaVuSans-114"/>
     <use x="884.175781" xlink:href="#DejaVuSans-101"/>
    </g>
   </g>
  </g>
  <g id="text_26">
   <!-- setA_22 -->
   <g style="fill:#262626;" transform="translate(478.660547 42.284896)scale(0.35 -0.35)">
    <use xlink:href="#DejaVuSans-115"/>
    <use x="52.099609" xlink:href="#DejaVuSans-101"/>
    <use x="113.623047" xlink:href="#DejaVuSans-116"/>
    <use x="152.832031" xlink:href="#DejaVuSans-65"/>
    <use x="221.240234" xlink:href="#DejaVuSans-95"/>
    <use x="271.240234" xlink:href="#DejaVuSans-50"/>
    <use x="334.863281" xlink:href="#DejaVuSans-50"/>
   </g>
  </g>
 </g>
 <defs>
  <clipPath id="p4ca3f64da5">
   <rect height="230.416667" width="930.823864" x="106.020313" y="109.908333"/>
  </clipPath>
  <clipPath id="p6e9f71d07a">
   <rect height="230.416667" width="930.823864" x="106.020313" y="432.491667"/>
  </clipPath>
 </defs>
</svg>
