	H_metabolite	cluster
high_fat	4.484433083893819	B
gluten_free	4.611951249648427	A2a
high_protein	4.755000681328304	A2a
vegan	4.773763283192754	A2b
mediterranean	4.804005283434383	A1
EU_avg	4.822309130019545	A1
vegetarian	4.876797217614488	A2b
unhealthy	4.9262899240606455	B
diabetes2	4.966542377487106	A2b
high_fiber	5.006734170915127	A2b
DACH	5.013573615496297	A2b
