<?xml version="1.0" encoding="utf-8" standalone="no"?>
<!DOCTYPE svg PUBLIC "-//W3C//DTD SVG 1.1//EN"
  "http://www.w3.org/Graphics/SVG/1.1/DTD/svg11.dtd">
<!-- Created with matplotlib (https://matplotlib.org/) -->
<svg height="1428.786719pt" version="1.1" viewBox="0 0 1608.532813 1428.786719" width="1608.532813pt" xmlns="http://www.w3.org/2000/svg" xmlns:xlink="http://www.w3.org/1999/xlink">
 <metadata>
  <rdf:RDF xmlns:cc="http://creativecommons.org/ns#" xmlns:dc="http://purl.org/dc/elements/1.1/" xmlns:rdf="http://www.w3.org/1999/02/22-rdf-syntax-ns#">
   <cc:Work>
    <dc:type rdf:resource="http://purl.org/dc/dcmitype/StillImage"/>
    <dc:date>2021-03-12T10:59:34.331514</dc:date>
    <dc:format>image/svg+xml</dc:format>
    <dc:creator>
     <cc:Agent>
      <dc:title>Matplotlib v3.3.4, https://matplotlib.org/</dc:title>
     </cc:Agent>
    </dc:creator>
   </cc:Work>
  </rdf:RDF>
 </metadata>
 <defs>
  <style type="text/css">*{stroke-linecap:butt;stroke-linejoin:round;}</style>
 </defs>
 <g id="figure_1">
  <g id="patch_1">
   <path d="M 0 1428.786719 
L 1608.532813 1428.786719 
L 1608.532813 0 
L 0 0 
z
" style="fill:none;"/>
  </g>
  <g id="axes_1">
   <g id="patch_2">
    <path d="M 74.207813 321.196094 
L 533.999479 321.196094 
L 533.999479 32.196094 
L 74.207813 32.196094 
z
" style="fill:none;"/>
   </g>
   <g id="matplotlib.axis_1">
    <g id="xtick_1">
     <g id="line2d_1">
      <path clip-path="url(#p09e1377a81)" d="M 95.107434 321.196094 
L 95.107434 32.196094 
" style="fill:none;stroke:#cccccc;stroke-linecap:round;stroke-width:0.8;"/>
     </g>
    </g>
    <g id="xtick_2">
     <g id="line2d_2">
      <path clip-path="url(#p09e1377a81)" d="M 332.434573 321.196094 
L 332.434573 32.196094 
" style="fill:none;stroke:#cccccc;stroke-linecap:round;stroke-width:0.8;"/>
     </g>
    </g>
   </g>
   <g id="matplotlib.axis_2">
    <g id="ytick_1">
     <g id="line2d_3">
      <path clip-path="url(#p09e1377a81)" d="M 74.207813 308.063422 
L 533.999479 308.063422 
" style="fill:none;stroke:#cccccc;stroke-linecap:round;stroke-width:0.8;"/>
     </g>
     <g id="text_1">
      <!-- 0 -->
      <g style="fill:#262626;" transform="translate(51.301563 317.561469)scale(0.25 -0.25)">
       <defs>
        <path d="M 31.78125 66.40625 
Q 24.171875 66.40625 20.328125 58.90625 
Q 16.5 51.421875 16.5 36.375 
Q 16.5 21.390625 20.328125 13.890625 
Q 24.171875 6.390625 31.78125 6.390625 
Q 39.453125 6.390625 43.28125 13.890625 
Q 47.125 21.390625 47.125 36.375 
Q 47.125 51.421875 43.28125 58.90625 
Q 39.453125 66.40625 31.78125 66.40625 
z
M 31.78125 74.21875 
Q 44.046875 74.21875 50.515625 64.515625 
Q 56.984375 54.828125 56.984375 36.375 
Q 56.984375 17.96875 50.515625 8.265625 
Q 44.046875 -1.421875 31.78125 -1.421875 
Q 19.53125 -1.421875 13.0625 8.265625 
Q 6.59375 17.96875 6.59375 36.375 
Q 6.59375 54.828125 13.0625 64.515625 
Q 19.53125 74.21875 31.78125 74.21875 
z
" id="DejaVuSans-48"/>
       </defs>
       <use xlink:href="#DejaVuSans-48"/>
      </g>
     </g>
    </g>
    <g id="ytick_2">
     <g id="line2d_4">
      <path clip-path="url(#p09e1377a81)" d="M 74.207813 234.221416 
L 533.999479 234.221416 
" style="fill:none;stroke:#cccccc;stroke-linecap:round;stroke-width:0.8;"/>
     </g>
     <g id="text_2">
      <!-- 20 -->
      <g style="fill:#262626;" transform="translate(35.395313 243.719463)scale(0.25 -0.25)">
       <defs>
        <path d="M 19.1875 8.296875 
L 53.609375 8.296875 
L 53.609375 0 
L 7.328125 0 
L 7.328125 8.296875 
Q 12.9375 14.109375 22.625 23.890625 
Q 32.328125 33.6875 34.8125 36.53125 
Q 39.546875 41.84375 41.421875 45.53125 
Q 43.3125 49.21875 43.3125 52.78125 
Q 43.3125 58.59375 39.234375 62.25 
Q 35.15625 65.921875 28.609375 65.921875 
Q 23.96875 65.921875 18.8125 64.3125 
Q 13.671875 62.703125 7.8125 59.421875 
L 7.8125 69.390625 
Q 13.765625 71.78125 18.9375 73 
Q 24.125 74.21875 28.421875 74.21875 
Q 39.75 74.21875 46.484375 68.546875 
Q 53.21875 62.890625 53.21875 53.421875 
Q 53.21875 48.921875 51.53125 44.890625 
Q 49.859375 40.875 45.40625 35.40625 
Q 44.1875 33.984375 37.640625 27.21875 
Q 31.109375 20.453125 19.1875 8.296875 
z
" id="DejaVuSans-50"/>
       </defs>
       <use xlink:href="#DejaVuSans-50"/>
       <use x="63.623047" xlink:href="#DejaVuSans-48"/>
      </g>
     </g>
    </g>
    <g id="ytick_3">
     <g id="line2d_5">
      <path clip-path="url(#p09e1377a81)" d="M 74.207813 160.37941 
L 533.999479 160.37941 
" style="fill:none;stroke:#cccccc;stroke-linecap:round;stroke-width:0.8;"/>
     </g>
     <g id="text_3">
      <!-- 40 -->
      <g style="fill:#262626;" transform="translate(35.395313 169.877457)scale(0.25 -0.25)">
       <defs>
        <path d="M 37.796875 64.3125 
L 12.890625 25.390625 
L 37.796875 25.390625 
z
M 35.203125 72.90625 
L 47.609375 72.90625 
L 47.609375 25.390625 
L 58.015625 25.390625 
L 58.015625 17.1875 
L 47.609375 17.1875 
L 47.609375 0 
L 37.796875 0 
L 37.796875 17.1875 
L 4.890625 17.1875 
L 4.890625 26.703125 
z
" id="DejaVuSans-52"/>
       </defs>
       <use xlink:href="#DejaVuSans-52"/>
       <use x="63.623047" xlink:href="#DejaVuSans-48"/>
      </g>
     </g>
    </g>
    <g id="ytick_4">
     <g id="line2d_6">
      <path clip-path="url(#p09e1377a81)" d="M 74.207813 86.537404 
L 533.999479 86.537404 
" style="fill:none;stroke:#cccccc;stroke-linecap:round;stroke-width:0.8;"/>
     </g>
     <g id="text_4">
      <!-- 60 -->
      <g style="fill:#262626;" transform="translate(35.395313 96.035451)scale(0.25 -0.25)">
       <defs>
        <path d="M 33.015625 40.375 
Q 26.375 40.375 22.484375 35.828125 
Q 18.609375 31.296875 18.609375 23.390625 
Q 18.609375 15.53125 22.484375 10.953125 
Q 26.375 6.390625 33.015625 6.390625 
Q 39.65625 6.390625 43.53125 10.953125 
Q 47.40625 15.53125 47.40625 23.390625 
Q 47.40625 31.296875 43.53125 35.828125 
Q 39.65625 40.375 33.015625 40.375 
z
M 52.59375 71.296875 
L 52.59375 62.3125 
Q 48.875 64.0625 45.09375 64.984375 
Q 41.3125 65.921875 37.59375 65.921875 
Q 27.828125 65.921875 22.671875 59.328125 
Q 17.53125 52.734375 16.796875 39.40625 
Q 19.671875 43.65625 24.015625 45.921875 
Q 28.375 48.1875 33.59375 48.1875 
Q 44.578125 48.1875 50.953125 41.515625 
Q 57.328125 34.859375 57.328125 23.390625 
Q 57.328125 12.15625 50.6875 5.359375 
Q 44.046875 -1.421875 33.015625 -1.421875 
Q 20.359375 -1.421875 13.671875 8.265625 
Q 6.984375 17.96875 6.984375 36.375 
Q 6.984375 53.65625 15.1875 63.9375 
Q 23.390625 74.21875 37.203125 74.21875 
Q 40.921875 74.21875 44.703125 73.484375 
Q 48.484375 72.75 52.59375 71.296875 
z
" id="DejaVuSans-54"/>
       </defs>
       <use xlink:href="#DejaVuSans-54"/>
       <use x="63.623047" xlink:href="#DejaVuSans-48"/>
      </g>
     </g>
    </g>
    <g id="text_5">
     <!-- od -->
     <g style="fill:#262626;" transform="translate(26.196094 192.280078)rotate(-90)scale(0.25 -0.25)">
      <defs>
       <path d="M 30.609375 48.390625 
Q 23.390625 48.390625 19.1875 42.75 
Q 14.984375 37.109375 14.984375 27.296875 
Q 14.984375 17.484375 19.15625 11.84375 
Q 23.34375 6.203125 30.609375 6.203125 
Q 37.796875 6.203125 41.984375 11.859375 
Q 46.1875 17.53125 46.1875 27.296875 
Q 46.1875 37.015625 41.984375 42.703125 
Q 37.796875 48.390625 30.609375 48.390625 
z
M 30.609375 56 
Q 42.328125 56 49.015625 48.375 
Q 55.71875 40.765625 55.71875 27.296875 
Q 55.71875 13.875 49.015625 6.21875 
Q 42.328125 -1.421875 30.609375 -1.421875 
Q 18.84375 -1.421875 12.171875 6.21875 
Q 5.515625 13.875 5.515625 27.296875 
Q 5.515625 40.765625 12.171875 48.375 
Q 18.84375 56 30.609375 56 
z
" id="DejaVuSans-111"/>
       <path d="M 45.40625 46.390625 
L 45.40625 75.984375 
L 54.390625 75.984375 
L 54.390625 0 
L 45.40625 0 
L 45.40625 8.203125 
Q 42.578125 3.328125 38.25 0.953125 
Q 33.9375 -1.421875 27.875 -1.421875 
Q 17.96875 -1.421875 11.734375 6.484375 
Q 5.515625 14.40625 5.515625 27.296875 
Q 5.515625 40.1875 11.734375 48.09375 
Q 17.96875 56 27.875 56 
Q 33.9375 56 38.25 53.625 
Q 42.578125 51.265625 45.40625 46.390625 
z
M 14.796875 27.296875 
Q 14.796875 17.390625 18.875 11.75 
Q 22.953125 6.109375 30.078125 6.109375 
Q 37.203125 6.109375 41.296875 11.75 
Q 45.40625 17.390625 45.40625 27.296875 
Q 45.40625 37.203125 41.296875 42.84375 
Q 37.203125 48.484375 30.078125 48.484375 
Q 22.953125 48.484375 18.875 42.84375 
Q 14.796875 37.203125 14.796875 27.296875 
z
" id="DejaVuSans-100"/>
      </defs>
      <use xlink:href="#DejaVuSans-111"/>
      <use x="61.181641" xlink:href="#DejaVuSans-100"/>
     </g>
    </g>
   </g>
   <g id="line2d_7">
    <path clip-path="url(#p09e1377a81)" d="M 95.107434 308.05973 
L 96.558009 308.058878 
L 98.031079 308.057811 
L 99.80924 308.056184 
L 100.758549 308.05513 
L 102.657166 308.05254 
L 104.041218 308.050155 
L 105.797518 308.046362 
L 106.746827 308.043878 
L 107.696135 308.041033 
L 108.645444 308.037773 
L 109.594752 308.034039 
L 111.246391 308.0262 
L 112.566563 308.018456 
L 113.668315 308.010773 
L 114.626523 308.003031 
L 115.834439 307.991629 
L 117.02594 307.978276 
L 118.169659 307.963126 
L 119.144915 307.948097 
L 120.19667 307.929356 
L 121.213538 307.908346 
L 122.301366 307.882212 
L 123.340978 307.85313 
L 124.373588 307.819626 
L 125.365101 307.782442 
L 126.393717 307.737864 
L 127.359124 307.689612 
L 128.328368 307.633972 
L 129.289741 307.570608 
L 130.262189 307.497002 
L 131.240847 307.411822 
L 132.203287 307.315573 
L 133.170277 307.204555 
L 134.125123 307.078772 
L 135.080444 306.934526 
L 136.040828 306.768126 
L 136.990532 306.579582 
L 137.954871 306.360061 
L 138.915255 306.109134 
L 139.872474 305.822251 
L 140.829298 305.493403 
L 141.780189 305.118932 
L 142.737013 304.687107 
L 143.687113 304.195799 
L 144.640772 303.63065 
L 145.591267 302.985677 
L 146.541367 302.246998 
L 147.491467 301.401249 
L 148.441171 300.43366 
L 148.5274 300.339142 
L 149.477499 299.216485 
L 150.427994 297.931413 
L 151.377698 296.461699 
L 152.328194 294.777842 
L 153.14183 293.145122 
L 154.091534 290.984985 
L 155.041634 288.514231 
L 155.991338 285.689516 
L 156.941042 282.462362 
L 157.890351 278.777424 
L 157.927532 278.623094 
L 158.877632 274.391726 
L 159.827336 269.565892 
L 160.77704 264.064294 
L 161.049966 262.34599 
L 161.999275 255.843832 
L 162.875803 249.053322 
L 163.825507 240.730958 
L 164.706386 232.011325 
L 165.655695 221.411305 
L 166.605399 209.422317 
L 167.28455 199.912943 
L 167.329247 199.258703 
L 168.278555 184.430859 
L 169.228259 167.694569 
L 169.682741 158.943552 
L 170.454054 142.922422 
L 171.403362 120.961809 
L 172.352671 96.375744 
L 173.30198 69.408643 
L 174.251684 45.815015 
L 175.202574 45.332457 
L 176.155443 45.332457 
L 177.105543 45.332457 
L 178.058015 45.332457 
L 179.012466 45.332457 
L 179.963752 45.332457 
L 180.917412 45.332457 
L 181.867512 45.332457 
L 182.819985 45.332457 
L 183.774831 45.332457 
L 184.726117 45.332457 
L 185.677403 45.332457 
L 186.627898 45.332457 
L 187.580371 45.332457 
L 188.535218 45.332457 
L 189.486504 45.332457 
L 189.671223 45.332457 
" style="fill:none;stroke:#4682b4;stroke-linecap:round;stroke-width:3;"/>
   </g>
   <g id="patch_3">
    <path d="M 74.207813 321.196094 
L 74.207813 32.196094 
" style="fill:none;stroke:#cccccc;stroke-linecap:square;stroke-linejoin:miter;stroke-width:0.8;"/>
   </g>
   <g id="patch_4">
    <path d="M 74.207812 321.196094 
L 533.999479 321.196094 
" style="fill:none;stroke:#cccccc;stroke-linecap:square;stroke-linejoin:miter;stroke-width:0.8;"/>
   </g>
   <g id="text_6">
    <!-- media = EU_avg -->
    <g style="fill:#262626;" transform="translate(200.457161 26.196094)scale(0.25 -0.25)">
     <defs>
      <path d="M 52 44.1875 
Q 55.375 50.25 60.0625 53.125 
Q 64.75 56 71.09375 56 
Q 79.640625 56 84.28125 50.015625 
Q 88.921875 44.046875 88.921875 33.015625 
L 88.921875 0 
L 79.890625 0 
L 79.890625 32.71875 
Q 79.890625 40.578125 77.09375 44.375 
Q 74.3125 48.1875 68.609375 48.1875 
Q 61.625 48.1875 57.5625 43.546875 
Q 53.515625 38.921875 53.515625 30.90625 
L 53.515625 0 
L 44.484375 0 
L 44.484375 32.71875 
Q 44.484375 40.625 41.703125 44.40625 
Q 38.921875 48.1875 33.109375 48.1875 
Q 26.21875 48.1875 22.15625 43.53125 
Q 18.109375 38.875 18.109375 30.90625 
L 18.109375 0 
L 9.078125 0 
L 9.078125 54.6875 
L 18.109375 54.6875 
L 18.109375 46.1875 
Q 21.1875 51.21875 25.484375 53.609375 
Q 29.78125 56 35.6875 56 
Q 41.65625 56 45.828125 52.96875 
Q 50 49.953125 52 44.1875 
z
" id="DejaVuSans-109"/>
      <path d="M 56.203125 29.59375 
L 56.203125 25.203125 
L 14.890625 25.203125 
Q 15.484375 15.921875 20.484375 11.0625 
Q 25.484375 6.203125 34.421875 6.203125 
Q 39.59375 6.203125 44.453125 7.46875 
Q 49.3125 8.734375 54.109375 11.28125 
L 54.109375 2.78125 
Q 49.265625 0.734375 44.1875 -0.34375 
Q 39.109375 -1.421875 33.890625 -1.421875 
Q 20.796875 -1.421875 13.15625 6.1875 
Q 5.515625 13.8125 5.515625 26.8125 
Q 5.515625 40.234375 12.765625 48.109375 
Q 20.015625 56 32.328125 56 
Q 43.359375 56 49.78125 48.890625 
Q 56.203125 41.796875 56.203125 29.59375 
z
M 47.21875 32.234375 
Q 47.125 39.59375 43.09375 43.984375 
Q 39.0625 48.390625 32.421875 48.390625 
Q 24.90625 48.390625 20.390625 44.140625 
Q 15.875 39.890625 15.1875 32.171875 
z
" id="DejaVuSans-101"/>
      <path d="M 9.421875 54.6875 
L 18.40625 54.6875 
L 18.40625 0 
L 9.421875 0 
z
M 9.421875 75.984375 
L 18.40625 75.984375 
L 18.40625 64.59375 
L 9.421875 64.59375 
z
" id="DejaVuSans-105"/>
      <path d="M 34.28125 27.484375 
Q 23.390625 27.484375 19.1875 25 
Q 14.984375 22.515625 14.984375 16.5 
Q 14.984375 11.71875 18.140625 8.90625 
Q 21.296875 6.109375 26.703125 6.109375 
Q 34.1875 6.109375 38.703125 11.40625 
Q 43.21875 16.703125 43.21875 25.484375 
L 43.21875 27.484375 
z
M 52.203125 31.203125 
L 52.203125 0 
L 43.21875 0 
L 43.21875 8.296875 
Q 40.140625 3.328125 35.546875 0.953125 
Q 30.953125 -1.421875 24.3125 -1.421875 
Q 15.921875 -1.421875 10.953125 3.296875 
Q 6 8.015625 6 15.921875 
Q 6 25.140625 12.171875 29.828125 
Q 18.359375 34.515625 30.609375 34.515625 
L 43.21875 34.515625 
L 43.21875 35.40625 
Q 43.21875 41.609375 39.140625 45 
Q 35.0625 48.390625 27.6875 48.390625 
Q 23 48.390625 18.546875 47.265625 
Q 14.109375 46.140625 10.015625 43.890625 
L 10.015625 52.203125 
Q 14.9375 54.109375 19.578125 55.046875 
Q 24.21875 56 28.609375 56 
Q 40.484375 56 46.34375 49.84375 
Q 52.203125 43.703125 52.203125 31.203125 
z
" id="DejaVuSans-97"/>
      <path id="DejaVuSans-32"/>
      <path d="M 10.59375 45.40625 
L 73.1875 45.40625 
L 73.1875 37.203125 
L 10.59375 37.203125 
z
M 10.59375 25.484375 
L 73.1875 25.484375 
L 73.1875 17.1875 
L 10.59375 17.1875 
z
" id="DejaVuSans-61"/>
      <path d="M 9.8125 72.90625 
L 55.90625 72.90625 
L 55.90625 64.59375 
L 19.671875 64.59375 
L 19.671875 43.015625 
L 54.390625 43.015625 
L 54.390625 34.71875 
L 19.671875 34.71875 
L 19.671875 8.296875 
L 56.78125 8.296875 
L 56.78125 0 
L 9.8125 0 
z
" id="DejaVuSans-69"/>
      <path d="M 8.6875 72.90625 
L 18.609375 72.90625 
L 18.609375 28.609375 
Q 18.609375 16.890625 22.84375 11.734375 
Q 27.09375 6.59375 36.625 6.59375 
Q 46.09375 6.59375 50.34375 11.734375 
Q 54.59375 16.890625 54.59375 28.609375 
L 54.59375 72.90625 
L 64.5 72.90625 
L 64.5 27.390625 
Q 64.5 13.140625 57.4375 5.859375 
Q 50.390625 -1.421875 36.625 -1.421875 
Q 22.796875 -1.421875 15.734375 5.859375 
Q 8.6875 13.140625 8.6875 27.390625 
z
" id="DejaVuSans-85"/>
      <path d="M 50.984375 -16.609375 
L 50.984375 -23.578125 
L -0.984375 -23.578125 
L -0.984375 -16.609375 
z
" id="DejaVuSans-95"/>
      <path d="M 2.984375 54.6875 
L 12.5 54.6875 
L 29.59375 8.796875 
L 46.6875 54.6875 
L 56.203125 54.6875 
L 35.6875 0 
L 23.484375 0 
z
" id="DejaVuSans-118"/>
      <path d="M 45.40625 27.984375 
Q 45.40625 37.75 41.375 43.109375 
Q 37.359375 48.484375 30.078125 48.484375 
Q 22.859375 48.484375 18.828125 43.109375 
Q 14.796875 37.75 14.796875 27.984375 
Q 14.796875 18.265625 18.828125 12.890625 
Q 22.859375 7.515625 30.078125 7.515625 
Q 37.359375 7.515625 41.375 12.890625 
Q 45.40625 18.265625 45.40625 27.984375 
z
M 54.390625 6.78125 
Q 54.390625 -7.171875 48.1875 -13.984375 
Q 42 -20.796875 29.203125 -20.796875 
Q 24.46875 -20.796875 20.265625 -20.09375 
Q 16.0625 -19.390625 12.109375 -17.921875 
L 12.109375 -9.1875 
Q 16.0625 -11.328125 19.921875 -12.34375 
Q 23.78125 -13.375 27.78125 -13.375 
Q 36.625 -13.375 41.015625 -8.765625 
Q 45.40625 -4.15625 45.40625 5.171875 
L 45.40625 9.625 
Q 42.625 4.78125 38.28125 2.390625 
Q 33.9375 0 27.875 0 
Q 17.828125 0 11.671875 7.65625 
Q 5.515625 15.328125 5.515625 27.984375 
Q 5.515625 40.671875 11.671875 48.328125 
Q 17.828125 56 27.875 56 
Q 33.9375 56 38.28125 53.609375 
Q 42.625 51.21875 45.40625 46.390625 
L 45.40625 54.6875 
L 54.390625 54.6875 
z
" id="DejaVuSans-103"/>
     </defs>
     <use xlink:href="#DejaVuSans-109"/>
     <use x="97.412109" xlink:href="#DejaVuSans-101"/>
     <use x="158.935547" xlink:href="#DejaVuSans-100"/>
     <use x="222.412109" xlink:href="#DejaVuSans-105"/>
     <use x="250.195312" xlink:href="#DejaVuSans-97"/>
     <use x="311.474609" xlink:href="#DejaVuSans-32"/>
     <use x="343.261719" xlink:href="#DejaVuSans-61"/>
     <use x="427.050781" xlink:href="#DejaVuSans-32"/>
     <use x="458.837891" xlink:href="#DejaVuSans-69"/>
     <use x="522.021484" xlink:href="#DejaVuSans-85"/>
     <use x="595.214844" xlink:href="#DejaVuSans-95"/>
     <use x="645.214844" xlink:href="#DejaVuSans-97"/>
     <use x="706.494141" xlink:href="#DejaVuSans-118"/>
     <use x="765.673828" xlink:href="#DejaVuSans-103"/>
    </g>
   </g>
  </g>
  <g id="axes_2">
   <g id="patch_5">
    <path d="M 607.874479 321.196094 
L 1067.666146 321.196094 
L 1067.666146 32.196094 
L 607.874479 32.196094 
z
" style="fill:none;"/>
   </g>
   <g id="matplotlib.axis_3">
    <g id="xtick_3">
     <g id="line2d_8">
      <path clip-path="url(#p48280baffb)" d="M 628.7741 321.196094 
L 628.7741 32.196094 
" style="fill:none;stroke:#cccccc;stroke-linecap:round;stroke-width:0.8;"/>
     </g>
    </g>
    <g id="xtick_4">
     <g id="line2d_9">
      <path clip-path="url(#p48280baffb)" d="M 866.10124 321.196094 
L 866.10124 32.196094 
" style="fill:none;stroke:#cccccc;stroke-linecap:round;stroke-width:0.8;"/>
     </g>
    </g>
   </g>
   <g id="matplotlib.axis_4">
    <g id="ytick_5">
     <g id="line2d_10">
      <path clip-path="url(#p48280baffb)" d="M 607.874479 308.127083 
L 1067.666146 308.127083 
" style="fill:none;stroke:#cccccc;stroke-linecap:round;stroke-width:0.8;"/>
     </g>
     <g id="text_7">
      <!-- 0 -->
      <g style="fill:#262626;" transform="translate(584.968229 317.62513)scale(0.25 -0.25)">
       <use xlink:href="#DejaVuSans-48"/>
      </g>
     </g>
    </g>
    <g id="ytick_6">
     <g id="line2d_11">
      <path clip-path="url(#p48280baffb)" d="M 607.874479 240.773896 
L 1067.666146 240.773896 
" style="fill:none;stroke:#cccccc;stroke-linecap:round;stroke-width:0.8;"/>
     </g>
     <g id="text_8">
      <!-- 1 -->
      <g style="fill:#262626;" transform="translate(584.968229 250.271943)scale(0.25 -0.25)">
       <defs>
        <path d="M 12.40625 8.296875 
L 28.515625 8.296875 
L 28.515625 63.921875 
L 10.984375 60.40625 
L 10.984375 69.390625 
L 28.421875 72.90625 
L 38.28125 72.90625 
L 38.28125 8.296875 
L 54.390625 8.296875 
L 54.390625 0 
L 12.40625 0 
z
" id="DejaVuSans-49"/>
       </defs>
       <use xlink:href="#DejaVuSans-49"/>
      </g>
     </g>
    </g>
    <g id="ytick_7">
     <g id="line2d_12">
      <path clip-path="url(#p48280baffb)" d="M 607.874479 173.420708 
L 1067.666146 173.420708 
" style="fill:none;stroke:#cccccc;stroke-linecap:round;stroke-width:0.8;"/>
     </g>
     <g id="text_9">
      <!-- 2 -->
      <g style="fill:#262626;" transform="translate(584.968229 182.918755)scale(0.25 -0.25)">
       <use xlink:href="#DejaVuSans-50"/>
      </g>
     </g>
    </g>
    <g id="ytick_8">
     <g id="line2d_13">
      <path clip-path="url(#p48280baffb)" d="M 607.874479 106.067521 
L 1067.666146 106.067521 
" style="fill:none;stroke:#cccccc;stroke-linecap:round;stroke-width:0.8;"/>
     </g>
     <g id="text_10">
      <!-- 3 -->
      <g style="fill:#262626;" transform="translate(584.968229 115.565568)scale(0.25 -0.25)">
       <defs>
        <path d="M 40.578125 39.3125 
Q 47.65625 37.796875 51.625 33 
Q 55.609375 28.21875 55.609375 21.1875 
Q 55.609375 10.40625 48.1875 4.484375 
Q 40.765625 -1.421875 27.09375 -1.421875 
Q 22.515625 -1.421875 17.65625 -0.515625 
Q 12.796875 0.390625 7.625 2.203125 
L 7.625 11.71875 
Q 11.71875 9.328125 16.59375 8.109375 
Q 21.484375 6.890625 26.8125 6.890625 
Q 36.078125 6.890625 40.9375 10.546875 
Q 45.796875 14.203125 45.796875 21.1875 
Q 45.796875 27.640625 41.28125 31.265625 
Q 36.765625 34.90625 28.71875 34.90625 
L 20.21875 34.90625 
L 20.21875 43.015625 
L 29.109375 43.015625 
Q 36.375 43.015625 40.234375 45.921875 
Q 44.09375 48.828125 44.09375 54.296875 
Q 44.09375 59.90625 40.109375 62.90625 
Q 36.140625 65.921875 28.71875 65.921875 
Q 24.65625 65.921875 20.015625 65.03125 
Q 15.375 64.15625 9.8125 62.3125 
L 9.8125 71.09375 
Q 15.4375 72.65625 20.34375 73.4375 
Q 25.25 74.21875 29.59375 74.21875 
Q 40.828125 74.21875 47.359375 69.109375 
Q 53.90625 64.015625 53.90625 55.328125 
Q 53.90625 49.265625 50.4375 45.09375 
Q 46.96875 40.921875 40.578125 39.3125 
z
" id="DejaVuSans-51"/>
       </defs>
       <use xlink:href="#DejaVuSans-51"/>
      </g>
     </g>
    </g>
    <g id="ytick_9">
     <g id="line2d_14">
      <path clip-path="url(#p48280baffb)" d="M 607.874479 38.714333 
L 1067.666146 38.714333 
" style="fill:none;stroke:#cccccc;stroke-linecap:round;stroke-width:0.8;"/>
     </g>
     <g id="text_11">
      <!-- 4 -->
      <g style="fill:#262626;" transform="translate(584.968229 48.21238)scale(0.25 -0.25)">
       <use xlink:href="#DejaVuSans-52"/>
      </g>
     </g>
    </g>
   </g>
   <g id="line2d_15">
    <path clip-path="url(#p48280baffb)" d="M 628.7741 308.05973 
L 640.035036 307.853223 
L 646.262263 307.532319 
L 650.574695 307.109558 
L 654.301087 306.509024 
L 657.458131 305.730468 
L 659.44717 305.057772 
L 661.434666 304.197469 
L 663.495259 303.050855 
L 665.440075 301.664444 
L 667.378484 299.907704 
L 669.281097 297.722498 
L 671.207402 294.922424 
L 672.964809 291.721665 
L 674.888346 287.334144 
L 676.808718 281.80337 
L 678.616755 275.288902 
L 680.52091 266.727436 
L 682.427438 256.010871 
L 684.333966 242.667598 
L 686.241681 226.158928 
L 688.048927 207.113467 
L 689.955455 182.994964 
L 691.071683 166.877346 
L 692.973069 136.362984 
L 695.967742 85.492469 
L 696.918237 71.488394 
L 697.871106 60.250515 
L 698.821997 52.52039 
L 699.790687 48.030626 
L 700.294216 46.737445 
L 701.339642 45.501514 
L 702.620813 45.332457 
L 756.490118 45.332457 
L 756.490118 45.332457 
" style="fill:none;stroke:#4682b4;stroke-linecap:round;stroke-width:3;"/>
   </g>
   <g id="patch_6">
    <path d="M 607.874479 321.196094 
L 607.874479 32.196094 
" style="fill:none;stroke:#cccccc;stroke-linecap:square;stroke-linejoin:miter;stroke-width:0.8;"/>
   </g>
   <g id="patch_7">
    <path d="M 607.874479 321.196094 
L 1067.666146 321.196094 
" style="fill:none;stroke:#cccccc;stroke-linecap:square;stroke-linejoin:miter;stroke-width:0.8;"/>
   </g>
   <g id="text_12">
    <!-- media = DACH -->
    <g style="fill:#262626;" transform="translate(744.547656 26.196094)scale(0.25 -0.25)">
     <defs>
      <path d="M 19.671875 64.796875 
L 19.671875 8.109375 
L 31.59375 8.109375 
Q 46.6875 8.109375 53.6875 14.9375 
Q 60.6875 21.78125 60.6875 36.53125 
Q 60.6875 51.171875 53.6875 57.984375 
Q 46.6875 64.796875 31.59375 64.796875 
z
M 9.8125 72.90625 
L 30.078125 72.90625 
Q 51.265625 72.90625 61.171875 64.09375 
Q 71.09375 55.28125 71.09375 36.53125 
Q 71.09375 17.671875 61.125 8.828125 
Q 51.171875 0 30.078125 0 
L 9.8125 0 
z
" id="DejaVuSans-68"/>
      <path d="M 34.1875 63.1875 
L 20.796875 26.90625 
L 47.609375 26.90625 
z
M 28.609375 72.90625 
L 39.796875 72.90625 
L 67.578125 0 
L 57.328125 0 
L 50.6875 18.703125 
L 17.828125 18.703125 
L 11.1875 0 
L 0.78125 0 
z
" id="DejaVuSans-65"/>
      <path d="M 64.40625 67.28125 
L 64.40625 56.890625 
Q 59.421875 61.53125 53.78125 63.8125 
Q 48.140625 66.109375 41.796875 66.109375 
Q 29.296875 66.109375 22.65625 58.46875 
Q 16.015625 50.828125 16.015625 36.375 
Q 16.015625 21.96875 22.65625 14.328125 
Q 29.296875 6.6875 41.796875 6.6875 
Q 48.140625 6.6875 53.78125 8.984375 
Q 59.421875 11.28125 64.40625 15.921875 
L 64.40625 5.609375 
Q 59.234375 2.09375 53.4375 0.328125 
Q 47.65625 -1.421875 41.21875 -1.421875 
Q 24.65625 -1.421875 15.125 8.703125 
Q 5.609375 18.84375 5.609375 36.375 
Q 5.609375 53.953125 15.125 64.078125 
Q 24.65625 74.21875 41.21875 74.21875 
Q 47.75 74.21875 53.53125 72.484375 
Q 59.328125 70.75 64.40625 67.28125 
z
" id="DejaVuSans-67"/>
      <path d="M 9.8125 72.90625 
L 19.671875 72.90625 
L 19.671875 43.015625 
L 55.515625 43.015625 
L 55.515625 72.90625 
L 65.375 72.90625 
L 65.375 0 
L 55.515625 0 
L 55.515625 34.71875 
L 19.671875 34.71875 
L 19.671875 0 
L 9.8125 0 
z
" id="DejaVuSans-72"/>
     </defs>
     <use xlink:href="#DejaVuSans-109"/>
     <use x="97.412109" xlink:href="#DejaVuSans-101"/>
     <use x="158.935547" xlink:href="#DejaVuSans-100"/>
     <use x="222.412109" xlink:href="#DejaVuSans-105"/>
     <use x="250.195312" xlink:href="#DejaVuSans-97"/>
     <use x="311.474609" xlink:href="#DejaVuSans-32"/>
     <use x="343.261719" xlink:href="#DejaVuSans-61"/>
     <use x="427.050781" xlink:href="#DejaVuSans-32"/>
     <use x="458.837891" xlink:href="#DejaVuSans-68"/>
     <use x="534.089844" xlink:href="#DejaVuSans-65"/>
     <use x="600.748047" xlink:href="#DejaVuSans-67"/>
     <use x="670.572266" xlink:href="#DejaVuSans-72"/>
    </g>
   </g>
  </g>
  <g id="axes_3">
   <g id="patch_8">
    <path d="M 1141.541146 321.196094 
L 1601.332813 321.196094 
L 1601.332813 32.196094 
L 1141.541146 32.196094 
z
" style="fill:none;"/>
   </g>
   <g id="matplotlib.axis_5">
    <g id="xtick_5">
     <g id="line2d_16">
      <path clip-path="url(#p68e3315c05)" d="M 1162.440767 321.196094 
L 1162.440767 32.196094 
" style="fill:none;stroke:#cccccc;stroke-linecap:round;stroke-width:0.8;"/>
     </g>
    </g>
    <g id="xtick_6">
     <g id="line2d_17">
      <path clip-path="url(#p68e3315c05)" d="M 1399.767906 321.196094 
L 1399.767906 32.196094 
" style="fill:none;stroke:#cccccc;stroke-linecap:round;stroke-width:0.8;"/>
     </g>
    </g>
   </g>
   <g id="matplotlib.axis_6">
    <g id="ytick_10">
     <g id="line2d_18">
      <path clip-path="url(#p68e3315c05)" d="M 1141.541146 308.065861 
L 1601.332813 308.065861 
" style="fill:none;stroke:#cccccc;stroke-linecap:round;stroke-width:0.8;"/>
     </g>
     <g id="text_13">
      <!-- 0 -->
      <g style="fill:#262626;" transform="translate(1118.634896 317.563908)scale(0.25 -0.25)">
       <use xlink:href="#DejaVuSans-48"/>
      </g>
     </g>
    </g>
    <g id="ytick_11">
     <g id="line2d_19">
      <path clip-path="url(#p68e3315c05)" d="M 1141.541146 246.756904 
L 1601.332813 246.756904 
" style="fill:none;stroke:#cccccc;stroke-linecap:round;stroke-width:0.8;"/>
     </g>
     <g id="text_14">
      <!-- 10 -->
      <g style="fill:#262626;" transform="translate(1102.728646 256.254951)scale(0.25 -0.25)">
       <use xlink:href="#DejaVuSans-49"/>
       <use x="63.623047" xlink:href="#DejaVuSans-48"/>
      </g>
     </g>
    </g>
    <g id="ytick_12">
     <g id="line2d_20">
      <path clip-path="url(#p68e3315c05)" d="M 1141.541146 185.447947 
L 1601.332813 185.447947 
" style="fill:none;stroke:#cccccc;stroke-linecap:round;stroke-width:0.8;"/>
     </g>
     <g id="text_15">
      <!-- 20 -->
      <g style="fill:#262626;" transform="translate(1102.728646 194.945994)scale(0.25 -0.25)">
       <use xlink:href="#DejaVuSans-50"/>
       <use x="63.623047" xlink:href="#DejaVuSans-48"/>
      </g>
     </g>
    </g>
    <g id="ytick_13">
     <g id="line2d_21">
      <path clip-path="url(#p68e3315c05)" d="M 1141.541146 124.138991 
L 1601.332813 124.138991 
" style="fill:none;stroke:#cccccc;stroke-linecap:round;stroke-width:0.8;"/>
     </g>
     <g id="text_16">
      <!-- 30 -->
      <g style="fill:#262626;" transform="translate(1102.728646 133.637037)scale(0.25 -0.25)">
       <use xlink:href="#DejaVuSans-51"/>
       <use x="63.623047" xlink:href="#DejaVuSans-48"/>
      </g>
     </g>
    </g>
    <g id="ytick_14">
     <g id="line2d_22">
      <path clip-path="url(#p68e3315c05)" d="M 1141.541146 62.830034 
L 1601.332813 62.830034 
" style="fill:none;stroke:#cccccc;stroke-linecap:round;stroke-width:0.8;"/>
     </g>
     <g id="text_17">
      <!-- 40 -->
      <g style="fill:#262626;" transform="translate(1102.728646 72.328081)scale(0.25 -0.25)">
       <use xlink:href="#DejaVuSans-52"/>
       <use x="63.623047" xlink:href="#DejaVuSans-48"/>
      </g>
     </g>
    </g>
   </g>
   <g id="line2d_23">
    <path clip-path="url(#p68e3315c05)" d="M 1162.440767 308.05973 
L 1164.339384 308.057813 
L 1165.288693 308.056641 
L 1167.18731 308.053758 
L 1169.085927 308.049975 
L 1170.956777 308.045091 
L 1172.141395 308.041249 
L 1173.77029 308.03478 
L 1174.963254 308.028986 
L 1175.912563 308.023613 
L 1176.861872 308.017458 
L 1178.524823 308.004436 
L 1179.851917 307.991572 
L 1180.958296 307.978811 
L 1181.908 307.966123 
L 1183.145384 307.946776 
L 1184.115261 307.929024 
L 1185.294698 307.903832 
L 1186.294992 307.878864 
L 1187.369808 307.847733 
L 1188.420573 307.812295 
L 1189.37625 307.775087 
L 1190.346365 307.731729 
L 1191.31015 307.682256 
L 1192.352254 307.620488 
L 1193.342382 307.552611 
L 1194.355215 307.472463 
L 1195.365478 307.380053 
L 1196.356912 307.275392 
L 1197.32485 307.15782 
L 1198.29449 307.022511 
L 1199.253806 306.868822 
L 1200.222733 306.690597 
L 1201.196249 306.484807 
L 1202.157464 306.25141 
L 1203.126945 305.981222 
L 1204.085747 305.67426 
L 1205.039406 305.324376 
L 1205.995044 304.922312 
L 1206.949099 304.462078 
L 1207.903549 303.934404 
L 1208.861956 303.327022 
L 1209.813242 302.635549 
L 1210.763737 301.844228 
L 1211.715814 300.936426 
L 1212.669869 299.893806 
L 1213.621156 298.702328 
L 1214.57086 297.340595 
L 1215.522937 295.776787 
L 1216.430318 294.075034 
L 1217.381604 292.039148 
L 1218.332099 289.70904 
L 1219.28299 287.041671 
L 1220.23309 283.991244 
L 1221.182398 280.502396 
L 1222.11193 276.603453 
L 1223.061238 272.053961 
L 1224.011338 266.852631 
L 1224.960646 260.911426 
L 1225.910746 254.124095 
L 1226.860846 246.380467 
L 1227.040819 244.795631 
L 1227.990127 235.75256 
L 1228.482977 230.572566 
L 1229.432681 219.556572 
L 1230.382385 207.030539 
L 1230.903714 199.444782 
L 1231.853022 184.203376 
L 1232.802726 166.93816 
L 1233.752035 147.441299 
L 1234.701739 125.535609 
L 1235.651047 101.158554 
L 1236.600356 74.722132 
L 1237.55006 49.801267 
L 1238.506093 45.332457 
L 1239.463312 45.332457 
L 1240.414994 45.332457 
L 1241.372214 45.332457 
L 1242.322709 45.332457 
L 1243.274786 45.332457 
L 1244.229632 45.332457 
L 1245.186456 45.332457 
L 1246.136556 45.332457 
L 1247.088633 45.332457 
L 1248.039524 45.332457 
L 1248.285553 45.332457 
" style="fill:none;stroke:#4682b4;stroke-linecap:round;stroke-width:3;"/>
   </g>
   <g id="patch_9">
    <path d="M 1141.541146 321.196094 
L 1141.541146 32.196094 
" style="fill:none;stroke:#cccccc;stroke-linecap:square;stroke-linejoin:miter;stroke-width:0.8;"/>
   </g>
   <g id="patch_10">
    <path d="M 1141.541146 321.196094 
L 1601.332813 321.196094 
" style="fill:none;stroke:#cccccc;stroke-linecap:square;stroke-linejoin:miter;stroke-width:0.8;"/>
   </g>
   <g id="text_18">
    <!-- media = diabetes2 -->
    <g style="fill:#262626;" transform="translate(1252.329557 26.196094)scale(0.25 -0.25)">
     <defs>
      <path d="M 48.6875 27.296875 
Q 48.6875 37.203125 44.609375 42.84375 
Q 40.53125 48.484375 33.40625 48.484375 
Q 26.265625 48.484375 22.1875 42.84375 
Q 18.109375 37.203125 18.109375 27.296875 
Q 18.109375 17.390625 22.1875 11.75 
Q 26.265625 6.109375 33.40625 6.109375 
Q 40.53125 6.109375 44.609375 11.75 
Q 48.6875 17.390625 48.6875 27.296875 
z
M 18.109375 46.390625 
Q 20.953125 51.265625 25.265625 53.625 
Q 29.59375 56 35.59375 56 
Q 45.5625 56 51.78125 48.09375 
Q 58.015625 40.1875 58.015625 27.296875 
Q 58.015625 14.40625 51.78125 6.484375 
Q 45.5625 -1.421875 35.59375 -1.421875 
Q 29.59375 -1.421875 25.265625 0.953125 
Q 20.953125 3.328125 18.109375 8.203125 
L 18.109375 0 
L 9.078125 0 
L 9.078125 75.984375 
L 18.109375 75.984375 
z
" id="DejaVuSans-98"/>
      <path d="M 18.3125 70.21875 
L 18.3125 54.6875 
L 36.8125 54.6875 
L 36.8125 47.703125 
L 18.3125 47.703125 
L 18.3125 18.015625 
Q 18.3125 11.328125 20.140625 9.421875 
Q 21.96875 7.515625 27.59375 7.515625 
L 36.8125 7.515625 
L 36.8125 0 
L 27.59375 0 
Q 17.1875 0 13.234375 3.875 
Q 9.28125 7.765625 9.28125 18.015625 
L 9.28125 47.703125 
L 2.6875 47.703125 
L 2.6875 54.6875 
L 9.28125 54.6875 
L 9.28125 70.21875 
z
" id="DejaVuSans-116"/>
      <path d="M 44.28125 53.078125 
L 44.28125 44.578125 
Q 40.484375 46.53125 36.375 47.5 
Q 32.28125 48.484375 27.875 48.484375 
Q 21.1875 48.484375 17.84375 46.4375 
Q 14.5 44.390625 14.5 40.28125 
Q 14.5 37.15625 16.890625 35.375 
Q 19.28125 33.59375 26.515625 31.984375 
L 29.59375 31.296875 
Q 39.15625 29.25 43.1875 25.515625 
Q 47.21875 21.78125 47.21875 15.09375 
Q 47.21875 7.46875 41.1875 3.015625 
Q 35.15625 -1.421875 24.609375 -1.421875 
Q 20.21875 -1.421875 15.453125 -0.5625 
Q 10.6875 0.296875 5.421875 2 
L 5.421875 11.28125 
Q 10.40625 8.6875 15.234375 7.390625 
Q 20.0625 6.109375 24.8125 6.109375 
Q 31.15625 6.109375 34.5625 8.28125 
Q 37.984375 10.453125 37.984375 14.40625 
Q 37.984375 18.0625 35.515625 20.015625 
Q 33.0625 21.96875 24.703125 23.78125 
L 21.578125 24.515625 
Q 13.234375 26.265625 9.515625 29.90625 
Q 5.8125 33.546875 5.8125 39.890625 
Q 5.8125 47.609375 11.28125 51.796875 
Q 16.75 56 26.8125 56 
Q 31.78125 56 36.171875 55.265625 
Q 40.578125 54.546875 44.28125 53.078125 
z
" id="DejaVuSans-115"/>
     </defs>
     <use xlink:href="#DejaVuSans-109"/>
     <use x="97.412109" xlink:href="#DejaVuSans-101"/>
     <use x="158.935547" xlink:href="#DejaVuSans-100"/>
     <use x="222.412109" xlink:href="#DejaVuSans-105"/>
     <use x="250.195312" xlink:href="#DejaVuSans-97"/>
     <use x="311.474609" xlink:href="#DejaVuSans-32"/>
     <use x="343.261719" xlink:href="#DejaVuSans-61"/>
     <use x="427.050781" xlink:href="#DejaVuSans-32"/>
     <use x="458.837891" xlink:href="#DejaVuSans-100"/>
     <use x="522.314453" xlink:href="#DejaVuSans-105"/>
     <use x="550.097656" xlink:href="#DejaVuSans-97"/>
     <use x="611.376953" xlink:href="#DejaVuSans-98"/>
     <use x="674.853516" xlink:href="#DejaVuSans-101"/>
     <use x="736.376953" xlink:href="#DejaVuSans-116"/>
     <use x="775.585938" xlink:href="#DejaVuSans-101"/>
     <use x="837.109375" xlink:href="#DejaVuSans-115"/>
     <use x="889.208984" xlink:href="#DejaVuSans-50"/>
    </g>
   </g>
  </g>
  <g id="axes_4">
   <g id="patch_11">
    <path d="M 74.207813 668.196094 
L 533.999479 668.196094 
L 533.999479 379.196094 
L 74.207813 379.196094 
z
" style="fill:none;"/>
   </g>
   <g id="matplotlib.axis_7">
    <g id="xtick_7">
     <g id="line2d_24">
      <path clip-path="url(#pbd541ab6e1)" d="M 95.107434 668.196094 
L 95.107434 379.196094 
" style="fill:none;stroke:#cccccc;stroke-linecap:round;stroke-width:0.8;"/>
     </g>
    </g>
    <g id="xtick_8">
     <g id="line2d_25">
      <path clip-path="url(#pbd541ab6e1)" d="M 332.434573 668.196094 
L 332.434573 379.196094 
" style="fill:none;stroke:#cccccc;stroke-linecap:round;stroke-width:0.8;"/>
     </g>
    </g>
   </g>
   <g id="matplotlib.axis_8">
    <g id="ytick_15">
     <g id="line2d_26">
      <path clip-path="url(#pbd541ab6e1)" d="M 74.207813 655.127082 
L 533.999479 655.127082 
" style="fill:none;stroke:#cccccc;stroke-linecap:round;stroke-width:0.8;"/>
     </g>
     <g id="text_19">
      <!-- 0 -->
      <g style="fill:#262626;" transform="translate(51.301563 664.625129)scale(0.25 -0.25)">
       <use xlink:href="#DejaVuSans-48"/>
      </g>
     </g>
    </g>
    <g id="ytick_16">
     <g id="line2d_27">
      <path clip-path="url(#pbd541ab6e1)" d="M 74.207813 587.774758 
L 533.999479 587.774758 
" style="fill:none;stroke:#cccccc;stroke-linecap:round;stroke-width:0.8;"/>
     </g>
     <g id="text_20">
      <!-- 1 -->
      <g style="fill:#262626;" transform="translate(51.301563 597.272805)scale(0.25 -0.25)">
       <use xlink:href="#DejaVuSans-49"/>
      </g>
     </g>
    </g>
    <g id="ytick_17">
     <g id="line2d_28">
      <path clip-path="url(#pbd541ab6e1)" d="M 74.207813 520.422434 
L 533.999479 520.422434 
" style="fill:none;stroke:#cccccc;stroke-linecap:round;stroke-width:0.8;"/>
     </g>
     <g id="text_21">
      <!-- 2 -->
      <g style="fill:#262626;" transform="translate(51.301563 529.920481)scale(0.25 -0.25)">
       <use xlink:href="#DejaVuSans-50"/>
      </g>
     </g>
    </g>
    <g id="ytick_18">
     <g id="line2d_29">
      <path clip-path="url(#pbd541ab6e1)" d="M 74.207813 453.07011 
L 533.999479 453.07011 
" style="fill:none;stroke:#cccccc;stroke-linecap:round;stroke-width:0.8;"/>
     </g>
     <g id="text_22">
      <!-- 3 -->
      <g style="fill:#262626;" transform="translate(51.301563 462.568157)scale(0.25 -0.25)">
       <use xlink:href="#DejaVuSans-51"/>
      </g>
     </g>
    </g>
    <g id="ytick_19">
     <g id="line2d_30">
      <path clip-path="url(#pbd541ab6e1)" d="M 74.207813 385.717786 
L 533.999479 385.717786 
" style="fill:none;stroke:#cccccc;stroke-linecap:round;stroke-width:0.8;"/>
     </g>
     <g id="text_23">
      <!-- 4 -->
      <g style="fill:#262626;" transform="translate(51.301563 395.215833)scale(0.25 -0.25)">
       <use xlink:href="#DejaVuSans-52"/>
      </g>
     </g>
    </g>
    <g id="text_24">
     <!-- od -->
     <g style="fill:#262626;" transform="translate(42.102344 539.280078)rotate(-90)scale(0.25 -0.25)">
      <use xlink:href="#DejaVuSans-111"/>
      <use x="61.181641" xlink:href="#DejaVuSans-100"/>
     </g>
    </g>
   </g>
   <g id="line2d_31">
    <path clip-path="url(#pbd541ab6e1)" d="M 95.107434 655.05973 
L 106.10992 654.861683 
L 112.000696 654.574097 
L 116.785409 654.123364 
L 120.152409 653.600407 
L 123.219585 652.890399 
L 125.359406 652.207837 
L 127.486885 651.323299 
L 129.518129 650.230427 
L 131.571443 648.807427 
L 133.550158 647.048036 
L 135.463727 644.884747 
L 136.565321 643.387909 
L 138.521292 640.174934 
L 140.434544 636.193266 
L 141.388995 633.832029 
L 142.570884 630.502332 
L 143.538388 627.400151 
L 145.446102 620.118422 
L 146.144239 617.012267 
L 147.10581 612.293766 
L 149.018271 601.173156 
L 150.927568 587.358521 
L 152.327007 575.196712 
L 154.161941 556.245115 
L 154.994564 546.410328 
L 156.901488 520.810383 
L 158.802082 491.17132 
L 162.604854 427.189306 
L 163.556141 414.063011 
L 164.315192 405.79484 
L 165.268851 398.604979 
L 166.013268 395.264978 
L 166.990264 393.073333 
L 168.078014 392.353337 
L 174.227951 392.332457 
L 222.630821 392.332457 
L 222.630821 392.332457 
" style="fill:none;stroke:#4682b4;stroke-linecap:round;stroke-width:3;"/>
   </g>
   <g id="patch_12">
    <path d="M 74.207813 668.196094 
L 74.207813 379.196094 
" style="fill:none;stroke:#cccccc;stroke-linecap:square;stroke-linejoin:miter;stroke-width:0.8;"/>
   </g>
   <g id="patch_13">
    <path d="M 74.207812 668.196094 
L 533.999479 668.196094 
" style="fill:none;stroke:#cccccc;stroke-linecap:square;stroke-linejoin:miter;stroke-width:0.8;"/>
   </g>
   <g id="text_25">
    <!-- media = gluten_free -->
    <g style="fill:#262626;" transform="translate(176.013802 373.196094)scale(0.25 -0.25)">
     <defs>
      <path d="M 9.421875 75.984375 
L 18.40625 75.984375 
L 18.40625 0 
L 9.421875 0 
z
" id="DejaVuSans-108"/>
      <path d="M 8.5 21.578125 
L 8.5 54.6875 
L 17.484375 54.6875 
L 17.484375 21.921875 
Q 17.484375 14.15625 20.5 10.265625 
Q 23.53125 6.390625 29.59375 6.390625 
Q 36.859375 6.390625 41.078125 11.03125 
Q 45.3125 15.671875 45.3125 23.6875 
L 45.3125 54.6875 
L 54.296875 54.6875 
L 54.296875 0 
L 45.3125 0 
L 45.3125 8.40625 
Q 42.046875 3.421875 37.71875 1 
Q 33.40625 -1.421875 27.6875 -1.421875 
Q 18.265625 -1.421875 13.375 4.4375 
Q 8.5 10.296875 8.5 21.578125 
z
M 31.109375 56 
z
" id="DejaVuSans-117"/>
      <path d="M 54.890625 33.015625 
L 54.890625 0 
L 45.90625 0 
L 45.90625 32.71875 
Q 45.90625 40.484375 42.875 44.328125 
Q 39.84375 48.1875 33.796875 48.1875 
Q 26.515625 48.1875 22.3125 43.546875 
Q 18.109375 38.921875 18.109375 30.90625 
L 18.109375 0 
L 9.078125 0 
L 9.078125 54.6875 
L 18.109375 54.6875 
L 18.109375 46.1875 
Q 21.34375 51.125 25.703125 53.5625 
Q 30.078125 56 35.796875 56 
Q 45.21875 56 50.046875 50.171875 
Q 54.890625 44.34375 54.890625 33.015625 
z
" id="DejaVuSans-110"/>
      <path d="M 37.109375 75.984375 
L 37.109375 68.5 
L 28.515625 68.5 
Q 23.6875 68.5 21.796875 66.546875 
Q 19.921875 64.59375 19.921875 59.515625 
L 19.921875 54.6875 
L 34.71875 54.6875 
L 34.71875 47.703125 
L 19.921875 47.703125 
L 19.921875 0 
L 10.890625 0 
L 10.890625 47.703125 
L 2.296875 47.703125 
L 2.296875 54.6875 
L 10.890625 54.6875 
L 10.890625 58.5 
Q 10.890625 67.625 15.140625 71.796875 
Q 19.390625 75.984375 28.609375 75.984375 
z
" id="DejaVuSans-102"/>
      <path d="M 41.109375 46.296875 
Q 39.59375 47.171875 37.8125 47.578125 
Q 36.03125 48 33.890625 48 
Q 26.265625 48 22.1875 43.046875 
Q 18.109375 38.09375 18.109375 28.8125 
L 18.109375 0 
L 9.078125 0 
L 9.078125 54.6875 
L 18.109375 54.6875 
L 18.109375 46.1875 
Q 20.953125 51.171875 25.484375 53.578125 
Q 30.03125 56 36.53125 56 
Q 37.453125 56 38.578125 55.875 
Q 39.703125 55.765625 41.0625 55.515625 
z
" id="DejaVuSans-114"/>
     </defs>
     <use xlink:href="#DejaVuSans-109"/>
     <use x="97.412109" xlink:href="#DejaVuSans-101"/>
     <use x="158.935547" xlink:href="#DejaVuSans-100"/>
     <use x="222.412109" xlink:href="#DejaVuSans-105"/>
     <use x="250.195312" xlink:href="#DejaVuSans-97"/>
     <use x="311.474609" xlink:href="#DejaVuSans-32"/>
     <use x="343.261719" xlink:href="#DejaVuSans-61"/>
     <use x="427.050781" xlink:href="#DejaVuSans-32"/>
     <use x="458.837891" xlink:href="#DejaVuSans-103"/>
     <use x="522.314453" xlink:href="#DejaVuSans-108"/>
     <use x="550.097656" xlink:href="#DejaVuSans-117"/>
     <use x="613.476562" xlink:href="#DejaVuSans-116"/>
     <use x="652.685547" xlink:href="#DejaVuSans-101"/>
     <use x="714.208984" xlink:href="#DejaVuSans-110"/>
     <use x="777.587891" xlink:href="#DejaVuSans-95"/>
     <use x="827.587891" xlink:href="#DejaVuSans-102"/>
     <use x="862.792969" xlink:href="#DejaVuSans-114"/>
     <use x="901.65625" xlink:href="#DejaVuSans-101"/>
     <use x="963.179688" xlink:href="#DejaVuSans-101"/>
    </g>
   </g>
  </g>
  <g id="axes_5">
   <g id="patch_14">
    <path d="M 607.874479 668.196094 
L 1067.666146 668.196094 
L 1067.666146 379.196094 
L 607.874479 379.196094 
z
" style="fill:none;"/>
   </g>
   <g id="matplotlib.axis_9">
    <g id="xtick_9">
     <g id="line2d_32">
      <path clip-path="url(#p70dbcb7e6b)" d="M 628.7741 668.196094 
L 628.7741 379.196094 
" style="fill:none;stroke:#cccccc;stroke-linecap:round;stroke-width:0.8;"/>
     </g>
    </g>
    <g id="xtick_10">
     <g id="line2d_33">
      <path clip-path="url(#p70dbcb7e6b)" d="M 866.10124 668.196094 
L 866.10124 379.196094 
" style="fill:none;stroke:#cccccc;stroke-linecap:round;stroke-width:0.8;"/>
     </g>
    </g>
   </g>
   <g id="matplotlib.axis_10">
    <g id="ytick_20">
     <g id="line2d_34">
      <path clip-path="url(#p70dbcb7e6b)" d="M 607.874479 655.196649 
L 1067.666146 655.196649 
" style="fill:none;stroke:#cccccc;stroke-linecap:round;stroke-width:0.8;"/>
     </g>
     <g id="text_26">
      <!-- 0.0 -->
      <g style="fill:#262626;" transform="translate(561.116667 664.694696)scale(0.25 -0.25)">
       <defs>
        <path d="M 10.6875 12.40625 
L 21 12.40625 
L 21 0 
L 10.6875 0 
z
" id="DejaVuSans-46"/>
       </defs>
       <use xlink:href="#DejaVuSans-48"/>
       <use x="63.623047" xlink:href="#DejaVuSans-46"/>
       <use x="95.410156" xlink:href="#DejaVuSans-48"/>
      </g>
     </g>
    </g>
    <g id="ytick_21">
     <g id="line2d_35">
      <path clip-path="url(#p70dbcb7e6b)" d="M 607.874479 586.737084 
L 1067.666146 586.737084 
" style="fill:none;stroke:#cccccc;stroke-linecap:round;stroke-width:0.8;"/>
     </g>
     <g id="text_27">
      <!-- 0.5 -->
      <g style="fill:#262626;" transform="translate(561.116667 596.235131)scale(0.25 -0.25)">
       <defs>
        <path d="M 10.796875 72.90625 
L 49.515625 72.90625 
L 49.515625 64.59375 
L 19.828125 64.59375 
L 19.828125 46.734375 
Q 21.96875 47.46875 24.109375 47.828125 
Q 26.265625 48.1875 28.421875 48.1875 
Q 40.625 48.1875 47.75 41.5 
Q 54.890625 34.8125 54.890625 23.390625 
Q 54.890625 11.625 47.5625 5.09375 
Q 40.234375 -1.421875 26.90625 -1.421875 
Q 22.3125 -1.421875 17.546875 -0.640625 
Q 12.796875 0.140625 7.71875 1.703125 
L 7.71875 11.625 
Q 12.109375 9.234375 16.796875 8.0625 
Q 21.484375 6.890625 26.703125 6.890625 
Q 35.15625 6.890625 40.078125 11.328125 
Q 45.015625 15.765625 45.015625 23.390625 
Q 45.015625 31 40.078125 35.4375 
Q 35.15625 39.890625 26.703125 39.890625 
Q 22.75 39.890625 18.8125 39.015625 
Q 14.890625 38.140625 10.796875 36.28125 
z
" id="DejaVuSans-53"/>
       </defs>
       <use xlink:href="#DejaVuSans-48"/>
       <use x="63.623047" xlink:href="#DejaVuSans-46"/>
       <use x="95.410156" xlink:href="#DejaVuSans-53"/>
      </g>
     </g>
    </g>
    <g id="ytick_22">
     <g id="line2d_36">
      <path clip-path="url(#p70dbcb7e6b)" d="M 607.874479 518.277519 
L 1067.666146 518.277519 
" style="fill:none;stroke:#cccccc;stroke-linecap:round;stroke-width:0.8;"/>
     </g>
     <g id="text_28">
      <!-- 1.0 -->
      <g style="fill:#262626;" transform="translate(561.116667 527.775566)scale(0.25 -0.25)">
       <use xlink:href="#DejaVuSans-49"/>
       <use x="63.623047" xlink:href="#DejaVuSans-46"/>
       <use x="95.410156" xlink:href="#DejaVuSans-48"/>
      </g>
     </g>
    </g>
    <g id="ytick_23">
     <g id="line2d_37">
      <path clip-path="url(#p70dbcb7e6b)" d="M 607.874479 449.817954 
L 1067.666146 449.817954 
" style="fill:none;stroke:#cccccc;stroke-linecap:round;stroke-width:0.8;"/>
     </g>
     <g id="text_29">
      <!-- 1.5 -->
      <g style="fill:#262626;" transform="translate(561.116667 459.316001)scale(0.25 -0.25)">
       <use xlink:href="#DejaVuSans-49"/>
       <use x="63.623047" xlink:href="#DejaVuSans-46"/>
       <use x="95.410156" xlink:href="#DejaVuSans-53"/>
      </g>
     </g>
    </g>
    <g id="ytick_24">
     <g id="line2d_38">
      <path clip-path="url(#p70dbcb7e6b)" d="M 607.874479 381.358389 
L 1067.666146 381.358389 
" style="fill:none;stroke:#cccccc;stroke-linecap:round;stroke-width:0.8;"/>
     </g>
     <g id="text_30">
      <!-- 2.0 -->
      <g style="fill:#262626;" transform="translate(561.116667 390.856436)scale(0.25 -0.25)">
       <use xlink:href="#DejaVuSans-50"/>
       <use x="63.623047" xlink:href="#DejaVuSans-46"/>
       <use x="95.410156" xlink:href="#DejaVuSans-48"/>
      </g>
     </g>
    </g>
   </g>
   <g id="line2d_39">
    <path clip-path="url(#p70dbcb7e6b)" d="M 628.7741 655.05973 
L 637.696968 654.83818 
L 644.342128 654.462716 
L 648.139362 654.091497 
L 651.822244 653.553182 
L 654.699875 652.956146 
L 657.520508 652.161522 
L 659.445192 651.463563 
L 661.603524 650.48915 
L 663.327943 649.531826 
L 665.562299 647.998318 
L 667.642234 646.203157 
L 669.385125 644.362006 
L 670.935267 642.414263 
L 672.850892 639.525159 
L 674.855515 635.814103 
L 676.797643 631.404349 
L 678.775369 625.913755 
L 680.776432 619.12106 
L 682.705111 611.166743 
L 684.610056 601.706863 
L 686.389614 591.200374 
L 688.314338 577.770798 
L 690.232732 562.014281 
L 692.144798 543.794453 
L 694.052908 523.111723 
L 696.252139 496.611436 
L 701.097173 436.388926 
L 702.057557 426.263756 
L 703.007656 417.511885 
L 704.03291 409.680111 
L 704.888474 404.471707 
L 706.077878 399.130492 
L 707.067137 396.145655 
L 708.023565 394.260279 
L 709.044072 393.067713 
L 710.093454 392.48033 
L 711.128991 392.332457 
L 835.520056 392.332457 
L 835.520056 392.332457 
" style="fill:none;stroke:#4682b4;stroke-linecap:round;stroke-width:3;"/>
   </g>
   <g id="patch_15">
    <path d="M 607.874479 668.196094 
L 607.874479 379.196094 
" style="fill:none;stroke:#cccccc;stroke-linecap:square;stroke-linejoin:miter;stroke-width:0.8;"/>
   </g>
   <g id="patch_16">
    <path d="M 607.874479 668.196094 
L 1067.666146 668.196094 
" style="fill:none;stroke:#cccccc;stroke-linecap:square;stroke-linejoin:miter;stroke-width:0.8;"/>
   </g>
   <g id="text_31">
    <!-- media = high_fat -->
    <g style="fill:#262626;" transform="translate(729.951953 373.196094)scale(0.25 -0.25)">
     <defs>
      <path d="M 54.890625 33.015625 
L 54.890625 0 
L 45.90625 0 
L 45.90625 32.71875 
Q 45.90625 40.484375 42.875 44.328125 
Q 39.84375 48.1875 33.796875 48.1875 
Q 26.515625 48.1875 22.3125 43.546875 
Q 18.109375 38.921875 18.109375 30.90625 
L 18.109375 0 
L 9.078125 0 
L 9.078125 75.984375 
L 18.109375 75.984375 
L 18.109375 46.1875 
Q 21.34375 51.125 25.703125 53.5625 
Q 30.078125 56 35.796875 56 
Q 45.21875 56 50.046875 50.171875 
Q 54.890625 44.34375 54.890625 33.015625 
z
" id="DejaVuSans-104"/>
     </defs>
     <use xlink:href="#DejaVuSans-109"/>
     <use x="97.412109" xlink:href="#DejaVuSans-101"/>
     <use x="158.935547" xlink:href="#DejaVuSans-100"/>
     <use x="222.412109" xlink:href="#DejaVuSans-105"/>
     <use x="250.195312" xlink:href="#DejaVuSans-97"/>
     <use x="311.474609" xlink:href="#DejaVuSans-32"/>
     <use x="343.261719" xlink:href="#DejaVuSans-61"/>
     <use x="427.050781" xlink:href="#DejaVuSans-32"/>
     <use x="458.837891" xlink:href="#DejaVuSans-104"/>
     <use x="522.216797" xlink:href="#DejaVuSans-105"/>
     <use x="550" xlink:href="#DejaVuSans-103"/>
     <use x="613.476562" xlink:href="#DejaVuSans-104"/>
     <use x="676.855469" xlink:href="#DejaVuSans-95"/>
     <use x="726.855469" xlink:href="#DejaVuSans-102"/>
     <use x="762.060547" xlink:href="#DejaVuSans-97"/>
     <use x="823.339844" xlink:href="#DejaVuSans-116"/>
    </g>
   </g>
  </g>
  <g id="axes_6">
   <g id="patch_17">
    <path d="M 1141.541146 668.196094 
L 1601.332813 668.196094 
L 1601.332813 379.196094 
L 1141.541146 379.196094 
z
" style="fill:none;"/>
   </g>
   <g id="matplotlib.axis_11">
    <g id="xtick_11">
     <g id="line2d_40">
      <path clip-path="url(#p50e630bb45)" d="M 1162.440767 668.196094 
L 1162.440767 379.196094 
" style="fill:none;stroke:#cccccc;stroke-linecap:round;stroke-width:0.8;"/>
     </g>
    </g>
    <g id="xtick_12">
     <g id="line2d_41">
      <path clip-path="url(#p50e630bb45)" d="M 1399.767906 668.196094 
L 1399.767906 379.196094 
" style="fill:none;stroke:#cccccc;stroke-linecap:round;stroke-width:0.8;"/>
     </g>
    </g>
   </g>
   <g id="matplotlib.axis_12">
    <g id="ytick_25">
     <g id="line2d_42">
      <path clip-path="url(#p50e630bb45)" d="M 1141.541146 655.104379 
L 1601.332813 655.104379 
" style="fill:none;stroke:#cccccc;stroke-linecap:round;stroke-width:0.8;"/>
     </g>
     <g id="text_32">
      <!-- 0 -->
      <g style="fill:#262626;" transform="translate(1118.634896 664.602425)scale(0.25 -0.25)">
       <use xlink:href="#DejaVuSans-48"/>
      </g>
     </g>
    </g>
    <g id="ytick_26">
     <g id="line2d_43">
      <path clip-path="url(#p50e630bb45)" d="M 1141.541146 565.807574 
L 1601.332813 565.807574 
" style="fill:none;stroke:#cccccc;stroke-linecap:round;stroke-width:0.8;"/>
     </g>
     <g id="text_33">
      <!-- 2 -->
      <g style="fill:#262626;" transform="translate(1118.634896 575.305621)scale(0.25 -0.25)">
       <use xlink:href="#DejaVuSans-50"/>
      </g>
     </g>
    </g>
    <g id="ytick_27">
     <g id="line2d_44">
      <path clip-path="url(#p50e630bb45)" d="M 1141.541146 476.510769 
L 1601.332813 476.510769 
" style="fill:none;stroke:#cccccc;stroke-linecap:round;stroke-width:0.8;"/>
     </g>
     <g id="text_34">
      <!-- 4 -->
      <g style="fill:#262626;" transform="translate(1118.634896 486.008816)scale(0.25 -0.25)">
       <use xlink:href="#DejaVuSans-52"/>
      </g>
     </g>
    </g>
    <g id="ytick_28">
     <g id="line2d_45">
      <path clip-path="url(#p50e630bb45)" d="M 1141.541146 387.213965 
L 1601.332813 387.213965 
" style="fill:none;stroke:#cccccc;stroke-linecap:round;stroke-width:0.8;"/>
     </g>
     <g id="text_35">
      <!-- 6 -->
      <g style="fill:#262626;" transform="translate(1118.634896 396.712011)scale(0.25 -0.25)">
       <use xlink:href="#DejaVuSans-54"/>
      </g>
     </g>
    </g>
   </g>
   <g id="line2d_46">
    <path clip-path="url(#p50e630bb45)" d="M 1162.440767 655.05973 
L 1174.887587 654.88039 
L 1181.612014 654.569084 
L 1186.535721 654.091418 
L 1189.825708 653.553271 
L 1193.011271 652.761396 
L 1195.037808 652.058692 
L 1197.036221 651.159933 
L 1199.039618 649.993297 
L 1200.961137 648.552225 
L 1202.532836 647.077176 
L 1204.471799 644.794571 
L 1206.39138 641.89881 
L 1208.315312 638.187501 
L 1209.738879 634.789981 
L 1210.68977 632.153046 
L 1211.646594 629.158879 
L 1213.298391 623.054461 
L 1214.254028 618.89948 
L 1215.454903 612.922399 
L 1216.408959 607.494448 
L 1217.359058 601.419586 
L 1218.310344 594.586148 
L 1219.697917 583.104365 
L 1221.153524 568.856167 
L 1223.05491 546.303812 
L 1224.955504 518.707081 
L 1226.823269 486.46647 
L 1230.624063 414.899099 
L 1231.577327 402.406923 
L 1232.535733 395.370335 
L 1233.504028 392.765547 
L 1234.030103 392.38291 
L 1237.067495 392.332457 
L 1580.433191 392.332457 
L 1580.433191 392.332457 
" style="fill:none;stroke:#4682b4;stroke-linecap:round;stroke-width:3;"/>
   </g>
   <g id="patch_18">
    <path d="M 1141.541146 668.196094 
L 1141.541146 379.196094 
" style="fill:none;stroke:#cccccc;stroke-linecap:square;stroke-linejoin:miter;stroke-width:0.8;"/>
   </g>
   <g id="patch_19">
    <path d="M 1141.541146 668.196094 
L 1601.332813 668.196094 
" style="fill:none;stroke:#cccccc;stroke-linecap:square;stroke-linejoin:miter;stroke-width:0.8;"/>
   </g>
   <g id="text_36">
    <!-- media = high_fiber -->
    <g style="fill:#262626;" transform="translate(1251.940885 373.196094)scale(0.25 -0.25)">
     <use xlink:href="#DejaVuSans-109"/>
     <use x="97.412109" xlink:href="#DejaVuSans-101"/>
     <use x="158.935547" xlink:href="#DejaVuSans-100"/>
     <use x="222.412109" xlink:href="#DejaVuSans-105"/>
     <use x="250.195312" xlink:href="#DejaVuSans-97"/>
     <use x="311.474609" xlink:href="#DejaVuSans-32"/>
     <use x="343.261719" xlink:href="#DejaVuSans-61"/>
     <use x="427.050781" xlink:href="#DejaVuSans-32"/>
     <use x="458.837891" xlink:href="#DejaVuSans-104"/>
     <use x="522.216797" xlink:href="#DejaVuSans-105"/>
     <use x="550" xlink:href="#DejaVuSans-103"/>
     <use x="613.476562" xlink:href="#DejaVuSans-104"/>
     <use x="676.855469" xlink:href="#DejaVuSans-95"/>
     <use x="726.855469" xlink:href="#DejaVuSans-102"/>
     <use x="762.060547" xlink:href="#DejaVuSans-105"/>
     <use x="789.84375" xlink:href="#DejaVuSans-98"/>
     <use x="853.320312" xlink:href="#DejaVuSans-101"/>
     <use x="914.84375" xlink:href="#DejaVuSans-114"/>
    </g>
   </g>
  </g>
  <g id="axes_7">
   <g id="patch_20">
    <path d="M 74.207813 1015.196094 
L 533.999479 1015.196094 
L 533.999479 726.196094 
L 74.207813 726.196094 
z
" style="fill:none;"/>
   </g>
   <g id="matplotlib.axis_13">
    <g id="xtick_13">
     <g id="line2d_47">
      <path clip-path="url(#p43f0ebcab2)" d="M 95.107434 1015.196094 
L 95.107434 726.196094 
" style="fill:none;stroke:#cccccc;stroke-linecap:round;stroke-width:0.8;"/>
     </g>
    </g>
    <g id="xtick_14">
     <g id="line2d_48">
      <path clip-path="url(#p43f0ebcab2)" d="M 332.434573 1015.196094 
L 332.434573 726.196094 
" style="fill:none;stroke:#cccccc;stroke-linecap:round;stroke-width:0.8;"/>
     </g>
    </g>
   </g>
   <g id="matplotlib.axis_14">
    <g id="ytick_29">
     <g id="line2d_49">
      <path clip-path="url(#p43f0ebcab2)" d="M 74.207813 1002.104374 
L 533.999479 1002.104374 
" style="fill:none;stroke:#cccccc;stroke-linecap:round;stroke-width:0.8;"/>
     </g>
     <g id="text_37">
      <!-- 0 -->
      <g style="fill:#262626;" transform="translate(51.301563 1011.60242)scale(0.25 -0.25)">
       <use xlink:href="#DejaVuSans-48"/>
      </g>
     </g>
    </g>
    <g id="ytick_30">
     <g id="line2d_50">
      <path clip-path="url(#p43f0ebcab2)" d="M 74.207813 912.817432 
L 533.999479 912.817432 
" style="fill:none;stroke:#cccccc;stroke-linecap:round;stroke-width:0.8;"/>
     </g>
     <g id="text_38">
      <!-- 2 -->
      <g style="fill:#262626;" transform="translate(51.301563 922.315479)scale(0.25 -0.25)">
       <use xlink:href="#DejaVuSans-50"/>
      </g>
     </g>
    </g>
    <g id="ytick_31">
     <g id="line2d_51">
      <path clip-path="url(#p43f0ebcab2)" d="M 74.207813 823.53049 
L 533.999479 823.53049 
" style="fill:none;stroke:#cccccc;stroke-linecap:round;stroke-width:0.8;"/>
     </g>
     <g id="text_39">
      <!-- 4 -->
      <g style="fill:#262626;" transform="translate(51.301563 833.028537)scale(0.25 -0.25)">
       <use xlink:href="#DejaVuSans-52"/>
      </g>
     </g>
    </g>
    <g id="ytick_32">
     <g id="line2d_52">
      <path clip-path="url(#p43f0ebcab2)" d="M 74.207813 734.243548 
L 533.999479 734.243548 
" style="fill:none;stroke:#cccccc;stroke-linecap:round;stroke-width:0.8;"/>
     </g>
     <g id="text_40">
      <!-- 6 -->
      <g style="fill:#262626;" transform="translate(51.301563 743.741595)scale(0.25 -0.25)">
       <use xlink:href="#DejaVuSans-54"/>
      </g>
     </g>
    </g>
    <g id="text_41">
     <!-- od -->
     <g style="fill:#262626;" transform="translate(42.102344 886.280078)rotate(-90)scale(0.25 -0.25)">
      <use xlink:href="#DejaVuSans-111"/>
      <use x="61.181641" xlink:href="#DejaVuSans-100"/>
     </g>
    </g>
   </g>
   <g id="line2d_53">
    <path clip-path="url(#p43f0ebcab2)" d="M 95.107434 1002.05973 
L 107.78181 1001.871579 
L 113.74418 1001.598157 
L 118.495114 1001.164401 
L 121.577677 1000.700028 
L 124.729104 999.98755 
L 126.795076 999.334367 
L 128.826636 998.496128 
L 130.794118 997.443774 
L 132.744235 996.0988 
L 133.91758 995.10959 
L 135.867974 993.093357 
L 137.781622 990.553545 
L 139.702785 987.289036 
L 141.154436 984.227387 
L 142.117193 981.85856 
L 143.080742 979.177183 
L 144.032819 976.183348 
L 144.989247 972.787765 
L 145.948049 968.945703 
L 147.525088 961.521717 
L 148.481516 956.251065 
L 149.432011 950.355448 
L 150.386462 943.700892 
L 151.338539 936.2432 
L 152.28943 927.892193 
L 154.192003 908.110224 
L 156.092598 883.641138 
L 157.993588 853.904568 
L 159.913169 818.736228 
L 162.189927 774.442315 
L 163.141214 758.59924 
L 164.385203 744.962446 
L 165.350729 740.566403 
L 166.394969 739.362815 
L 166.617265 739.33335 
L 287.016883 739.332457 
L 512.803199 739.332457 
L 512.803199 739.332457 
" style="fill:none;stroke:#4682b4;stroke-linecap:round;stroke-width:3;"/>
   </g>
   <g id="patch_21">
    <path d="M 74.207813 1015.196094 
L 74.207813 726.196094 
" style="fill:none;stroke:#cccccc;stroke-linecap:square;stroke-linejoin:miter;stroke-width:0.8;"/>
   </g>
   <g id="patch_22">
    <path d="M 74.207812 1015.196094 
L 533.999479 1015.196094 
" style="fill:none;stroke:#cccccc;stroke-linecap:square;stroke-linejoin:miter;stroke-width:0.8;"/>
   </g>
   <g id="text_42">
    <!-- media = high_protein -->
    <g style="fill:#262626;" transform="translate(168.81849 720.196094)scale(0.25 -0.25)">
     <defs>
      <path d="M 18.109375 8.203125 
L 18.109375 -20.796875 
L 9.078125 -20.796875 
L 9.078125 54.6875 
L 18.109375 54.6875 
L 18.109375 46.390625 
Q 20.953125 51.265625 25.265625 53.625 
Q 29.59375 56 35.59375 56 
Q 45.5625 56 51.78125 48.09375 
Q 58.015625 40.1875 58.015625 27.296875 
Q 58.015625 14.40625 51.78125 6.484375 
Q 45.5625 -1.421875 35.59375 -1.421875 
Q 29.59375 -1.421875 25.265625 0.953125 
Q 20.953125 3.328125 18.109375 8.203125 
z
M 48.6875 27.296875 
Q 48.6875 37.203125 44.609375 42.84375 
Q 40.53125 48.484375 33.40625 48.484375 
Q 26.265625 48.484375 22.1875 42.84375 
Q 18.109375 37.203125 18.109375 27.296875 
Q 18.109375 17.390625 22.1875 11.75 
Q 26.265625 6.109375 33.40625 6.109375 
Q 40.53125 6.109375 44.609375 11.75 
Q 48.6875 17.390625 48.6875 27.296875 
z
" id="DejaVuSans-112"/>
     </defs>
     <use xlink:href="#DejaVuSans-109"/>
     <use x="97.412109" xlink:href="#DejaVuSans-101"/>
     <use x="158.935547" xlink:href="#DejaVuSans-100"/>
     <use x="222.412109" xlink:href="#DejaVuSans-105"/>
     <use x="250.195312" xlink:href="#DejaVuSans-97"/>
     <use x="311.474609" xlink:href="#DejaVuSans-32"/>
     <use x="343.261719" xlink:href="#DejaVuSans-61"/>
     <use x="427.050781" xlink:href="#DejaVuSans-32"/>
     <use x="458.837891" xlink:href="#DejaVuSans-104"/>
     <use x="522.216797" xlink:href="#DejaVuSans-105"/>
     <use x="550" xlink:href="#DejaVuSans-103"/>
     <use x="613.476562" xlink:href="#DejaVuSans-104"/>
     <use x="676.855469" xlink:href="#DejaVuSans-95"/>
     <use x="726.855469" xlink:href="#DejaVuSans-112"/>
     <use x="790.332031" xlink:href="#DejaVuSans-114"/>
     <use x="829.195312" xlink:href="#DejaVuSans-111"/>
     <use x="890.376953" xlink:href="#DejaVuSans-116"/>
     <use x="929.585938" xlink:href="#DejaVuSans-101"/>
     <use x="991.109375" xlink:href="#DejaVuSans-105"/>
     <use x="1018.892578" xlink:href="#DejaVuSans-110"/>
    </g>
   </g>
  </g>
  <g id="axes_8">
   <g id="patch_23">
    <path d="M 607.874479 1015.196094 
L 1067.666146 1015.196094 
L 1067.666146 726.196094 
L 607.874479 726.196094 
z
" style="fill:none;"/>
   </g>
   <g id="matplotlib.axis_15">
    <g id="xtick_15">
     <g id="line2d_54">
      <path clip-path="url(#pafb3bc7a29)" d="M 628.7741 1015.196094 
L 628.7741 726.196094 
" style="fill:none;stroke:#cccccc;stroke-linecap:round;stroke-width:0.8;"/>
     </g>
    </g>
    <g id="xtick_16">
     <g id="line2d_55">
      <path clip-path="url(#pafb3bc7a29)" d="M 866.10124 1015.196094 
L 866.10124 726.196094 
" style="fill:none;stroke:#cccccc;stroke-linecap:round;stroke-width:0.8;"/>
     </g>
    </g>
   </g>
   <g id="matplotlib.axis_16">
    <g id="ytick_33">
     <g id="line2d_56">
      <path clip-path="url(#pafb3bc7a29)" d="M 607.874479 1002.104372 
L 1067.666146 1002.104372 
" style="fill:none;stroke:#cccccc;stroke-linecap:round;stroke-width:0.8;"/>
     </g>
     <g id="text_43">
      <!-- 0 -->
      <g style="fill:#262626;" transform="translate(584.968229 1011.602419)scale(0.25 -0.25)">
       <use xlink:href="#DejaVuSans-48"/>
      </g>
     </g>
    </g>
    <g id="ytick_34">
     <g id="line2d_57">
      <path clip-path="url(#pafb3bc7a29)" d="M 607.874479 912.820161 
L 1067.666146 912.820161 
" style="fill:none;stroke:#cccccc;stroke-linecap:round;stroke-width:0.8;"/>
     </g>
     <g id="text_44">
      <!-- 2 -->
      <g style="fill:#262626;" transform="translate(584.968229 922.318208)scale(0.25 -0.25)">
       <use xlink:href="#DejaVuSans-50"/>
      </g>
     </g>
    </g>
    <g id="ytick_35">
     <g id="line2d_58">
      <path clip-path="url(#pafb3bc7a29)" d="M 607.874479 823.53595 
L 1067.666146 823.53595 
" style="fill:none;stroke:#cccccc;stroke-linecap:round;stroke-width:0.8;"/>
     </g>
     <g id="text_45">
      <!-- 4 -->
      <g style="fill:#262626;" transform="translate(584.968229 833.033997)scale(0.25 -0.25)">
       <use xlink:href="#DejaVuSans-52"/>
      </g>
     </g>
    </g>
    <g id="ytick_36">
     <g id="line2d_59">
      <path clip-path="url(#pafb3bc7a29)" d="M 607.874479 734.251739 
L 1067.666146 734.251739 
" style="fill:none;stroke:#cccccc;stroke-linecap:round;stroke-width:0.8;"/>
     </g>
     <g id="text_46">
      <!-- 6 -->
      <g style="fill:#262626;" transform="translate(584.968229 743.749786)scale(0.25 -0.25)">
       <use xlink:href="#DejaVuSans-54"/>
      </g>
     </g>
    </g>
   </g>
   <g id="line2d_60">
    <path clip-path="url(#pafb3bc7a29)" d="M 628.7741 1002.05973 
L 630.397628 1002.049201 
L 631.346936 1002.04193 
L 633.245541 1002.024383 
L 635.144159 1002.001907 
L 637.042776 1001.973116 
L 638.941393 1001.936236 
L 639.890701 1001.914075 
L 640.84001 1001.888994 
L 641.789318 1001.860607 
L 642.738627 1001.82848 
L 644.258945 1001.767977 
L 645.208253 1001.723642 
L 646.831334 1001.633894 
L 648.308616 1001.53394 
L 649.463727 1001.441205 
L 650.462637 1001.348952 
L 651.74717 1001.211218 
L 652.842909 1001.07405 
L 653.798784 1000.937307 
L 654.818697 1000.771341 
L 655.797672 1000.589898 
L 656.866316 1000.363549 
L 657.976849 1000.092442 
L 658.94546 999.821754 
L 659.938753 999.506358 
L 660.972471 999.13182 
L 661.952237 998.727184 
L 662.911117 998.277968 
L 663.922606 997.739316 
L 664.875395 997.162893 
L 665.878498 996.473797 
L 666.853794 995.712024 
L 667.814731 994.861057 
L 668.795367 993.876073 
L 669.125252 993.515722 
L 670.10304 992.35217 
L 671.065006 991.054781 
L 672.030927 989.578824 
L 672.987751 987.924298 
L 673.947344 986.046562 
L 674.897048 983.94566 
L 675.259763 983.072416 
L 676.2154 980.569735 
L 677.167082 977.754559 
L 678.116786 974.582291 
L 679.076379 970.963557 
L 680.03162 966.898403 
L 680.980929 962.342274 
L 681.931424 957.205575 
L 682.885479 951.399869 
L 682.938482 951.057017 
L 683.892933 944.481235 
L 683.969273 943.920084 
L 684.923724 936.462174 
L 685.876592 928.111868 
L 686.827483 918.77899 
L 687.776792 908.375147 
L 688.728473 896.765521 
L 689.533012 885.968381 
L 689.933304 880.241246 
L 690.884195 865.686133 
L 691.833899 849.791312 
L 692.242497 842.551702 
L 692.780043 832.693385 
L 693.729747 814.478514 
L 694.680243 795.683741 
L 695.630342 777.292533 
L 696.580837 760.913344 
L 697.136578 753.162135 
L 698.090634 744.203804 
L 699.040338 740.344494 
L 699.724631 739.470848 
L 700.736436 739.332457 
L 701.707104 739.332457 
L 702.673816 739.332457 
L 703.655559 739.332457 
L 704.641258 739.332457 
L 705.599269 739.332457 
L 706.555697 739.332457 
L 707.512521 739.332457 
L 708.470927 739.332457 
L 709.463746 739.332457 
L 710.426107 739.332457 
L 711.390842 739.332457 
L 712.357555 739.332457 
L 713.327036 739.332457 
L 714.298495 739.332457 
L 715.272723 739.332457 
L 716.248929 739.332457 
L 717.227903 739.332457 
L 718.209251 739.332457 
L 719.175568 739.332457 
L 720.161662 739.332457 
L 721.116113 739.332457 
L 722.107349 739.332457 
L 723.100563 739.332457 
L 724.096546 739.332457 
L 725.095298 739.332457 
L 726.096027 739.332457 
L 727.075397 739.332457 
L 728.081269 739.332457 
L 729.089909 739.332457 
L 730.07719 739.332457 
L 731.090972 739.332457 
L 731.163357 739.332457 
" style="fill:none;stroke:#4682b4;stroke-linecap:round;stroke-width:3;"/>
   </g>
   <g id="patch_24">
    <path d="M 607.874479 1015.196094 
L 607.874479 726.196094 
" style="fill:none;stroke:#cccccc;stroke-linecap:square;stroke-linejoin:miter;stroke-width:0.8;"/>
   </g>
   <g id="patch_25">
    <path d="M 607.874479 1015.196094 
L 1067.666146 1015.196094 
" style="fill:none;stroke:#cccccc;stroke-linecap:square;stroke-linejoin:miter;stroke-width:0.8;"/>
   </g>
   <g id="text_47">
    <!-- media = mediterranean -->
    <g style="fill:#262626;" transform="translate(687.633594 720.196094)scale(0.25 -0.25)">
     <use xlink:href="#DejaVuSans-109"/>
     <use x="97.412109" xlink:href="#DejaVuSans-101"/>
     <use x="158.935547" xlink:href="#DejaVuSans-100"/>
     <use x="222.412109" xlink:href="#DejaVuSans-105"/>
     <use x="250.195312" xlink:href="#DejaVuSans-97"/>
     <use x="311.474609" xlink:href="#DejaVuSans-32"/>
     <use x="343.261719" xlink:href="#DejaVuSans-61"/>
     <use x="427.050781" xlink:href="#DejaVuSans-32"/>
     <use x="458.837891" xlink:href="#DejaVuSans-109"/>
     <use x="556.25" xlink:href="#DejaVuSans-101"/>
     <use x="617.773438" xlink:href="#DejaVuSans-100"/>
     <use x="681.25" xlink:href="#DejaVuSans-105"/>
     <use x="709.033203" xlink:href="#DejaVuSans-116"/>
     <use x="748.242188" xlink:href="#DejaVuSans-101"/>
     <use x="809.765625" xlink:href="#DejaVuSans-114"/>
     <use x="849.128906" xlink:href="#DejaVuSans-114"/>
     <use x="890.242188" xlink:href="#DejaVuSans-97"/>
     <use x="951.521484" xlink:href="#DejaVuSans-110"/>
     <use x="1014.900391" xlink:href="#DejaVuSans-101"/>
     <use x="1076.423828" xlink:href="#DejaVuSans-97"/>
     <use x="1137.703125" xlink:href="#DejaVuSans-110"/>
    </g>
   </g>
  </g>
  <g id="axes_9">
   <g id="patch_26">
    <path d="M 1141.541146 1015.196094 
L 1601.332813 1015.196094 
L 1601.332813 726.196094 
L 1141.541146 726.196094 
z
" style="fill:none;"/>
   </g>
   <g id="matplotlib.axis_17">
    <g id="xtick_17">
     <g id="line2d_61">
      <path clip-path="url(#p285f342555)" d="M 1162.440767 1015.196094 
L 1162.440767 726.196094 
" style="fill:none;stroke:#cccccc;stroke-linecap:round;stroke-width:0.8;"/>
     </g>
     <g id="text_48">
      <!-- 0 -->
      <g style="fill:#262626;" transform="translate(1154.487642 1041.192187)scale(0.25 -0.25)">
       <use xlink:href="#DejaVuSans-48"/>
      </g>
     </g>
    </g>
    <g id="xtick_18">
     <g id="line2d_62">
      <path clip-path="url(#p285f342555)" d="M 1399.767906 1015.196094 
L 1399.767906 726.196094 
" style="fill:none;stroke:#cccccc;stroke-linecap:round;stroke-width:0.8;"/>
     </g>
     <g id="text_49">
      <!-- 6 -->
      <g style="fill:#262626;" transform="translate(1391.814781 1041.192187)scale(0.25 -0.25)">
       <use xlink:href="#DejaVuSans-54"/>
      </g>
     </g>
    </g>
    <g id="text_50">
     <!-- time -->
     <g style="fill:#262626;" transform="translate(1343.196745 1069.3875)scale(0.25 -0.25)">
      <use xlink:href="#DejaVuSans-116"/>
      <use x="39.208984" xlink:href="#DejaVuSans-105"/>
      <use x="66.992188" xlink:href="#DejaVuSans-109"/>
      <use x="164.404297" xlink:href="#DejaVuSans-101"/>
     </g>
    </g>
   </g>
   <g id="matplotlib.axis_18">
    <g id="ytick_37">
     <g id="line2d_63">
      <path clip-path="url(#p285f342555)" d="M 1141.541146 1002.196644 
L 1601.332813 1002.196644 
" style="fill:none;stroke:#cccccc;stroke-linecap:round;stroke-width:0.8;"/>
     </g>
     <g id="text_51">
      <!-- 0.0 -->
      <g style="fill:#262626;" transform="translate(1094.783333 1011.694691)scale(0.25 -0.25)">
       <use xlink:href="#DejaVuSans-48"/>
       <use x="63.623047" xlink:href="#DejaVuSans-46"/>
       <use x="95.410156" xlink:href="#DejaVuSans-48"/>
      </g>
     </g>
    </g>
    <g id="ytick_38">
     <g id="line2d_64">
      <path clip-path="url(#p285f342555)" d="M 1141.541146 933.739577 
L 1601.332813 933.739577 
" style="fill:none;stroke:#cccccc;stroke-linecap:round;stroke-width:0.8;"/>
     </g>
     <g id="text_52">
      <!-- 0.5 -->
      <g style="fill:#262626;" transform="translate(1094.783333 943.237623)scale(0.25 -0.25)">
       <use xlink:href="#DejaVuSans-48"/>
       <use x="63.623047" xlink:href="#DejaVuSans-46"/>
       <use x="95.410156" xlink:href="#DejaVuSans-53"/>
      </g>
     </g>
    </g>
    <g id="ytick_39">
     <g id="line2d_65">
      <path clip-path="url(#p285f342555)" d="M 1141.541146 865.282509 
L 1601.332813 865.282509 
" style="fill:none;stroke:#cccccc;stroke-linecap:round;stroke-width:0.8;"/>
     </g>
     <g id="text_53">
      <!-- 1.0 -->
      <g style="fill:#262626;" transform="translate(1094.783333 874.780556)scale(0.25 -0.25)">
       <use xlink:href="#DejaVuSans-49"/>
       <use x="63.623047" xlink:href="#DejaVuSans-46"/>
       <use x="95.410156" xlink:href="#DejaVuSans-48"/>
      </g>
     </g>
    </g>
    <g id="ytick_40">
     <g id="line2d_66">
      <path clip-path="url(#p285f342555)" d="M 1141.541146 796.825441 
L 1601.332813 796.825441 
" style="fill:none;stroke:#cccccc;stroke-linecap:round;stroke-width:0.8;"/>
     </g>
     <g id="text_54">
      <!-- 1.5 -->
      <g style="fill:#262626;" transform="translate(1094.783333 806.323488)scale(0.25 -0.25)">
       <use xlink:href="#DejaVuSans-49"/>
       <use x="63.623047" xlink:href="#DejaVuSans-46"/>
       <use x="95.410156" xlink:href="#DejaVuSans-53"/>
      </g>
     </g>
    </g>
    <g id="ytick_41">
     <g id="line2d_67">
      <path clip-path="url(#p285f342555)" d="M 1141.541146 728.368373 
L 1601.332813 728.368373 
" style="fill:none;stroke:#cccccc;stroke-linecap:round;stroke-width:0.8;"/>
     </g>
     <g id="text_55">
      <!-- 2.0 -->
      <g style="fill:#262626;" transform="translate(1094.783333 737.86642)scale(0.25 -0.25)">
       <use xlink:href="#DejaVuSans-50"/>
       <use x="63.623047" xlink:href="#DejaVuSans-46"/>
       <use x="95.410156" xlink:href="#DejaVuSans-48"/>
      </g>
     </g>
    </g>
   </g>
   <g id="line2d_68">
    <path clip-path="url(#p285f342555)" d="M 1162.440767 1002.05973 
L 1172.354911 1001.797097 
L 1178.629484 1001.409878 
L 1183.376027 1000.883349 
L 1187.243708 1000.203339 
L 1190.529898 999.355922 
L 1192.933349 998.516502 
L 1195.116363 997.541906 
L 1197.326709 996.293359 
L 1199.384613 994.833758 
L 1201.419693 993.038978 
L 1202.882894 991.486865 
L 1204.66087 989.247305 
L 1206.506484 986.433583 
L 1207.950224 983.82085 
L 1209.919643 979.562547 
L 1211.889459 974.345982 
L 1213.842266 968.034514 
L 1215.765406 960.491093 
L 1217.704765 951.305112 
L 1219.631861 940.339659 
L 1221.290778 929.224285 
L 1222.912118 916.694862 
L 1224.862156 899.277193 
L 1226.768684 879.689709 
L 1228.899486 855.01258 
L 1234.745249 782.452195 
L 1235.701677 772.465678 
L 1236.908881 761.73161 
L 1237.86531 754.902333 
L 1238.820551 749.58048 
L 1240.121104 744.528349 
L 1241.107198 742.094015 
L 1242.169633 740.489382 
L 1243.124084 739.71171 
L 1243.82499 739.431036 
L 1246.112823 739.332457 
L 1299.006714 739.332457 
L 1299.006714 739.332457 
" style="fill:none;stroke:#4682b4;stroke-linecap:round;stroke-width:3;"/>
   </g>
   <g id="patch_27">
    <path d="M 1141.541146 1015.196094 
L 1141.541146 726.196094 
" style="fill:none;stroke:#cccccc;stroke-linecap:square;stroke-linejoin:miter;stroke-width:0.8;"/>
   </g>
   <g id="patch_28">
    <path d="M 1141.541146 1015.196094 
L 1601.332813 1015.196094 
" style="fill:none;stroke:#cccccc;stroke-linecap:square;stroke-linejoin:miter;stroke-width:0.8;"/>
   </g>
   <g id="text_56">
    <!-- media = unhealthy -->
    <g style="fill:#262626;" transform="translate(1251.270964 720.196094)scale(0.25 -0.25)">
     <defs>
      <path d="M 32.171875 -5.078125 
Q 28.375 -14.84375 24.75 -17.8125 
Q 21.140625 -20.796875 15.09375 -20.796875 
L 7.90625 -20.796875 
L 7.90625 -13.28125 
L 13.1875 -13.28125 
Q 16.890625 -13.28125 18.9375 -11.515625 
Q 21 -9.765625 23.484375 -3.21875 
L 25.09375 0.875 
L 2.984375 54.6875 
L 12.5 54.6875 
L 29.59375 11.921875 
L 46.6875 54.6875 
L 56.203125 54.6875 
z
" id="DejaVuSans-121"/>
     </defs>
     <use xlink:href="#DejaVuSans-109"/>
     <use x="97.412109" xlink:href="#DejaVuSans-101"/>
     <use x="158.935547" xlink:href="#DejaVuSans-100"/>
     <use x="222.412109" xlink:href="#DejaVuSans-105"/>
     <use x="250.195312" xlink:href="#DejaVuSans-97"/>
     <use x="311.474609" xlink:href="#DejaVuSans-32"/>
     <use x="343.261719" xlink:href="#DejaVuSans-61"/>
     <use x="427.050781" xlink:href="#DejaVuSans-32"/>
     <use x="458.837891" xlink:href="#DejaVuSans-117"/>
     <use x="522.216797" xlink:href="#DejaVuSans-110"/>
     <use x="585.595703" xlink:href="#DejaVuSans-104"/>
     <use x="648.974609" xlink:href="#DejaVuSans-101"/>
     <use x="710.498047" xlink:href="#DejaVuSans-97"/>
     <use x="771.777344" xlink:href="#DejaVuSans-108"/>
     <use x="799.560547" xlink:href="#DejaVuSans-116"/>
     <use x="838.769531" xlink:href="#DejaVuSans-104"/>
     <use x="902.148438" xlink:href="#DejaVuSans-121"/>
    </g>
   </g>
  </g>
  <g id="axes_10">
   <g id="patch_29">
    <path d="M 74.207813 1362.196094 
L 533.999479 1362.196094 
L 533.999479 1073.196094 
L 74.207813 1073.196094 
z
" style="fill:none;"/>
   </g>
   <g id="matplotlib.axis_19">
    <g id="xtick_19">
     <g id="line2d_69">
      <path clip-path="url(#pf221962db5)" d="M 95.107434 1362.196094 
L 95.107434 1073.196094 
" style="fill:none;stroke:#cccccc;stroke-linecap:round;stroke-width:0.8;"/>
     </g>
     <g id="text_57">
      <!-- 0 -->
      <g style="fill:#262626;" transform="translate(87.154309 1388.192187)scale(0.25 -0.25)">
       <use xlink:href="#DejaVuSans-48"/>
      </g>
     </g>
    </g>
    <g id="xtick_20">
     <g id="line2d_70">
      <path clip-path="url(#pf221962db5)" d="M 332.434573 1362.196094 
L 332.434573 1073.196094 
" style="fill:none;stroke:#cccccc;stroke-linecap:round;stroke-width:0.8;"/>
     </g>
     <g id="text_58">
      <!-- 6 -->
      <g style="fill:#262626;" transform="translate(324.481448 1388.192187)scale(0.25 -0.25)">
       <use xlink:href="#DejaVuSans-54"/>
      </g>
     </g>
    </g>
    <g id="text_59">
     <!-- time -->
     <g style="fill:#262626;" transform="translate(275.863411 1416.3875)scale(0.25 -0.25)">
      <use xlink:href="#DejaVuSans-116"/>
      <use x="39.208984" xlink:href="#DejaVuSans-105"/>
      <use x="66.992188" xlink:href="#DejaVuSans-109"/>
      <use x="164.404297" xlink:href="#DejaVuSans-101"/>
     </g>
    </g>
   </g>
   <g id="matplotlib.axis_20">
    <g id="ytick_42">
     <g id="line2d_71">
      <path clip-path="url(#pf221962db5)" d="M 74.207813 1349.104374 
L 533.999479 1349.104374 
" style="fill:none;stroke:#cccccc;stroke-linecap:round;stroke-width:0.8;"/>
     </g>
     <g id="text_60">
      <!-- 0 -->
      <g style="fill:#262626;" transform="translate(51.301563 1358.602421)scale(0.25 -0.25)">
       <use xlink:href="#DejaVuSans-48"/>
      </g>
     </g>
    </g>
    <g id="ytick_43">
     <g id="line2d_72">
      <path clip-path="url(#pf221962db5)" d="M 74.207813 1259.817128 
L 533.999479 1259.817128 
" style="fill:none;stroke:#cccccc;stroke-linecap:round;stroke-width:0.8;"/>
     </g>
     <g id="text_61">
      <!-- 2 -->
      <g style="fill:#262626;" transform="translate(51.301563 1269.315175)scale(0.25 -0.25)">
       <use xlink:href="#DejaVuSans-50"/>
      </g>
     </g>
    </g>
    <g id="ytick_44">
     <g id="line2d_73">
      <path clip-path="url(#pf221962db5)" d="M 74.207813 1170.529883 
L 533.999479 1170.529883 
" style="fill:none;stroke:#cccccc;stroke-linecap:round;stroke-width:0.8;"/>
     </g>
     <g id="text_62">
      <!-- 4 -->
      <g style="fill:#262626;" transform="translate(51.301563 1180.02793)scale(0.25 -0.25)">
       <use xlink:href="#DejaVuSans-52"/>
      </g>
     </g>
    </g>
    <g id="ytick_45">
     <g id="line2d_74">
      <path clip-path="url(#pf221962db5)" d="M 74.207813 1081.242638 
L 533.999479 1081.242638 
" style="fill:none;stroke:#cccccc;stroke-linecap:round;stroke-width:0.8;"/>
     </g>
     <g id="text_63">
      <!-- 6 -->
      <g style="fill:#262626;" transform="translate(51.301563 1090.740685)scale(0.25 -0.25)">
       <use xlink:href="#DejaVuSans-54"/>
      </g>
     </g>
    </g>
    <g id="text_64">
     <!-- od -->
     <g style="fill:#262626;" transform="translate(42.102344 1233.280078)rotate(-90)scale(0.25 -0.25)">
      <use xlink:href="#DejaVuSans-111"/>
      <use x="61.181641" xlink:href="#DejaVuSans-100"/>
     </g>
    </g>
   </g>
   <g id="line2d_75">
    <path clip-path="url(#pf221962db5)" d="M 95.107434 1349.05973 
L 96.219909 1349.05277 
L 97.169217 1349.045978 
L 99.06783 1349.029597 
L 100.966447 1349.008619 
L 102.74209 1348.983706 
L 104.640707 1348.949855 
L 106.34966 1348.911338 
L 107.767452 1348.872193 
L 108.716761 1348.841639 
L 109.666069 1348.807065 
L 110.615378 1348.767941 
L 111.763527 1348.713684 
L 113.423749 1348.619392 
L 114.775446 1348.52606 
L 115.917108 1348.433371 
L 116.906169 1348.341146 
L 118.180141 1348.203448 
L 119.268523 1348.066302 
L 120.218979 1347.929572 
L 121.324409 1347.747748 
L 122.28859 1347.566343 
L 123.387731 1347.329799 
L 124.47999 1347.05874 
L 125.434876 1346.788088 
L 126.415986 1346.472721 
L 127.478816 1346.0825 
L 128.470369 1345.666534 
L 129.420904 1345.214191 
L 130.424837 1344.671762 
L 131.37727 1344.087591 
L 132.373134 1343.394499 
L 133.375604 1342.600289 
L 134.369174 1341.704559 
L 135.332011 1340.719587 
L 135.477571 1340.559317 
L 136.461688 1339.39577 
L 137.429191 1338.098292 
L 138.400255 1336.62224 
L 139.36143 1334.967703 
L 140.324978 1333.089903 
L 141.278638 1330.988885 
L 142.229924 1328.620049 
L 143.174486 1325.965897 
L 144.132101 1322.927407 
L 145.092089 1319.487125 
L 146.042189 1315.645095 
L 146.992684 1311.311985 
L 147.949112 1306.398508 
L 148.898816 1300.904887 
L 148.974761 1300.435236 
L 149.926839 1294.18245 
L 150.347303 1291.180166 
L 151.301358 1283.766646 
L 152.254622 1275.460254 
L 153.2067 1266.172148 
L 154.002932 1257.576019 
L 154.953823 1246.234306 
L 155.905109 1233.642573 
L 156.855209 1219.756174 
L 157.774456 1205.030921 
L 158.724556 1188.510995 
L 159.675842 1170.786138 
L 159.720143 1169.937016 
L 160.669847 1151.364822 
L 161.619947 1132.659591 
L 162.570046 1115.117326 
L 162.793529 1111.366369 
L 163.744025 1098.070605 
L 164.693729 1090.185202 
L 165.508156 1087.269081 
L 166.079324 1086.520853 
L 167.138198 1086.332457 
L 168.123897 1086.332457 
L 169.092983 1086.332457 
L 170.047829 1086.332457 
L 171.012168 1086.332457 
L 171.970179 1086.332457 
L 172.926607 1086.332457 
L 173.883827 1086.332457 
L 174.868734 1086.332457 
L 175.828723 1086.332457 
L 176.82787 1086.332457 
L 177.792605 1086.332457 
L 178.759317 1086.332457 
L 179.728799 1086.332457 
L 180.700258 1086.332457 
L 181.674486 1086.332457 
L 182.650691 1086.332457 
L 183.62927 1086.332457 
L 184.643052 1086.332457 
L 185.626773 1086.332457 
L 186.612868 1086.332457 
L 187.573647 1086.332457 
L 188.552622 1086.332457 
L 189.546231 1086.332457 
L 189.688232 1086.332457 
" style="fill:none;stroke:#4682b4;stroke-linecap:round;stroke-width:3;"/>
   </g>
   <g id="patch_30">
    <path d="M 74.207813 1362.196094 
L 74.207813 1073.196094 
" style="fill:none;stroke:#cccccc;stroke-linecap:square;stroke-linejoin:miter;stroke-width:0.8;"/>
   </g>
   <g id="patch_31">
    <path d="M 74.207812 1362.196094 
L 533.999479 1362.196094 
" style="fill:none;stroke:#cccccc;stroke-linecap:square;stroke-linejoin:miter;stroke-width:0.8;"/>
   </g>
   <g id="text_65">
    <!-- media = vegan -->
    <g style="fill:#262626;" transform="translate(208.140755 1067.196094)scale(0.25 -0.25)">
     <use xlink:href="#DejaVuSans-109"/>
     <use x="97.412109" xlink:href="#DejaVuSans-101"/>
     <use x="158.935547" xlink:href="#DejaVuSans-100"/>
     <use x="222.412109" xlink:href="#DejaVuSans-105"/>
     <use x="250.195312" xlink:href="#DejaVuSans-97"/>
     <use x="311.474609" xlink:href="#DejaVuSans-32"/>
     <use x="343.261719" xlink:href="#DejaVuSans-61"/>
     <use x="427.050781" xlink:href="#DejaVuSans-32"/>
     <use x="458.837891" xlink:href="#DejaVuSans-118"/>
     <use x="518.017578" xlink:href="#DejaVuSans-101"/>
     <use x="579.541016" xlink:href="#DejaVuSans-103"/>
     <use x="643.017578" xlink:href="#DejaVuSans-97"/>
     <use x="704.296875" xlink:href="#DejaVuSans-110"/>
    </g>
   </g>
  </g>
  <g id="axes_11">
   <g id="patch_32">
    <path d="M 607.874479 1362.196094 
L 1067.666146 1362.196094 
L 1067.666146 1073.196094 
L 607.874479 1073.196094 
z
" style="fill:none;"/>
   </g>
   <g id="matplotlib.axis_21">
    <g id="xtick_21">
     <g id="line2d_76">
      <path clip-path="url(#p1331f5a32f)" d="M 628.7741 1362.196094 
L 628.7741 1073.196094 
" style="fill:none;stroke:#cccccc;stroke-linecap:round;stroke-width:0.8;"/>
     </g>
     <g id="text_66">
      <!-- 0 -->
      <g style="fill:#262626;" transform="translate(620.820975 1388.192187)scale(0.25 -0.25)">
       <use xlink:href="#DejaVuSans-48"/>
      </g>
     </g>
    </g>
    <g id="xtick_22">
     <g id="line2d_77">
      <path clip-path="url(#p1331f5a32f)" d="M 866.10124 1362.196094 
L 866.10124 1073.196094 
" style="fill:none;stroke:#cccccc;stroke-linecap:round;stroke-width:0.8;"/>
     </g>
     <g id="text_67">
      <!-- 6 -->
      <g style="fill:#262626;" transform="translate(858.148115 1388.192187)scale(0.25 -0.25)">
       <use xlink:href="#DejaVuSans-54"/>
      </g>
     </g>
    </g>
    <g id="text_68">
     <!-- time -->
     <g style="fill:#262626;" transform="translate(809.530078 1416.3875)scale(0.25 -0.25)">
      <use xlink:href="#DejaVuSans-116"/>
      <use x="39.208984" xlink:href="#DejaVuSans-105"/>
      <use x="66.992188" xlink:href="#DejaVuSans-109"/>
      <use x="164.404297" xlink:href="#DejaVuSans-101"/>
     </g>
    </g>
   </g>
   <g id="matplotlib.axis_22">
    <g id="ytick_46">
     <g id="line2d_78">
      <path clip-path="url(#p1331f5a32f)" d="M 607.874479 1349.127093 
L 1067.666146 1349.127093 
" style="fill:none;stroke:#cccccc;stroke-linecap:round;stroke-width:0.8;"/>
     </g>
     <g id="text_69">
      <!-- 0 -->
      <g style="fill:#262626;" transform="translate(584.968229 1358.62514)scale(0.25 -0.25)">
       <use xlink:href="#DejaVuSans-48"/>
      </g>
     </g>
    </g>
    <g id="ytick_47">
     <g id="line2d_79">
      <path clip-path="url(#p1331f5a32f)" d="M 607.874479 1281.76389 
L 1067.666146 1281.76389 
" style="fill:none;stroke:#cccccc;stroke-linecap:round;stroke-width:0.8;"/>
     </g>
     <g id="text_70">
      <!-- 1 -->
      <g style="fill:#262626;" transform="translate(584.968229 1291.261936)scale(0.25 -0.25)">
       <use xlink:href="#DejaVuSans-49"/>
      </g>
     </g>
    </g>
    <g id="ytick_48">
     <g id="line2d_80">
      <path clip-path="url(#p1331f5a32f)" d="M 607.874479 1214.400686 
L 1067.666146 1214.400686 
" style="fill:none;stroke:#cccccc;stroke-linecap:round;stroke-width:0.8;"/>
     </g>
     <g id="text_71">
      <!-- 2 -->
      <g style="fill:#262626;" transform="translate(584.968229 1223.898733)scale(0.25 -0.25)">
       <use xlink:href="#DejaVuSans-50"/>
      </g>
     </g>
    </g>
    <g id="ytick_49">
     <g id="line2d_81">
      <path clip-path="url(#p1331f5a32f)" d="M 607.874479 1147.037482 
L 1067.666146 1147.037482 
" style="fill:none;stroke:#cccccc;stroke-linecap:round;stroke-width:0.8;"/>
     </g>
     <g id="text_72">
      <!-- 3 -->
      <g style="fill:#262626;" transform="translate(584.968229 1156.535529)scale(0.25 -0.25)">
       <use xlink:href="#DejaVuSans-51"/>
      </g>
     </g>
    </g>
    <g id="ytick_50">
     <g id="line2d_82">
      <path clip-path="url(#p1331f5a32f)" d="M 607.874479 1079.674278 
L 1067.666146 1079.674278 
" style="fill:none;stroke:#cccccc;stroke-linecap:round;stroke-width:0.8;"/>
     </g>
     <g id="text_73">
      <!-- 4 -->
      <g style="fill:#262626;" transform="translate(584.968229 1089.172325)scale(0.25 -0.25)">
       <use xlink:href="#DejaVuSans-52"/>
      </g>
     </g>
    </g>
   </g>
   <g id="line2d_83">
    <path clip-path="url(#p1331f5a32f)" d="M 628.7741 1349.05973 
L 630.672717 1349.041892 
L 631.622026 1349.031273 
L 633.520643 1349.0059 
L 634.961773 1348.982243 
L 636.86039 1348.943888 
L 637.934295 1348.917854 
L 638.883604 1348.891777 
L 640.446086 1348.841595 
L 641.395395 1348.806017 
L 642.628824 1348.753087 
L 643.578132 1348.706481 
L 644.527441 1348.654068 
L 645.476749 1348.595127 
L 646.426058 1348.528845 
L 647.703155 1348.426469 
L 649.186608 1348.28537 
L 650.431032 1348.145329 
L 651.774146 1347.967941 
L 653.107371 1347.7602 
L 654.247451 1347.553294 
L 655.243829 1347.347 
L 656.356023 1347.084675 
L 657.373722 1346.810944 
L 658.486746 1346.46946 
L 659.463703 1346.128555 
L 660.482984 1345.726275 
L 661.556019 1345.244453 
L 662.625573 1344.696454 
L 662.950553 1344.515146 
L 663.958007 1343.904687 
L 664.947305 1343.226939 
L 665.911763 1342.481942 
L 666.920839 1341.602017 
L 667.883358 1340.654958 
L 668.859841 1339.573105 
L 669.834069 1338.356525 
L 670.795639 1337.005354 
L 671.777778 1335.451959 
L 672.731833 1333.753665 
L 673.710016 1331.796158 
L 674.681476 1329.60874 
L 675.641068 1327.179757 
L 676.25179 1325.481935 
L 677.201494 1322.581478 
L 678.166625 1319.276841 
L 679.132151 1315.567958 
L 680.088183 1311.45503 
L 681.041052 1306.87056 
L 681.192546 1306.093593 
L 682.152929 1300.835558 
L 682.315499 1299.887084 
L 683.267971 1293.955484 
L 684.220444 1287.350253 
L 685.172522 1280.004363 
L 686.065663 1272.379522 
L 687.016554 1263.416847 
L 687.968235 1253.511088 
L 688.921104 1242.594881 
L 689.871599 1230.6689 
L 690.823281 1217.665107 
L 691.77259 1203.650866 
L 692.225884 1196.606696 
L 693.177566 1181.178501 
L 694.129248 1165.078022 
L 695.080534 1148.708763 
L 695.323795 1144.542349 
L 695.75573 1137.246914 
L 696.147715 1130.794193 
L 697.099002 1116.248456 
L 698.005987 1104.65727 
L 698.745656 1097.419767 
L 699.706831 1091.173177 
L 700.677499 1087.898652 
L 701.652518 1086.589785 
L 702.869611 1086.332457 
L 703.928486 1086.332457 
L 704.948992 1086.332457 
L 705.960401 1086.332457 
L 706.925532 1086.332457 
L 707.971749 1086.332457 
L 708.938857 1086.332457 
L 709.987843 1086.332457 
L 711.023776 1086.332457 
L 712.0605 1086.332457 
L 713.108695 1086.332457 
L 714.149374 1086.332457 
L 715.192032 1086.332457 
L 716.231525 1086.332457 
L 717.279719 1086.332457 
L 718.330288 1086.332457 
L 719.38402 1086.332457 
L 720.334515 1086.332457 
L 721.286988 1086.332457 
L 722.24223 1086.332457 
L 723.199449 1086.332457 
L 724.159438 1086.332457 
L 725.121404 1086.332457 
L 726.085743 1086.332457 
L 727.052455 1086.332457 
L 728.037363 1086.332457 
L 729.008822 1086.332457 
L 729.986214 1086.332457 
L 730.962816 1086.332457 
L 731.983718 1086.332457 
L 732.965066 1086.332457 
L 733.982803 1086.332457 
L 734.968898 1086.332457 
L 735.957761 1086.332457 
L 736.948997 1086.332457 
L 737.942607 1086.332457 
L 738.961531 1086.332457 
L 739.404937 1086.332457 
" style="fill:none;stroke:#4682b4;stroke-linecap:round;stroke-width:3;"/>
   </g>
   <g id="patch_33">
    <path d="M 607.874479 1362.196094 
L 607.874479 1073.196094 
" style="fill:none;stroke:#cccccc;stroke-linecap:square;stroke-linejoin:miter;stroke-width:0.8;"/>
   </g>
   <g id="patch_34">
    <path d="M 607.874479 1362.196094 
L 1067.666146 1362.196094 
" style="fill:none;stroke:#cccccc;stroke-linecap:square;stroke-linejoin:miter;stroke-width:0.8;"/>
   </g>
   <g id="text_74">
    <!-- media = vegetarian -->
    <g style="fill:#262626;" transform="translate(712.944141 1067.196094)scale(0.25 -0.25)">
     <use xlink:href="#DejaVuSans-109"/>
     <use x="97.412109" xlink:href="#DejaVuSans-101"/>
     <use x="158.935547" xlink:href="#DejaVuSans-100"/>
     <use x="222.412109" xlink:href="#DejaVuSans-105"/>
     <use x="250.195312" xlink:href="#DejaVuSans-97"/>
     <use x="311.474609" xlink:href="#DejaVuSans-32"/>
     <use x="343.261719" xlink:href="#DejaVuSans-61"/>
     <use x="427.050781" xlink:href="#DejaVuSans-32"/>
     <use x="458.837891" xlink:href="#DejaVuSans-118"/>
     <use x="518.017578" xlink:href="#DejaVuSans-101"/>
     <use x="579.541016" xlink:href="#DejaVuSans-103"/>
     <use x="643.017578" xlink:href="#DejaVuSans-101"/>
     <use x="704.541016" xlink:href="#DejaVuSans-116"/>
     <use x="743.75" xlink:href="#DejaVuSans-97"/>
     <use x="805.029297" xlink:href="#DejaVuSans-114"/>
     <use x="846.142578" xlink:href="#DejaVuSans-105"/>
     <use x="873.925781" xlink:href="#DejaVuSans-97"/>
     <use x="935.205078" xlink:href="#DejaVuSans-110"/>
    </g>
   </g>
  </g>
 </g>
 <defs>
  <clipPath id="p09e1377a81">
   <rect height="289" width="459.791667" x="74.207813" y="32.196094"/>
  </clipPath>
  <clipPath id="p48280baffb">
   <rect height="289" width="459.791667" x="607.874479" y="32.196094"/>
  </clipPath>
  <clipPath id="p68e3315c05">
   <rect height="289" width="459.791667" x="1141.541146" y="32.196094"/>
  </clipPath>
  <clipPath id="pbd541ab6e1">
   <rect height="289" width="459.791667" x="74.207813" y="379.196094"/>
  </clipPath>
  <clipPath id="p70dbcb7e6b">
   <rect height="289" width="459.791667" x="607.874479" y="379.196094"/>
  </clipPath>
  <clipPath id="p50e630bb45">
   <rect height="289" width="459.791667" x="1141.541146" y="379.196094"/>
  </clipPath>
  <clipPath id="p43f0ebcab2">
   <rect height="289" width="459.791667" x="74.207813" y="726.196094"/>
  </clipPath>
  <clipPath id="pafb3bc7a29">
   <rect height="289" width="459.791667" x="607.874479" y="726.196094"/>
  </clipPath>
  <clipPath id="p285f342555">
   <rect height="289" width="459.791667" x="1141.541146" y="726.196094"/>
  </clipPath>
  <clipPath id="pf221962db5">
   <rect height="289" width="459.791667" x="74.207813" y="1073.196094"/>
  </clipPath>
  <clipPath id="p1331f5a32f">
   <rect height="289" width="459.791667" x="607.874479" y="1073.196094"/>
  </clipPath>
 </defs>
</svg>
