<?xml version="1.0" encoding="utf-8" standalone="no"?>
<!DOCTYPE svg PUBLIC "-//W3C//DTD SVG 1.1//EN"
  "http://www.w3.org/Graphics/SVG/1.1/DTD/svg11.dtd">
<!-- Created with matplotlib (https://matplotlib.org/) -->
<svg height="600.769262pt" version="1.1" viewBox="0 0 1495.915625 600.769262" width="1495.915625pt" xmlns="http://www.w3.org/2000/svg" xmlns:xlink="http://www.w3.org/1999/xlink">
 <metadata>
  <rdf:RDF xmlns:cc="http://creativecommons.org/ns#" xmlns:dc="http://purl.org/dc/elements/1.1/" xmlns:rdf="http://www.w3.org/1999/02/22-rdf-syntax-ns#">
   <cc:Work>
    <dc:type rdf:resource="http://purl.org/dc/dcmitype/StillImage"/>
    <dc:date>2021-05-11T20:25:47.383889</dc:date>
    <dc:format>image/svg+xml</dc:format>
    <dc:creator>
     <cc:Agent>
      <dc:title>Matplotlib v3.3.4, https://matplotlib.org/</dc:title>
     </cc:Agent>
    </dc:creator>
   </cc:Work>
  </rdf:RDF>
 </metadata>
 <defs>
  <style type="text/css">*{stroke-linecap:butt;stroke-linejoin:round;}</style>
 </defs>
 <g id="figure_1">
  <g id="patch_1">
   <path d="M 0 600.769262 
L 1495.915625 600.769262 
L 1495.915625 0 
L 0 0 
z
" style="fill:none;"/>
  </g>
  <g id="axes_1">
   <g id="patch_2">
    <path d="M 90.809375 415.985625 
L 927.809375 415.985625 
L 927.809375 35.465625 
L 90.809375 35.465625 
z
" style="fill:none;"/>
   </g>
   <g id="matplotlib.axis_1">
    <g id="xtick_1">
     <g id="text_1">
      <!-- DACH -->
      <g style="fill:#262626;" transform="translate(76.630574 484.57551)rotate(-45)scale(0.24 -0.24)">
       <defs>
        <path d="M 19.671875 64.796875 
L 19.671875 8.109375 
L 31.59375 8.109375 
Q 46.6875 8.109375 53.6875 14.9375 
Q 60.6875 21.78125 60.6875 36.53125 
Q 60.6875 51.171875 53.6875 57.984375 
Q 46.6875 64.796875 31.59375 64.796875 
z
M 9.8125 72.90625 
L 30.078125 72.90625 
Q 51.265625 72.90625 61.171875 64.09375 
Q 71.09375 55.28125 71.09375 36.53125 
Q 71.09375 17.671875 61.125 8.828125 
Q 51.171875 0 30.078125 0 
L 9.8125 0 
z
" id="DejaVuSans-68"/>
        <path d="M 34.1875 63.1875 
L 20.796875 26.90625 
L 47.609375 26.90625 
z
M 28.609375 72.90625 
L 39.796875 72.90625 
L 67.578125 0 
L 57.328125 0 
L 50.6875 18.703125 
L 17.828125 18.703125 
L 11.1875 0 
L 0.78125 0 
z
" id="DejaVuSans-65"/>
        <path d="M 64.40625 67.28125 
L 64.40625 56.890625 
Q 59.421875 61.53125 53.78125 63.8125 
Q 48.140625 66.109375 41.796875 66.109375 
Q 29.296875 66.109375 22.65625 58.46875 
Q 16.015625 50.828125 16.015625 36.375 
Q 16.015625 21.96875 22.65625 14.328125 
Q 29.296875 6.6875 41.796875 6.6875 
Q 48.140625 6.6875 53.78125 8.984375 
Q 59.421875 11.28125 64.40625 15.921875 
L 64.40625 5.609375 
Q 59.234375 2.09375 53.4375 0.328125 
Q 47.65625 -1.421875 41.21875 -1.421875 
Q 24.65625 -1.421875 15.125 8.703125 
Q 5.609375 18.84375 5.609375 36.375 
Q 5.609375 53.953125 15.125 64.078125 
Q 24.65625 74.21875 41.21875 74.21875 
Q 47.75 74.21875 53.53125 72.484375 
Q 59.328125 70.75 64.40625 67.28125 
z
" id="DejaVuSans-67"/>
        <path d="M 9.8125 72.90625 
L 19.671875 72.90625 
L 19.671875 43.015625 
L 55.515625 43.015625 
L 55.515625 72.90625 
L 65.375 72.90625 
L 65.375 0 
L 55.515625 0 
L 55.515625 34.71875 
L 19.671875 34.71875 
L 19.671875 0 
L 9.8125 0 
z
" id="DejaVuSans-72"/>
       </defs>
       <use xlink:href="#DejaVuSans-68"/>
       <use x="75.251953" xlink:href="#DejaVuSans-65"/>
       <use x="141.910156" xlink:href="#DejaVuSans-67"/>
       <use x="211.734375" xlink:href="#DejaVuSans-72"/>
      </g>
     </g>
    </g>
    <g id="xtick_2">
     <g id="text_2">
      <!-- EU_avg -->
      <g style="fill:#262626;" transform="translate(138.097631 498.255374)rotate(-45)scale(0.24 -0.24)">
       <defs>
        <path d="M 9.8125 72.90625 
L 55.90625 72.90625 
L 55.90625 64.59375 
L 19.671875 64.59375 
L 19.671875 43.015625 
L 54.390625 43.015625 
L 54.390625 34.71875 
L 19.671875 34.71875 
L 19.671875 8.296875 
L 56.78125 8.296875 
L 56.78125 0 
L 9.8125 0 
z
" id="DejaVuSans-69"/>
        <path d="M 8.6875 72.90625 
L 18.609375 72.90625 
L 18.609375 28.609375 
Q 18.609375 16.890625 22.84375 11.734375 
Q 27.09375 6.59375 36.625 6.59375 
Q 46.09375 6.59375 50.34375 11.734375 
Q 54.59375 16.890625 54.59375 28.609375 
L 54.59375 72.90625 
L 64.5 72.90625 
L 64.5 27.390625 
Q 64.5 13.140625 57.4375 5.859375 
Q 50.390625 -1.421875 36.625 -1.421875 
Q 22.796875 -1.421875 15.734375 5.859375 
Q 8.6875 13.140625 8.6875 27.390625 
z
" id="DejaVuSans-85"/>
        <path d="M 50.984375 -16.609375 
L 50.984375 -23.578125 
L -0.984375 -23.578125 
L -0.984375 -16.609375 
z
" id="DejaVuSans-95"/>
        <path d="M 34.28125 27.484375 
Q 23.390625 27.484375 19.1875 25 
Q 14.984375 22.515625 14.984375 16.5 
Q 14.984375 11.71875 18.140625 8.90625 
Q 21.296875 6.109375 26.703125 6.109375 
Q 34.1875 6.109375 38.703125 11.40625 
Q 43.21875 16.703125 43.21875 25.484375 
L 43.21875 27.484375 
z
M 52.203125 31.203125 
L 52.203125 0 
L 43.21875 0 
L 43.21875 8.296875 
Q 40.140625 3.328125 35.546875 0.953125 
Q 30.953125 -1.421875 24.3125 -1.421875 
Q 15.921875 -1.421875 10.953125 3.296875 
Q 6 8.015625 6 15.921875 
Q 6 25.140625 12.171875 29.828125 
Q 18.359375 34.515625 30.609375 34.515625 
L 43.21875 34.515625 
L 43.21875 35.40625 
Q 43.21875 41.609375 39.140625 45 
Q 35.0625 48.390625 27.6875 48.390625 
Q 23 48.390625 18.546875 47.265625 
Q 14.109375 46.140625 10.015625 43.890625 
L 10.015625 52.203125 
Q 14.9375 54.109375 19.578125 55.046875 
Q 24.21875 56 28.609375 56 
Q 40.484375 56 46.34375 49.84375 
Q 52.203125 43.703125 52.203125 31.203125 
z
" id="DejaVuSans-97"/>
        <path d="M 2.984375 54.6875 
L 12.5 54.6875 
L 29.59375 8.796875 
L 46.6875 54.6875 
L 56.203125 54.6875 
L 35.6875 0 
L 23.484375 0 
z
" id="DejaVuSans-118"/>
        <path d="M 45.40625 27.984375 
Q 45.40625 37.75 41.375 43.109375 
Q 37.359375 48.484375 30.078125 48.484375 
Q 22.859375 48.484375 18.828125 43.109375 
Q 14.796875 37.75 14.796875 27.984375 
Q 14.796875 18.265625 18.828125 12.890625 
Q 22.859375 7.515625 30.078125 7.515625 
Q 37.359375 7.515625 41.375 12.890625 
Q 45.40625 18.265625 45.40625 27.984375 
z
M 54.390625 6.78125 
Q 54.390625 -7.171875 48.1875 -13.984375 
Q 42 -20.796875 29.203125 -20.796875 
Q 24.46875 -20.796875 20.265625 -20.09375 
Q 16.0625 -19.390625 12.109375 -17.921875 
L 12.109375 -9.1875 
Q 16.0625 -11.328125 19.921875 -12.34375 
Q 23.78125 -13.375 27.78125 -13.375 
Q 36.625 -13.375 41.015625 -8.765625 
Q 45.40625 -4.15625 45.40625 5.171875 
L 45.40625 9.625 
Q 42.625 4.78125 38.28125 2.390625 
Q 33.9375 0 27.875 0 
Q 17.828125 0 11.671875 7.65625 
Q 5.515625 15.328125 5.515625 27.984375 
Q 5.515625 40.671875 11.671875 48.328125 
Q 17.828125 56 27.875 56 
Q 33.9375 56 38.28125 53.609375 
Q 42.625 51.21875 45.40625 46.390625 
L 45.40625 54.6875 
L 54.390625 54.6875 
z
" id="DejaVuSans-103"/>
       </defs>
       <use xlink:href="#DejaVuSans-69"/>
       <use x="63.183594" xlink:href="#DejaVuSans-85"/>
       <use x="136.376953" xlink:href="#DejaVuSans-95"/>
       <use x="186.376953" xlink:href="#DejaVuSans-97"/>
       <use x="247.65625" xlink:href="#DejaVuSans-118"/>
       <use x="306.835938" xlink:href="#DejaVuSans-103"/>
      </g>
     </g>
    </g>
    <g id="xtick_3">
     <g id="text_3">
      <!-- diabetes2 -->
      <g style="fill:#262626;" transform="translate(193.670069 519.717833)rotate(-45)scale(0.24 -0.24)">
       <defs>
        <path d="M 45.40625 46.390625 
L 45.40625 75.984375 
L 54.390625 75.984375 
L 54.390625 0 
L 45.40625 0 
L 45.40625 8.203125 
Q 42.578125 3.328125 38.25 0.953125 
Q 33.9375 -1.421875 27.875 -1.421875 
Q 17.96875 -1.421875 11.734375 6.484375 
Q 5.515625 14.40625 5.515625 27.296875 
Q 5.515625 40.1875 11.734375 48.09375 
Q 17.96875 56 27.875 56 
Q 33.9375 56 38.25 53.625 
Q 42.578125 51.265625 45.40625 46.390625 
z
M 14.796875 27.296875 
Q 14.796875 17.390625 18.875 11.75 
Q 22.953125 6.109375 30.078125 6.109375 
Q 37.203125 6.109375 41.296875 11.75 
Q 45.40625 17.390625 45.40625 27.296875 
Q 45.40625 37.203125 41.296875 42.84375 
Q 37.203125 48.484375 30.078125 48.484375 
Q 22.953125 48.484375 18.875 42.84375 
Q 14.796875 37.203125 14.796875 27.296875 
z
" id="DejaVuSans-100"/>
        <path d="M 9.421875 54.6875 
L 18.40625 54.6875 
L 18.40625 0 
L 9.421875 0 
z
M 9.421875 75.984375 
L 18.40625 75.984375 
L 18.40625 64.59375 
L 9.421875 64.59375 
z
" id="DejaVuSans-105"/>
        <path d="M 48.6875 27.296875 
Q 48.6875 37.203125 44.609375 42.84375 
Q 40.53125 48.484375 33.40625 48.484375 
Q 26.265625 48.484375 22.1875 42.84375 
Q 18.109375 37.203125 18.109375 27.296875 
Q 18.109375 17.390625 22.1875 11.75 
Q 26.265625 6.109375 33.40625 6.109375 
Q 40.53125 6.109375 44.609375 11.75 
Q 48.6875 17.390625 48.6875 27.296875 
z
M 18.109375 46.390625 
Q 20.953125 51.265625 25.265625 53.625 
Q 29.59375 56 35.59375 56 
Q 45.5625 56 51.78125 48.09375 
Q 58.015625 40.1875 58.015625 27.296875 
Q 58.015625 14.40625 51.78125 6.484375 
Q 45.5625 -1.421875 35.59375 -1.421875 
Q 29.59375 -1.421875 25.265625 0.953125 
Q 20.953125 3.328125 18.109375 8.203125 
L 18.109375 0 
L 9.078125 0 
L 9.078125 75.984375 
L 18.109375 75.984375 
z
" id="DejaVuSans-98"/>
        <path d="M 56.203125 29.59375 
L 56.203125 25.203125 
L 14.890625 25.203125 
Q 15.484375 15.921875 20.484375 11.0625 
Q 25.484375 6.203125 34.421875 6.203125 
Q 39.59375 6.203125 44.453125 7.46875 
Q 49.3125 8.734375 54.109375 11.28125 
L 54.109375 2.78125 
Q 49.265625 0.734375 44.1875 -0.34375 
Q 39.109375 -1.421875 33.890625 -1.421875 
Q 20.796875 -1.421875 13.15625 6.1875 
Q 5.515625 13.8125 5.515625 26.8125 
Q 5.515625 40.234375 12.765625 48.109375 
Q 20.015625 56 32.328125 56 
Q 43.359375 56 49.78125 48.890625 
Q 56.203125 41.796875 56.203125 29.59375 
z
M 47.21875 32.234375 
Q 47.125 39.59375 43.09375 43.984375 
Q 39.0625 48.390625 32.421875 48.390625 
Q 24.90625 48.390625 20.390625 44.140625 
Q 15.875 39.890625 15.1875 32.171875 
z
" id="DejaVuSans-101"/>
        <path d="M 18.3125 70.21875 
L 18.3125 54.6875 
L 36.8125 54.6875 
L 36.8125 47.703125 
L 18.3125 47.703125 
L 18.3125 18.015625 
Q 18.3125 11.328125 20.140625 9.421875 
Q 21.96875 7.515625 27.59375 7.515625 
L 36.8125 7.515625 
L 36.8125 0 
L 27.59375 0 
Q 17.1875 0 13.234375 3.875 
Q 9.28125 7.765625 9.28125 18.015625 
L 9.28125 47.703125 
L 2.6875 47.703125 
L 2.6875 54.6875 
L 9.28125 54.6875 
L 9.28125 70.21875 
z
" id="DejaVuSans-116"/>
        <path d="M 44.28125 53.078125 
L 44.28125 44.578125 
Q 40.484375 46.53125 36.375 47.5 
Q 32.28125 48.484375 27.875 48.484375 
Q 21.1875 48.484375 17.84375 46.4375 
Q 14.5 44.390625 14.5 40.28125 
Q 14.5 37.15625 16.890625 35.375 
Q 19.28125 33.59375 26.515625 31.984375 
L 29.59375 31.296875 
Q 39.15625 29.25 43.1875 25.515625 
Q 47.21875 21.78125 47.21875 15.09375 
Q 47.21875 7.46875 41.1875 3.015625 
Q 35.15625 -1.421875 24.609375 -1.421875 
Q 20.21875 -1.421875 15.453125 -0.5625 
Q 10.6875 0.296875 5.421875 2 
L 5.421875 11.28125 
Q 10.40625 8.6875 15.234375 7.390625 
Q 20.0625 6.109375 24.8125 6.109375 
Q 31.15625 6.109375 34.5625 8.28125 
Q 37.984375 10.453125 37.984375 14.40625 
Q 37.984375 18.0625 35.515625 20.015625 
Q 33.0625 21.96875 24.703125 23.78125 
L 21.578125 24.515625 
Q 13.234375 26.265625 9.515625 29.90625 
Q 5.8125 33.546875 5.8125 39.890625 
Q 5.8125 47.609375 11.28125 51.796875 
Q 16.75 56 26.8125 56 
Q 31.78125 56 36.171875 55.265625 
Q 40.578125 54.546875 44.28125 53.078125 
z
" id="DejaVuSans-115"/>
        <path d="M 19.1875 8.296875 
L 53.609375 8.296875 
L 53.609375 0 
L 7.328125 0 
L 7.328125 8.296875 
Q 12.9375 14.109375 22.625 23.890625 
Q 32.328125 33.6875 34.8125 36.53125 
Q 39.546875 41.84375 41.421875 45.53125 
Q 43.3125 49.21875 43.3125 52.78125 
Q 43.3125 58.59375 39.234375 62.25 
Q 35.15625 65.921875 28.609375 65.921875 
Q 23.96875 65.921875 18.8125 64.3125 
Q 13.671875 62.703125 7.8125 59.421875 
L 7.8125 69.390625 
Q 13.765625 71.78125 18.9375 73 
Q 24.125 74.21875 28.421875 74.21875 
Q 39.75 74.21875 46.484375 68.546875 
Q 53.21875 62.890625 53.21875 53.421875 
Q 53.21875 48.921875 51.53125 44.890625 
Q 49.859375 40.875 45.40625 35.40625 
Q 44.1875 33.984375 37.640625 27.21875 
Q 31.109375 20.453125 19.1875 8.296875 
z
" id="DejaVuSans-50"/>
       </defs>
       <use xlink:href="#DejaVuSans-100"/>
       <use x="63.476562" xlink:href="#DejaVuSans-105"/>
       <use x="91.259766" xlink:href="#DejaVuSans-97"/>
       <use x="152.539062" xlink:href="#DejaVuSans-98"/>
       <use x="216.015625" xlink:href="#DejaVuSans-101"/>
       <use x="277.539062" xlink:href="#DejaVuSans-116"/>
       <use x="316.748047" xlink:href="#DejaVuSans-101"/>
       <use x="378.271484" xlink:href="#DejaVuSans-115"/>
       <use x="430.371094" xlink:href="#DejaVuSans-50"/>
      </g>
     </g>
    </g>
    <g id="xtick_4">
     <g id="text_4">
      <!-- gluten_free -->
      <g style="fill:#262626;" transform="translate(257.094044 531.912773)rotate(-45)scale(0.24 -0.24)">
       <defs>
        <path d="M 9.421875 75.984375 
L 18.40625 75.984375 
L 18.40625 0 
L 9.421875 0 
z
" id="DejaVuSans-108"/>
        <path d="M 8.5 21.578125 
L 8.5 54.6875 
L 17.484375 54.6875 
L 17.484375 21.921875 
Q 17.484375 14.15625 20.5 10.265625 
Q 23.53125 6.390625 29.59375 6.390625 
Q 36.859375 6.390625 41.078125 11.03125 
Q 45.3125 15.671875 45.3125 23.6875 
L 45.3125 54.6875 
L 54.296875 54.6875 
L 54.296875 0 
L 45.3125 0 
L 45.3125 8.40625 
Q 42.046875 3.421875 37.71875 1 
Q 33.40625 -1.421875 27.6875 -1.421875 
Q 18.265625 -1.421875 13.375 4.4375 
Q 8.5 10.296875 8.5 21.578125 
z
M 31.109375 56 
z
" id="DejaVuSans-117"/>
        <path d="M 54.890625 33.015625 
L 54.890625 0 
L 45.90625 0 
L 45.90625 32.71875 
Q 45.90625 40.484375 42.875 44.328125 
Q 39.84375 48.1875 33.796875 48.1875 
Q 26.515625 48.1875 22.3125 43.546875 
Q 18.109375 38.921875 18.109375 30.90625 
L 18.109375 0 
L 9.078125 0 
L 9.078125 54.6875 
L 18.109375 54.6875 
L 18.109375 46.1875 
Q 21.34375 51.125 25.703125 53.5625 
Q 30.078125 56 35.796875 56 
Q 45.21875 56 50.046875 50.171875 
Q 54.890625 44.34375 54.890625 33.015625 
z
" id="DejaVuSans-110"/>
        <path d="M 37.109375 75.984375 
L 37.109375 68.5 
L 28.515625 68.5 
Q 23.6875 68.5 21.796875 66.546875 
Q 19.921875 64.59375 19.921875 59.515625 
L 19.921875 54.6875 
L 34.71875 54.6875 
L 34.71875 47.703125 
L 19.921875 47.703125 
L 19.921875 0 
L 10.890625 0 
L 10.890625 47.703125 
L 2.296875 47.703125 
L 2.296875 54.6875 
L 10.890625 54.6875 
L 10.890625 58.5 
Q 10.890625 67.625 15.140625 71.796875 
Q 19.390625 75.984375 28.609375 75.984375 
z
" id="DejaVuSans-102"/>
        <path d="M 41.109375 46.296875 
Q 39.59375 47.171875 37.8125 47.578125 
Q 36.03125 48 33.890625 48 
Q 26.265625 48 22.1875 43.046875 
Q 18.109375 38.09375 18.109375 28.8125 
L 18.109375 0 
L 9.078125 0 
L 9.078125 54.6875 
L 18.109375 54.6875 
L 18.109375 46.1875 
Q 20.953125 51.171875 25.484375 53.578125 
Q 30.03125 56 36.53125 56 
Q 37.453125 56 38.578125 55.875 
Q 39.703125 55.765625 41.0625 55.515625 
z
" id="DejaVuSans-114"/>
       </defs>
       <use xlink:href="#DejaVuSans-103"/>
       <use x="63.476562" xlink:href="#DejaVuSans-108"/>
       <use x="91.259766" xlink:href="#DejaVuSans-117"/>
       <use x="154.638672" xlink:href="#DejaVuSans-116"/>
       <use x="193.847656" xlink:href="#DejaVuSans-101"/>
       <use x="255.371094" xlink:href="#DejaVuSans-110"/>
       <use x="318.75" xlink:href="#DejaVuSans-95"/>
       <use x="368.75" xlink:href="#DejaVuSans-102"/>
       <use x="403.955078" xlink:href="#DejaVuSans-114"/>
       <use x="442.818359" xlink:href="#DejaVuSans-101"/>
       <use x="504.341797" xlink:href="#DejaVuSans-101"/>
      </g>
     </g>
    </g>
    <g id="xtick_5">
     <g id="text_5">
      <!-- high_fat -->
      <g style="fill:#262626;" transform="translate(360.706433 504.391293)rotate(-45)scale(0.24 -0.24)">
       <defs>
        <path d="M 54.890625 33.015625 
L 54.890625 0 
L 45.90625 0 
L 45.90625 32.71875 
Q 45.90625 40.484375 42.875 44.328125 
Q 39.84375 48.1875 33.796875 48.1875 
Q 26.515625 48.1875 22.3125 43.546875 
Q 18.109375 38.921875 18.109375 30.90625 
L 18.109375 0 
L 9.078125 0 
L 9.078125 75.984375 
L 18.109375 75.984375 
L 18.109375 46.1875 
Q 21.34375 51.125 25.703125 53.5625 
Q 30.078125 56 35.796875 56 
Q 45.21875 56 50.046875 50.171875 
Q 54.890625 44.34375 54.890625 33.015625 
z
" id="DejaVuSans-104"/>
       </defs>
       <use xlink:href="#DejaVuSans-104"/>
       <use x="63.378906" xlink:href="#DejaVuSans-105"/>
       <use x="91.162109" xlink:href="#DejaVuSans-103"/>
       <use x="154.638672" xlink:href="#DejaVuSans-104"/>
       <use x="218.017578" xlink:href="#DejaVuSans-95"/>
       <use x="268.017578" xlink:href="#DejaVuSans-102"/>
       <use x="303.222656" xlink:href="#DejaVuSans-97"/>
       <use x="364.501953" xlink:href="#DejaVuSans-116"/>
      </g>
     </g>
    </g>
    <g id="xtick_6">
     <g id="text_6">
      <!-- high_fiber -->
      <g style="fill:#262626;" transform="translate(420.943124 520.245511)rotate(-45)scale(0.24 -0.24)">
       <use xlink:href="#DejaVuSans-104"/>
       <use x="63.378906" xlink:href="#DejaVuSans-105"/>
       <use x="91.162109" xlink:href="#DejaVuSans-103"/>
       <use x="154.638672" xlink:href="#DejaVuSans-104"/>
       <use x="218.017578" xlink:href="#DejaVuSans-95"/>
       <use x="268.017578" xlink:href="#DejaVuSans-102"/>
       <use x="303.222656" xlink:href="#DejaVuSans-105"/>
       <use x="331.005859" xlink:href="#DejaVuSans-98"/>
       <use x="394.482422" xlink:href="#DejaVuSans-101"/>
       <use x="456.005859" xlink:href="#DejaVuSans-114"/>
      </g>
     </g>
    </g>
    <g id="xtick_7">
     <g id="text_7">
      <!-- high_protein -->
      <g style="fill:#262626;" transform="translate(475.598091 541.681453)rotate(-45)scale(0.24 -0.24)">
       <defs>
        <path d="M 18.109375 8.203125 
L 18.109375 -20.796875 
L 9.078125 -20.796875 
L 9.078125 54.6875 
L 18.109375 54.6875 
L 18.109375 46.390625 
Q 20.953125 51.265625 25.265625 53.625 
Q 29.59375 56 35.59375 56 
Q 45.5625 56 51.78125 48.09375 
Q 58.015625 40.1875 58.015625 27.296875 
Q 58.015625 14.40625 51.78125 6.484375 
Q 45.5625 -1.421875 35.59375 -1.421875 
Q 29.59375 -1.421875 25.265625 0.953125 
Q 20.953125 3.328125 18.109375 8.203125 
z
M 48.6875 27.296875 
Q 48.6875 37.203125 44.609375 42.84375 
Q 40.53125 48.484375 33.40625 48.484375 
Q 26.265625 48.484375 22.1875 42.84375 
Q 18.109375 37.203125 18.109375 27.296875 
Q 18.109375 17.390625 22.1875 11.75 
Q 26.265625 6.109375 33.40625 6.109375 
Q 40.53125 6.109375 44.609375 11.75 
Q 48.6875 17.390625 48.6875 27.296875 
z
" id="DejaVuSans-112"/>
        <path d="M 30.609375 48.390625 
Q 23.390625 48.390625 19.1875 42.75 
Q 14.984375 37.109375 14.984375 27.296875 
Q 14.984375 17.484375 19.15625 11.84375 
Q 23.34375 6.203125 30.609375 6.203125 
Q 37.796875 6.203125 41.984375 11.859375 
Q 46.1875 17.53125 46.1875 27.296875 
Q 46.1875 37.015625 41.984375 42.703125 
Q 37.796875 48.390625 30.609375 48.390625 
z
M 30.609375 56 
Q 42.328125 56 49.015625 48.375 
Q 55.71875 40.765625 55.71875 27.296875 
Q 55.71875 13.875 49.015625 6.21875 
Q 42.328125 -1.421875 30.609375 -1.421875 
Q 18.84375 -1.421875 12.171875 6.21875 
Q 5.515625 13.875 5.515625 27.296875 
Q 5.515625 40.765625 12.171875 48.375 
Q 18.84375 56 30.609375 56 
z
" id="DejaVuSans-111"/>
       </defs>
       <use xlink:href="#DejaVuSans-104"/>
       <use x="63.378906" xlink:href="#DejaVuSans-105"/>
       <use x="91.162109" xlink:href="#DejaVuSans-103"/>
       <use x="154.638672" xlink:href="#DejaVuSans-104"/>
       <use x="218.017578" xlink:href="#DejaVuSans-95"/>
       <use x="268.017578" xlink:href="#DejaVuSans-112"/>
       <use x="331.494141" xlink:href="#DejaVuSans-114"/>
       <use x="370.357422" xlink:href="#DejaVuSans-111"/>
       <use x="431.539062" xlink:href="#DejaVuSans-116"/>
       <use x="470.748047" xlink:href="#DejaVuSans-101"/>
       <use x="532.271484" xlink:href="#DejaVuSans-105"/>
       <use x="560.054688" xlink:href="#DejaVuSans-110"/>
      </g>
     </g>
    </g>
    <g id="xtick_8">
     <g id="text_8">
      <!-- mediterranean -->
      <g style="fill:#262626;" transform="translate(531.997844 561.844603)rotate(-45)scale(0.24 -0.24)">
       <defs>
        <path d="M 52 44.1875 
Q 55.375 50.25 60.0625 53.125 
Q 64.75 56 71.09375 56 
Q 79.640625 56 84.28125 50.015625 
Q 88.921875 44.046875 88.921875 33.015625 
L 88.921875 0 
L 79.890625 0 
L 79.890625 32.71875 
Q 79.890625 40.578125 77.09375 44.375 
Q 74.3125 48.1875 68.609375 48.1875 
Q 61.625 48.1875 57.5625 43.546875 
Q 53.515625 38.921875 53.515625 30.90625 
L 53.515625 0 
L 44.484375 0 
L 44.484375 32.71875 
Q 44.484375 40.625 41.703125 44.40625 
Q 38.921875 48.1875 33.109375 48.1875 
Q 26.21875 48.1875 22.15625 43.53125 
Q 18.109375 38.875 18.109375 30.90625 
L 18.109375 0 
L 9.078125 0 
L 9.078125 54.6875 
L 18.109375 54.6875 
L 18.109375 46.1875 
Q 21.1875 51.21875 25.484375 53.609375 
Q 29.78125 56 35.6875 56 
Q 41.65625 56 45.828125 52.96875 
Q 50 49.953125 52 44.1875 
z
" id="DejaVuSans-109"/>
       </defs>
       <use xlink:href="#DejaVuSans-109"/>
       <use x="97.412109" xlink:href="#DejaVuSans-101"/>
       <use x="158.935547" xlink:href="#DejaVuSans-100"/>
       <use x="222.412109" xlink:href="#DejaVuSans-105"/>
       <use x="250.195312" xlink:href="#DejaVuSans-116"/>
       <use x="289.404297" xlink:href="#DejaVuSans-101"/>
       <use x="350.927734" xlink:href="#DejaVuSans-114"/>
       <use x="390.291016" xlink:href="#DejaVuSans-114"/>
       <use x="431.404297" xlink:href="#DejaVuSans-97"/>
       <use x="492.683594" xlink:href="#DejaVuSans-110"/>
       <use x="556.0625" xlink:href="#DejaVuSans-101"/>
       <use x="617.585938" xlink:href="#DejaVuSans-97"/>
       <use x="678.865234" xlink:href="#DejaVuSans-110"/>
      </g>
     </g>
    </g>
    <g id="xtick_9">
     <g id="text_9">
      <!-- unhealthy -->
      <g style="fill:#262626;" transform="translate(648.778329 521.155027)rotate(-45)scale(0.24 -0.24)">
       <defs>
        <path d="M 32.171875 -5.078125 
Q 28.375 -14.84375 24.75 -17.8125 
Q 21.140625 -20.796875 15.09375 -20.796875 
L 7.90625 -20.796875 
L 7.90625 -13.28125 
L 13.1875 -13.28125 
Q 16.890625 -13.28125 18.9375 -11.515625 
Q 21 -9.765625 23.484375 -3.21875 
L 25.09375 0.875 
L 2.984375 54.6875 
L 12.5 54.6875 
L 29.59375 11.921875 
L 46.6875 54.6875 
L 56.203125 54.6875 
z
" id="DejaVuSans-121"/>
       </defs>
       <use xlink:href="#DejaVuSans-117"/>
       <use x="63.378906" xlink:href="#DejaVuSans-110"/>
       <use x="126.757812" xlink:href="#DejaVuSans-104"/>
       <use x="190.136719" xlink:href="#DejaVuSans-101"/>
       <use x="251.660156" xlink:href="#DejaVuSans-97"/>
       <use x="312.939453" xlink:href="#DejaVuSans-108"/>
       <use x="340.722656" xlink:href="#DejaVuSans-116"/>
       <use x="379.931641" xlink:href="#DejaVuSans-104"/>
       <use x="443.310547" xlink:href="#DejaVuSans-121"/>
      </g>
     </g>
    </g>
    <g id="xtick_10">
     <g id="text_10">
      <!-- vegan -->
      <g style="fill:#262626;" transform="translate(757.728491 488.295775)rotate(-45)scale(0.24 -0.24)">
       <use xlink:href="#DejaVuSans-118"/>
       <use x="59.179688" xlink:href="#DejaVuSans-101"/>
       <use x="120.703125" xlink:href="#DejaVuSans-103"/>
       <use x="184.179688" xlink:href="#DejaVuSans-97"/>
       <use x="245.458984" xlink:href="#DejaVuSans-110"/>
      </g>
     </g>
    </g>
    <g id="xtick_11">
     <g id="text_11">
      <!-- vegetarian -->
      <g style="fill:#262626;" transform="translate(794.63331 527.481865)rotate(-45)scale(0.24 -0.24)">
       <use xlink:href="#DejaVuSans-118"/>
       <use x="59.179688" xlink:href="#DejaVuSans-101"/>
       <use x="120.703125" xlink:href="#DejaVuSans-103"/>
       <use x="184.179688" xlink:href="#DejaVuSans-101"/>
       <use x="245.703125" xlink:href="#DejaVuSans-116"/>
       <use x="284.912109" xlink:href="#DejaVuSans-97"/>
       <use x="346.191406" xlink:href="#DejaVuSans-114"/>
       <use x="387.304688" xlink:href="#DejaVuSans-105"/>
       <use x="415.087891" xlink:href="#DejaVuSans-97"/>
       <use x="476.367188" xlink:href="#DejaVuSans-110"/>
      </g>
     </g>
    </g>
    <g id="text_12">
     <!-- Media -->
     <g style="fill:#262626;" transform="translate(471.764453 588.370044)scale(0.25 -0.25)">
      <defs>
       <path d="M 9.8125 72.90625 
L 24.515625 72.90625 
L 43.109375 23.296875 
L 61.8125 72.90625 
L 76.515625 72.90625 
L 76.515625 0 
L 66.890625 0 
L 66.890625 64.015625 
L 48.09375 14.015625 
L 38.1875 14.015625 
L 19.390625 64.015625 
L 19.390625 0 
L 9.8125 0 
z
" id="DejaVuSans-77"/>
      </defs>
      <use xlink:href="#DejaVuSans-77"/>
      <use x="86.279297" xlink:href="#DejaVuSans-101"/>
      <use x="147.802734" xlink:href="#DejaVuSans-100"/>
      <use x="211.279297" xlink:href="#DejaVuSans-105"/>
      <use x="239.0625" xlink:href="#DejaVuSans-97"/>
     </g>
    </g>
   </g>
   <g id="matplotlib.axis_2">
    <g id="ytick_1">
     <g id="line2d_1">
      <path clip-path="url(#p5bbb513fa5)" d="M 90.809375 415.985625 
L 927.809375 415.985625 
" style="fill:none;stroke:#cccccc;stroke-linecap:round;stroke-width:0.8;"/>
     </g>
     <g id="text_13">
      <!-- 0 -->
      <g style="fill:#262626;" transform="translate(67.903125 425.483672)scale(0.25 -0.25)">
       <defs>
        <path d="M 31.78125 66.40625 
Q 24.171875 66.40625 20.328125 58.90625 
Q 16.5 51.421875 16.5 36.375 
Q 16.5 21.390625 20.328125 13.890625 
Q 24.171875 6.390625 31.78125 6.390625 
Q 39.453125 6.390625 43.28125 13.890625 
Q 47.125 21.390625 47.125 36.375 
Q 47.125 51.421875 43.28125 58.90625 
Q 39.453125 66.40625 31.78125 66.40625 
z
M 31.78125 74.21875 
Q 44.046875 74.21875 50.515625 64.515625 
Q 56.984375 54.828125 56.984375 36.375 
Q 56.984375 17.96875 50.515625 8.265625 
Q 44.046875 -1.421875 31.78125 -1.421875 
Q 19.53125 -1.421875 13.0625 8.265625 
Q 6.59375 17.96875 6.59375 36.375 
Q 6.59375 54.828125 13.0625 64.515625 
Q 19.53125 74.21875 31.78125 74.21875 
z
" id="DejaVuSans-48"/>
       </defs>
       <use xlink:href="#DejaVuSans-48"/>
      </g>
     </g>
    </g>
    <g id="ytick_2">
     <g id="line2d_2">
      <path clip-path="url(#p5bbb513fa5)" d="M 90.809375 346.578895 
L 927.809375 346.578895 
" style="fill:none;stroke:#cccccc;stroke-linecap:round;stroke-width:0.8;"/>
     </g>
     <g id="text_14">
      <!-- 20 -->
      <g style="fill:#262626;" transform="translate(51.996875 356.076942)scale(0.25 -0.25)">
       <use xlink:href="#DejaVuSans-50"/>
       <use x="63.623047" xlink:href="#DejaVuSans-48"/>
      </g>
     </g>
    </g>
    <g id="ytick_3">
     <g id="line2d_3">
      <path clip-path="url(#p5bbb513fa5)" d="M 90.809375 277.172165 
L 927.809375 277.172165 
" style="fill:none;stroke:#cccccc;stroke-linecap:round;stroke-width:0.8;"/>
     </g>
     <g id="text_15">
      <!-- 40 -->
      <g style="fill:#262626;" transform="translate(51.996875 286.670211)scale(0.25 -0.25)">
       <defs>
        <path d="M 37.796875 64.3125 
L 12.890625 25.390625 
L 37.796875 25.390625 
z
M 35.203125 72.90625 
L 47.609375 72.90625 
L 47.609375 25.390625 
L 58.015625 25.390625 
L 58.015625 17.1875 
L 47.609375 17.1875 
L 47.609375 0 
L 37.796875 0 
L 37.796875 17.1875 
L 4.890625 17.1875 
L 4.890625 26.703125 
z
" id="DejaVuSans-52"/>
       </defs>
       <use xlink:href="#DejaVuSans-52"/>
       <use x="63.623047" xlink:href="#DejaVuSans-48"/>
      </g>
     </g>
    </g>
    <g id="ytick_4">
     <g id="line2d_4">
      <path clip-path="url(#p5bbb513fa5)" d="M 90.809375 207.765434 
L 927.809375 207.765434 
" style="fill:none;stroke:#cccccc;stroke-linecap:round;stroke-width:0.8;"/>
     </g>
     <g id="text_16">
      <!-- 60 -->
      <g style="fill:#262626;" transform="translate(51.996875 217.263481)scale(0.25 -0.25)">
       <defs>
        <path d="M 33.015625 40.375 
Q 26.375 40.375 22.484375 35.828125 
Q 18.609375 31.296875 18.609375 23.390625 
Q 18.609375 15.53125 22.484375 10.953125 
Q 26.375 6.390625 33.015625 6.390625 
Q 39.65625 6.390625 43.53125 10.953125 
Q 47.40625 15.53125 47.40625 23.390625 
Q 47.40625 31.296875 43.53125 35.828125 
Q 39.65625 40.375 33.015625 40.375 
z
M 52.59375 71.296875 
L 52.59375 62.3125 
Q 48.875 64.0625 45.09375 64.984375 
Q 41.3125 65.921875 37.59375 65.921875 
Q 27.828125 65.921875 22.671875 59.328125 
Q 17.53125 52.734375 16.796875 39.40625 
Q 19.671875 43.65625 24.015625 45.921875 
Q 28.375 48.1875 33.59375 48.1875 
Q 44.578125 48.1875 50.953125 41.515625 
Q 57.328125 34.859375 57.328125 23.390625 
Q 57.328125 12.15625 50.6875 5.359375 
Q 44.046875 -1.421875 33.015625 -1.421875 
Q 20.359375 -1.421875 13.671875 8.265625 
Q 6.984375 17.96875 6.984375 36.375 
Q 6.984375 53.65625 15.1875 63.9375 
Q 23.390625 74.21875 37.203125 74.21875 
Q 40.921875 74.21875 44.703125 73.484375 
Q 48.484375 72.75 52.59375 71.296875 
z
" id="DejaVuSans-54"/>
       </defs>
       <use xlink:href="#DejaVuSans-54"/>
       <use x="63.623047" xlink:href="#DejaVuSans-48"/>
      </g>
     </g>
    </g>
    <g id="ytick_5">
     <g id="line2d_5">
      <path clip-path="url(#p5bbb513fa5)" d="M 90.809375 138.358704 
L 927.809375 138.358704 
" style="fill:none;stroke:#cccccc;stroke-linecap:round;stroke-width:0.8;"/>
     </g>
     <g id="text_17">
      <!-- 80 -->
      <g style="fill:#262626;" transform="translate(51.996875 147.856751)scale(0.25 -0.25)">
       <defs>
        <path d="M 31.78125 34.625 
Q 24.75 34.625 20.71875 30.859375 
Q 16.703125 27.09375 16.703125 20.515625 
Q 16.703125 13.921875 20.71875 10.15625 
Q 24.75 6.390625 31.78125 6.390625 
Q 38.8125 6.390625 42.859375 10.171875 
Q 46.921875 13.96875 46.921875 20.515625 
Q 46.921875 27.09375 42.890625 30.859375 
Q 38.875 34.625 31.78125 34.625 
z
M 21.921875 38.8125 
Q 15.578125 40.375 12.03125 44.71875 
Q 8.5 49.078125 8.5 55.328125 
Q 8.5 64.0625 14.71875 69.140625 
Q 20.953125 74.21875 31.78125 74.21875 
Q 42.671875 74.21875 48.875 69.140625 
Q 55.078125 64.0625 55.078125 55.328125 
Q 55.078125 49.078125 51.53125 44.71875 
Q 48 40.375 41.703125 38.8125 
Q 48.828125 37.15625 52.796875 32.3125 
Q 56.78125 27.484375 56.78125 20.515625 
Q 56.78125 9.90625 50.3125 4.234375 
Q 43.84375 -1.421875 31.78125 -1.421875 
Q 19.734375 -1.421875 13.25 4.234375 
Q 6.78125 9.90625 6.78125 20.515625 
Q 6.78125 27.484375 10.78125 32.3125 
Q 14.796875 37.15625 21.921875 38.8125 
z
M 18.3125 54.390625 
Q 18.3125 48.734375 21.84375 45.5625 
Q 25.390625 42.390625 31.78125 42.390625 
Q 38.140625 42.390625 41.71875 45.5625 
Q 45.3125 48.734375 45.3125 54.390625 
Q 45.3125 60.0625 41.71875 63.234375 
Q 38.140625 66.40625 31.78125 66.40625 
Q 25.390625 66.40625 21.84375 63.234375 
Q 18.3125 60.0625 18.3125 54.390625 
z
" id="DejaVuSans-56"/>
       </defs>
       <use xlink:href="#DejaVuSans-56"/>
       <use x="63.623047" xlink:href="#DejaVuSans-48"/>
      </g>
     </g>
    </g>
    <g id="ytick_6">
     <g id="line2d_6">
      <path clip-path="url(#p5bbb513fa5)" d="M 90.809375 68.951974 
L 927.809375 68.951974 
" style="fill:none;stroke:#cccccc;stroke-linecap:round;stroke-width:0.8;"/>
     </g>
     <g id="text_18">
      <!-- 100 -->
      <g style="fill:#262626;" transform="translate(36.090625 78.450021)scale(0.25 -0.25)">
       <defs>
        <path d="M 12.40625 8.296875 
L 28.515625 8.296875 
L 28.515625 63.921875 
L 10.984375 60.40625 
L 10.984375 69.390625 
L 28.421875 72.90625 
L 38.28125 72.90625 
L 38.28125 8.296875 
L 54.390625 8.296875 
L 54.390625 0 
L 12.40625 0 
z
" id="DejaVuSans-49"/>
       </defs>
       <use xlink:href="#DejaVuSans-49"/>
       <use x="63.623047" xlink:href="#DejaVuSans-48"/>
       <use x="127.246094" xlink:href="#DejaVuSans-48"/>
      </g>
     </g>
    </g>
    <g id="text_19">
     <!-- \sigma_{density} -->
     <g style="fill:#262626;" transform="translate(26.196094 335.680703)rotate(-90)scale(0.25 -0.25)">
      <defs>
       <path d="M 8.296875 72.90625 
L 33.6875 -9.28125 
L 25.390625 -9.28125 
L 0 72.90625 
z
" id="DejaVuSans-92"/>
       <path d="M 51.125 -9.28125 
L 51.125 -16.3125 
L 48.09375 -16.3125 
Q 35.9375 -16.3125 31.8125 -12.6875 
Q 27.6875 -9.078125 27.6875 1.703125 
L 27.6875 13.375 
Q 27.6875 20.75 25.046875 23.578125 
Q 22.40625 26.421875 15.484375 26.421875 
L 12.5 26.421875 
L 12.5 33.40625 
L 15.484375 33.40625 
Q 22.46875 33.40625 25.078125 36.203125 
Q 27.6875 39.015625 27.6875 46.296875 
L 27.6875 58.015625 
Q 27.6875 68.796875 31.8125 72.390625 
Q 35.9375 75.984375 48.09375 75.984375 
L 51.125 75.984375 
L 51.125 69 
L 47.796875 69 
Q 40.921875 69 38.8125 66.84375 
Q 36.71875 64.703125 36.71875 57.8125 
L 36.71875 45.703125 
Q 36.71875 38.03125 34.5 34.5625 
Q 32.28125 31.109375 26.90625 29.890625 
Q 32.328125 28.5625 34.515625 25.09375 
Q 36.71875 21.625 36.71875 14.015625 
L 36.71875 1.90625 
Q 36.71875 -4.984375 38.8125 -7.125 
Q 40.921875 -9.28125 47.796875 -9.28125 
z
" id="DejaVuSans-123"/>
       <path d="M 12.5 -9.28125 
L 15.921875 -9.28125 
Q 22.75 -9.28125 24.828125 -7.171875 
Q 26.90625 -5.078125 26.90625 1.90625 
L 26.90625 14.015625 
Q 26.90625 21.625 29.09375 25.09375 
Q 31.296875 28.5625 36.71875 29.890625 
Q 31.296875 31.109375 29.09375 34.5625 
Q 26.90625 38.03125 26.90625 45.703125 
L 26.90625 57.8125 
Q 26.90625 64.75 24.828125 66.875 
Q 22.75 69 15.921875 69 
L 12.5 69 
L 12.5 75.984375 
L 15.578125 75.984375 
Q 27.734375 75.984375 31.8125 72.390625 
Q 35.890625 68.796875 35.890625 58.015625 
L 35.890625 46.296875 
Q 35.890625 39.015625 38.515625 36.203125 
Q 41.15625 33.40625 48.09375 33.40625 
L 51.125 33.40625 
L 51.125 26.421875 
L 48.09375 26.421875 
Q 41.15625 26.421875 38.515625 23.578125 
Q 35.890625 20.75 35.890625 13.375 
L 35.890625 1.703125 
Q 35.890625 -9.078125 31.8125 -12.6875 
Q 27.734375 -16.3125 15.578125 -16.3125 
L 12.5 -16.3125 
z
" id="DejaVuSans-125"/>
      </defs>
      <use xlink:href="#DejaVuSans-92"/>
      <use x="33.691406" xlink:href="#DejaVuSans-115"/>
      <use x="85.791016" xlink:href="#DejaVuSans-105"/>
      <use x="113.574219" xlink:href="#DejaVuSans-103"/>
      <use x="177.050781" xlink:href="#DejaVuSans-109"/>
      <use x="274.462891" xlink:href="#DejaVuSans-97"/>
      <use x="335.742188" xlink:href="#DejaVuSans-95"/>
      <use x="385.742188" xlink:href="#DejaVuSans-123"/>
      <use x="449.365234" xlink:href="#DejaVuSans-100"/>
      <use x="512.841797" xlink:href="#DejaVuSans-101"/>
      <use x="574.365234" xlink:href="#DejaVuSans-110"/>
      <use x="637.744141" xlink:href="#DejaVuSans-115"/>
      <use x="689.84375" xlink:href="#DejaVuSans-105"/>
      <use x="717.626953" xlink:href="#DejaVuSans-116"/>
      <use x="756.835938" xlink:href="#DejaVuSans-121"/>
      <use x="816.015625" xlink:href="#DejaVuSans-125"/>
     </g>
    </g>
   </g>
   <g id="patch_3">
    <path clip-path="url(#p5bbb513fa5)" d="M 98.418466 415.985625 
L 113.636648 415.985625 
L 113.636648 406.653461 
L 98.418466 406.653461 
z
" style="fill:#b57e11;stroke:#ffffff;stroke-linejoin:miter;"/>
   </g>
   <g id="patch_4">
    <path clip-path="url(#p5bbb513fa5)" d="M 174.509375 415.985625 
L 189.727557 415.985625 
L 189.727557 415.899643 
L 174.509375 415.899643 
z
" style="fill:#b57e11;stroke:#ffffff;stroke-linejoin:miter;"/>
   </g>
   <g id="patch_5">
    <path clip-path="url(#p5bbb513fa5)" d="M 250.600284 415.985625 
L 265.818466 415.985625 
L 265.818466 381.838285 
L 250.600284 381.838285 
z
" style="fill:#b57e11;stroke:#ffffff;stroke-linejoin:miter;"/>
   </g>
   <g id="patch_6">
    <path clip-path="url(#p5bbb513fa5)" d="M 326.691193 415.985625 
L 341.909375 415.985625 
L 341.909375 415.947203 
L 326.691193 415.947203 
z
" style="fill:#b57e11;stroke:#ffffff;stroke-linejoin:miter;"/>
   </g>
   <g id="patch_7">
    <path clip-path="url(#p5bbb513fa5)" d="M 402.782102 415.985625 
L 418.000284 415.985625 
L 418.000284 415.4535 
L 402.782102 415.4535 
z
" style="fill:#b57e11;stroke:#ffffff;stroke-linejoin:miter;"/>
   </g>
   <g id="patch_8">
    <path clip-path="url(#p5bbb513fa5)" d="M 478.873011 415.985625 
L 494.091193 415.985625 
L 494.091193 415.890065 
L 478.873011 415.890065 
z
" style="fill:#b57e11;stroke:#ffffff;stroke-linejoin:miter;"/>
   </g>
   <g id="patch_9">
    <path clip-path="url(#p5bbb513fa5)" d="M 554.96392 415.985625 
L 570.182102 415.985625 
L 570.182102 364.393514 
L 554.96392 364.393514 
z
" style="fill:#b57e11;stroke:#ffffff;stroke-linejoin:miter;"/>
   </g>
   <g id="patch_10">
    <path clip-path="url(#p5bbb513fa5)" d="M 631.05483 415.985625 
L 646.273011 415.985625 
L 646.273011 414.435409 
L 631.05483 414.435409 
z
" style="fill:#b57e11;stroke:#ffffff;stroke-linejoin:miter;"/>
   </g>
   <g id="patch_11">
    <path clip-path="url(#p5bbb513fa5)" d="M 707.145739 415.985625 
L 722.36392 415.985625 
L 722.36392 385.363481 
L 707.145739 385.363481 
z
" style="fill:#b57e11;stroke:#ffffff;stroke-linejoin:miter;"/>
   </g>
   <g id="patch_12">
    <path clip-path="url(#p5bbb513fa5)" d="M 783.236648 415.985625 
L 798.45483 415.985625 
L 798.45483 356.983275 
L 783.236648 356.983275 
z
" style="fill:#b57e11;stroke:#ffffff;stroke-linejoin:miter;"/>
   </g>
   <g id="patch_13">
    <path clip-path="url(#p5bbb513fa5)" d="M 859.327557 415.985625 
L 874.545739 415.985625 
L 874.545739 385.890765 
L 859.327557 385.890765 
z
" style="fill:#b57e11;stroke:#ffffff;stroke-linejoin:miter;"/>
   </g>
   <g id="patch_14">
    <path clip-path="url(#p5bbb513fa5)" d="M 113.636648 415.985625 
L 128.85483 415.985625 
L 128.85483 415.985625 
L 113.636648 415.985625 
z
" style="fill:#5c6895;stroke:#ffffff;stroke-linejoin:miter;"/>
   </g>
   <g id="patch_15">
    <path clip-path="url(#p5bbb513fa5)" d="M 189.727557 415.985625 
L 204.945739 415.985625 
L 204.945739 415.985425 
L 189.727557 415.985425 
z
" style="fill:#5c6895;stroke:#ffffff;stroke-linejoin:miter;"/>
   </g>
   <g id="patch_16">
    <path clip-path="url(#p5bbb513fa5)" d="M 265.818466 415.985625 
L 281.036648 415.985625 
L 281.036648 415.985625 
L 265.818466 415.985625 
z
" style="fill:#5c6895;stroke:#ffffff;stroke-linejoin:miter;"/>
   </g>
   <g id="patch_17">
    <path clip-path="url(#p5bbb513fa5)" d="M 341.909375 415.985625 
L 357.127557 415.985625 
L 357.127557 415.985625 
L 341.909375 415.985625 
z
" style="fill:#5c6895;stroke:#ffffff;stroke-linejoin:miter;"/>
   </g>
   <g id="patch_18">
    <path clip-path="url(#p5bbb513fa5)" d="M 418.000284 415.985625 
L 433.218466 415.985625 
L 433.218466 415.985425 
L 418.000284 415.985425 
z
" style="fill:#5c6895;stroke:#ffffff;stroke-linejoin:miter;"/>
   </g>
   <g id="patch_19">
    <path clip-path="url(#p5bbb513fa5)" d="M 494.091193 415.985625 
L 509.309375 415.985625 
L 509.309375 415.985625 
L 494.091193 415.985625 
z
" style="fill:#5c6895;stroke:#ffffff;stroke-linejoin:miter;"/>
   </g>
   <g id="patch_20">
    <path clip-path="url(#p5bbb513fa5)" d="M 570.182102 415.985625 
L 585.400284 415.985625 
L 585.400284 415.985625 
L 570.182102 415.985625 
z
" style="fill:#5c6895;stroke:#ffffff;stroke-linejoin:miter;"/>
   </g>
   <g id="patch_21">
    <path clip-path="url(#p5bbb513fa5)" d="M 646.273011 415.985625 
L 661.491193 415.985625 
L 661.491193 415.985625 
L 646.273011 415.985625 
z
" style="fill:#5c6895;stroke:#ffffff;stroke-linejoin:miter;"/>
   </g>
   <g id="patch_22">
    <path clip-path="url(#p5bbb513fa5)" d="M 722.36392 415.985625 
L 737.582102 415.985625 
L 737.582102 415.985625 
L 722.36392 415.985625 
z
" style="fill:#5c6895;stroke:#ffffff;stroke-linejoin:miter;"/>
   </g>
   <g id="patch_23">
    <path clip-path="url(#p5bbb513fa5)" d="M 798.45483 415.985625 
L 813.673011 415.985625 
L 813.673011 415.985425 
L 798.45483 415.985425 
z
" style="fill:#5c6895;stroke:#ffffff;stroke-linejoin:miter;"/>
   </g>
   <g id="patch_24">
    <path clip-path="url(#p5bbb513fa5)" d="M 874.545739 415.985625 
L 889.76392 415.985625 
L 889.76392 415.985625 
L 874.545739 415.985625 
z
" style="fill:#5c6895;stroke:#ffffff;stroke-linejoin:miter;"/>
   </g>
   <g id="patch_25">
    <path clip-path="url(#p5bbb513fa5)" d="M 128.85483 415.985625 
L 144.073011 415.985625 
L 144.073011 385.965396 
L 128.85483 385.965396 
z
" style="fill:#ffb219;stroke:#ffffff;stroke-linejoin:miter;"/>
   </g>
   <g id="patch_26">
    <path clip-path="url(#p5bbb513fa5)" d="M 204.945739 415.985625 
L 220.16392 415.985625 
L 220.16392 387.800426 
L 204.945739 387.800426 
z
" style="fill:#ffb219;stroke:#ffffff;stroke-linejoin:miter;"/>
   </g>
   <g id="patch_27">
    <path clip-path="url(#p5bbb513fa5)" d="M 281.036648 415.985625 
L 296.25483 415.985625 
L 296.25483 388.414036 
L 281.036648 388.414036 
z
" style="fill:#ffb219;stroke:#ffffff;stroke-linejoin:miter;"/>
   </g>
   <g id="patch_28">
    <path clip-path="url(#p5bbb513fa5)" d="M 357.127557 415.985625 
L 372.345739 415.985625 
L 372.345739 361.575418 
L 357.127557 361.575418 
z
" style="fill:#ffb219;stroke:#ffffff;stroke-linejoin:miter;"/>
   </g>
   <g id="patch_29">
    <path clip-path="url(#p5bbb513fa5)" d="M 433.218466 415.985625 
L 448.436648 415.985625 
L 448.436648 399.027372 
L 433.218466 399.027372 
z
" style="fill:#ffb219;stroke:#ffffff;stroke-linejoin:miter;"/>
   </g>
   <g id="patch_30">
    <path clip-path="url(#p5bbb513fa5)" d="M 509.309375 415.985625 
L 524.527557 415.985625 
L 524.527557 375.557586 
L 509.309375 375.557586 
z
" style="fill:#ffb219;stroke:#ffffff;stroke-linejoin:miter;"/>
   </g>
   <g id="patch_31">
    <path clip-path="url(#p5bbb513fa5)" d="M 585.400284 415.985625 
L 600.618466 415.985625 
L 600.618466 366.755347 
L 585.400284 366.755347 
z
" style="fill:#ffb219;stroke:#ffffff;stroke-linejoin:miter;"/>
   </g>
   <g id="patch_32">
    <path clip-path="url(#p5bbb513fa5)" d="M 661.491193 415.985625 
L 676.709375 415.985625 
L 676.709375 53.585625 
L 661.491193 53.585625 
z
" style="fill:#ffb219;stroke:#ffffff;stroke-linejoin:miter;"/>
   </g>
   <g id="patch_33">
    <path clip-path="url(#p5bbb513fa5)" d="M 737.582102 415.985625 
L 752.800284 415.985625 
L 752.800284 380.909301 
L 737.582102 380.909301 
z
" style="fill:#ffb219;stroke:#ffffff;stroke-linejoin:miter;"/>
   </g>
   <g id="patch_34">
    <path clip-path="url(#p5bbb513fa5)" d="M 813.673011 415.985625 
L 828.891193 415.985625 
L 828.891193 388.341828 
L 813.673011 388.341828 
z
" style="fill:#ffb219;stroke:#ffffff;stroke-linejoin:miter;"/>
   </g>
   <g id="patch_35">
    <path clip-path="url(#p5bbb513fa5)" d="M 889.76392 415.985625 
L 904.982102 415.985625 
L 904.982102 399.0285 
L 889.76392 399.0285 
z
" style="fill:#ffb219;stroke:#ffffff;stroke-linejoin:miter;"/>
   </g>
   <g id="patch_36">
    <path clip-path="url(#p5bbb513fa5)" d="M 144.073011 415.985625 
L 159.291193 415.985625 
L 159.291193 415.985605 
L 144.073011 415.985605 
z
" style="fill:#a1a9c5;stroke:#ffffff;stroke-linejoin:miter;"/>
   </g>
   <g id="patch_37">
    <path clip-path="url(#p5bbb513fa5)" d="M 220.16392 415.985625 
L 235.382102 415.985625 
L 235.382102 415.985625 
L 220.16392 415.985625 
z
" style="fill:#a1a9c5;stroke:#ffffff;stroke-linejoin:miter;"/>
   </g>
   <g id="patch_38">
    <path clip-path="url(#p5bbb513fa5)" d="M 296.25483 415.985625 
L 311.473011 415.985625 
L 311.473011 415.985605 
L 296.25483 415.985605 
z
" style="fill:#a1a9c5;stroke:#ffffff;stroke-linejoin:miter;"/>
   </g>
   <g id="patch_39">
    <path clip-path="url(#p5bbb513fa5)" d="M 372.345739 415.985625 
L 387.56392 415.985625 
L 387.56392 415.985625 
L 372.345739 415.985625 
z
" style="fill:#a1a9c5;stroke:#ffffff;stroke-linejoin:miter;"/>
   </g>
   <g id="patch_40">
    <path clip-path="url(#p5bbb513fa5)" d="M 448.436648 415.985625 
L 463.65483 415.985625 
L 463.65483 415.985625 
L 448.436648 415.985625 
z
" style="fill:#a1a9c5;stroke:#ffffff;stroke-linejoin:miter;"/>
   </g>
   <g id="patch_41">
    <path clip-path="url(#p5bbb513fa5)" d="M 524.527557 415.985625 
L 539.745739 415.985625 
L 539.745739 415.985605 
L 524.527557 415.985605 
z
" style="fill:#a1a9c5;stroke:#ffffff;stroke-linejoin:miter;"/>
   </g>
   <g id="patch_42">
    <path clip-path="url(#p5bbb513fa5)" d="M 600.618466 415.985625 
L 615.836648 415.985625 
L 615.836648 415.985625 
L 600.618466 415.985625 
z
" style="fill:#a1a9c5;stroke:#ffffff;stroke-linejoin:miter;"/>
   </g>
   <g id="patch_43">
    <path clip-path="url(#p5bbb513fa5)" d="M 676.709375 415.985625 
L 691.927557 415.985625 
L 691.927557 415.985625 
L 676.709375 415.985625 
z
" style="fill:#a1a9c5;stroke:#ffffff;stroke-linejoin:miter;"/>
   </g>
   <g id="patch_44">
    <path clip-path="url(#p5bbb513fa5)" d="M 752.800284 415.985625 
L 768.018466 415.985625 
L 768.018466 415.985625 
L 752.800284 415.985625 
z
" style="fill:#a1a9c5;stroke:#ffffff;stroke-linejoin:miter;"/>
   </g>
   <g id="patch_45">
    <path clip-path="url(#p5bbb513fa5)" d="M 828.891193 415.985625 
L 844.109375 415.985625 
L 844.109375 415.985605 
L 828.891193 415.985605 
z
" style="fill:#a1a9c5;stroke:#ffffff;stroke-linejoin:miter;"/>
   </g>
   <g id="patch_46">
    <path clip-path="url(#p5bbb513fa5)" d="M 904.982102 415.985625 
L 920.200284 415.985625 
L 920.200284 415.985605 
L 904.982102 415.985605 
z
" style="fill:#a1a9c5;stroke:#ffffff;stroke-linejoin:miter;"/>
   </g>
   <g id="patch_47">
    <path d="M 90.809375 415.985625 
L 90.809375 35.465625 
" style="fill:none;stroke:#cccccc;stroke-linecap:square;stroke-linejoin:miter;stroke-width:0.8;"/>
   </g>
   <g id="patch_48">
    <path d="M 927.809375 415.985625 
L 927.809375 35.465625 
" style="fill:none;stroke:#cccccc;stroke-linecap:square;stroke-linejoin:miter;stroke-width:0.8;"/>
   </g>
   <g id="patch_49">
    <path d="M 90.809375 415.985625 
L 927.809375 415.985625 
" style="fill:none;stroke:#cccccc;stroke-linecap:square;stroke-linejoin:miter;stroke-width:0.8;"/>
   </g>
   <g id="patch_50">
    <path d="M 90.809375 35.465625 
L 927.809375 35.465625 
" style="fill:none;stroke:#cccccc;stroke-linecap:square;stroke-linejoin:miter;stroke-width:0.8;"/>
   </g>
   <g id="text_20">
    <!-- setA_13 -->
    <g style="fill:#262626;" transform="translate(449.536719 29.465625)scale(0.3 -0.3)">
     <defs>
      <path d="M 40.578125 39.3125 
Q 47.65625 37.796875 51.625 33 
Q 55.609375 28.21875 55.609375 21.1875 
Q 55.609375 10.40625 48.1875 4.484375 
Q 40.765625 -1.421875 27.09375 -1.421875 
Q 22.515625 -1.421875 17.65625 -0.515625 
Q 12.796875 0.390625 7.625 2.203125 
L 7.625 11.71875 
Q 11.71875 9.328125 16.59375 8.109375 
Q 21.484375 6.890625 26.8125 6.890625 
Q 36.078125 6.890625 40.9375 10.546875 
Q 45.796875 14.203125 45.796875 21.1875 
Q 45.796875 27.640625 41.28125 31.265625 
Q 36.765625 34.90625 28.71875 34.90625 
L 20.21875 34.90625 
L 20.21875 43.015625 
L 29.109375 43.015625 
Q 36.375 43.015625 40.234375 45.921875 
Q 44.09375 48.828125 44.09375 54.296875 
Q 44.09375 59.90625 40.109375 62.90625 
Q 36.140625 65.921875 28.71875 65.921875 
Q 24.65625 65.921875 20.015625 65.03125 
Q 15.375 64.15625 9.8125 62.3125 
L 9.8125 71.09375 
Q 15.4375 72.65625 20.34375 73.4375 
Q 25.25 74.21875 29.59375 74.21875 
Q 40.828125 74.21875 47.359375 69.109375 
Q 53.90625 64.015625 53.90625 55.328125 
Q 53.90625 49.265625 50.4375 45.09375 
Q 46.96875 40.921875 40.578125 39.3125 
z
" id="DejaVuSans-51"/>
     </defs>
     <use xlink:href="#DejaVuSans-115"/>
     <use x="52.099609" xlink:href="#DejaVuSans-101"/>
     <use x="113.623047" xlink:href="#DejaVuSans-116"/>
     <use x="152.832031" xlink:href="#DejaVuSans-65"/>
     <use x="221.240234" xlink:href="#DejaVuSans-95"/>
     <use x="271.240234" xlink:href="#DejaVuSans-49"/>
     <use x="334.863281" xlink:href="#DejaVuSans-51"/>
    </g>
   </g>
   <g id="legend_1">
    <g id="patch_51">
     <path d="M 945.309375 242.965625 
L 1483.715625 242.965625 
Q 1488.715625 242.965625 1488.715625 237.965625 
L 1488.715625 52.965625 
Q 1488.715625 47.965625 1483.715625 47.965625 
L 945.309375 47.965625 
Q 940.309375 47.965625 940.309375 52.965625 
L 940.309375 237.965625 
Q 940.309375 242.965625 945.309375 242.965625 
z
" style="fill:#ffffff;opacity:0.5;stroke:#cccccc;stroke-linejoin:miter;"/>
    </g>
    <g id="text_21">
     <!-- Culture type | State of plasticity -->
     <g style="fill:#262626;" transform="translate(1015.283984 77.071094)scale(0.25 -0.25)">
      <defs>
       <path id="DejaVuSans-32"/>
       <path d="M 21 76.421875 
L 21 -23.578125 
L 12.703125 -23.578125 
L 12.703125 76.421875 
z
" id="DejaVuSans-124"/>
       <path d="M 53.515625 70.515625 
L 53.515625 60.890625 
Q 47.90625 63.578125 42.921875 64.890625 
Q 37.9375 66.21875 33.296875 66.21875 
Q 25.25 66.21875 20.875 63.09375 
Q 16.5 59.96875 16.5 54.203125 
Q 16.5 49.359375 19.40625 46.890625 
Q 22.3125 44.4375 30.421875 42.921875 
L 36.375 41.703125 
Q 47.40625 39.59375 52.65625 34.296875 
Q 57.90625 29 57.90625 20.125 
Q 57.90625 9.515625 50.796875 4.046875 
Q 43.703125 -1.421875 29.984375 -1.421875 
Q 24.8125 -1.421875 18.96875 -0.25 
Q 13.140625 0.921875 6.890625 3.21875 
L 6.890625 13.375 
Q 12.890625 10.015625 18.65625 8.296875 
Q 24.421875 6.59375 29.984375 6.59375 
Q 38.421875 6.59375 43.015625 9.90625 
Q 47.609375 13.234375 47.609375 19.390625 
Q 47.609375 24.75 44.3125 27.78125 
Q 41.015625 30.8125 33.5 32.328125 
L 27.484375 33.5 
Q 16.453125 35.6875 11.515625 40.375 
Q 6.59375 45.0625 6.59375 53.421875 
Q 6.59375 63.09375 13.40625 68.65625 
Q 20.21875 74.21875 32.171875 74.21875 
Q 37.3125 74.21875 42.625 73.28125 
Q 47.953125 72.359375 53.515625 70.515625 
z
" id="DejaVuSans-83"/>
       <path d="M 48.78125 52.59375 
L 48.78125 44.1875 
Q 44.96875 46.296875 41.140625 47.34375 
Q 37.3125 48.390625 33.40625 48.390625 
Q 24.65625 48.390625 19.8125 42.84375 
Q 14.984375 37.3125 14.984375 27.296875 
Q 14.984375 17.28125 19.8125 11.734375 
Q 24.65625 6.203125 33.40625 6.203125 
Q 37.3125 6.203125 41.140625 7.25 
Q 44.96875 8.296875 48.78125 10.40625 
L 48.78125 2.09375 
Q 45.015625 0.34375 40.984375 -0.53125 
Q 36.96875 -1.421875 32.421875 -1.421875 
Q 20.0625 -1.421875 12.78125 6.34375 
Q 5.515625 14.109375 5.515625 27.296875 
Q 5.515625 40.671875 12.859375 48.328125 
Q 20.21875 56 33.015625 56 
Q 37.15625 56 41.109375 55.140625 
Q 45.0625 54.296875 48.78125 52.59375 
z
" id="DejaVuSans-99"/>
      </defs>
      <use xlink:href="#DejaVuSans-67"/>
      <use x="69.824219" xlink:href="#DejaVuSans-117"/>
      <use x="133.203125" xlink:href="#DejaVuSans-108"/>
      <use x="160.986328" xlink:href="#DejaVuSans-116"/>
      <use x="200.195312" xlink:href="#DejaVuSans-117"/>
      <use x="263.574219" xlink:href="#DejaVuSans-114"/>
      <use x="302.4375" xlink:href="#DejaVuSans-101"/>
      <use x="363.960938" xlink:href="#DejaVuSans-32"/>
      <use x="395.748047" xlink:href="#DejaVuSans-116"/>
      <use x="434.957031" xlink:href="#DejaVuSans-121"/>
      <use x="494.136719" xlink:href="#DejaVuSans-112"/>
      <use x="557.613281" xlink:href="#DejaVuSans-101"/>
      <use x="619.136719" xlink:href="#DejaVuSans-32"/>
      <use x="650.923828" xlink:href="#DejaVuSans-124"/>
      <use x="684.615234" xlink:href="#DejaVuSans-32"/>
      <use x="716.402344" xlink:href="#DejaVuSans-83"/>
      <use x="779.878906" xlink:href="#DejaVuSans-116"/>
      <use x="819.087891" xlink:href="#DejaVuSans-97"/>
      <use x="880.367188" xlink:href="#DejaVuSans-116"/>
      <use x="919.576172" xlink:href="#DejaVuSans-101"/>
      <use x="981.099609" xlink:href="#DejaVuSans-32"/>
      <use x="1012.886719" xlink:href="#DejaVuSans-111"/>
      <use x="1074.068359" xlink:href="#DejaVuSans-102"/>
      <use x="1109.273438" xlink:href="#DejaVuSans-32"/>
      <use x="1141.060547" xlink:href="#DejaVuSans-112"/>
      <use x="1204.537109" xlink:href="#DejaVuSans-108"/>
      <use x="1232.320312" xlink:href="#DejaVuSans-97"/>
      <use x="1293.599609" xlink:href="#DejaVuSans-115"/>
      <use x="1345.699219" xlink:href="#DejaVuSans-116"/>
      <use x="1384.908203" xlink:href="#DejaVuSans-105"/>
      <use x="1412.691406" xlink:href="#DejaVuSans-99"/>
      <use x="1467.671875" xlink:href="#DejaVuSans-105"/>
      <use x="1495.455078" xlink:href="#DejaVuSans-116"/>
      <use x="1534.664062" xlink:href="#DejaVuSans-121"/>
     </g>
    </g>
    <g id="patch_52">
     <path d="M 950.309375 114.571094 
L 1000.309375 114.571094 
L 1000.309375 97.071094 
L 950.309375 97.071094 
z
" style="fill:#b57e11;stroke:#ffffff;stroke-linejoin:miter;"/>
    </g>
    <g id="text_22">
     <!-- Batch culture | Plasticity = ON -->
     <g style="fill:#262626;" transform="translate(1020.309375 114.571094)scale(0.25 -0.25)">
      <defs>
       <path d="M 19.671875 34.8125 
L 19.671875 8.109375 
L 35.5 8.109375 
Q 43.453125 8.109375 47.28125 11.40625 
Q 51.125 14.703125 51.125 21.484375 
Q 51.125 28.328125 47.28125 31.5625 
Q 43.453125 34.8125 35.5 34.8125 
z
M 19.671875 64.796875 
L 19.671875 42.828125 
L 34.28125 42.828125 
Q 41.5 42.828125 45.03125 45.53125 
Q 48.578125 48.25 48.578125 53.8125 
Q 48.578125 59.328125 45.03125 62.0625 
Q 41.5 64.796875 34.28125 64.796875 
z
M 9.8125 72.90625 
L 35.015625 72.90625 
Q 46.296875 72.90625 52.390625 68.21875 
Q 58.5 63.53125 58.5 54.890625 
Q 58.5 48.1875 55.375 44.234375 
Q 52.25 40.28125 46.1875 39.3125 
Q 53.46875 37.75 57.5 32.78125 
Q 61.53125 27.828125 61.53125 20.40625 
Q 61.53125 10.640625 54.890625 5.3125 
Q 48.25 0 35.984375 0 
L 9.8125 0 
z
" id="DejaVuSans-66"/>
       <path d="M 19.671875 64.796875 
L 19.671875 37.40625 
L 32.078125 37.40625 
Q 38.96875 37.40625 42.71875 40.96875 
Q 46.484375 44.53125 46.484375 51.125 
Q 46.484375 57.671875 42.71875 61.234375 
Q 38.96875 64.796875 32.078125 64.796875 
z
M 9.8125 72.90625 
L 32.078125 72.90625 
Q 44.34375 72.90625 50.609375 67.359375 
Q 56.890625 61.8125 56.890625 51.125 
Q 56.890625 40.328125 50.609375 34.8125 
Q 44.34375 29.296875 32.078125 29.296875 
L 19.671875 29.296875 
L 19.671875 0 
L 9.8125 0 
z
" id="DejaVuSans-80"/>
       <path d="M 10.59375 45.40625 
L 73.1875 45.40625 
L 73.1875 37.203125 
L 10.59375 37.203125 
z
M 10.59375 25.484375 
L 73.1875 25.484375 
L 73.1875 17.1875 
L 10.59375 17.1875 
z
" id="DejaVuSans-61"/>
       <path d="M 39.40625 66.21875 
Q 28.65625 66.21875 22.328125 58.203125 
Q 16.015625 50.203125 16.015625 36.375 
Q 16.015625 22.609375 22.328125 14.59375 
Q 28.65625 6.59375 39.40625 6.59375 
Q 50.140625 6.59375 56.421875 14.59375 
Q 62.703125 22.609375 62.703125 36.375 
Q 62.703125 50.203125 56.421875 58.203125 
Q 50.140625 66.21875 39.40625 66.21875 
z
M 39.40625 74.21875 
Q 54.734375 74.21875 63.90625 63.9375 
Q 73.09375 53.65625 73.09375 36.375 
Q 73.09375 19.140625 63.90625 8.859375 
Q 54.734375 -1.421875 39.40625 -1.421875 
Q 24.03125 -1.421875 14.8125 8.828125 
Q 5.609375 19.09375 5.609375 36.375 
Q 5.609375 53.65625 14.8125 63.9375 
Q 24.03125 74.21875 39.40625 74.21875 
z
" id="DejaVuSans-79"/>
       <path d="M 9.8125 72.90625 
L 23.09375 72.90625 
L 55.421875 11.921875 
L 55.421875 72.90625 
L 64.984375 72.90625 
L 64.984375 0 
L 51.703125 0 
L 19.390625 60.984375 
L 19.390625 0 
L 9.8125 0 
z
" id="DejaVuSans-78"/>
      </defs>
      <use xlink:href="#DejaVuSans-66"/>
      <use x="68.603516" xlink:href="#DejaVuSans-97"/>
      <use x="129.882812" xlink:href="#DejaVuSans-116"/>
      <use x="169.091797" xlink:href="#DejaVuSans-99"/>
      <use x="224.072266" xlink:href="#DejaVuSans-104"/>
      <use x="287.451172" xlink:href="#DejaVuSans-32"/>
      <use x="319.238281" xlink:href="#DejaVuSans-99"/>
      <use x="374.21875" xlink:href="#DejaVuSans-117"/>
      <use x="437.597656" xlink:href="#DejaVuSans-108"/>
      <use x="465.380859" xlink:href="#DejaVuSans-116"/>
      <use x="504.589844" xlink:href="#DejaVuSans-117"/>
      <use x="567.96875" xlink:href="#DejaVuSans-114"/>
      <use x="606.832031" xlink:href="#DejaVuSans-101"/>
      <use x="668.355469" xlink:href="#DejaVuSans-32"/>
      <use x="700.142578" xlink:href="#DejaVuSans-124"/>
      <use x="733.833984" xlink:href="#DejaVuSans-32"/>
      <use x="765.621094" xlink:href="#DejaVuSans-80"/>
      <use x="825.923828" xlink:href="#DejaVuSans-108"/>
      <use x="853.707031" xlink:href="#DejaVuSans-97"/>
      <use x="914.986328" xlink:href="#DejaVuSans-115"/>
      <use x="967.085938" xlink:href="#DejaVuSans-116"/>
      <use x="1006.294922" xlink:href="#DejaVuSans-105"/>
      <use x="1034.078125" xlink:href="#DejaVuSans-99"/>
      <use x="1089.058594" xlink:href="#DejaVuSans-105"/>
      <use x="1116.841797" xlink:href="#DejaVuSans-116"/>
      <use x="1156.050781" xlink:href="#DejaVuSans-121"/>
      <use x="1215.230469" xlink:href="#DejaVuSans-32"/>
      <use x="1247.017578" xlink:href="#DejaVuSans-61"/>
      <use x="1330.806641" xlink:href="#DejaVuSans-32"/>
      <use x="1362.59375" xlink:href="#DejaVuSans-79"/>
      <use x="1441.304688" xlink:href="#DejaVuSans-78"/>
     </g>
    </g>
    <g id="patch_53">
     <path d="M 950.309375 152.071094 
L 1000.309375 152.071094 
L 1000.309375 134.571094 
L 950.309375 134.571094 
z
" style="fill:#5c6895;stroke:#ffffff;stroke-linejoin:miter;"/>
    </g>
    <g id="text_23">
     <!-- Batch culture | Plasticity = OFF -->
     <g style="fill:#262626;" transform="translate(1020.309375 152.071094)scale(0.25 -0.25)">
      <defs>
       <path d="M 9.8125 72.90625 
L 51.703125 72.90625 
L 51.703125 64.59375 
L 19.671875 64.59375 
L 19.671875 43.109375 
L 48.578125 43.109375 
L 48.578125 34.8125 
L 19.671875 34.8125 
L 19.671875 0 
L 9.8125 0 
z
" id="DejaVuSans-70"/>
      </defs>
      <use xlink:href="#DejaVuSans-66"/>
      <use x="68.603516" xlink:href="#DejaVuSans-97"/>
      <use x="129.882812" xlink:href="#DejaVuSans-116"/>
      <use x="169.091797" xlink:href="#DejaVuSans-99"/>
      <use x="224.072266" xlink:href="#DejaVuSans-104"/>
      <use x="287.451172" xlink:href="#DejaVuSans-32"/>
      <use x="319.238281" xlink:href="#DejaVuSans-99"/>
      <use x="374.21875" xlink:href="#DejaVuSans-117"/>
      <use x="437.597656" xlink:href="#DejaVuSans-108"/>
      <use x="465.380859" xlink:href="#DejaVuSans-116"/>
      <use x="504.589844" xlink:href="#DejaVuSans-117"/>
      <use x="567.96875" xlink:href="#DejaVuSans-114"/>
      <use x="606.832031" xlink:href="#DejaVuSans-101"/>
      <use x="668.355469" xlink:href="#DejaVuSans-32"/>
      <use x="700.142578" xlink:href="#DejaVuSans-124"/>
      <use x="733.833984" xlink:href="#DejaVuSans-32"/>
      <use x="765.621094" xlink:href="#DejaVuSans-80"/>
      <use x="825.923828" xlink:href="#DejaVuSans-108"/>
      <use x="853.707031" xlink:href="#DejaVuSans-97"/>
      <use x="914.986328" xlink:href="#DejaVuSans-115"/>
      <use x="967.085938" xlink:href="#DejaVuSans-116"/>
      <use x="1006.294922" xlink:href="#DejaVuSans-105"/>
      <use x="1034.078125" xlink:href="#DejaVuSans-99"/>
      <use x="1089.058594" xlink:href="#DejaVuSans-105"/>
      <use x="1116.841797" xlink:href="#DejaVuSans-116"/>
      <use x="1156.050781" xlink:href="#DejaVuSans-121"/>
      <use x="1215.230469" xlink:href="#DejaVuSans-32"/>
      <use x="1247.017578" xlink:href="#DejaVuSans-61"/>
      <use x="1330.806641" xlink:href="#DejaVuSans-32"/>
      <use x="1362.59375" xlink:href="#DejaVuSans-79"/>
      <use x="1441.304688" xlink:href="#DejaVuSans-70"/>
      <use x="1498.824219" xlink:href="#DejaVuSans-70"/>
     </g>
    </g>
    <g id="patch_54">
     <path d="M 950.309375 189.571094 
L 1000.309375 189.571094 
L 1000.309375 172.071094 
L 950.309375 172.071094 
z
" style="fill:#ffb219;stroke:#ffffff;stroke-linejoin:miter;"/>
    </g>
    <g id="text_24">
     <!-- Continuous culture | Plasticity = ON -->
     <g style="fill:#262626;" transform="translate(1020.309375 189.571094)scale(0.25 -0.25)">
      <use xlink:href="#DejaVuSans-67"/>
      <use x="69.824219" xlink:href="#DejaVuSans-111"/>
      <use x="131.005859" xlink:href="#DejaVuSans-110"/>
      <use x="194.384766" xlink:href="#DejaVuSans-116"/>
      <use x="233.59375" xlink:href="#DejaVuSans-105"/>
      <use x="261.376953" xlink:href="#DejaVuSans-110"/>
      <use x="324.755859" xlink:href="#DejaVuSans-117"/>
      <use x="388.134766" xlink:href="#DejaVuSans-111"/>
      <use x="449.316406" xlink:href="#DejaVuSans-117"/>
      <use x="512.695312" xlink:href="#DejaVuSans-115"/>
      <use x="564.794922" xlink:href="#DejaVuSans-32"/>
      <use x="596.582031" xlink:href="#DejaVuSans-99"/>
      <use x="651.5625" xlink:href="#DejaVuSans-117"/>
      <use x="714.941406" xlink:href="#DejaVuSans-108"/>
      <use x="742.724609" xlink:href="#DejaVuSans-116"/>
      <use x="781.933594" xlink:href="#DejaVuSans-117"/>
      <use x="845.3125" xlink:href="#DejaVuSans-114"/>
      <use x="884.175781" xlink:href="#DejaVuSans-101"/>
      <use x="945.699219" xlink:href="#DejaVuSans-32"/>
      <use x="977.486328" xlink:href="#DejaVuSans-124"/>
      <use x="1011.177734" xlink:href="#DejaVuSans-32"/>
      <use x="1042.964844" xlink:href="#DejaVuSans-80"/>
      <use x="1103.267578" xlink:href="#DejaVuSans-108"/>
      <use x="1131.050781" xlink:href="#DejaVuSans-97"/>
      <use x="1192.330078" xlink:href="#DejaVuSans-115"/>
      <use x="1244.429688" xlink:href="#DejaVuSans-116"/>
      <use x="1283.638672" xlink:href="#DejaVuSans-105"/>
      <use x="1311.421875" xlink:href="#DejaVuSans-99"/>
      <use x="1366.402344" xlink:href="#DejaVuSans-105"/>
      <use x="1394.185547" xlink:href="#DejaVuSans-116"/>
      <use x="1433.394531" xlink:href="#DejaVuSans-121"/>
      <use x="1492.574219" xlink:href="#DejaVuSans-32"/>
      <use x="1524.361328" xlink:href="#DejaVuSans-61"/>
      <use x="1608.150391" xlink:href="#DejaVuSans-32"/>
      <use x="1639.9375" xlink:href="#DejaVuSans-79"/>
      <use x="1718.648438" xlink:href="#DejaVuSans-78"/>
     </g>
    </g>
    <g id="patch_55">
     <path d="M 950.309375 227.071094 
L 1000.309375 227.071094 
L 1000.309375 209.571094 
L 950.309375 209.571094 
z
" style="fill:#a1a9c5;stroke:#ffffff;stroke-linejoin:miter;"/>
    </g>
    <g id="text_25">
     <!-- Continuous culture | Plasticity = OFF -->
     <g style="fill:#262626;" transform="translate(1020.309375 227.071094)scale(0.25 -0.25)">
      <use xlink:href="#DejaVuSans-67"/>
      <use x="69.824219" xlink:href="#DejaVuSans-111"/>
      <use x="131.005859" xlink:href="#DejaVuSans-110"/>
      <use x="194.384766" xlink:href="#DejaVuSans-116"/>
      <use x="233.59375" xlink:href="#DejaVuSans-105"/>
      <use x="261.376953" xlink:href="#DejaVuSans-110"/>
      <use x="324.755859" xlink:href="#DejaVuSans-117"/>
      <use x="388.134766" xlink:href="#DejaVuSans-111"/>
      <use x="449.316406" xlink:href="#DejaVuSans-117"/>
      <use x="512.695312" xlink:href="#DejaVuSans-115"/>
      <use x="564.794922" xlink:href="#DejaVuSans-32"/>
      <use x="596.582031" xlink:href="#DejaVuSans-99"/>
      <use x="651.5625" xlink:href="#DejaVuSans-117"/>
      <use x="714.941406" xlink:href="#DejaVuSans-108"/>
      <use x="742.724609" xlink:href="#DejaVuSans-116"/>
      <use x="781.933594" xlink:href="#DejaVuSans-117"/>
      <use x="845.3125" xlink:href="#DejaVuSans-114"/>
      <use x="884.175781" xlink:href="#DejaVuSans-101"/>
      <use x="945.699219" xlink:href="#DejaVuSans-32"/>
      <use x="977.486328" xlink:href="#DejaVuSans-124"/>
      <use x="1011.177734" xlink:href="#DejaVuSans-32"/>
      <use x="1042.964844" xlink:href="#DejaVuSans-80"/>
      <use x="1103.267578" xlink:href="#DejaVuSans-108"/>
      <use x="1131.050781" xlink:href="#DejaVuSans-97"/>
      <use x="1192.330078" xlink:href="#DejaVuSans-115"/>
      <use x="1244.429688" xlink:href="#DejaVuSans-116"/>
      <use x="1283.638672" xlink:href="#DejaVuSans-105"/>
      <use x="1311.421875" xlink:href="#DejaVuSans-99"/>
      <use x="1366.402344" xlink:href="#DejaVuSans-105"/>
      <use x="1394.185547" xlink:href="#DejaVuSans-116"/>
      <use x="1433.394531" xlink:href="#DejaVuSans-121"/>
      <use x="1492.574219" xlink:href="#DejaVuSans-32"/>
      <use x="1524.361328" xlink:href="#DejaVuSans-61"/>
      <use x="1608.150391" xlink:href="#DejaVuSans-32"/>
      <use x="1639.9375" xlink:href="#DejaVuSans-79"/>
      <use x="1718.648438" xlink:href="#DejaVuSans-70"/>
      <use x="1776.167969" xlink:href="#DejaVuSans-70"/>
     </g>
    </g>
   </g>
  </g>
 </g>
 <defs>
  <clipPath id="p5bbb513fa5">
   <rect height="380.52" width="837" x="90.809375" y="35.465625"/>
  </clipPath>
 </defs>
</svg>
